[
   6.7886214256286621,
   6.7592315673828125,
   6.7680635452270508,
   6.7764053344726562,
   6.7469534873962402,
   6.7414422035217285,
   6.7555527687072754,
   6.7430601119995117,
   6.7511510848999023,
   6.7582650184631348,
   6.7016730308532715,
   6.6343016624450684,
   6.6354575157165527,
   6.5884222984313965,
   6.5618772506713867,
   6.503537654876709,
   6.4857015609741211,
   6.4541101455688477,
   6.4398589134216309,
   6.1179666519165039,
   5.8765983581542969,
   5.6345529556274414,
   5.4539728164672852,
   5.2677102088928223,
   5.127936840057373,
   4.9954495429992676,
   4.8602762222290039,
   4.7491192817687988,
   3.845003604888916,
   3.257828950881958,
   2.8738179206848145,
   2.618131160736084,
   2.4028735160827637,
   2.2556281089782715,
   2.1224856376647949,
   2.0467958450317383,
   1.9526611566543579,
   1.4378223419189453,
   1.2781698703765869,
   1.2002918720245361,
   1.1485257148742676,
   1.1227486133575439,
   1.0716774463653564,
   1.0464106798171997,
   1.0445892810821533,
   1.0296266078948975,
   1.0291457176208496,
   1.0171639919281006,
   0.98901480436325073,
   0.99851369857788086,
   1.0050938129425049,
   0.95080339908599854,
   1.0041395425796509,
   0.99295604228973389,
   0.96013945341110229,
   1.0012894868850708,
   0.93401682376861572,
   1.0244138240814209,
   0.93015593290328979,
   0.9969865083694458,
   0.917510986328125,
   0.96929693222045898,
   0.97590315341949463,
   1.0933042764663696
]
