[
   1.763175368309021,
   1.7616679668426514,
   1.762115478515625,
   1.7634258270263672,
   1.7608041763305664,
   1.7606027126312256,
   1.7607336044311523,
   1.7609571218490601,
   1.7593202590942383,
   1.7603681087493896,
   1.7583671808242798,
   1.7577362060546875,
   1.7560573816299438,
   1.7546097040176392,
   1.7530502080917358,
   1.7520534992218018,
   1.7484233379364014,
   1.7488241195678711,
   1.7461811304092407,
   1.7332649230957031,
   1.7188167572021484,
   1.7084274291992188,
   1.6965528726577759,
   1.6838891506195068,
   1.6749260425567627,
   1.6635507345199585,
   1.6530119180679321,
   1.643837571144104,
   1.5657073259353638,
   1.5041635036468506,
   1.4606525897979736,
   1.4208401441574097,
   1.3890756368637085,
   1.3574069738388062,
   1.3346176147460938,
   1.3132188320159912,
   1.2930989265441895,
   1.1712559461593628,
   1.1146519184112549,
   1.0795661211013794,
   1.060325026512146,
   1.0495675802230835,
   1.0377570390701294,
   1.0331639051437378,
   1.028190016746521,
   1.0202577114105225,
   1.0155047178268433,
   0.9986647367477417,
   1.0031164884567261,
   0.99862909317016602,
   1.0070126056671143,
   0.99882048368453979,
   0.99663889408111572,
   0.99276047945022583,
   0.99954211711883545,
   1.0075962543487549,
   0.99976032972335815,
   0.99688851833343506,
   1.0119017362594604,
   0.99064475297927856,
   0.98955553770065308,
   0.996254563331604,
   0.99120444059371948,
   0.97503459453582764
]
