[
   1.4887070655822754,
   1.4886977672576904,
   1.4885687828063965,
   1.4887824058532715,
   1.4883308410644531,
   1.4873814582824707,
   1.488243579864502,
   1.4881138801574707,
   1.486302375793457,
   1.4878790378570557,
   1.4869692325592041,
   1.4867002964019775,
   1.4852643013000488,
   1.4846031665802002,
   1.484538197517395,
   1.4839353561401367,
   1.4820510149002075,
   1.4820766448974609,
   1.4813125133514404,
   1.4737151861190796,
   1.4662182331085205,
   1.4612421989440918,
   1.4549862146377563,
   1.4491086006164551,
   1.4435368776321411,
   1.4374505281448364,
   1.4313029050827026,
   1.4263079166412354,
   1.3827308416366577,
   1.3465259075164795,
   1.3192297220230103,
   1.2957152128219604,
   1.2744338512420654,
   1.2565387487411499,
   1.2413502931594849,
   1.2265374660491943,
   1.2150337696075439,
   1.1333673000335693,
   1.0903723239898682,
   1.0639913082122803,
   1.0483297109603882,
   1.0390530824661255,
   1.0294225215911865,
   1.0247920751571655,
   1.0203788280487061,
   1.0193703174591064,
   1.0096200704574585,
   0.99868333339691162,
   1.0018546581268311,
   0.99843025207519531,
   1.002435564994812,
   0.9977949857711792,
   0.99835360050201416,
   0.99421089887619019,
   0.99859035015106201,
   1.0053659677505493,
   1.0000617504119873,
   1.0001530647277832,
   1.0080926418304443,
   0.99133759737014771,
   0.99016964435577393,
   0.99777954816818237,
   0.99264556169509888,
   0.97441166639328003
]
