[
   24.256898880004883,
   24.187875747680664,
   24.174922943115234,
   24.13299560546875,
   24.093978881835938,
   24.078403472900391,
   23.999788284301758,
   24.019092559814453,
   23.883703231811523,
   23.824550628662109,
   23.410213470458984,
   23.17626953125,
   22.745311737060547,
   22.33148193359375,
   22.080631256103516,
   21.691204071044922,
   21.519157409667969,
   21.221668243408203,
   21.111324310302734,
   18.775781631469727,
   16.938047409057617,
   15.487794876098633,
   14.453730583190918,
   13.434391975402832,
   12.625875473022461,
   12.032717704772949,
   11.135870933532715,
   10.587739944458008,
   6.8627562522888184,
   5.2302217483520508,
   4.2925477027893066,
   3.6657161712646484,
   3.2606072425842285,
   2.9843311309814453,
   2.7037167549133301,
   2.3664181232452393,
   2.1641139984130859,
   1.5152924060821533,
   1.2092807292938232,
   1.2485511302947998,
   1.1595875024795532,
   1.1100527048110962,
   1.005186915397644,
   1.051666259765625,
   1.0415599346160889,
   0.9954264760017395,
   1.0815427303314209,
   0.96280497312545776,
   0.94003832340240479,
   0.96907997131347656,
   0.94411438703536987,
   0.90758275985717773,
   0.92193049192428589,
   0.99320852756500244,
   0.96390265226364136,
   1.0166759490966797,
   0.94169110059738159,
   1.0594274997711182,
   1.1946661472320557,
   0.95561349391937256,
   0.82065314054489136,
   1.1877909898757935,
   0.8038293719291687,
   1.1690335273742676
]
