[
   1.8903539180755615,
   1.8873956203460693,
   1.888644814491272,
   1.8902320861816406,
   1.8889249563217163,
   1.8848460912704468,
   1.8883466720581055,
   1.8869388103485107,
   1.8881244659423828,
   1.8869144916534424,
   1.8836406469345093,
   1.8841421604156494,
   1.8833961486816406,
   1.8802239894866943,
   1.8790241479873657,
   1.8765745162963867,
   1.8739293813705444,
   1.8749090433120728,
   1.8714170455932617,
   1.8541953563690186,
   1.8405393362045288,
   1.8244339227676392,
   1.8094499111175537,
   1.7981898784637451,
   1.7843863964080811,
   1.7707631587982178,
   1.7604000568389893,
   1.7492777109146118,
   1.6588542461395264,
   1.5892897844314575,
   1.5342414379119873,
   1.4902228116989136,
   1.450249195098877,
   1.4197149276733398,
   1.3916442394256592,
   1.3659178018569946,
   1.3430382013320923,
   1.2086559534072876,
   1.1474235057830811,
   1.1087483167648315,
   1.0824252367019653,
   1.0649850368499756,
   1.0492687225341797,
   1.041614294052124,
   1.0312227010726929,
   1.0287939310073853,
   1.0075128078460693,
   1.003875732421875,
   0.98976361751556396,
   0.9931035041809082,
   0.99422943592071533,
   1.0003921985626221,
   0.99085438251495361,
   1.0049459934234619,
   1.0008704662322998,
   0.98867809772491455,
   0.97135162353515625,
   0.97745341062545776,
   0.98347723484039307,
   0.98943787813186646,
   1.0340025424957275,
   1.0525078773498535,
   1.0196454524993896,
   0.98245275020599365
]
