[
   1.6812384128570557,
   1.6828222274780273,
   1.6799132823944092,
   1.6805152893066406,
   1.6811654567718506,
   1.6816561222076416,
   1.6810369491577148,
   1.6791177988052368,
   1.6805680990219116,
   1.6789820194244385,
   1.6781938076019287,
   1.6781679391860962,
   1.6755726337432861,
   1.6746523380279541,
   1.6758391857147217,
   1.674058198928833,
   1.6706777811050415,
   1.6706682443618774,
   1.6682236194610596,
   1.6584692001342773,
   1.6479059457778931,
   1.6356532573699951,
   1.6265945434570312,
   1.6177276372909546,
   1.6078659296035767,
   1.6009280681610107,
   1.5915839672088623,
   1.5848841667175293,
   1.5201455354690552,
   1.4690959453582764,
   1.4291597604751587,
   1.3940461874008179,
   1.3676263093948364,
   1.340289831161499,
   1.3183702230453491,
   1.2997524738311768,
   1.2816307544708252,
   1.1748738288879395,
   1.1173816919326782,
   1.0842525959014893,
   1.0626513957977295,
   1.0477918386459351,
   1.0357053279876709,
   1.0253790616989136,
   1.0214439630508423,
   1.0194323062896729,
   1.0026401281356812,
   1.0082018375396729,
   0.99510830640792847,
   1.0022552013397217,
   0.9939764142036438,
   0.99201536178588867,
   0.99729984998703003,
   0.99285316467285156,
   1.000399112701416,
   1.0046839714050293,
   0.99974411725997925,
   0.99594640731811523,
   1.0086667537689209,
   0.98391389846801758,
   0.99441182613372803,
   0.98877114057540894,
   1.0070044994354248,
   0.98880660533905029
]
