[
   2.042961597442627,
   2.0430233478546143,
   2.0410401821136475,
   2.0422806739807129,
   2.0432610511779785,
   2.0420198440551758,
   2.0453710556030273,
   2.0427758693695068,
   2.0425014495849609,
   2.0427603721618652,
   2.0416655540466309,
   2.0359854698181152,
   2.0362856388092041,
   2.0339171886444092,
   2.0335574150085449,
   2.0288224220275879,
   2.0250508785247803,
   2.0232322216033936,
   2.0223860740661621,
   2.0014889240264893,
   1.9811704158782959,
   1.9606422185897827,
   1.9409751892089844,
   1.926142692565918,
   1.91031813621521,
   1.8924449682235718,
   1.8791191577911377,
   1.8660917282104492,
   1.7516305446624756,
   1.6671905517578125,
   1.6001564264297485,
   1.5468325614929199,
   1.5013899803161621,
   1.4617555141448975,
   1.4277842044830322,
   1.4018547534942627,
   1.3720362186431885,
   1.2149298191070557,
   1.1398708820343018,
   1.0955108404159546,
   1.0640228986740112,
   1.0559535026550293,
   1.0425164699554443,
   1.0308046340942383,
   1.0205119848251343,
   1.0116286277770996,
   0.98826491832733154,
   0.99258756637573242,
   0.9973064661026001,
   1.0002255439758301,
   0.99142873287200928,
   0.98682868480682373,
   1.0065052509307861,
   0.99465817213058472,
   0.98735237121582031,
   0.98937910795211792,
   0.99383163452148438,
   0.99602270126342773,
   0.98273736238479614,
   1.0165376663208008,
   1.0193153619766235,
   0.98787891864776611,
   0.98954325914382935,
   1.0673220157623291
]
