[
   2.8706231117248535,
   2.8634700775146484,
   2.8678076267242432,
   2.8604443073272705,
   2.8668718338012695,
   2.8659980297088623,
   2.8643274307250977,
   2.86728835105896,
   2.8630678653717041,
   2.8619344234466553,
   2.8537166118621826,
   2.850369930267334,
   2.8418083190917969,
   2.835456371307373,
   2.8317465782165527,
   2.82745361328125,
   2.8192062377929688,
   2.8118355274200439,
   2.8104259967803955,
   2.7547869682312012,
   2.7022805213928223,
   2.6569275856018066,
   2.6191051006317139,
   2.5777871608734131,
   2.5434105396270752,
   2.508202075958252,
   2.47605299949646,
   2.4473381042480469,
   2.2071511745452881,
   2.0347194671630859,
   1.9075883626937866,
   1.8086977005004883,
   1.7286767959594727,
   1.6634324789047241,
   1.6085048913955688,
   1.5591702461242676,
   1.5193507671356201,
   1.2738645076751709,
   1.1854202747344971,
   1.1174519062042236,
   1.0890684127807617,
   1.0808916091918945,
   1.0618010759353638,
   1.0497879981994629,
   1.0401672124862671,
   1.0325814485549927,
   1.0083975791931152,
   1.019296407699585,
   0.98747527599334717,
   0.99691802263259888,
   1.0175385475158691,
   0.98283231258392334,
   0.99999725818634033,
   1.0032107830047607,
   1.0256143808364868,
   1.021308422088623,
   1.004997730255127,
   0.97555983066558838,
   0.99540823698043823,
   0.99460440874099731,
   0.9970017671585083,
   0.99277418851852417,
   1.0003244876861572,
   1.0756088495254517
]
