[
   1.6826000213623047,
   1.6815929412841797,
   1.680619478225708,
   1.6809498071670532,
   1.6822057962417603,
   1.6815887689590454,
   1.6821975708007812,
   1.6796748638153076,
   1.6817525625228882,
   1.6806728839874268,
   1.6791633367538452,
   1.677032470703125,
   1.6775600910186768,
   1.6731700897216797,
   1.6727113723754883,
   1.6708905696868896,
   1.6703929901123047,
   1.6703805923461914,
   1.6664234399795532,
   1.6515367031097412,
   1.6380808353424072,
   1.624184250831604,
   1.6126470565795898,
   1.5991058349609375,
   1.5886914730072021,
   1.5761967897415161,
   1.567299485206604,
   1.5573728084564209,
   1.4762810468673706,
   1.4188370704650879,
   1.3733376264572144,
   1.3359454870223999,
   1.3074980974197388,
   1.2798347473144531,
   1.2603439092636108,
   1.2390893697738647,
   1.2245470285415649,
   1.1260714530944824,
   1.0809173583984375,
   1.0599441528320312,
   1.0440062284469604,
   1.0421220064163208,
   1.0296561717987061,
   1.0233833789825439,
   1.017702579498291,
   1.0154715776443481,
   0.99572908878326416,
   0.99779874086380005,
   0.99788367748260498,
   0.99970614910125732,
   0.99329900741577148,
   0.99105769395828247,
   0.99768048524856567,
   0.99518632888793945,
   0.99274224042892456,
   1.0005499124526978,
   0.99810588359832764,
   1.0077581405639648,
   0.99386823177337646,
   0.99879485368728638,
   0.99200975894927979,
   0.99172943830490112,
   0.97739994525909424,
   1.0178854465484619
]
