[
   1.5545839071273804,
   1.5530468225479126,
   1.5538876056671143,
   1.5530221462249756,
   1.5534107685089111,
   1.5538865327835083,
   1.5519940853118896,
   1.5537673234939575,
   1.5530774593353271,
   1.5516912937164307,
   1.5518096685409546,
   1.5503977537155151,
   1.5491615533828735,
   1.5488338470458984,
   1.5473613739013672,
   1.5474387407302856,
   1.5438950061798096,
   1.5437064170837402,
   1.5411443710327148,
   1.5289044380187988,
   1.5213764905929565,
   1.5108520984649658,
   1.499398946762085,
   1.4915531873703003,
   1.4827392101287842,
   1.4738305807113647,
   1.46622633934021,
   1.4593768119812012,
   1.3971030712127686,
   1.350756049156189,
   1.314062237739563,
   1.2846004962921143,
   1.2601274251937866,
   1.238111138343811,
   1.2200508117675781,
   1.2030092477798462,
   1.1894323825836182,
   1.1061230897903442,
   1.0686724185943604,
   1.0513781309127808,
   1.0386191606521606,
   1.0311663150787354,
   1.0210418701171875,
   1.0140922069549561,
   1.010766863822937,
   1.0129958391189575,
   0.99871695041656494,
   1.0040507316589355,
   0.99789857864379883,
   0.99976003170013428,
   0.99584627151489258,
   0.99577444791793823,
   1.0019512176513672,
   1.0006182193756104,
   0.99582737684249878,
   1.0012255907058716,
   1.0022165775299072,
   1.01409912109375,
   0.99027377367019653,
   1.0055440664291382,
   0.98651647567749023,
   0.99886113405227661,
   0.99669027328491211,
   0.99066579341888428
]
