[
   18.270370483398438,
   18.208044052124023,
   18.224147796630859,
   18.075098037719727,
   18.260721206665039,
   18.129680633544922,
   18.084808349609375,
   18.103292465209961,
   17.998828887939453,
   18.047353744506836,
   17.791622161865234,
   17.506252288818359,
   17.356536865234375,
   17.075996398925781,
   16.938568115234375,
   16.612316131591797,
   16.566677093505859,
   16.34827995300293,
   16.292892456054688,
   14.93841552734375,
   14.000648498535156,
   13.106541633605957,
   12.426767349243164,
   11.98114013671875,
   11.367206573486328,
   10.872333526611328,
   10.494580268859863,
   10.189210891723633,
   7.2383966445922852,
   5.6484785079956055,
   4.5926909446716309,
   3.9046478271484375,
   3.4184775352478027,
   3.0553202629089355,
   2.7059221267700195,
   2.4963583946228027,
   2.3555598258972168,
   1.4156510829925537,
   1.1661343574523926,
   1.1272923946380615,
   1.0296320915222168,
   1.0269172191619873,
   0.95555812120437622,
   0.94745653867721558,
   0.99414157867431641,
   0.94321882724761963,
   1.026322603225708,
   1.0149037837982178,
   0.92466896772384644,
   0.98660075664520264,
   1.0140295028686523,
   1.0096893310546875,
   0.94411164522171021,
   0.95318746566772461,
   1.0574882030487061,
   0.91253548860549927,
   1.1303137540817261,
   0.92924439907073975,
   1.0164504051208496,
   1.0645377635955811,
   0.97597682476043701,
   1.1043379306793213,
   0.86402827501296997,
   0.95404988527297974
]
