[
   1.6095829010009766,
   1.6095291376113892,
   1.6086254119873047,
   1.6097021102905273,
   1.609633207321167,
   1.6105458736419678,
   1.612012505531311,
   1.6089622974395752,
   1.6076923608779907,
   1.6090730428695679,
   1.608096718788147,
   1.6067354679107666,
   1.6044900417327881,
   1.6028236150741577,
   1.6028244495391846,
   1.6000814437866211,
   1.599780797958374,
   1.5967161655426025,
   1.5962150096893311,
   1.5837854146957397,
   1.5717246532440186,
   1.5604317188262939,
   1.5488107204437256,
   1.5395548343658447,
   1.529611349105835,
   1.5199112892150879,
   1.5133215188980103,
   1.501781702041626,
   1.4341332912445068,
   1.3804585933685303,
   1.3421118259429932,
   1.3110272884368896,
   1.2835830450057983,
   1.2604992389678955,
   1.2404521703720093,
   1.2241424322128296,
   1.2085559368133545,
   1.1211979389190674,
   1.0780309438705444,
   1.058447003364563,
   1.0414258241653442,
   1.0333938598632812,
   1.0267670154571533,
   1.0186779499053955,
   1.0140793323516846,
   1.0099154710769653,
   1.0033968687057495,
   0.99931049346923828,
   1.0013754367828369,
   0.99706745147705078,
   0.98784559965133667,
   0.99956941604614258,
   0.99339771270751953,
   0.9986993670463562,
   0.9919697642326355,
   0.99268865585327148,
   0.99129229784011841,
   0.99572545289993286,
   0.99149143695831299,
   1.003826379776001,
   1.0163086652755737,
   0.99399936199188232,
   1.0056322813034058,
   1.058484673500061
]
