[
   2.032113790512085,
   2.0339870452880859,
   2.0297756195068359,
   2.0339694023132324,
   2.0298082828521729,
   2.0332000255584717,
   2.0308370590209961,
   2.0332188606262207,
   2.0313816070556641,
   2.027437686920166,
   2.0272724628448486,
   2.0247235298156738,
   2.0180144309997559,
   2.0179183483123779,
   2.0159063339233398,
   2.0128805637359619,
   2.0072543621063232,
   2.0078649520874023,
   2.0070550441741943,
   1.9750330448150635,
   1.9515844583511353,
   1.9247901439666748,
   1.9035398960113525,
   1.8845930099487305,
   1.8635947704315186,
   1.8462536334991455,
   1.8310306072235107,
   1.8141371011734009,
   1.6837526559829712,
   1.5873695611953735,
   1.5210460424423218,
   1.4665377140045166,
   1.4188781976699829,
   1.379618763923645,
   1.3500180244445801,
   1.3191561698913574,
   1.2929866313934326,
   1.154977560043335,
   1.096182107925415,
   1.0661457777023315,
   1.0558114051818848,
   1.0398696660995483,
   1.0327222347259521,
   1.0231331586837769,
   1.0215187072753906,
   1.0119609832763672,
   1.004807710647583,
   1.0010424852371216,
   0.987221360206604,
   0.98954600095748901,
   1.0018539428710938,
   0.99105376005172729,
   1.0001294612884521,
   0.99725782871246338,
   1.0052779912948608,
   1.0075207948684692,
   1.0065624713897705,
   1.0036685466766357,
   1.014174222946167,
   0.99228096008300781,
   0.97839814424514771,
   0.95719778537750244,
   0.9731823205947876,
   0.97173941135406494
]
