[
   5.4722447395324707,
   5.4921903610229492,
   5.4584760665893555,
   5.4492607116699219,
   5.4580864906311035,
   5.44964599609375,
   5.4480257034301758,
   5.4408836364746094,
   5.4566726684570312,
   5.4387955665588379,
   5.4082016944885254,
   5.3693256378173828,
   5.338615894317627,
   5.3086452484130859,
   5.2959752082824707,
   5.258568286895752,
   5.2402029037475586,
   5.217839241027832,
   5.1945743560791016,
   4.9559869766235352,
   4.7803993225097656,
   4.5906729698181152,
   4.4474930763244629,
   4.3293938636779785,
   4.2138657569885254,
   4.1027359962463379,
   3.9898324012756348,
   3.9093489646911621,
   3.2605705261230469,
   2.8358378410339355,
   2.5381038188934326,
   2.313429594039917,
   2.1196475028991699,
   1.9726775884628296,
   1.867946982383728,
   1.7783854007720947,
   1.6982322931289673,
   1.307491660118103,
   1.1514087915420532,
   1.0806093215942383,
   1.0670146942138672,
   1.0417475700378418,
   1.0311383008956909,
   1.0471019744873047,
   1.0269653797149658,
   0.99666672945022583,
   1.0157539844512939,
   0.97697174549102783,
   1.0329562425613403,
   1.0209238529205322,
   0.99791133403778076,
   0.99419844150543213,
   0.96982002258300781,
   1.0102121829986572,
   0.98297750949859619,
   1.0350486040115356,
   1.0245296955108643,
   1.0024299621582031,
   1.0345792770385742,
   0.96894991397857666,
   0.95782023668289185,
   0.91936910152435303,
   1.01181960105896,
   0.99154806137084961
]
