[
   8.9163179397583008,
   8.880824089050293,
   8.8735256195068359,
   8.921900749206543,
   8.8875789642333984,
   8.8564357757568359,
   8.8338203430175781,
   8.8426504135131836,
   8.8448591232299805,
   8.867919921875,
   8.7606515884399414,
   8.6554088592529297,
   8.5959606170654297,
   8.5605335235595703,
   8.4930000305175781,
   8.4588756561279297,
   8.3022050857543945,
   8.2324428558349609,
   8.230870246887207,
   7.7060861587524414,
   7.2870416641235352,
   6.9667091369628906,
   6.6771917343139648,
   6.4399528503417969,
   6.2164649963378906,
   5.9879202842712402,
   5.8439493179321289,
   5.632514476776123,
   4.4173946380615234,
   3.6770806312561035,
   3.1441121101379395,
   2.8099822998046875,
   2.5367541313171387,
   2.2984211444854736,
   2.182744026184082,
   2.013852596282959,
   1.8999620676040649,
   1.3755147457122803,
   1.1956155300140381,
   1.0951378345489502,
   1.0138146877288818,
   1.0264883041381836,
   1.0419458150863647,
   1.0286064147949219,
   0.99430525302886963,
   1.0171629190444946,
   0.99107331037521362,
   1.0279443264007568,
   0.98155194520950317,
   0.97120893001556396,
   1.005679726600647,
   1.0317844152450562,
   0.99918937683105469,
   0.99256312847137451,
   1.0384078025817871,
   1.0185953378677368,
   1.0227181911468506,
   0.99035871028900146,
   0.98028671741485596,
   1.0273054838180542,
   1.085358738899231,
   0.92616367340087891,
   1.0618411302566528,
   0.903175950050354
]
