[
   4.2164816856384277,
   4.2264547348022461,
   4.2101950645446777,
   4.2222905158996582,
   4.2151279449462891,
   4.2133617401123047,
   4.2187342643737793,
   4.20758056640625,
   4.2033624649047852,
   4.2063784599304199,
   4.1890382766723633,
   4.1659307479858398,
   4.1631088256835938,
   4.1338014602661133,
   4.1214470863342285,
   4.105565071105957,
   4.085148811340332,
   4.0827174186706543,
   4.0562210083007812,
   3.9170424938201904,
   3.8092994689941406,
   3.6995930671691895,
   3.6016590595245361,
   3.5228428840637207,
   3.4535460472106934,
   3.3697171211242676,
   3.3028843402862549,
   3.2386512756347656,
   2.7715771198272705,
   2.44510817527771,
   2.2301909923553467,
   2.05967116355896,
   1.9326708316802979,
   1.8379089832305908,
   1.7548223733901978,
   1.6820564270019531,
   1.6130746603012085,
   1.2923643589019775,
   1.1920467615127563,
   1.1100784540176392,
   1.10007643699646,
   1.079951286315918,
   1.0548523664474487,
   1.0421284437179565,
   1.0213863849639893,
   1.048000693321228,
   0.99087220430374146,
   1.0018213987350464,
   1.0070394277572632,
   0.98599493503570557,
   0.9999430775642395,
   1.0172849893569946,
   0.94700527191162109,
   0.97079038619995117,
   1.009666919708252,
   1.0181974172592163,
   0.99212408065795898,
   0.99106299877166748,
   0.99455177783966064,
   1.0131385326385498,
   1.0182417631149292,
   0.98105496168136597,
   0.94139611721038818,
   0.98545074462890625
]
