[
   22.14063835144043,
   21.978437423706055,
   21.983417510986328,
   22.097284317016602,
   21.804441452026367,
   21.83818244934082,
   21.870403289794922,
   21.842029571533203,
   21.625080108642578,
   21.672252655029297,
   21.475347518920898,
   21.08354377746582,
   20.606655120849609,
   20.357576370239258,
   19.988697052001953,
   19.66417121887207,
   19.485708236694336,
   19.361223220825195,
   18.960323333740234,
   16.839389801025391,
   15.201324462890625,
   13.818153381347656,
   12.764407157897949,
   11.848884582519531,
   11.147130966186523,
   10.358193397521973,
   9.7057266235351562,
   9.2839078903198242,
   5.9161844253540039,
   4.3046774864196777,
   3.4350376129150391,
   2.9657700061798096,
   2.6547341346740723,
   2.4447751045227051,
   2.2695698738098145,
   2.0907909870147705,
   1.8941272497177124,
   1.3644020557403564,
   1.2086470127105713,
   1.1743817329406738,
   1.1165516376495361,
   1.1264642477035522,
   0.97011041641235352,
   1.0042674541473389,
   1.0594090223312378,
   0.97730857133865356,
   1.1202815771102905,
   0.93434792757034302,
   0.97151964902877808,
   0.91379749774932861,
   0.99928176403045654,
   0.99418866634368896,
   0.97224664688110352,
   0.97105872631072998,
   0.9342879056930542,
   1.0230411291122437,
   1.0570929050445557,
   0.93796157836914062,
   0.98521721363067627,
   0.90976172685623169,
   1.017345666885376,
   0.93382251262664795,
   0.93959647417068481,
   1.1846556663513184
]
