[
   1.5883814096450806,
   1.5888288021087646,
   1.589566707611084,
   1.5895260572433472,
   1.5893106460571289,
   1.5906075239181519,
   1.5889352560043335,
   1.589214563369751,
   1.5894092321395874,
   1.5876748561859131,
   1.5866293907165527,
   1.5871965885162354,
   1.5855791568756104,
   1.5856406688690186,
   1.5833054780960083,
   1.5827490091323853,
   1.5805442333221436,
   1.5804107189178467,
   1.5782344341278076,
   1.5684468746185303,
   1.5570722818374634,
   1.5482394695281982,
   1.5382213592529297,
   1.5300952196121216,
   1.5211329460144043,
   1.5139471292495728,
   1.5066734552383423,
   1.4988206624984741,
   1.4403575658798218,
   1.3973404169082642,
   1.3621618747711182,
   1.3329859972000122,
   1.3047342300415039,
   1.2834129333496094,
   1.2633938789367676,
   1.2467150688171387,
   1.2303822040557861,
   1.1405093669891357,
   1.0973775386810303,
   1.0648939609527588,
   1.0513337850570679,
   1.043036937713623,
   1.0322651863098145,
   1.0284976959228516,
   1.0206854343414307,
   1.016193151473999,
   1.0046412944793701,
   1.0029197931289673,
   1.0040378570556641,
   0.99163293838500977,
   0.99307143688201904,
   0.99145430326461792,
   0.99886369705200195,
   1.0018733739852905,
   0.99063622951507568,
   0.99083203077316284,
   0.99658644199371338,
   0.98355090618133545,
   0.99172127246856689,
   1.0067689418792725,
   1.0191613435745239,
   0.99094676971435547,
   1.0343027114868164,
   0.99154460430145264
]
