[
   2.3958468437194824,
   2.3996024131774902,
   2.3937344551086426,
   2.392125129699707,
   2.394885778427124,
   2.3907690048217773,
   2.3897364139556885,
   2.3873341083526611,
   2.3906550407409668,
   2.3935787677764893,
   2.3863520622253418,
   2.3811540603637695,
   2.3802602291107178,
   2.3693869113922119,
   2.3647487163543701,
   2.3631188869476318,
   2.3615157604217529,
   2.3557143211364746,
   2.3511779308319092,
   2.3098406791687012,
   2.2775728702545166,
   2.2435624599456787,
   2.2119495868682861,
   2.1853890419006348,
   2.1620209217071533,
   2.1348872184753418,
   2.1049482822418213,
   2.0864691734313965,
   1.9215860366821289,
   1.8015644550323486,
   1.7106412649154663,
   1.6313209533691406,
   1.5685882568359375,
   1.5175752639770508,
   1.4714639186859131,
   1.4350141286849976,
   1.4043130874633789,
   1.2124907970428467,
   1.1421406269073486,
   1.0908362865447998,
   1.0593926906585693,
   1.0455435514450073,
   1.0450385808944702,
   1.0438878536224365,
   1.0385779142379761,
   1.0307347774505615,
   0.99470627307891846,
   0.98917520046234131,
   0.98835372924804688,
   0.99774205684661865,
   0.97988080978393555,
   1.0057717561721802,
   0.98615676164627075,
   0.98863601684570312,
   0.99433916807174683,
   0.97502326965332031,
   0.98260146379470825,
   0.95905607938766479,
   0.99248898029327393,
   1.0122286081314087,
   1.0383450984954834,
   1.0464918613433838,
   1.040305495262146,
   1.1037781238555908
]
