[
   1.8643853664398193,
   1.8628408908843994,
   1.8635828495025635,
   1.864238977432251,
   1.8611857891082764,
   1.8645336627960205,
   1.86322021484375,
   1.8620418310165405,
   1.8623167276382446,
   1.8613576889038086,
   1.8601232767105103,
   1.8579639196395874,
   1.8557313680648804,
   1.8533127307891846,
   1.8514931201934814,
   1.8493894338607788,
   1.8487443923950195,
   1.8465675115585327,
   1.8435659408569336,
   1.8234179019927979,
   1.8068161010742188,
   1.7927885055541992,
   1.7764345407485962,
   1.7613284587860107,
   1.7488882541656494,
   1.7360063791275024,
   1.7227684259414673,
   1.7101494073867798,
   1.6206620931625366,
   1.5505154132843018,
   1.4952924251556396,
   1.4512009620666504,
   1.4135409593582153,
   1.3823091983795166,
   1.3535000085830688,
   1.3274462223052979,
   1.3053004741668701,
   1.1737016439437866,
   1.1118682622909546,
   1.0756207704544067,
   1.0579636096954346,
   1.0418936014175415,
   1.0343849658966064,
   1.0289889574050903,
   1.0231831073760986,
   1.0163288116455078,
   1.0051639080047607,
   0.99236363172531128,
   1.0012977123260498,
   0.9961017370223999,
   0.99484950304031372,
   0.98529481887817383,
   0.98602807521820068,
   0.9890131950378418,
   0.98475325107574463,
   0.99957740306854248,
   1.0103597640991211,
   1.0107699632644653,
   1.0066591501235962,
   0.99606066942214966,
   0.97076356410980225,
   0.97634094953536987,
   0.99836158752441406,
   0.97590529918670654
]
