[
   1.4856168031692505,
   1.4856797456741333,
   1.4856265783309937,
   1.4850211143493652,
   1.4851400852203369,
   1.4859120845794678,
   1.4847776889801025,
   1.485277533531189,
   1.4840668439865112,
   1.4860352277755737,
   1.4842765331268311,
   1.4829994440078735,
   1.4824742078781128,
   1.4811816215515137,
   1.4812235832214355,
   1.4801843166351318,
   1.4790322780609131,
   1.4780342578887939,
   1.4773560762405396,
   1.4703729152679443,
   1.462964653968811,
   1.4551630020141602,
   1.4484416246414185,
   1.4414354562759399,
   1.4357459545135498,
   1.430274486541748,
   1.4239184856414795,
   1.4181810617446899,
   1.372165322303772,
   1.3378441333770752,
   1.3110398054122925,
   1.287400484085083,
   1.2667851448059082,
   1.2482454776763916,
   1.2321054935455322,
   1.2198392152786255,
   1.205791711807251,
   1.1285113096237183,
   1.0848143100738525,
   1.0593525171279907,
   1.0434857606887817,
   1.0356214046478271,
   1.0263324975967407,
   1.0225256681442261,
   1.0163015127182007,
   1.0154931545257568,
   1.0015484094619751,
   0.99213361740112305,
   0.99656665325164795,
   0.99059617519378662,
   1.000321626663208,
   1.0004537105560303,
   1.0007925033569336,
   0.99563056230545044,
   0.9960789680480957,
   1.0011440515518188,
   0.99046432971954346,
   0.98898327350616455,
   1.0011560916900635,
   0.9894486665725708,
   1.0165649652481079,
   1.0030052661895752,
   0.9997938871383667,
   0.99624621868133545
]
