[
   1.9923954010009766,
   1.9924780130386353,
   1.9899101257324219,
   1.9915014505386353,
   1.9915021657943726,
   1.9877849817276001,
   1.9909183979034424,
   1.9889297485351562,
   1.9878923892974854,
   1.9885585308074951,
   1.9866853952407837,
   1.9831928014755249,
   1.9794546365737915,
   1.9778461456298828,
   1.9751650094985962,
   1.9753491878509521,
   1.9707558155059814,
   1.967546820640564,
   1.9648029804229736,
   1.9426292181015015,
   1.9186832904815674,
   1.8980331420898438,
   1.8794114589691162,
   1.8615627288818359,
   1.8439000844955444,
   1.8303934335708618,
   1.8154838085174561,
   1.8022797107696533,
   1.6891567707061768,
   1.6065957546234131,
   1.5427869558334351,
   1.4915494918823242,
   1.4473326206207275,
   1.4122631549835205,
   1.3798500299453735,
   1.3535457849502563,
   1.32818603515625,
   1.1905680894851685,
   1.1236541271209717,
   1.0919872522354126,
   1.068772554397583,
   1.0546882152557373,
   1.0389125347137451,
   1.0247178077697754,
   1.0223716497421265,
   1.0224107503890991,
   0.99936401844024658,
   0.99654567241668701,
   0.99663031101226807,
   1.0003453493118286,
   0.98899257183074951,
   0.99922513961791992,
   1.0022469758987427,
   0.99255627393722534,
   0.98996669054031372,
   0.99862205982208252,
   0.98708343505859375,
   1.0030769109725952,
   1.0041532516479492,
   1.0031353235244751,
   0.99644696712493896,
   1.0040978193283081,
   1.0057219266891479,
   1.0201179981231689
]
