[
   1.4112784862518311,
   1.4103434085845947,
   1.4120151996612549,
   1.4116584062576294,
   1.4119163751602173,
   1.4112107753753662,
   1.4106786251068115,
   1.4112269878387451,
   1.4119441509246826,
   1.4114038944244385,
   1.4110714197158813,
   1.4102778434753418,
   1.4097718000411987,
   1.4101120233535767,
   1.408993124961853,
   1.4094371795654297,
   1.4091281890869141,
   1.4081113338470459,
   1.4084347486495972,
   1.4049967527389526,
   1.4022401571273804,
   1.3991472721099854,
   1.3967306613922119,
   1.3931190967559814,
   1.3905283212661743,
   1.3879811763763428,
   1.3856079578399658,
   1.3825658559799194,
   1.3589074611663818,
   1.3384276628494263,
   1.3186323642730713,
   1.3017843961715698,
   1.2851129770278931,
   1.272972583770752,
   1.2607653141021729,
   1.2483546733856201,
   1.2376605272293091,
   1.1641591787338257,
   1.123395562171936,
   1.0969376564025879,
   1.0782046318054199,
   1.063776969909668,
   1.0541386604309082,
   1.0477755069732666,
   1.0401780605316162,
   1.0354983806610107,
   1.0145968198776245,
   0.99696505069732666,
   0.99419957399368286,
   0.99332916736602783,
   0.99776583909988403,
   0.99764060974121094,
   0.99943047761917114,
   0.9937748908996582,
   0.99467432498931885,
   0.99525612592697144,
   0.99619024991989136,
   1.00220787525177,
   0.98004233837127686,
   0.99781334400177002,
   0.98628920316696167,
   0.96961706876754761,
   1.0306351184844971,
   0.96978408098220825
]
