[
   3.1357359886169434,
   3.1293463706970215,
   3.1278717517852783,
   3.1311306953430176,
   3.1301321983337402,
   3.1353693008422852,
   3.1342768669128418,
   3.1315476894378662,
   3.1284418106079102,
   3.1282541751861572,
   3.1173667907714844,
   3.112600564956665,
   3.1126680374145508,
   3.1026620864868164,
   3.0991485118865967,
   3.0920729637145996,
   3.0803170204162598,
   3.0756862163543701,
   3.0709717273712158,
   3.0080554485321045,
   2.9462344646453857,
   2.8916389942169189,
   2.8398189544677734,
   2.7859196662902832,
   2.7430481910705566,
   2.6993966102600098,
   2.6589469909667969,
   2.6166501045227051,
   2.3087296485900879,
   2.0847666263580322,
   1.932895302772522,
   1.8184705972671509,
   1.723362922668457,
   1.6555864810943604,
   1.5999072790145874,
   1.5433157682418823,
   1.5019023418426514,
   1.2778396606445312,
   1.1718244552612305,
   1.1280571222305298,
   1.0947821140289307,
   1.0687186717987061,
   1.0611124038696289,
   1.0535711050033569,
   1.0474011898040771,
   1.0324089527130127,
   1.0016992092132568,
   1.0022366046905518,
   1.0167845487594604,
   0.9800339937210083,
   1.0149104595184326,
   0.99016344547271729,
   0.97488296031951904,
   1.0010093450546265,
   0.99410569667816162,
   0.9769359827041626,
   1.0147005319595337,
   0.97066354751586914,
   0.96973562240600586,
   1.0625555515289307,
   0.99823677539825439,
   1.0106689929962158,
   1.0348610877990723,
   1.0151001214981079
]
