[
   8.1497821807861328,
   8.1090621948242188,
   8.1115932464599609,
   8.1095247268676758,
   8.1056289672851562,
   8.1141958236694336,
   8.0854482650756836,
   8.0932188034057617,
   8.076106071472168,
   8.0241565704345703,
   8.0042133331298828,
   7.9278135299682617,
   7.8677840232849121,
   7.7863388061523438,
   7.7037076950073242,
   7.6431899070739746,
   7.5892205238342285,
   7.515106201171875,
   7.4642724990844727,
   6.8843984603881836,
   6.4130926132202148,
   6.0354938507080078,
   5.6724181175231934,
   5.355830192565918,
   5.0963945388793945,
   4.8638520240783691,
   4.6648001670837402,
   4.4905672073364258,
   3.274467945098877,
   2.6934287548065186,
   2.3565139770507812,
   2.1114559173583984,
   1.9409710168838501,
   1.8322317600250244,
   1.7301353216171265,
   1.6444212198257446,
   1.5610153675079346,
   1.2781093120574951,
   1.1877000331878662,
   1.1074901819229126,
   1.1258403062820435,
   1.0943161249160767,
   1.0561343431472778,
   1.0658349990844727,
   1.0949920415878296,
   1.0502520799636841,
   1.0031541585922241,
   0.94931745529174805,
   0.99449217319488525,
   1.0195419788360596,
   1.0196036100387573,
   0.98992747068405151,
   1.0227608680725098,
   1.0150811672210693,
   1.0206280946731567,
   1.0627567768096924,
   1.0555917024612427,
   1.0309685468673706,
   0.948250412940979,
   1.0029374361038208,
   0.97914969921112061,
   0.91796809434890747,
   0.75984323024749756,
   0.76173663139343262
]
