[
   1.4561783075332642,
   1.455344557762146,
   1.455486536026001,
   1.4555227756500244,
   1.4557578563690186,
   1.4549890756607056,
   1.4559378623962402,
   1.4542897939682007,
   1.4548065662384033,
   1.4558855295181274,
   1.4547910690307617,
   1.4544117450714111,
   1.45444655418396,
   1.4540406465530396,
   1.4535214900970459,
   1.4520854949951172,
   1.4534938335418701,
   1.4523601531982422,
   1.4519544839859009,
   1.4473224878311157,
   1.4444923400878906,
   1.4411793947219849,
   1.4373528957366943,
   1.4343382120132446,
   1.4308196306228638,
   1.4269845485687256,
   1.4231356382369995,
   1.4202605485916138,
   1.3925422430038452,
   1.3666750192642212,
   1.3447401523590088,
   1.3247659206390381,
   1.3063678741455078,
   1.2907404899597168,
   1.2757128477096558,
   1.2622342109680176,
   1.2508864402770996,
   1.1691110134124756,
   1.1277655363082886,
   1.0991652011871338,
   1.0795341730117798,
   1.067216157913208,
   1.0581904649734497,
   1.0518810749053955,
   1.0425072908401489,
   1.0418318510055542,
   1.0144336223602295,
   0.99973070621490479,
   1.0164779424667358,
   0.99976646900177002,
   1.0059994459152222,
   0.99904459714889526,
   1.0031203031539917,
   0.99503576755523682,
   0.99887430667877197,
   1.0082266330718994,
   0.98437583446502686,
   0.97784268856048584,
   1.0021888017654419,
   0.97837066650390625,
   1.021519660949707,
   0.99972498416900635,
   0.96884375810623169,
   0.99694156646728516
]
