[
   1.6046180725097656,
   1.605290412902832,
   1.6063745021820068,
   1.6061903238296509,
   1.6049766540527344,
   1.6049321889877319,
   1.6044247150421143,
   1.6043159961700439,
   1.6041200160980225,
   1.6057029962539673,
   1.6037731170654297,
   1.6034969091415405,
   1.6018974781036377,
   1.601794958114624,
   1.6028778553009033,
   1.6010290384292603,
   1.5994037389755249,
   1.5998688936233521,
   1.5983397960662842,
   1.5929502248764038,
   1.5864795446395874,
   1.5816236734390259,
   1.5751312971115112,
   1.5692766904830933,
   1.5638389587402344,
   1.5598577260971069,
   1.5540752410888672,
   1.5499564409255981,
   1.5030163526535034,
   1.4648951292037964,
   1.4315369129180908,
   1.4033429622650146,
   1.3779956102371216,
   1.3559927940368652,
   1.3352463245391846,
   1.3160934448242188,
   1.2978552579879761,
   1.1911478042602539,
   1.1421352624893188,
   1.1100239753723145,
   1.0850245952606201,
   1.0709675550460815,
   1.0637589693069458,
   1.0547745227813721,
   1.0493696928024292,
   1.053492546081543,
   1.0132033824920654,
   1.0068808794021606,
   0.99944907426834106,
   0.9972112774848938,
   1.0004106760025024,
   0.99888819456100464,
   1.0074717998504639,
   0.99522244930267334,
   0.98890936374664307,
   0.99260634183883667,
   0.98316127061843872,
   0.97820645570755005,
   0.99516075849533081,
   1.0174133777618408,
   1.0180666446685791,
   1.0330275297164917,
   1.0162795782089233,
   0.99298489093780518
]
