[
   1.860822319984436,
   1.8607066869735718,
   1.8590799570083618,
   1.85976243019104,
   1.8621238470077515,
   1.8597198724746704,
   1.8592977523803711,
   1.8600804805755615,
   1.8589565753936768,
   1.859912633895874,
   1.8583519458770752,
   1.8555904626846313,
   1.8569389581680298,
   1.8559236526489258,
   1.853603720664978,
   1.8545691967010498,
   1.8506844043731689,
   1.8491735458374023,
   1.8486849069595337,
   1.8369268178939819,
   1.8260236978530884,
   1.8145046234130859,
   1.8039001226425171,
   1.7939052581787109,
   1.7845537662506104,
   1.7744941711425781,
   1.7665891647338867,
   1.7570497989654541,
   1.6779559850692749,
   1.6144622564315796,
   1.5611280202865601,
   1.5145760774612427,
   1.4750974178314209,
   1.4405436515808105,
   1.41224205493927,
   1.3879603147506714,
   1.3652200698852539,
   1.223602294921875,
   1.1570837497711182,
   1.1238725185394287,
   1.1067359447479248,
   1.0889565944671631,
   1.0767805576324463,
   1.058830738067627,
   1.0450509786605835,
   1.0388252735137939,
   1.0127418041229248,
   1.012493371963501,
   1.0000004768371582,
   1.009075403213501,
   0.98898190259933472,
   0.98962181806564331,
   0.99134999513626099,
   0.99702358245849609,
   0.98569077253341675,
   0.99197196960449219,
   1.0075885057449341,
   0.99918556213378906,
   0.99715912342071533,
   0.97082507610321045,
   0.994559645652771,
   0.96635276079177856,
   0.96395576000213623,
   1.0426449775695801
]
