[
   1.6761976480484009,
   1.6750930547714233,
   1.6782172918319702,
   1.6771323680877686,
   1.6748530864715576,
   1.6759750843048096,
   1.676870584487915,
   1.6770141124725342,
   1.6768176555633545,
   1.6763131618499756,
   1.6734638214111328,
   1.6729339361190796,
   1.6734921932220459,
   1.6725404262542725,
   1.6709072589874268,
   1.6721471548080444,
   1.6705057621002197,
   1.6697114706039429,
   1.6676607131958008,
   1.66159987449646,
   1.6521127223968506,
   1.6463553905487061,
   1.6389093399047852,
   1.6319879293441772,
   1.6246764659881592,
   1.6190716028213501,
   1.6119676828384399,
   1.6048457622528076,
   1.5500694513320923,
   1.5025808811187744,
   1.463336706161499,
   1.4299328327178955,
   1.399681568145752,
   1.3738080263137817,
   1.3503992557525635,
   1.3296273946762085,
   1.3119726181030273,
   1.2034682035446167,
   1.1486515998840332,
   1.1161352396011353,
   1.0993419885635376,
   1.0820088386535645,
   1.0686362981796265,
   1.0598649978637695,
   1.0503556728363037,
   1.043710470199585,
   1.0084598064422607,
   0.9964224100112915,
   0.99795377254486084,
   1.004364013671875,
   0.9983220100402832,
   0.99472427368164062,
   0.98878514766693115,
   1.0007230043411255,
   1.0002471208572388,
   0.98290777206420898,
   0.98163491487503052,
   0.98739564418792725,
   0.98089152574539185,
   1.0024051666259766,
   1.0116509199142456,
   1.0200939178466797,
   0.9959375262260437,
   1.0043627023696899
]
