[
   1.5796289443969727,
   1.5783417224884033,
   1.5792495012283325,
   1.5789358615875244,
   1.5781292915344238,
   1.5775868892669678,
   1.5769644975662231,
   1.5779280662536621,
   1.5770509243011475,
   1.5776840448379517,
   1.5752770900726318,
   1.5746934413909912,
   1.5741456747055054,
   1.5710654258728027,
   1.5694530010223389,
   1.5679817199707031,
   1.5666320323944092,
   1.5643700361251831,
   1.5644974708557129,
   1.549513578414917,
   1.536916971206665,
   1.5234581232070923,
   1.5114591121673584,
   1.5018385648727417,
   1.492384672164917,
   1.4827685356140137,
   1.4730263948440552,
   1.4642297029495239,
   1.3958485126495361,
   1.3484295606613159,
   1.3082140684127808,
   1.27693772315979,
   1.2526786327362061,
   1.2304904460906982,
   1.2120161056518555,
   1.1965993642807007,
   1.1816337108612061,
   1.0963782072067261,
   1.0598374605178833,
   1.0443148612976074,
   1.0278306007385254,
   1.0192697048187256,
   1.0128704309463501,
   1.0134341716766357,
   1.0055214166641235,
   1.0082552433013916,
   1.0036723613739014,
   0.99406737089157104,
   0.99834740161895752,
   1.0015242099761963,
   0.99489384889602661,
   0.99560105800628662,
   0.99283456802368164,
   0.99840611219406128,
   0.99639719724655151,
   0.99383240938186646,
   0.99094998836517334,
   1.0035820007324219,
   1.0079416036605835,
   0.99357163906097412,
   0.99558579921722412,
   0.99868059158325195,
   1.006805419921875,
   1.0139410495758057
]
