[
   3.0672042369842529,
   3.0636837482452393,
   3.0604407787322998,
   3.0665433406829834,
   3.0640890598297119,
   3.0538296699523926,
   3.0603973865509033,
   3.0602297782897949,
   3.0550034046173096,
   3.0533227920532227,
   3.0441925525665283,
   3.0323715209960938,
   3.022996187210083,
   3.0073370933532715,
   3.0005555152893066,
   2.983980655670166,
   2.9804949760437012,
   2.9727511405944824,
   2.9578061103820801,
   2.8662571907043457,
   2.7946760654449463,
   2.7218832969665527,
   2.6713798046112061,
   2.6116247177124023,
   2.5658309459686279,
   2.5194599628448486,
   2.481997013092041,
   2.4426164627075195,
   2.1639919281005859,
   1.9712387323379517,
   1.8308591842651367,
   1.7141250371932983,
   1.6306028366088867,
   1.5594438314437866,
   1.5020385980606079,
   1.4495298862457275,
   1.4130253791809082,
   1.1943871974945068,
   1.117354154586792,
   1.0698921680450439,
   1.0446450710296631,
   1.0211000442504883,
   1.0123142004013062,
   1.0112745761871338,
   1.0162583589553833,
   1.0200521945953369,
   0.98658686876296997,
   0.97708988189697266,
   0.9985119104385376,
   0.97694408893585205,
   0.99401617050170898,
   0.99839764833450317,
   0.99166566133499146,
   0.98891240358352661,
   1.0202871561050415,
   0.99832916259765625,
   1.0083242654800415,
   0.96495187282562256,
   1.0111888647079468,
   1.0232967138290405,
   0.97016477584838867,
   0.96440649032592773,
   0.97903662919998169,
   0.98174047470092773
]
