[
   2.2962729930877686,
   2.2881648540496826,
   2.288238525390625,
   2.2884314060211182,
   2.2907142639160156,
   2.2887823581695557,
   2.2876770496368408,
   2.2856786251068115,
   2.2869579792022705,
   2.2849395275115967,
   2.2809064388275146,
   2.2701523303985596,
   2.2660713195800781,
   2.2589917182922363,
   2.2575159072875977,
   2.2487564086914062,
   2.245387077331543,
   2.242173433303833,
   2.2373554706573486,
   2.1847090721130371,
   2.1459751129150391,
   2.1070895195007324,
   2.0759658813476562,
   2.0435051918029785,
   2.0194058418273926,
   1.9901971817016602,
   1.9691324234008789,
   1.9463104009628296,
   1.7750400304794312,
   1.6654167175292969,
   1.5776722431182861,
   1.5110505819320679,
   1.4523470401763916,
   1.4048525094985962,
   1.3668897151947021,
   1.3332383632659912,
   1.3062183856964111,
   1.1509804725646973,
   1.0971329212188721,
   1.0670273303985596,
   1.0502185821533203,
   1.02852463722229,
   1.024957537651062,
   1.01264488697052,
   1.0076756477355957,
   1.0150933265686035,
   1.0072600841522217,
   0.9985087513923645,
   0.99556481838226318,
   1.0005499124526978,
   0.99027091264724731,
   0.99733096361160278,
   1.0086590051651001,
   0.99681693315505981,
   1.004422664642334,
   1.0119558572769165,
   1.0177620649337769,
   0.99346160888671875,
   0.99658584594726562,
   0.99148100614547729,
   1.0028984546661377,
   0.99946248531341553,
   0.99768531322479248,
   1.0390388965606689
]
