[
   117.86177062988281,
   115.65318298339844,
   115.25045013427734,
   115.691162109375,
   113.19174957275391,
   111.99607849121094,
   109.35959625244141,
   112.77901458740234,
   111.05031585693359,
   111.23497009277344,
   106.79201507568359,
   100.64676666259766,
   97.567481994628906,
   92.338760375976562,
   89.711250305175781,
   87.347091674804688,
   84.852783203125,
   82.117477416992188,
   80.611274719238281,
   62.961894989013672,
   49.075672149658203,
   43.539104461669922,
   37.628150939941406,
   31.961917877197266,
   28.484628677368164,
   25.419155120849609,
   24.280656814575195,
   21.873905181884766,
   11.139742851257324,
   6.3986082077026367,
   4.9476318359375,
   4.7242674827575684,
   3.3127150535583496,
   3.1987786293029785,
   2.8260293006896973,
   2.6466808319091797,
   2.4288389682769775,
   1.0605884790420532,
   0.90829342603683472,
   1.2306510210037231,
   0.98917263746261597,
   1.0375174283981323,
   0.96602261066436768,
   1.3535482883453369,
   1.3357635736465454,
   0.86593532562255859,
   0.66242563724517822,
   0.71441453695297241,
   0.79199552536010742,
   1.2030055522918701,
   0.62259012460708618,
   0.97452336549758911,
   0.60619115829467773,
   1.0122497081756592,
   1.0295329093933105,
   0.83287984132766724,
   0.90829974412918091,
   1.0916144847869873,
   1.0607268810272217,
   0.74664914608001709,
   0.98591107130050659,
   0.71988904476165771,
   0.69991815090179443,
   2.3830010890960693
]
