[
   1.5214594602584839,
   1.5223605632781982,
   1.5211731195449829,
   1.5208520889282227,
   1.5215073823928833,
   1.5212163925170898,
   1.5209777355194092,
   1.521369457244873,
   1.519181489944458,
   1.519966721534729,
   1.5190588235855103,
   1.5178772211074829,
   1.5168253183364868,
   1.5163285732269287,
   1.5145144462585449,
   1.5119026899337769,
   1.5120959281921387,
   1.5100662708282471,
   1.5091602802276611,
   1.4958703517913818,
   1.4854855537414551,
   1.4733631610870361,
   1.4642117023468018,
   1.4553840160369873,
   1.4444005489349365,
   1.4375345706939697,
   1.4294052124023438,
   1.4217760562896729,
   1.3610212802886963,
   1.3165836334228516,
   1.283686637878418,
   1.25533127784729,
   1.231608510017395,
   1.2134535312652588,
   1.1961256265640259,
   1.1804006099700928,
   1.1661758422851562,
   1.0916473865509033,
   1.05729079246521,
   1.0399488210678101,
   1.0289232730865479,
   1.0265440940856934,
   1.0206698179244995,
   1.0182323455810547,
   1.0111730098724365,
   1.0083687305450439,
   0.99309241771697998,
   1.0012891292572021,
   0.99446070194244385,
   0.99777013063430786,
   0.99493980407714844,
   0.99995958805084229,
   0.99597299098968506,
   0.99121075868606567,
   1.0025570392608643,
   1.0069345235824585,
   1.0015166997909546,
   0.99986010789871216,
   1.002497673034668,
   0.99681663513183594,
   0.97642594575881958,
   0.98207938671112061,
   0.97170400619506836,
   0.99549359083175659
]
