[
   1.652728796005249,
   1.6528408527374268,
   1.653241753578186,
   1.6546386480331421,
   1.6523221731185913,
   1.6526943445205688,
   1.6534067392349243,
   1.6521806716918945,
   1.6537001132965088,
   1.6524829864501953,
   1.6500794887542725,
   1.6497828960418701,
   1.6478300094604492,
   1.6453211307525635,
   1.643191933631897,
   1.6409155130386353,
   1.640049934387207,
   1.637264609336853,
   1.6355869770050049,
   1.6182165145874023,
   1.604567289352417,
   1.5897972583770752,
   1.5745923519134521,
   1.5635584592819214,
   1.5520533323287964,
   1.5383141040802002,
   1.5287497043609619,
   1.5192975997924805,
   1.4423432350158691,
   1.3861355781555176,
   1.3446815013885498,
   1.3112910985946655,
   1.2803671360015869,
   1.257595419883728,
   1.2369827032089233,
   1.2198159694671631,
   1.2032883167266846,
   1.1112315654754639,
   1.0683926343917847,
   1.0441792011260986,
   1.0341103076934814,
   1.0232806205749512,
   1.0167815685272217,
   1.0182592868804932,
   1.0165102481842041,
   1.0104880332946777,
   0.99989205598831177,
   0.98950290679931641,
   0.99620389938354492,
   1.0016014575958252,
   0.99817246198654175,
   0.9913710355758667,
   1.000757098197937,
   1.0021642446517944,
   1.0008456707000732,
   0.98857486248016357,
   1.0015048980712891,
   0.99662560224533081,
   0.99937903881072998,
   1.0075521469116211,
   0.99048691987991333,
   0.98061829805374146,
   0.97461521625518799,
   0.99983817338943481
]
