[
   3.735166072845459,
   3.7321453094482422,
   3.7383754253387451,
   3.7298951148986816,
   3.7444999217987061,
   3.7387332916259766,
   3.7354826927185059,
   3.7334232330322266,
   3.7299892902374268,
   3.7333760261535645,
   3.716094970703125,
   3.6893870830535889,
   3.676337718963623,
   3.6579060554504395,
   3.6409232616424561,
   3.6358370780944824,
   3.6187882423400879,
   3.6024761199951172,
   3.5853469371795654,
   3.4512264728546143,
   3.3412246704101562,
   3.2480933666229248,
   3.1587672233581543,
   3.0799190998077393,
   3.0169286727905273,
   2.9576466083526611,
   2.8886945247650146,
   2.8465173244476318,
   2.4561991691589355,
   2.1965420246124268,
   1.9963424205780029,
   1.851815938949585,
   1.7363172769546509,
   1.644392728805542,
   1.5699765682220459,
   1.504792332649231,
   1.4514486789703369,
   1.2022165060043335,
   1.0994887351989746,
   1.0574958324432373,
   1.0342562198638916,
   1.0265089273452759,
   1.01139235496521,
   1.0078810453414917,
   0.99893933534622192,
   1.0036951303482056,
   0.99066191911697388,
   0.98903530836105347,
   1.0053031444549561,
   0.98156368732452393,
   1.0141704082489014,
   1.0050023794174194,
   0.96908169984817505,
   0.98062479496002197,
   1.0000265836715698,
   0.98232066631317139,
   1.0033332109451294,
   0.96983301639556885,
   1.0318392515182495,
   0.99620169401168823,
   1.0182584524154663,
   1.015687108039856,
   1.0709846019744873,
   1.0632270574569702
]
