[
   6.6204137802124023,
   6.6248335838317871,
   6.5991377830505371,
   6.6176652908325195,
   6.6027054786682129,
   6.6050972938537598,
   6.596379280090332,
   6.5859832763671875,
   6.5810136795043945,
   6.577815055847168,
   6.545835018157959,
   6.5037117004394531,
   6.4536352157592773,
   6.4468932151794434,
   6.3917632102966309,
   6.3542299270629883,
   6.3129701614379883,
   6.2872185707092285,
   6.2654600143432617,
   5.9650511741638184,
   5.699462890625,
   5.4695701599121094,
   5.2435483932495117,
   5.0719952583312988,
   4.8904252052307129,
   4.7391691207885742,
   4.5826811790466309,
   4.4597916603088379,
   3.4928314685821533,
   2.9635610580444336,
   2.6129863262176514,
   2.3761529922485352,
   2.173072338104248,
   2.054069995880127,
   1.9505611658096313,
   1.8577454090118408,
   1.76743483543396,
   1.4113839864730835,
   1.2785762548446655,
   1.213300347328186,
   1.1664910316467285,
   1.1174678802490234,
   1.07780921459198,
   1.0904887914657593,
   1.0789567232131958,
   1.0624101161956787,
   1.0268062353134155,
   1.004812479019165,
   0.95362931489944458,
   0.98577034473419189,
   0.97787761688232422,
   1.0018413066864014,
   0.99897229671478271,
   0.97424077987670898,
   1.0286595821380615,
   0.97331076860427856,
   0.96925288438796997,
   1.0269303321838379,
   1.0002734661102295,
   0.92518901824951172,
   0.92160475254058838,
   1.053315281867981,
   0.94682872295379639,
   0.8432927131652832
]
