[
   1.5057141780853271,
   1.5048998594284058,
   1.5057568550109863,
   1.5054061412811279,
   1.5063670873641968,
   1.5060073137283325,
   1.5064982175827026,
   1.5043981075286865,
   1.5051283836364746,
   1.5064342021942139,
   1.5051382780075073,
   1.5050466060638428,
   1.5030314922332764,
   1.5019321441650391,
   1.502366304397583,
   1.5015822649002075,
   1.500737190246582,
   1.5001270771026611,
   1.4990662336349487,
   1.4931075572967529,
   1.4897311925888062,
   1.4828372001647949,
   1.47874915599823,
   1.47373366355896,
   1.4689862728118896,
   1.4651281833648682,
   1.4612572193145752,
   1.4579747915267944,
   1.4233859777450562,
   1.3944101333618164,
   1.3716624975204468,
   1.3504226207733154,
   1.3309503793716431,
   1.315076470375061,
   1.299399733543396,
   1.2837916612625122,
   1.2720572948455811,
   1.1844269037246704,
   1.1364469528198242,
   1.1021769046783447,
   1.0816125869750977,
   1.0626256465911865,
   1.0496251583099365,
   1.0400313138961792,
   1.0328121185302734,
   1.0314024686813354,
   1.0070174932479858,
   0.99539411067962646,
   0.98500359058380127,
   0.98363292217254639,
   0.97839081287384033,
   0.98882788419723511,
   0.99087172746658325,
   0.99518567323684692,
   0.99639099836349487,
   0.98344695568084717,
   0.99332636594772339,
   0.98796367645263672,
   1.002776026725769,
   0.99001133441925049,
   1.0052964687347412,
   1.0112556219100952,
   1.0330837965011597,
   1.0472629070281982
]
