[
   1.7638658285140991,
   1.7643892765045166,
   1.7651586532592773,
   1.7650587558746338,
   1.7626079320907593,
   1.7638435363769531,
   1.7634365558624268,
   1.7630739212036133,
   1.7619165182113647,
   1.7646572589874268,
   1.7635809183120728,
   1.7616045475006104,
   1.7606985569000244,
   1.7585842609405518,
   1.7577956914901733,
   1.7564903497695923,
   1.7552566528320312,
   1.7545067071914673,
   1.7525174617767334,
   1.7429370880126953,
   1.7333409786224365,
   1.7239141464233398,
   1.7140783071517944,
   1.7075531482696533,
   1.698520302772522,
   1.6898097991943359,
   1.6827100515365601,
   1.6763284206390381,
   1.6132131814956665,
   1.5670127868652344,
   1.5238797664642334,
   1.4898126125335693,
   1.4596445560455322,
   1.4308642148971558,
   1.4064630270004272,
   1.383515477180481,
   1.3632352352142334,
   1.2391742467880249,
   1.1694103479385376,
   1.1290215253829956,
   1.100311279296875,
   1.0752644538879395,
   1.0647774934768677,
   1.0554062128067017,
   1.0528337955474854,
   1.0471979379653931,
   0.99670839309692383,
   0.99836492538452148,
   0.9884001612663269,
   0.9869384765625,
   0.99279993772506714,
   0.99224722385406494,
   0.99984610080718994,
   0.99901783466339111,
   1.0131795406341553,
   0.99568825960159302,
   0.98899000883102417,
   1.0102969408035278,
   0.99411475658416748,
   0.99006414413452148,
   0.98156881332397461,
   0.98151838779449463,
   0.98607951402664185,
   1.0341084003448486
]
