[
   2.4222421646118164,
   2.4177069664001465,
   2.4194893836975098,
   2.4201591014862061,
   2.417396068572998,
   2.4171257019042969,
   2.4195895195007324,
   2.4178147315979004,
   2.4153876304626465,
   2.4168689250946045,
   2.4134094715118408,
   2.4110770225524902,
   2.4110004901885986,
   2.4071047306060791,
   2.3970675468444824,
   2.398902416229248,
   2.3939189910888672,
   2.3906958103179932,
   2.3874862194061279,
   2.3578341007232666,
   2.335641622543335,
   2.308626651763916,
   2.2876465320587158,
   2.2648885250091553,
   2.2466628551483154,
   2.2260622978210449,
   2.2045671939849854,
   2.1886632442474365,
   2.0473337173461914,
   1.9283796548843384,
   1.8397648334503174,
   1.7619577646255493,
   1.7012717723846436,
   1.6448287963867188,
   1.5996755361557007,
   1.5552268028259277,
   1.5181013345718384,
   1.2971755266189575,
   1.2145495414733887,
   1.1659153699874878,
   1.1419990062713623,
   1.11826491355896,
   1.0995621681213379,
   1.0882899761199951,
   1.0653637647628784,
   1.0550566911697388,
   1.0110608339309692,
   1.0414186716079712,
   1.0038061141967773,
   0.99686813354492188,
   0.98532801866531372,
   1.0073398351669312,
   1.0041893720626831,
   1.0084302425384521,
   1.0015356540679932,
   1.0138620138168335,
   1.0052299499511719,
   0.99477207660675049,
   0.96867311000823975,
   1.0085303783416748,
   1.0115224123001099,
   0.97763645648956299,
   0.95300114154815674,
   1.0011836290359497
]
