[
   1.3403072357177734,
   1.3394920825958252,
   1.3398582935333252,
   1.3399840593338013,
   1.3407430648803711,
   1.3399457931518555,
   1.3405930995941162,
   1.3393193483352661,
   1.339572548866272,
   1.3402515649795532,
   1.3400851488113403,
   1.3393262624740601,
   1.3389543294906616,
   1.3386037349700928,
   1.3382678031921387,
   1.3376061916351318,
   1.3370068073272705,
   1.337189793586731,
   1.3364607095718384,
   1.3328583240509033,
   1.3312041759490967,
   1.3278647661209106,
   1.3247044086456299,
   1.3219479322433472,
   1.3200860023498535,
   1.3172827959060669,
   1.3155996799468994,
   1.3131846189498901,
   1.2931804656982422,
   1.2767069339752197,
   1.2628505229949951,
   1.2509748935699463,
   1.2388849258422852,
   1.2299033403396606,
   1.2195374965667725,
   1.2107959985733032,
   1.2028979063034058,
   1.1446158885955811,
   1.1096789836883545,
   1.0844845771789551,
   1.0744409561157227,
   1.0585423707962036,
   1.0475744009017944,
   1.03898024559021,
   1.0315177440643311,
   1.0292574167251587,
   1.0091304779052734,
   0.99449729919433594,
   0.98857510089874268,
   0.98646652698516846,
   0.98549443483352661,
   0.99091112613677979,
   0.993846595287323,
   0.99776965379714966,
   0.99840927124023438,
   0.98974275588989258,
   0.99561816453933716,
   0.98815453052520752,
   0.99851065874099731,
   0.99398088455200195,
   1.0058343410491943,
   1.0075584650039673,
   1.0287535190582275,
   1.0433709621429443
]
