[
   10.849918365478516,
   10.882397651672363,
   10.881625175476074,
   10.800088882446289,
   10.828788757324219,
   10.794848442077637,
   10.766114234924316,
   10.779501914978027,
   10.80958080291748,
   10.757269859313965,
   10.677720069885254,
   10.538568496704102,
   10.466604232788086,
   10.336557388305664,
   10.227571487426758,
   10.148534774780273,
   10.076173782348633,
   9.9364862442016602,
   9.8573398590087891,
   9.0955972671508789,
   8.4168796539306641,
   7.9441742897033691,
   7.4362244606018066,
   7.0614080429077148,
   6.6519231796264648,
   6.352147102355957,
   6.0331063270568848,
   5.834465503692627,
   4.1852431297302246,
   3.3979313373565674,
   2.8990497589111328,
   2.5852565765380859,
   2.2948505878448486,
   2.1457867622375488,
   1.9976978302001953,
   1.9302160739898682,
   1.8335329294204712,
   1.432796835899353,
   1.3079134225845337,
   1.2472212314605713,
   1.1495732069015503,
   1.1149078607559204,
   1.0269891023635864,
   1.0616267919540405,
   1.0599132776260376,
   1.0122268199920654,
   0.97361671924591064,
   0.98284101486206055,
   1.0076930522918701,
   0.984092116355896,
   0.91510689258575439,
   1.0041306018829346,
   1.0185701847076416,
   1.0093122720718384,
   1.0072281360626221,
   1.0393106937408447,
   0.96381771564483643,
   1.0004518032073975,
   1.0060913562774658,
   1.009626030921936,
   1.0443724393844604,
   1.2375125885009766,
   0.9489130973815918,
   0.84632480144500732
]
