[
   1.6527971029281616,
   1.6532993316650391,
   1.6528457403182983,
   1.6539493799209595,
   1.6516634225845337,
   1.6512168645858765,
   1.6533386707305908,
   1.6520178318023682,
   1.651047945022583,
   1.6520602703094482,
   1.6514396667480469,
   1.6484882831573486,
   1.6480289697647095,
   1.6474024057388306,
   1.6473928689956665,
   1.6459429264068604,
   1.6457363367080688,
   1.644192099571228,
   1.6434522867202759,
   1.6345640420913696,
   1.6260786056518555,
   1.6191257238388062,
   1.6131801605224609,
   1.6044948101043701,
   1.5985236167907715,
   1.5922642946243286,
   1.5859949588775635,
   1.5808013677597046,
   1.5339027643203735,
   1.4907110929489136,
   1.4576014280319214,
   1.4285908937454224,
   1.4023168087005615,
   1.3792760372161865,
   1.3577382564544678,
   1.3374127149581909,
   1.3209488391876221,
   1.2056341171264648,
   1.1429417133331299,
   1.1031016111373901,
   1.0812562704086304,
   1.0629231929779053,
   1.048526406288147,
   1.0401579141616821,
   1.0314692258834839,
   1.0263301134109497,
   1.0003355741500854,
   0.99561184644699097,
   0.98609578609466553,
   0.99573487043380737,
   0.99487435817718506,
   0.98925572633743286,
   1.0015623569488525,
   0.99804514646530151,
   0.98901796340942383,
   1.0087325572967529,
   1.0096685886383057,
   0.99715977907180786,
   0.99261540174484253,
   0.98643159866333008,
   0.98552191257476807,
   0.98323661088943481,
   1.0158814191818237,
   0.99361753463745117
]
