[
   1.3706101179122925,
   1.3698103427886963,
   1.3703035116195679,
   1.3702948093414307,
   1.3710188865661621,
   1.370631217956543,
   1.3710397481918335,
   1.369600772857666,
   1.3701648712158203,
   1.3707246780395508,
   1.3703912496566772,
   1.3696253299713135,
   1.3692833185195923,
   1.3685611486434937,
   1.3683197498321533,
   1.3679473400115967,
   1.3671125173568726,
   1.3668534755706787,
   1.3664243221282959,
   1.362519383430481,
   1.3604536056518555,
   1.3565361499786377,
   1.3534257411956787,
   1.3500759601593018,
   1.347764253616333,
   1.345005989074707,
   1.3428498506546021,
   1.3402445316314697,
   1.3178567886352539,
   1.299278736114502,
   1.2838425636291504,
   1.2703932523727417,
   1.2571041584014893,
   1.2466995716094971,
   1.2358371019363403,
   1.2257544994354248,
   1.2171370983123779,
   1.1535422801971436,
   1.116325855255127,
   1.0893586874008179,
   1.074974536895752,
   1.0584934949874878,
   1.0469435453414917,
   1.0381439924240112,
   1.030575156211853,
   1.0285403728485107,
   1.0087020397186279,
   0.99470138549804688,
   0.98883283138275146,
   0.98467540740966797,
   0.98412245512008667,
   0.99047595262527466,
   0.99436682462692261,
   0.99635303020477295,
   0.99792909622192383,
   0.98872053623199463,
   0.9940570592880249,
   0.98905277252197266,
   0.99873572587966919,
   0.99278783798217773,
   1.00551438331604,
   1.0090305805206299,
   1.0295091867446899,
   1.0438344478607178
]
