[
   1.4084874391555786,
   1.4076081514358521,
   1.4081531763076782,
   1.4080326557159424,
   1.4086835384368896,
   1.4082698822021484,
   1.4088668823242188,
   1.407110333442688,
   1.4076331853866577,
   1.408595085144043,
   1.4080655574798584,
   1.4072915315628052,
   1.4065452814102173,
   1.4056960344314575,
   1.4058319330215454,
   1.4049906730651855,
   1.4042307138442993,
   1.4038155078887939,
   1.4032411575317383,
   1.3989560604095459,
   1.3969382047653198,
   1.3919451236724854,
   1.3886125087738037,
   1.3848574161529541,
   1.3817465305328369,
   1.3792440891265869,
   1.3763973712921143,
   1.3736445903778076,
   1.3481112718582153,
   1.3268266916275024,
   1.3094087839126587,
   1.2942367792129517,
   1.279255747795105,
   1.2672049999237061,
   1.2553927898406982,
   1.2438126802444458,
   1.2343978881835938,
   1.163785457611084,
   1.1233916282653809,
   1.0943355560302734,
   1.0763041973114014,
   1.0589873790740967,
   1.047015905380249,
   1.0380716323852539,
   1.0305761098861694,
   1.0290254354476929,
   1.0083532333374023,
   0.99488437175750732,
   0.98813867568969727,
   0.98364990949630737,
   0.98197996616363525,
   0.99010336399078369,
   0.99404442310333252,
   0.99543744325637817,
   0.99744492769241333,
   0.98699510097503662,
   0.99349373579025269,
   0.98914158344268799,
   0.99936932325363159,
   0.99174785614013672,
   1.005062460899353,
   1.0101765394210815,
   1.0302321910858154,
   1.0447890758514404
]
