[
   1.5686116218566895,
   1.567175030708313,
   1.5682485103607178,
   1.5680826902389526,
   1.569098949432373,
   1.5686619281768799,
   1.5680310726165771,
   1.5669487714767456,
   1.5672297477722168,
   1.5687531232833862,
   1.5671312808990479,
   1.5673257112503052,
   1.5650722980499268,
   1.563363790512085,
   1.5642950534820557,
   1.5634675025939941,
   1.5623064041137695,
   1.561873197555542,
   1.5600510835647583,
   1.553147554397583,
   1.5489587783813477,
   1.5403025150299072,
   1.5359312295913696,
   1.5298336744308472,
   1.5237376689910889,
   1.5192571878433228,
   1.5148909091949463,
   1.5110225677490234,
   1.4700872898101807,
   1.43613600730896,
   1.4089932441711426,
   1.384372353553772,
   1.3616759777069092,
   1.3433029651641846,
   1.3247736692428589,
   1.3071736097335815,
   1.2933413982391357,
   1.1953619718551636,
   1.1433093547821045,
   1.1062885522842407,
   1.0851447582244873,
   1.0646694898605347,
   1.0507988929748535,
   1.0410784482955933,
   1.0340290069580078,
   1.0327373743057251,
   1.0065281391143799,
   0.99577486515045166,
   0.98335295915603638,
   0.98385030031204224,
   0.97643566131591797,
   0.98806589841842651,
   0.98938477039337158,
   0.9953608512878418,
   0.99578303098678589,
   0.98137533664703369,
   0.9928705096244812,
   0.98723900318145752,
   1.0047720670700073,
   0.98878401517868042,
   1.0052578449249268,
   1.0126888751983643,
   1.0346336364746094,
   1.0473363399505615
]
