[
   17.43670654296875,
   17.431741714477539,
   17.366130828857422,
   17.437023162841797,
   17.285196304321289,
   17.291820526123047,
   17.161525726318359,
   17.257534027099609,
   17.284872055053711,
   17.258663177490234,
   16.917945861816406,
   16.668418884277344,
   16.254695892333984,
   16.021038055419922,
   15.731534957885742,
   15.596508979797363,
   15.298993110656738,
   15.074132919311523,
   14.943033218383789,
   13.368678092956543,
   12.057588577270508,
   11.130975723266602,
   10.347415924072266,
   9.7009468078613281,
   9.1103382110595703,
   8.4923973083496094,
   8.0714216232299805,
   7.6490926742553711,
   5.0173125267028809,
   3.7580533027648926,
   3.0527403354644775,
   2.5819878578186035,
   2.2278497219085693,
   2.0382695198059082,
   1.8893318176269531,
   1.7534011602401733,
   1.6127111911773682,
   1.1946970224380493,
   1.0025397539138794,
   1.0875269174575806,
   0.97897928953170776,
   1.0119085311889648,
   0.94386976957321167,
   1.0699828863143921,
   1.0480657815933228,
   0.98622256517410278,
   0.91200768947601318,
   1.0494918823242188,
   1.0346723794937134,
   1.0017964839935303,
   1.0316166877746582,
   1.0112965106964111,
   0.91249370574951172,
   0.93017446994781494,
   0.93726319074630737,
   0.95365649461746216,
   1.0204900503158569,
   0.96641576290130615,
   0.84441101551055908,
   0.91622889041900635,
   1.0694762468338013,
   1.004192590713501,
   0.91474026441574097,
   0.94562041759490967
]
