[
   2.7432913780212402,
   2.7427153587341309,
   2.7392609119415283,
   2.7364904880523682,
   2.7457497119903564,
   2.7378828525543213,
   2.735802173614502,
   2.7384014129638672,
   2.7377133369445801,
   2.7374444007873535,
   2.7279825210571289,
   2.716212272644043,
   2.7036323547363281,
   2.7000212669372559,
   2.6874666213989258,
   2.6754083633422852,
   2.6647734642028809,
   2.6630346775054932,
   2.6571066379547119,
   2.578294038772583,
   2.5058169364929199,
   2.4454467296600342,
   2.3956005573272705,
   2.3421542644500732,
   2.2962014675140381,
   2.2502055168151855,
   2.215228796005249,
   2.1810393333435059,
   1.9222755432128906,
   1.7567259073257446,
   1.6388219594955444,
   1.5442394018173218,
   1.4683274030685425,
   1.4169958829879761,
   1.3681032657623291,
   1.3302804231643677,
   1.3042484521865845,
   1.1296294927597046,
   1.0884648561477661,
   1.065277099609375,
   1.0394399166107178,
   1.0268055200576782,
   1.0256067514419556,
   1.0147595405578613,
   1.0154266357421875,
   1.0167142152786255,
   1.007479190826416,
   1.0049445629119873,
   1.0087604522705078,
   0.9977080225944519,
   1.0163048505783081,
   1.0096690654754639,
   1.0028030872344971,
   1.0185788869857788,
   1.0118327140808105,
   1.0071007013320923,
   1.0000679492950439,
   0.97071713209152222,
   1.0131539106369019,
   0.99506664276123047,
   0.97082012891769409,
   0.99014902114868164,
   0.96553456783294678,
   0.9457322359085083
]
