[
   1.7673733234405518,
   1.7674096822738647,
   1.7669732570648193,
   1.7671467065811157,
   1.7673345804214478,
   1.7651941776275635,
   1.7668567895889282,
   1.7676321268081665,
   1.7651954889297485,
   1.7657406330108643,
   1.7619860172271729,
   1.7594978809356689,
   1.759563684463501,
   1.7553889751434326,
   1.7503554821014404,
   1.7495248317718506,
   1.7488067150115967,
   1.743435263633728,
   1.7426494359970093,
   1.72048020362854,
   1.699703574180603,
   1.6775217056274414,
   1.6583160161972046,
   1.6409740447998047,
   1.6281130313873291,
   1.6092824935913086,
   1.5969314575195312,
   1.5826171636581421,
   1.4820699691772461,
   1.4053841829299927,
   1.3525254726409912,
   1.3081667423248291,
   1.2759557962417603,
   1.2479648590087891,
   1.224286675453186,
   1.2049908638000488,
   1.1880385875701904,
   1.0970885753631592,
   1.0584176778793335,
   1.0429638624191284,
   1.0288141965866089,
   1.0167748928070068,
   1.0085456371307373,
   1.0080113410949707,
   1.0056703090667725,
   1.0035028457641602,
   0.99932181835174561,
   0.99247044324874878,
   0.99220860004425049,
   0.99921047687530518,
   0.98205310106277466,
   0.99645376205444336,
   0.99682503938674927,
   1.0018171072006226,
   1.0097211599349976,
   0.99603539705276489,
   1.0001379251480103,
   1.0022855997085571,
   1.0026113986968994,
   1.002050518989563,
   0.99037009477615356,
   0.96735906600952148,
   0.95502674579620361,
   0.9629862904548645
]
