[
   1.6619917154312134,
   1.6606212854385376,
   1.6630277633666992,
   1.6617622375488281,
   1.6629960536956787,
   1.6610927581787109,
   1.6617234945297241,
   1.6614377498626709,
   1.6595871448516846,
   1.6569244861602783,
   1.6575403213500977,
   1.6543595790863037,
   1.6540695428848267,
   1.6510059833526611,
   1.6501392126083374,
   1.646773099899292,
   1.6455738544464111,
   1.6444776058197021,
   1.6418507099151611,
   1.6209545135498047,
   1.6050475835800171,
   1.5882158279418945,
   1.571623682975769,
   1.5572978258132935,
   1.5460071563720703,
   1.5317940711975098,
   1.5209861993789673,
   1.5085881948471069,
   1.4208852052688599,
   1.3581572771072388,
   1.314190149307251,
   1.2784936428070068,
   1.2468379735946655,
   1.2238738536834717,
   1.2026363611221313,
   1.1832764148712158,
   1.1669845581054688,
   1.083743691444397,
   1.0465662479400635,
   1.0321363210678101,
   1.0245368480682373,
   1.0194805860519409,
   1.0133985280990601,
   1.0096175670623779,
   1.003652811050415,
   1.0048218965530396,
   0.99480009078979492,
   0.99695503711700439,
   1.0041846036911011,
   1.0046761035919189,
   0.99882090091705322,
   0.99844229221343994,
   1.0029199123382568,
   0.99551409482955933,
   0.99843895435333252,
   1.0113928318023682,
   1.0080190896987915,
   1.0023466348648071,
   1.005391001701355,
   0.99978888034820557,
   0.99477481842041016,
   0.97706222534179688,
   0.96000415086746216,
   0.98019391298294067
]
