[
   1.5419681072235107,
   1.5413397550582886,
   1.5409990549087524,
   1.5417215824127197,
   1.5410816669464111,
   1.5405147075653076,
   1.5411014556884766,
   1.5395634174346924,
   1.5401958227157593,
   1.5391055345535278,
   1.5385247468948364,
   1.5372804403305054,
   1.5358278751373291,
   1.5331286191940308,
   1.5326873064041138,
   1.5306557416915894,
   1.5304577350616455,
   1.5280691385269165,
   1.5263054370880127,
   1.5115940570831299,
   1.4992492198944092,
   1.4888755083084106,
   1.4760259389877319,
   1.4659541845321655,
   1.4544258117675781,
   1.4466178417205811,
   1.4366642236709595,
   1.4285297393798828,
   1.3586040735244751,
   1.3113628625869751,
   1.2730922698974609,
   1.242093563079834,
   1.2187106609344482,
   1.1982609033584595,
   1.1818757057189941,
   1.1670444011688232,
   1.1534771919250488,
   1.0861008167266846,
   1.0463624000549316,
   1.0336118936538696,
   1.0188031196594238,
   1.0140247344970703,
   1.0090560913085938,
   1.0085074901580811,
   1.0066285133361816,
   1.0078517198562622,
   0.99631470441818237,
   1.0043410062789917,
   1.0020781755447388,
   1.0027471780776978,
   1.0030611753463745,
   1.0018041133880615,
   1.0001842975616455,
   0.99688065052032471,
   0.99841958284378052,
   1.0035973787307739,
   1.0018460750579834,
   1.0077884197235107,
   0.99525851011276245,
   1.0029532909393311,
   0.9894404411315918,
   0.99519002437591553,
   0.97342598438262939,
   0.94364273548126221
]
