[
   4.5133752822875977,
   4.5065579414367676,
   4.5007128715515137,
   4.4978218078613281,
   4.4895792007446289,
   4.4852333068847656,
   4.493797779083252,
   4.4961385726928711,
   4.5004234313964844,
   4.4928903579711914,
   4.4740152359008789,
   4.4636373519897461,
   4.443657398223877,
   4.4336366653442383,
   4.4241018295288086,
   4.3980565071105957,
   4.3816499710083008,
   4.3872113227844238,
   4.368192195892334,
   4.2509803771972656,
   4.1474533081054688,
   4.0593729019165039,
   3.9734358787536621,
   3.9090323448181152,
   3.8437049388885498,
   3.7730007171630859,
   3.718956470489502,
   3.6521477699279785,
   3.232551097869873,
   2.9160737991333008,
   2.6737322807312012,
   2.4836516380310059,
   2.3120486736297607,
   2.1874845027923584,
   2.0748906135559082,
   1.9862391948699951,
   1.9053071737289429,
   1.4626812934875488,
   1.2378195524215698,
   1.1392190456390381,
   1.0983816385269165,
   1.075653076171875,
   1.0562328100204468,
   1.0316777229309082,
   1.0294187068939209,
   1.0272105932235718,
   0.96299850940704346,
   0.97413873672485352,
   0.98632442951202393,
   0.98406010866165161,
   0.94605028629302979,
   0.9688069224357605,
   0.98567897081375122,
   0.98618060350418091,
   0.98609703779220581,
   0.98995351791381836,
   1.0015966892242432,
   1.0167691707611084,
   0.97908174991607666,
   0.94091397523880005,
   1.0309135913848877,
   0.98509997129440308,
   1.0389895439147949,
   1.209696888923645
]
