[
   23.450506210327148,
   23.616168975830078,
   23.537063598632812,
   23.518653869628906,
   23.449094772338867,
   23.443069458007812,
   23.565420150756836,
   23.281087875366211,
   23.174777984619141,
   23.338750839233398,
   23.037761688232422,
   22.680057525634766,
   22.561286926269531,
   22.290225982666016,
   22.034788131713867,
   21.886072158813477,
   21.690996170043945,
   21.440010070800781,
   21.265354156494141,
   19.849973678588867,
   18.524600982666016,
   17.286930084228516,
   16.424694061279297,
   15.61473274230957,
   14.909357070922852,
   14.263964653015137,
   13.479496955871582,
   12.963729858398438,
   9.1785259246826172,
   6.9143877029418945,
   5.6798887252807617,
   4.7953124046325684,
   4.2206888198852539,
   3.7719292640686035,
   3.2842063903808594,
   2.9478027820587158,
   2.8281044960021973,
   1.8107841014862061,
   1.5890768766403198,
   1.4154467582702637,
   1.3970701694488525,
   1.182138204574585,
   1.1990827322006226,
   1.1451438665390015,
   1.0372956991195679,
   1.1178436279296875,
   0.96379530429840088,
   1.1305594444274902,
   1.1081857681274414,
   0.94862288236618042,
   0.90768688917160034,
   0.90037000179290771,
   1.0721185207366943,
   1.0907225608825684,
   0.93026751279830933,
   0.97146904468536377,
   1.0109918117523193,
   0.95955067873001099,
   0.87337982654571533,
   1.1221914291381836,
   0.93396109342575073,
   0.87591457366943359,
   1.3725335597991943,
   0.85448777675628662
]
