[
   2.0604534149169922,
   2.0559859275817871,
   2.0541901588439941,
   2.0567104816436768,
   2.0577254295349121,
   2.0561065673828125,
   2.0555734634399414,
   2.0540907382965088,
   2.0545988082885742,
   2.0564560890197754,
   2.0534143447875977,
   2.0497641563415527,
   2.0487391948699951,
   2.047330379486084,
   2.0443086624145508,
   2.0394570827484131,
   2.038698673248291,
   2.0401260852813721,
   2.0338151454925537,
   2.0136017799377441,
   1.9937137365341187,
   1.9761174917221069,
   1.9596893787384033,
   1.9440419673919678,
   1.9291112422943115,
   1.912545919418335,
   1.9005752801895142,
   1.8839738368988037,
   1.7830709218978882,
   1.7032191753387451,
   1.6429399251937866,
   1.5920946598052979,
   1.5475015640258789,
   1.5112969875335693,
   1.4734009504318237,
   1.4433954954147339,
   1.4175956249237061,
   1.2471797466278076,
   1.1708046197891235,
   1.1261633634567261,
   1.0900118350982666,
   1.0685842037200928,
   1.0532710552215576,
   1.035312294960022,
   1.0269005298614502,
   1.0157036781311035,
   0.99025040864944458,
   1.0012003183364868,
   1.0005176067352295,
   1.004112720489502,
   0.98653709888458252,
   0.99343454837799072,
   1.0043895244598389,
   0.98613041639328003,
   1.0045784711837769,
   0.99751961231231689,
   0.98274403810501099,
   0.97239875793457031,
   0.98095118999481201,
   0.99173367023468018,
   1.021012544631958,
   1.0052034854888916,
   0.96531122922897339,
   0.94799882173538208
]
