[
   89.110992431640625,
   87.527381896972656,
   87.239341735839844,
   86.790885925292969,
   87.076385498046875,
   86.433563232421875,
   85.330596923828125,
   86.831123352050781,
   86.356704711914062,
   87.471023559570312,
   82.901992797851562,
   81.377189636230469,
   79.247352600097656,
   77.94964599609375,
   75.186454772949219,
   74.984359741210938,
   73.182815551757812,
   71.256866455078125,
   69.898635864257812,
   58.277381896972656,
   50.971439361572266,
   44.383281707763672,
   39.112987518310547,
   35.64471435546875,
   32.287899017333984,
   29.251827239990234,
   27.755558013916016,
   25.626293182373047,
   14.196859359741211,
   10.456181526184082,
   7.5985169410705566,
   6.9307279586791992,
   5.2226400375366211,
   4.7778630256652832,
   3.4557201862335205,
   3.395653247833252,
   3.1911253929138184,
   1.6750227212905884,
   1.0977193117141724,
   1.4519274234771729,
   1.0533339977264404,
   0.96430760622024536,
   0.95350086688995361,
   1.2960292100906372,
   0.95654457807540894,
   0.72811907529830933,
   0.80323803424835205,
   1.4154478311538696,
   1.0875247716903687,
   1.0429213047027588,
   0.81630277633666992,
   1.0334140062332153,
   1.1683744192123413,
   0.70175278186798096,
   0.90509569644927979,
   0.76506376266479492,
   0.77398920059204102,
   1.0912783145904541,
   1.1126992702484131,
   0.81725513935089111,
   1.0673115253448486,
   0.67636096477508545,
   1.1136295795440674,
   0.3141600489616394
]
