[
   13.660520553588867,
   13.624852180480957,
   13.772720336914062,
   13.72509765625,
   13.704526901245117,
   13.564842224121094,
   13.53795051574707,
   13.608218193054199,
   13.61101245880127,
   13.559077262878418,
   13.414416313171387,
   13.33263111114502,
   13.251309394836426,
   13.149328231811523,
   13.077387809753418,
   12.893429756164551,
   12.87104320526123,
   12.821253776550293,
   12.706655502319336,
   12.017559051513672,
   11.44526195526123,
   10.856755256652832,
   10.496513366699219,
   10.128236770629883,
   9.8010435104370117,
   9.4004039764404297,
   9.1249971389770508,
   8.8160896301269531,
   6.794827938079834,
   5.440150260925293,
   4.5419435501098633,
   3.9481444358825684,
   3.4684135913848877,
   3.1387794017791748,
   2.8485369682312012,
   2.6044299602508545,
   2.4945697784423828,
   1.6891902685165405,
   1.4554749727249146,
   1.2212541103363037,
   1.1154986619949341,
   1.0619319677352905,
   1.1658445596694946,
   1.1289154291152954,
   1.1545455455780029,
   1.1366512775421143,
   0.94426995515823364,
   0.9562336802482605,
   1.0128633975982666,
   1.0474085807800293,
   0.93478471040725708,
   0.94188481569290161,
   0.94853287935256958,
   0.97890770435333252,
   1.1095277070999146,
   1.0421813726425171,
   0.89517992734909058,
   0.92842495441436768,
   0.98184490203857422,
   0.91737020015716553,
   0.96606826782226562,
   1.0420582294464111,
   0.90821611881256104,
   1.0103839635848999
]
