[
   1.6793653964996338,
   1.679634690284729,
   1.6815227270126343,
   1.6800836324691772,
   1.6801341772079468,
   1.6803270578384399,
   1.6792224645614624,
   1.6811580657958984,
   1.6804555654525757,
   1.6809238195419312,
   1.6778099536895752,
   1.679186224937439,
   1.6777255535125732,
   1.6746578216552734,
   1.6739518642425537,
   1.6711629629135132,
   1.6710987091064453,
   1.6712682247161865,
   1.6684976816177368,
   1.6597888469696045,
   1.6492147445678711,
   1.6391054391860962,
   1.6283795833587646,
   1.6215394735336304,
   1.6122738122940063,
   1.6042015552520752,
   1.5966019630432129,
   1.5897964239120483,
   1.5261156558990479,
   1.4795796871185303,
   1.4422181844711304,
   1.4094984531402588,
   1.382115364074707,
   1.3555052280426025,
   1.3360120058059692,
   1.3155635595321655,
   1.2976081371307373,
   1.1862581968307495,
   1.1274222135543823,
   1.0920305252075195,
   1.0699970722198486,
   1.0582406520843506,
   1.0468248128890991,
   1.0381286144256592,
   1.0293229818344116,
   1.0236866474151611,
   1.0026009082794189,
   0.98754251003265381,
   0.99778240919113159,
   0.98869925737380981,
   1.0019917488098145,
   1.0001213550567627,
   0.99996376037597656,
   1.0033782720565796,
   0.99497109651565552,
   0.9849284291267395,
   1.0100092887878418,
   1.011594295501709,
   0.98770654201507568,
   0.99299162626266479,
   0.99072229862213135,
   0.95887213945388794,
   1.0006396770477295,
   0.98753249645233154
]
