[
   1.7692171335220337,
   1.7687555551528931,
   1.7704198360443115,
   1.7695310115814209,
   1.7699410915374756,
   1.7704341411590576,
   1.7690862417221069,
   1.7717224359512329,
   1.7708545923233032,
   1.7708225250244141,
   1.7674210071563721,
   1.7687253952026367,
   1.7671324014663696,
   1.7628767490386963,
   1.7623579502105713,
   1.7591346502304077,
   1.7582858800888062,
   1.7591966390609741,
   1.7556158304214478,
   1.7448406219482422,
   1.7325788736343384,
   1.7204691171646118,
   1.7078859806060791,
   1.6999956369400024,
   1.6885471343994141,
   1.6794112920761108,
   1.6696169376373291,
   1.6615245342254639,
   1.5873371362686157,
   1.5335042476654053,
   1.4903218746185303,
   1.453214168548584,
   1.4221196174621582,
   1.3925135135650635,
   1.3699651956558228,
   1.3468043804168701,
   1.3259363174438477,
   1.2002213001251221,
   1.1354358196258545,
   1.0971357822418213,
   1.0739339590072632,
   1.0615596771240234,
   1.0493673086166382,
   1.0410656929016113,
   1.0310348272323608,
   1.024547815322876,
   1.003339409828186,
   0.98688250780105591,
   0.99769246578216553,
   0.98747110366821289,
   1.0025721788406372,
   1.0005531311035156,
   1.0002243518829346,
   1.0048106908798218,
   0.99445104598999023,
   0.98346936702728271,
   1.0102753639221191,
   1.0124026536941528,
   0.98619061708450317,
   0.99218380451202393,
   0.9920344352722168,
   0.95789414644241333,
   0.9996907114982605,
   0.98157006502151489
]
