[
   1.3769310712814331,
   1.3776943683624268,
   1.3777402639389038,
   1.3777549266815186,
   1.3777211904525757,
   1.3772482872009277,
   1.3774011135101318,
   1.3778736591339111,
   1.3772792816162109,
   1.3770859241485596,
   1.3769576549530029,
   1.3771803379058838,
   1.3764482736587524,
   1.3764276504516602,
   1.3769230842590332,
   1.3761599063873291,
   1.376145601272583,
   1.3762079477310181,
   1.3762450218200684,
   1.375272274017334,
   1.3738505840301514,
   1.3734736442565918,
   1.3716368675231934,
   1.3707306385040283,
   1.3701674938201904,
   1.3687021732330322,
   1.3676211833953857,
   1.3660062551498413,
   1.3585466146469116,
   1.349717378616333,
   1.3422037363052368,
   1.3348795175552368,
   1.328148365020752,
   1.3221608400344849,
   1.3157030344009399,
   1.3103843927383423,
   1.3034645318984985,
   1.2557377815246582,
   1.218706488609314,
   1.1884657144546509,
   1.1742860078811646,
   1.155657172203064,
   1.1401457786560059,
   1.1277883052825928,
   1.1142852306365967,
   1.1055907011032104,
   1.0542005300521851,
   1.0318547487258911,
   1.0188910961151123,
   1.0100330114364624,
   1.0023376941680908,
   0.98853671550750732,
   0.98987829685211182,
   0.99032402038574219,
   0.9934619665145874,
   1.0046623945236206,
   1.0023527145385742,
   1.0010281801223755,
   0.97671663761138916,
   0.99714404344558716,
   0.98287630081176758,
   0.984272301197052,
   0.96474885940551758,
   0.97428160905838013
]
