[
   3.2013568878173828,
   3.2004299163818359,
   3.2028317451477051,
   3.1973707675933838,
   3.1997153759002686,
   3.1999974250793457,
   3.1961960792541504,
   3.1922049522399902,
   3.1997721195220947,
   3.1939783096313477,
   3.1890623569488525,
   3.1925160884857178,
   3.1911664009094238,
   3.1821038722991943,
   3.180962085723877,
   3.1790096759796143,
   3.1763298511505127,
   3.1750142574310303,
   3.1744759082794189,
   3.1413664817810059,
   3.1191604137420654,
   3.0927488803863525,
   3.0653331279754639,
   3.046656608581543,
   3.0239951610565186,
   3.0010383129119873,
   2.9788823127746582,
   2.9586541652679443,
   2.7716941833496094,
   2.6105556488037109,
   2.4814047813415527,
   2.364215612411499,
   2.2753109931945801,
   2.1933753490447998,
   2.1128959655761719,
   2.0483329296112061,
   1.9863437414169312,
   1.6332813501358032,
   1.4607534408569336,
   1.3686511516571045,
   1.3020031452178955,
   1.2490991353988647,
   1.208524227142334,
   1.1885654926300049,
   1.1657917499542236,
   1.1520763635635376,
   1.0597431659698486,
   1.0336668491363525,
   0.99361717700958252,
   1.000774621963501,
   0.99482947587966919,
   0.98505246639251709,
   0.97120779752731323,
   0.99258947372436523,
   0.99423933029174805,
   0.98094701766967773,
   1.0104590654373169,
   1.0006304979324341,
   0.94489622116088867,
   1.0589690208435059,
   0.97827041149139404,
   0.99136334657669067,
   1.0801705121994019,
   0.86414420604705811
]
