[
   1.3363186120986938,
   1.3371275663375854,
   1.336667537689209,
   1.3367469310760498,
   1.336274266242981,
   1.3366315364837646,
   1.3364479541778564,
   1.3367480039596558,
   1.3366379737854004,
   1.3364155292510986,
   1.3370546102523804,
   1.3356033563613892,
   1.3371914625167847,
   1.3357876539230347,
   1.3363509178161621,
   1.3364932537078857,
   1.335997462272644,
   1.3353897333145142,
   1.3361479043960571,
   1.3349087238311768,
   1.3338782787322998,
   1.3320896625518799,
   1.3322632312774658,
   1.3318749666213989,
   1.3305621147155762,
   1.3291047811508179,
   1.32951819896698,
   1.3277502059936523,
   1.3193929195404053,
   1.3125158548355103,
   1.3060257434844971,
   1.2989007234573364,
   1.293298602104187,
   1.2871663570404053,
   1.2816498279571533,
   1.2762401103973389,
   1.2705854177474976,
   1.2259830236434937,
   1.1925375461578369,
   1.1649038791656494,
   1.1541863679885864,
   1.1374430656433105,
   1.1233127117156982,
   1.1101596355438232,
   1.1005836725234985,
   1.0933393239974976,
   1.0488269329071045,
   1.0309098958969116,
   1.0185470581054688,
   1.0187888145446777,
   1.0154426097869873,
   1.0097235441207886,
   1.004550576210022,
   1.001284122467041,
   1.0014238357543945,
   1.0027594566345215,
   0.99222886562347412,
   0.99422895908355713,
   0.99048364162445068,
   0.98746377229690552,
   0.98123371601104736,
   0.98002815246582031,
   0.97235411405563354,
   1.0270283222198486
]
