[
   1.4589440822601318,
   1.4584391117095947,
   1.4583661556243896,
   1.4577707052230835,
   1.4583549499511719,
   1.4579455852508545,
   1.4586254358291626,
   1.4582850933074951,
   1.4588415622711182,
   1.4569708108901978,
   1.4580157995223999,
   1.4576293230056763,
   1.4579360485076904,
   1.4576447010040283,
   1.457744836807251,
   1.457301139831543,
   1.4569056034088135,
   1.4567254781723022,
   1.4566918611526489,
   1.4547264575958252,
   1.4530918598175049,
   1.4522385597229004,
   1.4506475925445557,
   1.4492772817611694,
   1.4479522705078125,
   1.4463361501693726,
   1.445404052734375,
   1.4438279867172241,
   1.4315028190612793,
   1.4202080965042114,
   1.409414529800415,
   1.399020791053772,
   1.3898210525512695,
   1.3812506198883057,
   1.3726074695587158,
   1.3646907806396484,
   1.3572608232498169,
   1.2945524454116821,
   1.2512598037719727,
   1.2163398265838623,
   1.1894097328186035,
   1.1677882671356201,
   1.1493476629257202,
   1.1362415552139282,
   1.1244591474533081,
   1.1166156530380249,
   1.069911003112793,
   1.0426952838897705,
   1.0226588249206543,
   1.0094130039215088,
   0.99850589036941528,
   0.99646121263504028,
   1.0035682916641235,
   0.99911421537399292,
   0.99585354328155518,
   1.0128958225250244,
   0.992431640625,
   0.9988778829574585,
   0.9845128059387207,
   1.0015290975570679,
   0.95597898960113525,
   0.95812654495239258,
   0.98325932025909424,
   1.0079410076141357
]
