[
   1.3081941604614258,
   1.3086644411087036,
   1.3088747262954712,
   1.3092765808105469,
   1.308921217918396,
   1.3085947036743164,
   1.3087098598480225,
   1.3085935115814209,
   1.3086625337600708,
   1.30942702293396,
   1.3088823556900024,
   1.3086506128311157,
   1.3082362413406372,
   1.3083832263946533,
   1.3086222410202026,
   1.308448314666748,
   1.3080036640167236,
   1.3082289695739746,
   1.3087531328201294,
   1.3069785833358765,
   1.3069306612014771,
   1.3055832386016846,
   1.3046929836273193,
   1.3041970729827881,
   1.3030420541763306,
   1.3027077913284302,
   1.3019671440124512,
   1.3009284734725952,
   1.2948681116104126,
   1.2877171039581299,
   1.2826001644134521,
   1.2768311500549316,
   1.2729222774505615,
   1.2670366764068604,
   1.2633343935012817,
   1.2586286067962646,
   1.2543102502822876,
   1.2178341150283813,
   1.1885920763015747,
   1.1653037071228027,
   1.159337043762207,
   1.1429872512817383,
   1.1286118030548096,
   1.1164791584014893,
   1.1061341762542725,
   1.0972164869308472,
   1.0446403026580811,
   1.024100661277771,
   1.0174350738525391,
   1.020811915397644,
   1.0125764608383179,
   0.99536162614822388,
   0.98937970399856567,
   0.99432545900344849,
   0.99448317289352417,
   0.98743343353271484,
   0.98187512159347534,
   1.0008583068847656,
   0.98440229892730713,
   1.0068696737289429,
   0.99391728639602661,
   0.99283057451248169,
   1.035254955291748,
   1.0592906475067139
]
