[
   1.5977957248687744,
   1.5956461429595947,
   1.597750186920166,
   1.5968335866928101,
   1.5975643396377563,
   1.5965325832366943,
   1.5967330932617188,
   1.5966675281524658,
   1.5973944664001465,
   1.5978524684906006,
   1.595859169960022,
   1.5977258682250977,
   1.5962097644805908,
   1.5956085920333862,
   1.5948050022125244,
   1.5958831310272217,
   1.5947318077087402,
   1.5942450761795044,
   1.593764066696167,
   1.5911132097244263,
   1.5893752574920654,
   1.5862171649932861,
   1.5840209722518921,
   1.582754373550415,
   1.5791693925857544,
   1.5766787528991699,
   1.5750693082809448,
   1.5732605457305908,
   1.5521245002746582,
   1.5347052812576294,
   1.5189592838287354,
   1.5031973123550415,
   1.4891873598098755,
   1.4752414226531982,
   1.4620639085769653,
   1.4515020847320557,
   1.4396613836288452,
   1.3476946353912354,
   1.285414457321167,
   1.2408182621002197,
   1.2076849937438965,
   1.1812098026275635,
   1.1549928188323975,
   1.1367101669311523,
   1.1216212511062622,
   1.1130132675170898,
   1.0507398843765259,
   1.0083492994308472,
   0.99274188280105591,
   0.9851643443107605,
   0.97812080383300781,
   0.97760903835296631,
   0.97302639484405518,
   0.96816891431808472,
   0.97315883636474609,
   0.98576200008392334,
   0.9808124303817749,
   0.97148245573043823,
   0.98107224702835083,
   1.0272859334945679,
   1.0320826768875122,
   1.0192047357559204,
   0.98735600709915161,
   1.229318380355835
]
