[
   5.1688747406005859,
   5.1677494049072266,
   5.1527280807495117,
   5.1646499633789062,
   5.1789059638977051,
   5.147639274597168,
   5.1632442474365234,
   5.1363844871520996,
   5.1557044982910156,
   5.1578588485717773,
   5.1498422622680664,
   5.1209702491760254,
   5.1311392784118652,
   5.1313943862915039,
   5.1067714691162109,
   5.1122140884399414,
   5.0923409461975098,
   5.0873126983642578,
   5.0720796585083008,
   4.970862865447998,
   4.8767943382263184,
   4.8179922103881836,
   4.7386131286621094,
   4.6507563591003418,
   4.5889673233032227,
   4.5237793922424316,
   4.4609789848327637,
   4.3930745124816895,
   3.8672442436218262,
   3.5026309490203857,
   3.216712474822998,
   2.9964537620544434,
   2.7911019325256348,
   2.6367826461791992,
   2.4910674095153809,
   2.3858654499053955,
   2.297677755355835,
   1.7355062961578369,
   1.5003554821014404,
   1.3884080648422241,
   1.2968775033950806,
   1.2585502862930298,
   1.1998354196548462,
   1.1403429508209229,
   1.1316936016082764,
   1.0975281000137329,
   1.0509564876556396,
   0.99917328357696533,
   1.0165722370147705,
   1.0287127494812012,
   1.0193707942962646,
   1.0075984001159668,
   1.0415655374526978,
   1.0461356639862061,
   0.96209114789962769,
   1.0972006320953369,
   0.95219612121582031,
   1.0411965847015381,
   1.0127882957458496,
   0.93497610092163086,
   0.93806570768356323,
   0.94660282135009766,
   0.86434668302536011,
   0.93418741226196289
]
