[
   22.049432754516602,
   22.090669631958008,
   22.117908477783203,
   22.098926544189453,
   21.919399261474609,
   21.912174224853516,
   21.814739227294922,
   22.051490783691406,
   21.824041366577148,
   21.914113998413086,
   21.623636245727539,
   21.075868606567383,
   20.782159805297852,
   20.408712387084961,
   20.429462432861328,
   19.996944427490234,
   19.803442001342773,
   19.572406768798828,
   19.329877853393555,
   17.322061538696289,
   15.917724609375,
   14.652006149291992,
   13.433248519897461,
   12.781430244445801,
   11.988276481628418,
   11.258745193481445,
   10.667593002319336,
   10.161291122436523,
   6.8425345420837402,
   5.1768178939819336,
   4.2535886764526367,
   3.5010542869567871,
   3.0996770858764648,
   2.7130255699157715,
   2.4059901237487793,
   2.2442727088928223,
   2.1482648849487305,
   1.4785053730010986,
   1.253859281539917,
   1.2699395418167114,
   1.2293722629547119,
   1.1510697603225708,
   1.0928747653961182,
   1.0152918100357056,
   1.0669043064117432,
   0.94773304462432861,
   0.95132303237915039,
   1.0765063762664795,
   0.97290164232254028,
   0.95895016193389893,
   1.0437518358230591,
   1.0970269441604614,
   1.0256375074386597,
   1.1202456951141357,
   1.0655885934829712,
   0.9725530743598938,
   1.0567029714584351,
   1.0382511615753174,
   0.92668420076370239,
   1.1042077541351318,
   1.0229653120040894,
   0.97414398193359375,
   0.87771809101104736,
   0.7523949146270752
]
