[
   2.772615909576416,
   2.7692151069641113,
   2.7711596488952637,
   2.7716848850250244,
   2.7746198177337646,
   2.767986536026001,
   2.7660291194915771,
   2.7684953212738037,
   2.7666106224060059,
   2.7702944278717041,
   2.7614731788635254,
   2.7572431564331055,
   2.7541236877441406,
   2.7481908798217773,
   2.7428162097930908,
   2.7339320182800293,
   2.7276644706726074,
   2.7224245071411133,
   2.7230806350708008,
   2.6690878868103027,
   2.6265170574188232,
   2.5889115333557129,
   2.5477414131164551,
   2.514735221862793,
   2.4814496040344238,
   2.4460625648498535,
   2.4151663780212402,
   2.3958196640014648,
   2.1778922080993652,
   2.0288107395172119,
   1.9127323627471924,
   1.8230721950531006,
   1.7428634166717529,
   1.6782745122909546,
   1.6273238658905029,
   1.5817492008209229,
   1.541792631149292,
   1.3106352090835571,
   1.2021905183792114,
   1.1570894718170166,
   1.1243473291397095,
   1.1136695146560669,
   1.0991332530975342,
   1.0642877817153931,
   1.0486894845962524,
   1.0506823062896729,
   1.0091745853424072,
   1.0056501626968384,
   0.99372875690460205,
   1.0006332397460938,
   0.98633652925491333,
   1.002044677734375,
   0.98497855663299561,
   0.98818224668502808,
   0.99426710605621338,
   0.9992595911026001,
   1.0001342296600342,
   1.0078567266464233,
   0.97256648540496826,
   0.97609806060791016,
   0.98089092969894409,
   0.990791916847229,
   0.96984493732452393,
   1.0043033361434937
]
