[
   1.7299540042877197,
   1.7286262512207031,
   1.7300087213516235,
   1.7278280258178711,
   1.7294327020645142,
   1.7284911870956421,
   1.7303884029388428,
   1.7291562557220459,
   1.7282941341400146,
   1.7277967929840088,
   1.7266381978988647,
   1.723613977432251,
   1.7242281436920166,
   1.7222278118133545,
   1.720412015914917,
   1.7210445404052734,
   1.7188594341278076,
   1.7171245813369751,
   1.7142957448959351,
   1.7024866342544556,
   1.6928325891494751,
   1.6803566217422485,
   1.6701095104217529,
   1.658893346786499,
   1.6496813297271729,
   1.6408946514129639,
   1.6323070526123047,
   1.6236884593963623,
   1.5534442663192749,
   1.5000913143157959,
   1.4609172344207764,
   1.4233043193817139,
   1.3949943780899048,
   1.3667871952056885,
   1.3453788757324219,
   1.3255090713500977,
   1.3065066337585449,
   1.1932373046875,
   1.1327735185623169,
   1.0909862518310547,
   1.0685873031616211,
   1.0569641590118408,
   1.0467551946640015,
   1.0437194108963013,
   1.0371843576431274,
   1.0322856903076172,
   1.0019642114639282,
   0.99316948652267456,
   1.0007760524749756,
   1.0094074010848999,
   0.99978530406951904,
   0.99927836656570435,
   1.0023097991943359,
   1.0044046640396118,
   0.99933826923370361,
   1.0067086219787598,
   1.016298770904541,
   1.0169365406036377,
   0.98253709077835083,
   0.98991358280181885,
   0.95866137742996216,
   0.95809125900268555,
   0.95962876081466675,
   0.92992860078811646
]
