[
   1.6594512462615967,
   1.6583716869354248,
   1.658804178237915,
   1.6581442356109619,
   1.6589988470077515,
   1.6585023403167725,
   1.6569688320159912,
   1.6574443578720093,
   1.656977653503418,
   1.6579227447509766,
   1.6572189331054688,
   1.656174898147583,
   1.6541545391082764,
   1.654380202293396,
   1.6522085666656494,
   1.6520140171051025,
   1.6493375301361084,
   1.6483907699584961,
   1.6471360921859741,
   1.6384532451629639,
   1.6277971267700195,
   1.6190639734268188,
   1.6100536584854126,
   1.5996582508087158,
   1.5941528081893921,
   1.5847156047821045,
   1.5766698122024536,
   1.5710858106613159,
   1.5091747045516968,
   1.4650394916534424,
   1.427309513092041,
   1.3959991931915283,
   1.368289589881897,
   1.3461617231369019,
   1.3255695104598999,
   1.3065159320831299,
   1.2893440723419189,
   1.1813009977340698,
   1.1275430917739868,
   1.0931044816970825,
   1.0662049055099487,
   1.0509669780731201,
   1.0415923595428467,
   1.0390284061431885,
   1.031183123588562,
   1.0271937847137451,
   1.0078486204147339,
   1.0068720579147339,
   0.98688822984695435,
   0.99543774127960205,
   0.98437404632568359,
   0.98280602693557739,
   1.0053213834762573,
   0.99945247173309326,
   0.99644136428833008,
   0.9879908561706543,
   1.0025427341461182,
   0.9915156364440918,
   1.0014081001281738,
   1.0046054124832153,
   0.97712182998657227,
   0.986686110496521,
   1.039819598197937,
   0.98056411743164062
]
