[
   1.5260574817657471,
   1.5255380868911743,
   1.5252301692962646,
   1.5245926380157471,
   1.524914026260376,
   1.5247961282730103,
   1.5250277519226074,
   1.5247032642364502,
   1.5248285531997681,
   1.5235936641693115,
   1.5236728191375732,
   1.5244771242141724,
   1.5211882591247559,
   1.5214711427688599,
   1.5215109586715698,
   1.5200740098953247,
   1.5203903913497925,
   1.5183624029159546,
   1.5193827152252197,
   1.5106779336929321,
   1.5042265653610229,
   1.4974244832992554,
   1.4911229610443115,
   1.4857680797576904,
   1.480571985244751,
   1.4743316173553467,
   1.4682962894439697,
   1.4619683027267456,
   1.4187248945236206,
   1.3820818662643433,
   1.3558896780014038,
   1.3324614763259888,
   1.3105696439743042,
   1.293498158454895,
   1.2775753736495972,
   1.2632944583892822,
   1.250403881072998,
   1.1662824153900146,
   1.1189525127410889,
   1.0888291597366333,
   1.0716584920883179,
   1.059722900390625,
   1.0472700595855713,
   1.0357295274734497,
   1.028273344039917,
   1.0250949859619141,
   1.0020785331726074,
   0.99625903367996216,
   0.99664181470870972,
   1.0081245899200439,
   1.0079936981201172,
   1.0065456628799438,
   1.0107458829879761,
   1.0057802200317383,
   1.0035269260406494,
   1.0068057775497437,
   0.99547404050827026,
   0.99628114700317383,
   0.99304085969924927,
   0.99752604961395264,
   1.0073462724685669,
   0.99326896667480469,
   0.96895444393157959,
   0.91623830795288086
]
