[
   3.2636649608612061,
   3.2657616138458252,
   3.2597858905792236,
   3.2622942924499512,
   3.2518093585968018,
   3.2625801563262939,
   3.2615208625793457,
   3.2577652931213379,
   3.2586026191711426,
   3.2549488544464111,
   3.2391891479492188,
   3.2377369403839111,
   3.2248821258544922,
   3.2193303108215332,
   3.2115275859832764,
   3.199939489364624,
   3.1954312324523926,
   3.1913759708404541,
   3.1848208904266357,
   3.1155936717987061,
   3.046806812286377,
   2.9899964332580566,
   2.9408183097839355,
   2.8839890956878662,
   2.8421714305877686,
   2.8038406372070312,
   2.7682890892028809,
   2.726478099822998,
   2.4318492412567139,
   2.2329506874084473,
   2.0837061405181885,
   1.9612791538238525,
   1.8658361434936523,
   1.7889658212661743,
   1.7186181545257568,
   1.6613531112670898,
   1.612383246421814,
   1.3415375947952271,
   1.206605076789856,
   1.1521427631378174,
   1.1035439968109131,
   1.0977855920791626,
   1.0668691396713257,
   1.0495573282241821,
   1.0280716419219971,
   1.0315885543823242,
   1.0050598382949829,
   0.98713159561157227,
   0.97110652923583984,
   0.99814385175704956,
   1.0199294090270996,
   0.99198496341705322,
   0.99583685398101807,
   0.99685943126678467,
   0.98504078388214111,
   0.97315132617950439,
   0.96799027919769287,
   0.98824226856231689,
   0.95492422580718994,
   0.99523723125457764,
   0.98042947053909302,
   1.019336462020874,
   0.94705116748809814,
   0.97795724868774414
]
