wxy = 0.071 starts replicate 0
wxy = 0.132 starts replicate 0
wxy = 0.173 starts replicate 0
wxy = 0.241 starts replicate 0
wxy = 0.295 starts replicate 0
wxy = 0.34 starts replicate 0
wxy = 0.379 starts replicate 0
wxy = 0.415 starts replicate 0
wxy = 0.448 starts replicate 0
wxy = 0.479 starts replicate 0
wxy = 0.508 starts replicate 0
wxy = 0.535 starts replicate 0
wxy = 0.561 starts replicate 0
wxy = 0.586 starts replicate 0
wxy = 0.61 starts replicate 0
wxy = 0.632 starts replicate 0
wxy = 0.071 finished replicate 0 total counts 10399
wxy = 0.071 starts replicate 1
wxy = 0.241 finished replicate 0 total counts 147783
wxy = 0.241 starts replicate 1
wxy = 0.295 finished replicate 0 total counts 228294
wxy = 0.295 starts replicate 1
wxy = 0.34 finished replicate 0 total counts 371227
wxy = 0.34 starts replicate 1
wxy = 0.173 finished replicate 0 total counts 75556
wxy = 0.173 starts replicate 1
wxy = 0.132 finished replicate 0 total counts 41793
wxy = 0.132 starts replicate 1
wxy = 0.379 finished replicate 0 total counts 404735
wxy = 0.379 starts replicate 1
wxy = 0.415 finished replicate 0 total counts 540286
wxy = 0.415 starts replicate 1
wxy = 0.448 finished replicate 0 total counts 581267
wxy = 0.448 starts replicate 1
wxy = 0.479 finished replicate 0 total counts 714890
wxy = 0.479 starts replicate 1
wxy = 0.508 finished replicate 0 total counts 812670
wxy = 0.508 starts replicate 1
wxy = 0.535 finished replicate 0 total counts 902372
wxy = 0.535 starts replicate 1
wxy = 0.561 finished replicate 0 total counts 1.12152e+06
wxy = 0.561 starts replicate 1
wxy = 0.586 finished replicate 0 total counts 1.18882e+06
wxy = 0.586 starts replicate 1
wxy = 0.61 finished replicate 0 total counts 1.31836e+06
wxy = 0.61 starts replicate 1
wxy = 0.632 finished replicate 0 total counts 1.41706e+06
wxy = 0.632 starts replicate 1
wxy = 0.071 finished replicate 1 total counts 11037
wxy = 0.071 starts replicate 2
wxy = 0.241 finished replicate 1 total counts 133716
wxy = 0.241 starts replicate 2
wxy = 0.295 finished replicate 1 total counts 264167
wxy = 0.295 starts replicate 2
wxy = 0.34 finished replicate 1 total counts 340087
wxy = 0.34 starts replicate 2
wxy = 0.379 finished replicate 1 total counts 403492
wxy = 0.379 starts replicate 2
wxy = 0.415 finished replicate 1 total counts 527028
wxy = 0.415 starts replicate 2
wxy = 0.173 finished replicate 1 total counts 72814
wxy = 0.173 starts replicate 2
wxy = 0.448 finished replicate 1 total counts 598112
wxy = 0.448 starts replicate 2
wxy = 0.479 finished replicate 1 total counts 687694
wxy = 0.479 starts replicate 2
wxy = 0.132 finished replicate 1 total counts 37928
wxy = 0.132 starts replicate 2
wxy = 0.535 finished replicate 1 total counts 932803
wxy = 0.535 starts replicate 2
wxy = 0.508 finished replicate 1 total counts 811111
wxy = 0.508 starts replicate 2
wxy = 0.561 finished replicate 1 total counts 1.15534e+06
wxy = 0.561 starts replicate 2
wxy = 0.586 finished replicate 1 total counts 1.14492e+06
wxy = 0.586 starts replicate 2
wxy = 0.61 finished replicate 1 total counts 1.55069e+06
wxy = 0.61 starts replicate 2
wxy = 0.632 finished replicate 1 total counts 1.56256e+06
wxy = 0.632 starts replicate 2
wxy = 0.071 finished replicate 2 total counts 10469
wxy = 0.071 starts replicate 3
wxy = 0.295 finished replicate 2 total counts 264842
wxy = 0.295 starts replicate 3
wxy = 0.241 finished replicate 2 total counts 144039
wxy = 0.241 starts replicate 3
wxy = 0.34 finished replicate 2 total counts 295556
wxy = 0.34 starts replicate 3
wxy = 0.379 finished replicate 2 total counts 404584
wxy = 0.379 starts replicate 3
wxy = 0.415 finished replicate 2 total counts 499011
wxy = 0.415 starts replicate 3
wxy = 0.448 finished replicate 2 total counts 577203
wxy = 0.448 starts replicate 3
wxy = 0.479 finished replicate 2 total counts 747588
wxy = 0.479 starts replicate 3
wxy = 0.535 finished replicate 2 total counts 1.01749e+06
wxy = 0.535 starts replicate 3
wxy = 0.508 finished replicate 2 total counts 794139
wxy = 0.508 starts replicate 3
wxy = 0.561 finished replicate 2 total counts 1.02725e+06
wxy = 0.561 starts replicate 3
wxy = 0.586 finished replicate 2 total counts 1.13798e+06
wxy = 0.586 starts replicate 3
wxy = 0.173 finished replicate 2 total counts 71295
wxy = 0.173 starts replicate 3
wxy = 0.632 finished replicate 2 total counts 1.59571e+06
wxy = 0.632 starts replicate 3
wxy = 0.61 finished replicate 2 total counts 1.26122e+06
wxy = 0.61 starts replicate 3
wxy = 0.132 finished replicate 2 total counts 34313
wxy = 0.132 starts replicate 3
wxy = 0.071 finished replicate 3 total counts 11554
wxy = 0.071 starts replicate 4
wxy = 0.295 finished replicate 3 total counts 241055
wxy = 0.295 starts replicate 4
wxy = 0.241 finished replicate 3 total counts 127353
wxy = 0.241 starts replicate 4
wxy = 0.34 finished replicate 3 total counts 287923
wxy = 0.34 starts replicate 4
wxy = 0.379 finished replicate 3 total counts 409320
wxy = 0.379 starts replicate 4
wxy = 0.479 finished replicate 3 total counts 752327
wxy = 0.479 starts replicate 4
wxy = 0.448 finished replicate 3 total counts 638961
wxy = 0.448 starts replicate 4
wxy = 0.415 finished replicate 3 total counts 499027
wxy = 0.415 starts replicate 4
wxy = 0.535 finished replicate 3 total counts 972632
wxy = 0.535 starts replicate 4
wxy = 0.586 finished replicate 3 total counts 1.20171e+06
wxy = 0.586 starts replicate 4
wxy = 0.561 finished replicate 3 total counts 1.04877e+06
wxy = 0.561 starts replicate 4
wxy = 0.508 finished replicate 3 total counts 883822
wxy = 0.508 starts replicate 4
wxy = 0.632 finished replicate 3 total counts 1.47227e+06
wxy = 0.632 starts replicate 4
wxy = 0.61 finished replicate 3 total counts 1.30675e+06
wxy = 0.61 starts replicate 4
wxy = 0.173 finished replicate 3 total counts 64139
wxy = 0.173 starts replicate 4
wxy = 0.132 finished replicate 3 total counts 38255
wxy = 0.132 starts replicate 4
wxy = 0.071 finished replicate 4 total counts 10723
wxy = 0.071 starts replicate 5
wxy = 0.295 finished replicate 4 total counts 257480
wxy = 0.295 starts replicate 5
wxy = 0.241 finished replicate 4 total counts 146200
wxy = 0.241 starts replicate 5
wxy = 0.34 finished replicate 4 total counts 323784
wxy = 0.34 starts replicate 5
wxy = 0.479 finished replicate 4 total counts 660633
wxy = 0.479 starts replicate 5
wxy = 0.448 finished replicate 4 total counts 643422
wxy = 0.448 starts replicate 5
wxy = 0.379 finished replicate 4 total counts 414891
wxy = 0.379 starts replicate 5
wxy = 0.535 finished replicate 4 total counts 953086
wxy = 0.535 starts replicate 5
wxy = 0.586 finished replicate 4 total counts 1.19868e+06
wxy = 0.586 starts replicate 5
wxy = 0.561 finished replicate 4 total counts 1.09716e+06
wxy = 0.561 starts replicate 5
wxy = 0.632 finished replicate 4 total counts 1.48822e+06
wxy = 0.632 starts replicate 5
wxy = 0.415 finished replicate 4 total counts 514824
wxy = 0.415 starts replicate 5
wxy = 0.508 finished replicate 4 total counts 843195
wxy = 0.508 starts replicate 5
wxy = 0.61 finished replicate 4 total counts 1.38534e+06
wxy = 0.61 starts replicate 5
wxy = 0.173 finished replicate 4 total counts 67625
wxy = 0.173 starts replicate 5
wxy = 0.132 finished replicate 4 total counts 37586
wxy = 0.132 starts replicate 5
wxy = 0.071 finished replicate 5 total counts 9060
wxy = 0.071 starts replicate 6
wxy = 0.295 finished replicate 5 total counts 258392
wxy = 0.295 starts replicate 6
wxy = 0.34 finished replicate 5 total counts 355196
wxy = 0.34 starts replicate 6
wxy = 0.241 finished replicate 5 total counts 147489
wxy = 0.241 starts replicate 6
wxy = 0.479 finished replicate 5 total counts 770877
wxy = 0.479 starts replicate 6
wxy = 0.586 finished replicate 5 total counts 1.20137e+06
wxy = 0.586 starts replicate 6
wxy = 0.448 finished replicate 5 total counts 645763
wxy = 0.448 starts replicate 6
wxy = 0.535 finished replicate 5 total counts 960702
wxy = 0.535 starts replicate 6
wxy = 0.632 finished replicate 5 total counts 1.53576e+06
wxy = 0.632 starts replicate 6
wxy = 0.561 finished replicate 5 total counts 1.00233e+06
wxy = 0.561 starts replicate 6
wxy = 0.379 finished replicate 5 total counts 410799
wxy = 0.379 starts replicate 6
wxy = 0.61 finished replicate 5 total counts 1.28532e+06
wxy = 0.61 starts replicate 6
wxy = 0.508 finished replicate 5 total counts 851695
wxy = 0.508 starts replicate 6
wxy = 0.415 finished replicate 5 total counts 505482
wxy = 0.415 starts replicate 6
wxy = 0.173 finished replicate 5 total counts 67795
wxy = 0.173 starts replicate 6
wxy = 0.132 finished replicate 5 total counts 36811
wxy = 0.132 starts replicate 6
wxy = 0.071 finished replicate 6 total counts 10216
wxy = 0.071 starts replicate 7
wxy = 0.295 finished replicate 6 total counts 216580
wxy = 0.295 starts replicate 7
wxy = 0.34 finished replicate 6 total counts 306378
wxy = 0.34 starts replicate 7
wxy = 0.479 finished replicate 6 total counts 748743
wxy = 0.479 starts replicate 7
wxy = 0.241 finished replicate 6 total counts 140193
wxy = 0.241 starts replicate 7
wxy = 0.586 finished replicate 6 total counts 1.24072e+06
wxy = 0.586 starts replicate 7
wxy = 0.632 finished replicate 6 total counts 1.45957e+06
wxy = 0.632 starts replicate 7
wxy = 0.535 finished replicate 6 total counts 989195
wxy = 0.535 starts replicate 7
wxy = 0.561 finished replicate 6 total counts 1.15842e+06
wxy = 0.561 starts replicate 7
wxy = 0.448 finished replicate 6 total counts 619040
wxy = 0.448 starts replicate 7
wxy = 0.61 finished replicate 6 total counts 1.36314e+06
wxy = 0.61 starts replicate 7
wxy = 0.379 finished replicate 6 total counts 419007
wxy = 0.379 starts replicate 7
wxy = 0.508 finished replicate 6 total counts 808125
wxy = 0.508 starts replicate 7
wxy = 0.415 finished replicate 6 total counts 524253
wxy = 0.415 starts replicate 7
wxy = 0.173 finished replicate 6 total counts 60237
wxy = 0.173 starts replicate 7
wxy = 0.132 finished replicate 6 total counts 43994
wxy = 0.132 starts replicate 7
wxy = 0.071 finished replicate 7 total counts 9824
wxy = 0.071 starts replicate 8
wxy = 0.295 finished replicate 7 total counts 208473
wxy = 0.295 starts replicate 8
wxy = 0.479 finished replicate 7 total counts 717222
wxy = 0.479 starts replicate 8
wxy = 0.632 finished replicate 7 total counts 1.51479e+06
wxy = 0.632 starts replicate 8
wxy = 0.586 finished replicate 7 total counts 1.16312e+06
wxy = 0.586 starts replicate 8
wxy = 0.34 finished replicate 7 total counts 316301
wxy = 0.34 starts replicate 8
wxy = 0.241 finished replicate 7 total counts 141521
wxy = 0.241 starts replicate 8
wxy = 0.561 finished replicate 7 total counts 1.14732e+06
wxy = 0.561 starts replicate 8
wxy = 0.535 finished replicate 7 total counts 1.03012e+06
wxy = 0.535 starts replicate 8
wxy = 0.448 finished replicate 7 total counts 647412
wxy = 0.448 starts replicate 8
wxy = 0.61 finished replicate 7 total counts 1.27195e+06
wxy = 0.61 starts replicate 8
wxy = 0.508 finished replicate 7 total counts 904820
wxy = 0.508 starts replicate 8
wxy = 0.379 finished replicate 7 total counts 370852
wxy = 0.379 starts replicate 8
wxy = 0.415 finished replicate 7 total counts 509695
wxy = 0.415 starts replicate 8
wxy = 0.173 finished replicate 7 total counts 63700
wxy = 0.173 starts replicate 8
wxy = 0.132 finished replicate 7 total counts 34049
wxy = 0.132 starts replicate 8
wxy = 0.071 finished replicate 8 total counts 12575
wxy = 0.071 starts replicate 9
wxy = 0.295 finished replicate 8 total counts 224702
wxy = 0.295 starts replicate 9
wxy = 0.632 finished replicate 8 total counts 1.42416e+06
wxy = 0.632 starts replicate 9
wxy = 0.586 finished replicate 8 total counts 1.17006e+06
wxy = 0.586 starts replicate 9
wxy = 0.479 finished replicate 8 total counts 746538
wxy = 0.479 starts replicate 9
wxy = 0.535 finished replicate 8 total counts 1.00332e+06
wxy = 0.535 starts replicate 9
wxy = 0.561 finished replicate 8 total counts 1.00377e+06
wxy = 0.561 starts replicate 9
wxy = 0.34 finished replicate 8 total counts 308039
wxy = 0.34 starts replicate 9
wxy = 0.61 finished replicate 8 total counts 1.17729e+06
wxy = 0.61 starts replicate 9
wxy = 0.241 finished replicate 8 total counts 145816
wxy = 0.241 starts replicate 9
wxy = 0.448 finished replicate 8 total counts 625550
wxy = 0.448 starts replicate 9
wxy = 0.508 finished replicate 8 total counts 774631
wxy = 0.508 starts replicate 9
wxy = 0.379 finished replicate 8 total counts 436937
wxy = 0.379 starts replicate 9
wxy = 0.415 finished replicate 8 total counts 476568
wxy = 0.415 starts replicate 9
wxy = 0.173 finished replicate 8 total counts 79804
wxy = 0.173 starts replicate 9
wxy = 0.132 finished replicate 8 total counts 37047
wxy = 0.132 starts replicate 9
wxy = 0.071 finished replicate 9 total counts 11905
wxy = 0.071 starts replicate 10
wxy = 0.632 finished replicate 9 total counts 1.45502e+06
wxy = 0.632 starts replicate 10
wxy = 0.295 finished replicate 9 total counts 236767
wxy = 0.295 starts replicate 10
wxy = 0.586 finished replicate 9 total counts 1.17346e+06
wxy = 0.586 starts replicate 10
wxy = 0.479 finished replicate 9 total counts 753676
wxy = 0.479 starts replicate 10
wxy = 0.561 finished replicate 9 total counts 1.04768e+06
wxy = 0.561 starts replicate 10
wxy = 0.535 finished replicate 9 total counts 994571
wxy = 0.535 starts replicate 10
wxy = 0.61 finished replicate 9 total counts 1.30801e+06
wxy = 0.61 starts replicate 10
wxy = 0.34 finished replicate 9 total counts 334582
wxy = 0.34 starts replicate 10
wxy = 0.448 finished replicate 9 total counts 592642
wxy = 0.448 starts replicate 10
wxy = 0.241 finished replicate 9 total counts 171698
wxy = 0.241 starts replicate 10
wxy = 0.508 finished replicate 9 total counts 830795
wxy = 0.508 starts replicate 10
wxy = 0.379 finished replicate 9 total counts 449237
wxy = 0.379 starts replicate 10
wxy = 0.415 finished replicate 9 total counts 565227
wxy = 0.415 starts replicate 10
wxy = 0.173 finished replicate 9 total counts 62248
wxy = 0.173 starts replicate 10
wxy = 0.132 finished replicate 9 total counts 37375
wxy = 0.132 starts replicate 10
wxy = 0.071 finished replicate 10 total counts 11115
wxy = 0.071 starts replicate 11
wxy = 0.632 finished replicate 10 total counts 1.46959e+06
wxy = 0.632 starts replicate 11
wxy = 0.586 finished replicate 10 total counts 1.10022e+06
wxy = 0.586 starts replicate 11
wxy = 0.295 finished replicate 10 total counts 236471
wxy = 0.295 starts replicate 11
wxy = 0.479 finished replicate 10 total counts 840977
wxy = 0.479 starts replicate 11
wxy = 0.561 finished replicate 10 total counts 1.10634e+06
wxy = 0.561 starts replicate 11
wxy = 0.535 finished replicate 10 total counts 950501
wxy = 0.535 starts replicate 11
wxy = 0.61 finished replicate 10 total counts 1.30656e+06
wxy = 0.61 starts replicate 11
wxy = 0.34 finished replicate 10 total counts 340112
wxy = 0.34 starts replicate 11
wxy = 0.448 finished replicate 10 total counts 567274
wxy = 0.448 starts replicate 11
wxy = 0.508 finished replicate 10 total counts 767465
wxy = 0.508 starts replicate 11
wxy = 0.241 finished replicate 10 total counts 148636
wxy = 0.241 starts replicate 11
wxy = 0.379 finished replicate 10 total counts 396436
wxy = 0.379 starts replicate 11
wxy = 0.415 finished replicate 10 total counts 530260
wxy = 0.415 starts replicate 11
wxy = 0.173 finished replicate 10 total counts 73308
wxy = 0.173 starts replicate 11
wxy = 0.132 finished replicate 10 total counts 30625
wxy = 0.132 starts replicate 11
wxy = 0.071 finished replicate 11 total counts 12059
wxy = 0.071 starts replicate 12
wxy = 0.632 finished replicate 11 total counts 1.49432e+06
wxy = 0.632 starts replicate 12
wxy = 0.586 finished replicate 11 total counts 1.04472e+06
wxy = 0.586 starts replicate 12
wxy = 0.479 finished replicate 11 total counts 718803
wxy = 0.479 starts replicate 12
wxy = 0.561 finished replicate 11 total counts 1.06139e+06
wxy = 0.561 starts replicate 12
wxy = 0.295 finished replicate 11 total counts 266635
wxy = 0.295 starts replicate 12
wxy = 0.535 finished replicate 11 total counts 891475
wxy = 0.535 starts replicate 12
wxy = 0.61 finished replicate 11 total counts 1.47772e+06
wxy = 0.61 starts replicate 12
wxy = 0.34 finished replicate 11 total counts 279186
wxy = 0.34 starts replicate 12
wxy = 0.448 finished replicate 11 total counts 585604
wxy = 0.448 starts replicate 12
wxy = 0.508 finished replicate 11 total counts 788676
wxy = 0.508 starts replicate 12
wxy = 0.241 finished replicate 11 total counts 142109
wxy = 0.241 starts replicate 12
wxy = 0.379 finished replicate 11 total counts 407900
wxy = 0.379 starts replicate 12
wxy = 0.415 finished replicate 11 total counts 471843
wxy = 0.415 starts replicate 12
wxy = 0.173 finished replicate 11 total counts 67888
wxy = 0.173 starts replicate 12
wxy = 0.132 finished replicate 11 total counts 37697
wxy = 0.132 starts replicate 12
wxy = 0.071 finished replicate 12 total counts 8941
wxy = 0.071 starts replicate 13
wxy = 0.632 finished replicate 12 total counts 1.44609e+06
wxy = 0.632 starts replicate 13
wxy = 0.586 finished replicate 12 total counts 1.28582e+06
wxy = 0.586 starts replicate 13
wxy = 0.479 finished replicate 12 total counts 693855
wxy = 0.479 starts replicate 13
wxy = 0.561 finished replicate 12 total counts 1.1381e+06
wxy = 0.561 starts replicate 13
wxy = 0.535 finished replicate 12 total counts 925075
wxy = 0.535 starts replicate 13
wxy = 0.61 finished replicate 12 total counts 1.42871e+06
wxy = 0.61 starts replicate 13
wxy = 0.295 finished replicate 12 total counts 211392
wxy = 0.295 starts replicate 13
wxy = 0.508 finished replicate 12 total counts 803225
wxy = 0.508 starts replicate 13
wxy = 0.448 finished replicate 12 total counts 566140
wxy = 0.448 starts replicate 13
wxy = 0.34 finished replicate 12 total counts 344029
wxy = 0.34 starts replicate 13
wxy = 0.241 finished replicate 12 total counts 150498
wxy = 0.241 starts replicate 13
wxy = 0.379 finished replicate 12 total counts 356144
wxy = 0.379 starts replicate 13
wxy = 0.415 finished replicate 12 total counts 489885
wxy = 0.415 starts replicate 13
wxy = 0.173 finished replicate 12 total counts 72742
wxy = 0.173 starts replicate 13
wxy = 0.132 finished replicate 12 total counts 42589
wxy = 0.132 starts replicate 13
wxy = 0.071 finished replicate 13 total counts 10984
wxy = 0.071 starts replicate 14
wxy = 0.632 finished replicate 13 total counts 1.2769e+06
wxy = 0.632 starts replicate 14
wxy = 0.586 finished replicate 13 total counts 1.21749e+06
wxy = 0.586 starts replicate 14
wxy = 0.479 finished replicate 13 total counts 653419
wxy = 0.479 starts replicate 14
wxy = 0.561 finished replicate 13 total counts 1.10714e+06
wxy = 0.561 starts replicate 14
wxy = 0.535 finished replicate 13 total counts 891962
wxy = 0.535 starts replicate 14
wxy = 0.61 finished replicate 13 total counts 1.32283e+06
wxy = 0.61 starts replicate 14
wxy = 0.295 finished replicate 13 total counts 215938
wxy = 0.295 starts replicate 14
wxy = 0.508 finished replicate 13 total counts 916217
wxy = 0.508 starts replicate 14
wxy = 0.448 finished replicate 13 total counts 563078
wxy = 0.448 starts replicate 14
wxy = 0.34 finished replicate 13 total counts 318919
wxy = 0.34 starts replicate 14
wxy = 0.241 finished replicate 13 total counts 150659
wxy = 0.241 starts replicate 14
wxy = 0.379 finished replicate 13 total counts 396061
wxy = 0.379 starts replicate 14
wxy = 0.415 finished replicate 13 total counts 565495
wxy = 0.415 starts replicate 14
wxy = 0.173 finished replicate 13 total counts 67904
wxy = 0.173 starts replicate 14
wxy = 0.071 finished replicate 14 total counts 12425
wxy = 0.071 starts replicate 15
wxy = 0.132 finished replicate 13 total counts 37234
wxy = 0.132 starts replicate 14
wxy = 0.632 finished replicate 14 total counts 1.51106e+06
wxy = 0.632 starts replicate 15
wxy = 0.586 finished replicate 14 total counts 1.08397e+06
wxy = 0.586 starts replicate 15
wxy = 0.479 finished replicate 14 total counts 707074
wxy = 0.479 starts replicate 15
wxy = 0.561 finished replicate 14 total counts 1.08013e+06
wxy = 0.561 starts replicate 15
wxy = 0.535 finished replicate 14 total counts 982868
wxy = 0.535 starts replicate 15
wxy = 0.61 finished replicate 14 total counts 1.35636e+06
wxy = 0.61 starts replicate 15
wxy = 0.295 finished replicate 14 total counts 202099
wxy = 0.295 starts replicate 15
wxy = 0.508 finished replicate 14 total counts 845637
wxy = 0.508 starts replicate 15
wxy = 0.448 finished replicate 14 total counts 571445
wxy = 0.448 starts replicate 15
wxy = 0.34 finished replicate 14 total counts 324981
wxy = 0.34 starts replicate 15
wxy = 0.241 finished replicate 14 total counts 146856
wxy = 0.241 starts replicate 15
wxy = 0.379 finished replicate 14 total counts 430873
wxy = 0.379 starts replicate 15
wxy = 0.415 finished replicate 14 total counts 526779
wxy = 0.415 starts replicate 15
wxy = 0.173 finished replicate 14 total counts 62843
wxy = 0.173 starts replicate 15
wxy = 0.071 finished replicate 15 total counts 9833
wxy = 0.071 starts replicate 16
wxy = 0.132 finished replicate 14 total counts 40324
wxy = 0.132 starts replicate 15
wxy = 0.632 finished replicate 15 total counts 1.45848e+06
wxy = 0.632 starts replicate 16
wxy = 0.586 finished replicate 15 total counts 1.26945e+06
wxy = 0.586 starts replicate 16
wxy = 0.561 finished replicate 15 total counts 1.11826e+06
wxy = 0.561 starts replicate 16
wxy = 0.479 finished replicate 15 total counts 763904
wxy = 0.479 starts replicate 16
wxy = 0.61 finished replicate 15 total counts 1.24943e+06
wxy = 0.61 starts replicate 16
wxy = 0.535 finished replicate 15 total counts 915183
wxy = 0.535 starts replicate 16
wxy = 0.295 finished replicate 15 total counts 227466
wxy = 0.295 starts replicate 16
wxy = 0.508 finished replicate 15 total counts 893529
wxy = 0.508 starts replicate 16
wxy = 0.448 finished replicate 15 total counts 609688
wxy = 0.448 starts replicate 16
wxy = 0.34 finished replicate 15 total counts 361848
wxy = 0.34 starts replicate 16
wxy = 0.241 finished replicate 15 total counts 148306
wxy = 0.241 starts replicate 16
wxy = 0.379 finished replicate 15 total counts 376352
wxy = 0.379 starts replicate 16
wxy = 0.415 finished replicate 15 total counts 515969
wxy = 0.415 starts replicate 16
wxy = 0.173 finished replicate 15 total counts 62687
wxy = 0.173 starts replicate 16
wxy = 0.071 finished replicate 16 total counts 10053
wxy = 0.071 starts replicate 17
wxy = 0.132 finished replicate 15 total counts 36609
wxy = 0.132 starts replicate 16
wxy = 0.632 finished replicate 16 total counts 1.4697e+06
wxy = 0.632 starts replicate 17
wxy = 0.586 finished replicate 16 total counts 1.13984e+06
wxy = 0.586 starts replicate 17
wxy = 0.561 finished replicate 16 total counts 1.12927e+06
wxy = 0.561 starts replicate 17
wxy = 0.479 finished replicate 16 total counts 776258
wxy = 0.479 starts replicate 17
wxy = 0.61 finished replicate 16 total counts 1.41607e+06
wxy = 0.61 starts replicate 17
wxy = 0.535 finished replicate 16 total counts 1.05863e+06
wxy = 0.535 starts replicate 17
wxy = 0.295 finished replicate 16 total counts 249111
wxy = 0.295 starts replicate 17
wxy = 0.508 finished replicate 16 total counts 844442
wxy = 0.508 starts replicate 17
wxy = 0.448 finished replicate 16 total counts 613961
wxy = 0.448 starts replicate 17
wxy = 0.34 finished replicate 16 total counts 366938
wxy = 0.34 starts replicate 17
wxy = 0.241 finished replicate 16 total counts 138414
wxy = 0.241 starts replicate 17
wxy = 0.379 finished replicate 16 total counts 405418
wxy = 0.379 starts replicate 17
wxy = 0.415 finished replicate 16 total counts 542719
wxy = 0.415 starts replicate 17
wxy = 0.071 finished replicate 17 total counts 11855
wxy = 0.071 starts replicate 18
wxy = 0.173 finished replicate 16 total counts 54904
wxy = 0.173 starts replicate 17
wxy = 0.632 finished replicate 17 total counts 1.40645e+06
wxy = 0.632 starts replicate 18
wxy = 0.586 finished replicate 17 total counts 1.10468e+06
wxy = 0.586 starts replicate 18
wxy = 0.132 finished replicate 16 total counts 34391
wxy = 0.132 starts replicate 17
wxy = 0.561 finished replicate 17 total counts 1.17113e+06
wxy = 0.561 starts replicate 18
wxy = 0.479 finished replicate 17 total counts 755213
wxy = 0.479 starts replicate 18
wxy = 0.61 finished replicate 17 total counts 1.39156e+06
wxy = 0.61 starts replicate 18
wxy = 0.535 finished replicate 17 total counts 948705
wxy = 0.535 starts replicate 18
wxy = 0.508 finished replicate 17 total counts 741924
wxy = 0.508 starts replicate 18
wxy = 0.295 finished replicate 17 total counts 198602
wxy = 0.295 starts replicate 18
wxy = 0.448 finished replicate 17 total counts 603685
wxy = 0.448 starts replicate 18
wxy = 0.34 finished replicate 17 total counts 344203
wxy = 0.34 starts replicate 18
wxy = 0.241 finished replicate 17 total counts 153382
wxy = 0.241 starts replicate 18
wxy = 0.379 finished replicate 17 total counts 429053
wxy = 0.379 starts replicate 18
wxy = 0.415 finished replicate 17 total counts 521832
wxy = 0.415 starts replicate 18
wxy = 0.071 finished replicate 18 total counts 7715
wxy = 0.071 starts replicate 19
wxy = 0.173 finished replicate 17 total counts 63222
wxy = 0.173 starts replicate 18
wxy = 0.632 finished replicate 18 total counts 1.36811e+06
wxy = 0.632 starts replicate 19
wxy = 0.586 finished replicate 18 total counts 1.0872e+06
wxy = 0.586 starts replicate 19
wxy = 0.561 finished replicate 18 total counts 1.01516e+06
wxy = 0.561 starts replicate 19
wxy = 0.61 finished replicate 18 total counts 1.35607e+06
wxy = 0.61 starts replicate 19
wxy = 0.479 finished replicate 18 total counts 699318
wxy = 0.479 starts replicate 19
wxy = 0.535 finished replicate 18 total counts 1.022e+06
wxy = 0.535 starts replicate 19
wxy = 0.132 finished replicate 17 total counts 31611
wxy = 0.132 starts replicate 18
wxy = 0.508 finished replicate 18 total counts 899722
wxy = 0.508 starts replicate 19
wxy = 0.295 finished replicate 18 total counts 246768
wxy = 0.295 starts replicate 19
wxy = 0.448 finished replicate 18 total counts 630406
wxy = 0.448 starts replicate 19
wxy = 0.34 finished replicate 18 total counts 317591
wxy = 0.34 starts replicate 19
wxy = 0.241 finished replicate 18 total counts 137086
wxy = 0.241 starts replicate 19
wxy = 0.379 finished replicate 18 total counts 474157
wxy = 0.379 starts replicate 19
wxy = 0.415 finished replicate 18 total counts 497141
wxy = 0.415 starts replicate 19
wxy = 0.071 finished replicate 19 total counts 9602
wxy = 0.173 finished replicate 18 total counts 74015
wxy = 0.173 starts replicate 19
wxy = 0.632 finished replicate 19 total counts 1.55488e+06
wxy = 0.586 finished replicate 19 total counts 1.20383e+06
wxy = 0.561 finished replicate 19 total counts 1.06796e+06
wxy = 0.61 finished replicate 19 total counts 1.39766e+06
wxy = 0.479 finished replicate 19 total counts 718741
wxy = 0.535 finished replicate 19 total counts 980432
wxy = 0.295 finished replicate 19 total counts 262110
wxy = 0.508 finished replicate 19 total counts 870008
wxy = 0.132 finished replicate 18 total counts 37734
wxy = 0.132 starts replicate 19
wxy = 0.34 finished replicate 19 total counts 306818
wxy = 0.448 finished replicate 19 total counts 734165
wxy = 0.241 finished replicate 19 total counts 132465
wxy = 0.379 finished replicate 19 total counts 427822
wxy = 0.415 finished replicate 19 total counts 493401
wxy = 0.173 finished replicate 19 total counts 67854
wxy = 0.132 finished replicate 19 total counts 37508
