[
   2.7812607288360596,
   2.7824203968048096,
   2.7771131992340088,
   2.7799181938171387,
   2.7739124298095703,
   2.7757229804992676,
   2.7766733169555664,
   2.7745678424835205,
   2.7744288444519043,
   2.7724642753601074,
   2.7614691257476807,
   2.7560074329376221,
   2.7365055084228516,
   2.7250714302062988,
   2.7158880233764648,
   2.7139146327972412,
   2.6981844902038574,
   2.6923816204071045,
   2.6768689155578613,
   2.5963854789733887,
   2.5206499099731445,
   2.455791711807251,
   2.3977279663085938,
   2.3437917232513428,
   2.2958245277404785,
   2.2527077198028564,
   2.2100205421447754,
   2.1714749336242676,
   1.9034353494644165,
   1.7359564304351807,
   1.6122591495513916,
   1.5209287405014038,
   1.4496530294418335,
   1.398267388343811,
   1.3549611568450928,
   1.3146371841430664,
   1.2868332862854004,
   1.1296331882476807,
   1.0662930011749268,
   1.0276448726654053,
   1.0253254175186157,
   1.0162712335586548,
   1.0168303251266479,
   1.0070688724517822,
   0.99590998888015747,
   0.98940408229827881,
   0.99362313747406006,
   0.98843908309936523,
   1.0056964159011841,
   1.0063135623931885,
   0.99536550045013428,
   1.0073258876800537,
   1.0101649761199951,
   1.0012198686599731,
   1.0094932317733765,
   1.0100624561309814,
   1.0108845233917236,
   0.9840887188911438,
   1.003148078918457,
   0.9693070650100708,
   0.99738442897796631,
   0.95600825548171997,
   0.96535146236419678,
   0.91989433765411377
]
