[
   5.5360898971557617,
   5.5141825675964355,
   5.5330677032470703,
   5.5216336250305176,
   5.5183906555175781,
   5.4969949722290039,
   5.4973387718200684,
   5.4966058731079102,
   5.4966726303100586,
   5.4895157814025879,
   5.4427080154418945,
   5.3952479362487793,
   5.3517093658447266,
   5.2939538955688477,
   5.269129753112793,
   5.2406868934631348,
   5.2058901786804199,
   5.1656789779663086,
   5.1208600997924805,
   4.8187170028686523,
   4.5678281784057617,
   4.3516931533813477,
   4.1883716583251953,
   4.0216646194458008,
   3.8803761005401611,
   3.7943637371063232,
   3.6645379066467285,
   3.5604770183563232,
   2.837543249130249,
   2.4165265560150146,
   2.1284890174865723,
   1.9372289180755615,
   1.7697960138320923,
   1.6817781925201416,
   1.5781975984573364,
   1.4946963787078857,
   1.4291732311248779,
   1.1392818689346313,
   1.0885146856307983,
   1.0554509162902832,
   1.0472064018249512,
   1.0324101448059082,
   1.0374963283538818,
   1.0400336980819702,
   1.0309869050979614,
   1.0332317352294922,
   1.0322444438934326,
   0.99809664487838745,
   0.97299784421920776,
   0.96963757276535034,
   0.99139106273651123,
   0.98053181171417236,
   0.994484543800354,
   0.98150074481964111,
   0.98058956861495972,
   1.0059826374053955,
   0.96544206142425537,
   0.96883934736251831,
   1.003139853477478,
   1.012188196182251,
   1.0629816055297852,
   1.0185670852661133,
   1.0358301401138306,
   1.0370540618896484
]
