[
   2.188856840133667,
   2.1865842342376709,
   2.1876873970031738,
   2.185671329498291,
   2.188692569732666,
   2.1867971420288086,
   2.1881473064422607,
   2.1860108375549316,
   2.1858150959014893,
   2.1874589920043945,
   2.1790258884429932,
   2.1767745018005371,
   2.1709823608398438,
   2.1634058952331543,
   2.1535797119140625,
   2.1536533832550049,
   2.1431078910827637,
   2.1422512531280518,
   2.1350009441375732,
   2.0865607261657715,
   2.0406641960144043,
   2.0082685947418213,
   1.970502495765686,
   1.9374563694000244,
   1.9089381694793701,
   1.8804613351821899,
   1.8483238220214844,
   1.8307275772094727,
   1.6538441181182861,
   1.5421078205108643,
   1.4606965780258179,
   1.3973972797393799,
   1.3454896211624146,
   1.3060234785079956,
   1.2751590013504028,
   1.2491333484649658,
   1.2286039590835571,
   1.1053264141082764,
   1.0599610805511475,
   1.031503438949585,
   1.0232864618301392,
   1.0210343599319458,
   1.0184247493743896,
   1.0098127126693726,
   1.0032367706298828,
   0.99545729160308838,
   0.99366635084152222,
   1.0042588710784912,
   0.99823588132858276,
   1.0057977437973022,
   1.000556468963623,
   0.99183672666549683,
   0.99851095676422119,
   0.99724471569061279,
   1.0018662214279175,
   0.99093306064605713,
   1.0052964687347412,
   0.99861401319503784,
   0.98156768083572388,
   1.0114696025848389,
   1.0068877935409546,
   0.99084979295730591,
   0.96954917907714844,
   0.99772042036056519
]
