[
   1.7731508016586304,
   1.7735258340835571,
   1.7722889184951782,
   1.7697817087173462,
   1.770926833152771,
   1.7719618082046509,
   1.7722585201263428,
   1.7698676586151123,
   1.7707170248031616,
   1.7704026699066162,
   1.7653461694717407,
   1.7651628255844116,
   1.7605981826782227,
   1.7603013515472412,
   1.7540051937103271,
   1.7531423568725586,
   1.751617431640625,
   1.7482255697250366,
   1.7457981109619141,
   1.7188352346420288,
   1.6975876092910767,
   1.676491379737854,
   1.6567296981811523,
   1.637027382850647,
   1.6204776763916016,
   1.6050713062286377,
   1.590596079826355,
   1.5739637613296509,
   1.4693633317947388,
   1.3960540294647217,
   1.3438994884490967,
   1.3024628162384033,
   1.2692464590072632,
   1.2421032190322876,
   1.2193852663040161,
   1.1994144916534424,
   1.1832344532012939,
   1.0910196304321289,
   1.0559638738632202,
   1.0374921560287476,
   1.0297144651412964,
   1.0219545364379883,
   1.0139873027801514,
   1.0086464881896973,
   1.0080780982971191,
   1.0098936557769775,
   0.99675142765045166,
   0.9995916485786438,
   0.99882698059082031,
   1.0022732019424438,
   0.99989211559295654,
   1.0003528594970703,
   0.99989539384841919,
   1.0038826465606689,
   0.99792206287384033,
   0.98814713954925537,
   0.98755675554275513,
   0.98168671131134033,
   0.99610692262649536,
   1.0185401439666748,
   1.0282013416290283,
   0.99862682819366455,
   1.0362385511398315,
   1.0587654113769531
]
