[
   35.914337158203125,
   36.270603179931641,
   36.331718444824219,
   36.057849884033203,
   35.962017059326172,
   36.001167297363281,
   35.820640563964844,
   35.242603302001953,
   35.604240417480469,
   35.301994323730469,
   34.093864440917969,
   33.335105895996094,
   32.667129516601562,
   31.871265411376953,
   30.925516128540039,
   30.162649154663086,
   29.448497772216797,
   29.16009521484375,
   28.608028411865234,
   24.631044387817383,
   21.709728240966797,
   19.801780700683594,
   17.826601028442383,
   16.06605339050293,
   14.643959045410156,
   13.67717456817627,
   12.752440452575684,
   11.934946060180664,
   7.1450586318969727,
   4.9767847061157227,
   3.8697764873504639,
   3.1891746520996094,
   2.6682381629943848,
   2.4389557838439941,
   2.0142006874084473,
   1.8481314182281494,
   1.8644487857818604,
   1.1411583423614502,
   1.0883896350860596,
   0.99300146102905273,
   0.91040295362472534,
   1.0588114261627197,
   1.0313578844070435,
   1.0595955848693848,
   1.000118613243103,
   0.94823205471038818,
   0.97143876552581787,
   1.0999760627746582,
   0.97046250104904175,
   0.93320590257644653,
   0.96439391374588013,
   0.90493279695510864,
   0.78747689723968506,
   0.97994357347488403,
   0.94067126512527466,
   0.89679795503616333,
   0.93469029664993286,
   0.98002356290817261,
   1.0164512395858765,
   0.82896947860717773,
   0.87242299318313599,
   1.0646955966949463,
   1.2940952777862549,
   1.0378797054290771
]
