[
   1.3933976888656616,
   1.3931050300598145,
   1.3929375410079956,
   1.3936769962310791,
   1.3933130502700806,
   1.3929300308227539,
   1.3929846286773682,
   1.3925203084945679,
   1.393193244934082,
   1.3921276330947876,
   1.3926347494125366,
   1.3926123380661011,
   1.3926659822463989,
   1.3921597003936768,
   1.3915209770202637,
   1.3913354873657227,
   1.3902438879013062,
   1.390654444694519,
   1.3907968997955322,
   1.3875223398208618,
   1.3852976560592651,
   1.3823959827423096,
   1.3806853294372559,
   1.3795397281646729,
   1.376451849937439,
   1.3748782873153687,
   1.3727990388870239,
   1.37047278881073,
   1.355884313583374,
   1.3428233861923218,
   1.3329348564147949,
   1.3230552673339844,
   1.3141310214996338,
   1.3059909343719482,
   1.2970032691955566,
   1.2901465892791748,
   1.2839194536209106,
   1.2250576019287109,
   1.1836026906967163,
   1.1505904197692871,
   1.1260001659393311,
   1.1038516759872437,
   1.08744215965271,
   1.0733096599578857,
   1.0608766078948975,
   1.0540521144866943,
   1.0088498592376709,
   0.99978142976760864,
   0.99932938814163208,
   0.99995642900466919,
   0.9977341890335083,
   0.99883824586868286,
   0.99638497829437256,
   1.0014188289642334,
   0.99201667308807373,
   1.008561372756958,
   1.0028742551803589,
   0.99925458431243896,
   1.0033611059188843,
   0.99532109498977661,
   0.97450798749923706,
   0.98863089084625244,
   1.0012590885162354,
   0.94369018077850342
]
