[
   1.3520944118499756,
   1.3520737886428833,
   1.3519819974899292,
   1.352110743522644,
   1.352037787437439,
   1.3522995710372925,
   1.3515818119049072,
   1.3515708446502686,
   1.3518569469451904,
   1.3524148464202881,
   1.3517600297927856,
   1.3515182733535767,
   1.3513038158416748,
   1.3503127098083496,
   1.3508995771408081,
   1.3501315116882324,
   1.3499763011932373,
   1.3497211933135986,
   1.3502185344696045,
   1.3475821018218994,
   1.3447326421737671,
   1.3426321744918823,
   1.3414068222045898,
   1.3393869400024414,
   1.3379031419754028,
   1.3360803127288818,
   1.3344137668609619,
   1.3336832523345947,
   1.3192225694656372,
   1.3083999156951904,
   1.2984234094619751,
   1.2903908491134644,
   1.2830121517181396,
   1.2751564979553223,
   1.2680740356445312,
   1.2613300085067749,
   1.2548338174819946,
   1.205575704574585,
   1.1691557168960571,
   1.1410039663314819,
   1.1249730587005615,
   1.1070841550827026,
   1.0918534994125366,
   1.0824286937713623,
   1.0730867385864258,
   1.068794846534729,
   1.0306295156478882,
   1.008818507194519,
   1.0020077228546143,
   0.98478853702545166,
   0.97951203584671021,
   0.98525047302246094,
   0.98887902498245239,
   0.98036319017410278,
   0.98662453889846802,
   0.99197328090667725,
   0.98576086759567261,
   0.99499112367630005,
   0.99595469236373901,
   0.9943920373916626,
   0.99882423877716064,
   0.99490892887115479,
   1.0196677446365356,
   1.0970457792282104
]
