[
   39.080619812011719,
   39.652172088623047,
   39.003730773925781,
   38.911540985107422,
   39.288295745849609,
   39.037403106689453,
   38.547794342041016,
   38.806175231933594,
   39.026416778564453,
   38.93438720703125,
   38.165065765380859,
   37.844215393066406,
   37.525192260742188,
   36.701332092285156,
   36.277023315429688,
   35.987293243408203,
   35.591663360595703,
   35.29248046875,
   34.749488830566406,
   31.029973983764648,
   28.296115875244141,
   25.81890869140625,
   24.165403366088867,
   22.476236343383789,
   21.211177825927734,
   19.560300827026367,
   18.476850509643555,
   17.414276123046875,
   11.420458793640137,
   8.6585378646850586,
   7.0578994750976562,
   5.7413015365600586,
   4.8389253616333008,
   4.3768563270568848,
   3.7987346649169922,
   3.4591166973114014,
   3.1905035972595215,
   1.9235435724258423,
   1.532602071762085,
   1.3833954334259033,
   1.3413277864456177,
   1.20719313621521,
   1.3050175905227661,
   1.4019742012023926,
   1.1906212568283081,
   1.2080821990966797,
   1.0348864793777466,
   0.78999394178390503,
   1.0190962553024292,
   1.0379425287246704,
   0.82107651233673096,
   0.80699813365936279,
   0.97108423709869385,
   0.93364632129669189,
   0.93234837055206299,
   0.918540358543396,
   0.9953838586807251,
   0.89293563365936279,
   0.96467220783233643,
   1.1127063035964966,
   1.1322546005249023,
   0.70789718627929688,
   1.106015682220459,
   1.1157374382019043
]
