[
   1.5182716846466064,
   1.5170518159866333,
   1.5178995132446289,
   1.5168229341506958,
   1.5165648460388184,
   1.517026424407959,
   1.5163676738739014,
   1.517206072807312,
   1.5161936283111572,
   1.5168232917785645,
   1.5152003765106201,
   1.5154836177825928,
   1.5163588523864746,
   1.5159095525741577,
   1.5142931938171387,
   1.5150574445724487,
   1.5141140222549438,
   1.5135304927825928,
   1.5128922462463379,
   1.5097217559814453,
   1.5055036544799805,
   1.5014493465423584,
   1.498793363571167,
   1.4962279796600342,
   1.4928123950958252,
   1.4899104833602905,
   1.4877637624740601,
   1.484088659286499,
   1.4617311954498291,
   1.4427978992462158,
   1.4287294149398804,
   1.41473388671875,
   1.4006056785583496,
   1.3883565664291382,
   1.3771803379058838,
   1.365851879119873,
   1.3547508716583252,
   1.2753288745880127,
   1.2214201688766479,
   1.1830333471298218,
   1.1513426303863525,
   1.1247274875640869,
   1.1048529148101807,
   1.0905239582061768,
   1.0792124271392822,
   1.0741763114929199,
   1.0281835794448853,
   1.0080798864364624,
   1.0051206350326538,
   1.0111703872680664,
   1.0030620098114014,
   1.0116430521011353,
   1.0090454816818237,
   1.0187891721725464,
   1.0178477764129639,
   1.0136400461196899,
   1.0162783861160278,
   1.0214844942092896,
   1.0255955457687378,
   0.99042093753814697,
   0.95950394868850708,
   0.93574637174606323,
   0.95335710048675537,
   0.93481600284576416
]
