[
   6.8526167869567871,
   6.8543539047241211,
   6.8537688255310059,
   6.8849687576293945,
   6.8605775833129883,
   6.8644242286682129,
   6.8524374961853027,
   6.8590860366821289,
   6.8422279357910156,
   6.8410658836364746,
   6.8283720016479492,
   6.8091254234313965,
   6.7841200828552246,
   6.7656569480895996,
   6.7417564392089844,
   6.7326254844665527,
   6.6875429153442383,
   6.6920919418334961,
   6.6549539566040039,
   6.5300474166870117,
   6.3894119262695312,
   6.2747869491577148,
   6.1625547409057617,
   6.0390830039978027,
   5.9372496604919434,
   5.8681669235229492,
   5.7690553665161133,
   5.6883363723754883,
   4.903681755065918,
   4.3536396026611328,
   3.9220318794250488,
   3.5786311626434326,
   3.324812650680542,
   3.0956411361694336,
   2.9038960933685303,
   2.7309434413909912,
   2.5850706100463867,
   1.9157257080078125,
   1.6110165119171143,
   1.4421529769897461,
   1.3389651775360107,
   1.2753355503082275,
   1.2401247024536133,
   1.251509428024292,
   1.1624835729598999,
   1.1815555095672607,
   1.0462329387664795,
   1.0517433881759644,
   1.0283266305923462,
   0.99186480045318604,
   1.007979154586792,
   1.0327084064483643,
   0.96070480346679688,
   0.97092932462692261,
   0.95080459117889404,
   1.0222046375274658,
   0.96140319108963013,
   0.93588799238204956,
   0.95985954999923706,
   0.99882328510284424,
   0.97757548093795776,
   1.0528641939163208,
   0.92328184843063354,
   0.79130995273590088
]
