[
   1.6745283603668213,
   1.6727464199066162,
   1.6750552654266357,
   1.6754118204116821,
   1.674329400062561,
   1.675707221031189,
   1.6746406555175781,
   1.6735566854476929,
   1.6741365194320679,
   1.6737912893295288,
   1.6729001998901367,
   1.6723535060882568,
   1.6721814870834351,
   1.671561598777771,
   1.6699883937835693,
   1.6699848175048828,
   1.6680347919464111,
   1.6697685718536377,
   1.6684137582778931,
   1.6622295379638672,
   1.65627121925354,
   1.6525722742080688,
   1.6459392309188843,
   1.6426503658294678,
   1.6382728815078735,
   1.6360279321670532,
   1.632298469543457,
   1.627885103225708,
   1.5986053943634033,
   1.5712779760360718,
   1.5496876239776611,
   1.5302647352218628,
   1.5111511945724487,
   1.4934457540512085,
   1.4770786762237549,
   1.4617061614990234,
   1.4473150968551636,
   1.3349134922027588,
   1.26352858543396,
   1.2105419635772705,
   1.1701229810714722,
   1.1406524181365967,
   1.1160030364990234,
   1.0970733165740967,
   1.0826734304428101,
   1.0740339756011963,
   1.0096662044525146,
   1.0093605518341064,
   1.0032197237014771,
   0.98631888628005981,
   0.98749130964279175,
   0.98761242628097534,
   0.99763822555541992,
   0.98492050170898438,
   0.97350263595581055,
   0.98090028762817383,
   0.98092973232269287,
   0.97547340393066406,
   0.9957086443901062,
   1.0083786249160767,
   1.0175364017486572,
   1.0165907144546509,
   1.0342721939086914,
   1.0560400485992432
]
