[
   1.5998563766479492,
   1.5994088649749756,
   1.5999245643615723,
   1.5999331474304199,
   1.5992584228515625,
   1.5989917516708374,
   1.5992076396942139,
   1.5996745824813843,
   1.5991479158401489,
   1.5999475717544556,
   1.5998526811599731,
   1.5986006259918213,
   1.5984373092651367,
   1.5970206260681152,
   1.5953432321548462,
   1.5960835218429565,
   1.5952166318893433,
   1.5951805114746094,
   1.5940850973129272,
   1.5887545347213745,
   1.5860108137130737,
   1.5811306238174438,
   1.5767543315887451,
   1.5737699270248413,
   1.5693984031677246,
   1.5667045116424561,
   1.5636374950408936,
   1.5606563091278076,
   1.5334610939025879,
   1.5120282173156738,
   1.4928566217422485,
   1.4751598834991455,
   1.4588557481765747,
   1.444430947303772,
   1.4299538135528564,
   1.4151175022125244,
   1.4036662578582764,
   1.3062900304794312,
   1.2384093999862671,
   1.1912709474563599,
   1.1557935476303101,
   1.128797173500061,
   1.1113355159759521,
   1.0944349765777588,
   1.0775138139724731,
   1.0667284727096558,
   1.0242677927017212,
   1.0042068958282471,
   1.0126183032989502,
   1.0003207921981812,
   0.98823916912078857,
   0.98326098918914795,
   0.98444616794586182,
   0.98153465986251831,
   0.98827087879180908,
   0.99889296293258667,
   0.99181348085403442,
   0.99274206161499023,
   0.98359239101409912,
   1.0126569271087646,
   1.00029456615448,
   0.98442757129669189,
   0.99344617128372192,
   1.0216284990310669
]
