[
   11.086719512939453,
   11.164959907531738,
   11.105653762817383,
   11.148813247680664,
   11.132933616638184,
   11.134777069091797,
   11.154470443725586,
   11.063325881958008,
   11.114511489868164,
   11.130244255065918,
   11.056280136108398,
   10.994002342224121,
   10.924052238464355,
   10.900918006896973,
   10.851744651794434,
   10.823100090026855,
   10.715291023254395,
   10.744226455688477,
   10.681910514831543,
   10.287379264831543,
   9.9439077377319336,
   9.6683244705200195,
   9.330378532409668,
   9.0617284774780273,
   8.7916240692138672,
   8.5003986358642578,
   8.354736328125,
   8.1399631500244141,
   6.5545182228088379,
   5.4494867324829102,
   4.7210493087768555,
   4.162804126739502,
   3.7278263568878174,
   3.3668529987335205,
   3.0837087631225586,
   2.8728358745574951,
   2.7378830909729004,
   1.9404808282852173,
   1.6282886266708374,
   1.5047695636749268,
   1.3969810009002686,
   1.2112830877304077,
   1.2499403953552246,
   1.2397186756134033,
   1.1617950201034546,
   1.1258987188339233,
   1.0170000791549683,
   1.0723438262939453,
   0.99246293306350708,
   0.97494536638259888,
   0.97793734073638916,
   0.96410924196243286,
   0.97186726331710815,
   0.95933312177658081,
   1.0245921611785889,
   1.0195221900939941,
   1.0433359146118164,
   0.95485001802444458,
   0.9735342264175415,
   1.0319833755493164,
   0.86054086685180664,
   0.82799100875854492,
   0.942882239818573,
   0.86349201202392578
]
