[
   3.0498218536376953,
   3.0478057861328125,
   3.0553317070007324,
   3.0507807731628418,
   3.0477674007415771,
   3.0488133430480957,
   3.0471546649932861,
   3.0470511913299561,
   3.0532126426696777,
   3.0531888008117676,
   3.0458152294158936,
   3.0397098064422607,
   3.0357117652893066,
   3.0350356101989746,
   3.0306031703948975,
   3.0256023406982422,
   3.0228981971740723,
   3.0200209617614746,
   3.0206742286682129,
   2.9871284961700439,
   2.962317943572998,
   2.9403934478759766,
   2.9187862873077393,
   2.8956558704376221,
   2.8765881061553955,
   2.8531773090362549,
   2.8365216255187988,
   2.8263523578643799,
   2.6744191646575928,
   2.5476443767547607,
   2.4438114166259766,
   2.3436083793640137,
   2.2575373649597168,
   2.1838622093200684,
   2.1167838573455811,
   2.0630545616149902,
   1.9976999759674072,
   1.6378068923950195,
   1.4584959745407104,
   1.3382489681243896,
   1.2712132930755615,
   1.2146484851837158,
   1.1690351963043213,
   1.1353557109832764,
   1.1267277002334595,
   1.1006311178207397,
   1.0324159860610962,
   1.0148584842681885,
   1.0053517818450928,
   0.97368544340133667,
   0.99729502201080322,
   0.99806135892868042,
   0.9999958872795105,
   1.0208832025527954,
   1.0047448873519897,
   0.98178881406784058,
   1.0393816232681274,
   0.99422931671142578,
   1.0182020664215088,
   0.97057229280471802,
   0.95725411176681519,
   0.95278513431549072,
   1.0075744390487671,
   1.0065447092056274
]
