[
   1.7967761754989624,
   1.7963711023330688,
   1.7968065738677979,
   1.795785665512085,
   1.7967487573623657,
   1.7956311702728271,
   1.7963078022003174,
   1.7954959869384766,
   1.7972896099090576,
   1.7956197261810303,
   1.7942930459976196,
   1.7943527698516846,
   1.7918878793716431,
   1.7951654195785522,
   1.79298996925354,
   1.7897052764892578,
   1.7902806997299194,
   1.7911981344223022,
   1.7898595333099365,
   1.780695915222168,
   1.774532675743103,
   1.7689822912216187,
   1.7635335922241211,
   1.7567625045776367,
   1.7535226345062256,
   1.7474911212921143,
   1.7426650524139404,
   1.7376148700714111,
   1.6998109817504883,
   1.6673257350921631,
   1.6379058361053467,
   1.6135902404785156,
   1.5882155895233154,
   1.5692503452301025,
   1.5470300912857056,
   1.5269342660903931,
   1.5062742233276367,
   1.3735252618789673,
   1.2836395502090454,
   1.2250252962112427,
   1.1796457767486572,
   1.1460874080657959,
   1.1217473745346069,
   1.1058242321014404,
   1.0891449451446533,
   1.0710242986679077,
   1.0104529857635498,
   1.0028866529464722,
   1.0179017782211304,
   0.99752283096313477,
   1.0096328258514404,
   1.0126559734344482,
   1.0081555843353271,
   1.002842903137207,
   1.0071805715560913,
   0.99800729751586914,
   0.97957432270050049,
   1.0068347454071045,
   0.99428975582122803,
   0.99250972270965576,
   1.011003851890564,
   1.0229239463806152,
   1.0062352418899536,
   1.0192548036575317
]
