[
   144.988525390625,
   140.20059204101562,
   139.70271301269531,
   139.13169860839844,
   138.059326171875,
   135.96165466308594,
   135.99227905273438,
   136.17491149902344,
   134.57804870605469,
   135.26786804199219,
   127.79920959472656,
   122.61738586425781,
   114.57907867431641,
   111.29736328125,
   102.52626800537109,
   105.284423828125,
   102.03923034667969,
   98.535179138183594,
   95.342544555664062,
   70.8709716796875,
   61.090507507324219,
   48.819404602050781,
   41.598960876464844,
   35.541408538818359,
   30.627731323242188,
   27.736547470092773,
   25.053155899047852,
   23.782665252685547,
   12.217462539672852,
   7.5324921607971191,
   6.0900483131408691,
   4.3064942359924316,
   3.7641060352325439,
   3.3793511390686035,
   2.7638075351715088,
   2.6867189407348633,
   2.8290305137634277,
   1.0734612941741943,
   1.0994163751602173,
   1.0267865657806396,
   0.95389014482498169,
   0.82146358489990234,
   0.98327672481536865,
   1.4349980354309082,
   1.0824953317642212,
   1.2558243274688721,
   1.4007515907287598,
   0.70420300960540771,
   1.1296213865280151,
   1.0851998329162598,
   1.2428871393203735,
   1.0020869970321655,
   1.2240840196609497,
   0.85387104749679565,
   0.8294912576675415,
   0.9573480486869812,
   1.0538309812545776,
   0.86447602510452271,
   0.43906122446060181,
   0.34155440330505371,
   1.0165866613388062,
   0.38629689812660217,
   0.32043036818504333,
   0.85960471630096436
]
