[
   1.8831312656402588,
   1.8805395364761353,
   1.8823938369750977,
   1.8813644647598267,
   1.8790575265884399,
   1.8784029483795166,
   1.8782535791397095,
   1.8813064098358154,
   1.8787164688110352,
   1.8785851001739502,
   1.8755505084991455,
   1.8752057552337646,
   1.8720630407333374,
   1.8716331720352173,
   1.8655939102172852,
   1.8655554056167603,
   1.8619527816772461,
   1.8593385219573975,
   1.8550040721893311,
   1.8349078893661499,
   1.813762903213501,
   1.7931228876113892,
   1.7741388082504272,
   1.7568765878677368,
   1.7405331134796143,
   1.7260042428970337,
   1.7088067531585693,
   1.6976387500762939,
   1.5856060981750488,
   1.5039224624633789,
   1.4441120624542236,
   1.3964866399765015,
   1.3551881313323975,
   1.3246930837631226,
   1.2965366840362549,
   1.2717466354370117,
   1.2515925168991089,
   1.1312906742095947,
   1.0869565010070801,
   1.0501542091369629,
   1.0330569744110107,
   1.0272176265716553,
   1.0182301998138428,
   1.0134204626083374,
   1.0114260911941528,
   1.0026018619537354,
   0.99573910236358643,
   0.99968564510345459,
   0.99771499633789062,
   1.0108006000518799,
   1.0016806125640869,
   1.0023485422134399,
   1.0032453536987305,
   1.0029778480529785,
   1.0208166837692261,
   1.0070538520812988,
   1.0028269290924072,
   1.0062979459762573,
   0.99582898616790771,
   0.97950875759124756,
   0.96674251556396484,
   0.98016899824142456,
   0.96805590391159058,
   0.92194879055023193
]
