[
   1.5968519449234009,
   1.5979698896408081,
   1.5978832244873047,
   1.5971146821975708,
   1.5955741405487061,
   1.5955269336700439,
   1.5966410636901855,
   1.5959560871124268,
   1.5946054458618164,
   1.5942211151123047,
   1.5943692922592163,
   1.592949390411377,
   1.5903322696685791,
   1.5901217460632324,
   1.5881049633026123,
   1.5888824462890625,
   1.585141658782959,
   1.5843122005462646,
   1.584436297416687,
   1.5721317529678345,
   1.5592191219329834,
   1.5474512577056885,
   1.5366002321243286,
   1.5271550416946411,
   1.5154497623443604,
   1.5059595108032227,
   1.4971282482147217,
   1.4906046390533447,
   1.4201020002365112,
   1.3683121204376221,
   1.3278508186340332,
   1.2928694486618042,
   1.2674710750579834,
   1.2447812557220459,
   1.2252854108810425,
   1.2079635858535767,
   1.1939983367919922,
   1.1008682250976562,
   1.0610787868499756,
   1.0420305728912354,
   1.0316230058670044,
   1.0192568302154541,
   1.0132477283477783,
   1.0147287845611572,
   1.0122542381286621,
   1.0099245309829712,
   0.99711322784423828,
   0.99715554714202881,
   0.9879155158996582,
   0.99571216106414795,
   0.991477370262146,
   1.000413179397583,
   1.001317024230957,
   0.99515533447265625,
   0.9985777735710144,
   0.99112111330032349,
   0.9935029149055481,
   1.0025118589401245,
   1.0037349462509155,
   0.98852455615997314,
   0.99061453342437744,
   0.99556362628936768,
   1.0026118755340576,
   1.0354845523834229
]
