[
   2.4186611175537109,
   2.4150395393371582,
   2.4158406257629395,
   2.4191381931304932,
   2.4197745323181152,
   2.4164464473724365,
   2.416165828704834,
   2.4162538051605225,
   2.4191091060638428,
   2.4167239665985107,
   2.4079203605651855,
   2.4048969745635986,
   2.3968956470489502,
   2.3922467231750488,
   2.3898308277130127,
   2.3894689083099365,
   2.3763642311096191,
   2.3733727931976318,
   2.3708605766296387,
   2.322681188583374,
   2.2772223949432373,
   2.2468791007995605,
   2.2096247673034668,
   2.1752152442932129,
   2.1404447555541992,
   2.1179633140563965,
   2.0871560573577881,
   2.0614008903503418,
   1.8737964630126953,
   1.7384035587310791,
   1.645294189453125,
   1.5712572336196899,
   1.5065915584564209,
   1.4540114402770996,
   1.4099195003509521,
   1.3729658126831055,
   1.3393709659576416,
   1.170637845993042,
   1.1153321266174316,
   1.0788872241973877,
   1.0565381050109863,
   1.0411684513092041,
   1.0344104766845703,
   1.0244696140289307,
   1.00490403175354,
   1.0015335083007812,
   0.99936103820800781,
   1.0084798336029053,
   1.0073096752166748,
   0.99963456392288208,
   0.99565756320953369,
   0.98346346616744995,
   1.0128815174102783,
   1.0002450942993164,
   1.0047906637191772,
   0.99487048387527466,
   0.99284011125564575,
   1.0108070373535156,
   1.0004308223724365,
   0.9940037727355957,
   1.0171846151351929,
   1.0263192653656006,
   0.99820888042449951,
   1.004345178604126
]
