[
   1.7622270584106445,
   1.7626889944076538,
   1.7609627246856689,
   1.7616227865219116,
   1.7606414556503296,
   1.7616885900497437,
   1.7628614902496338,
   1.7602390050888062,
   1.7602609395980835,
   1.7612777948379517,
   1.7601171731948853,
   1.7562326192855835,
   1.755267858505249,
   1.7534290552139282,
   1.7489560842514038,
   1.747943639755249,
   1.745081901550293,
   1.7460095882415771,
   1.7419027090072632,
   1.725934624671936,
   1.7057403326034546,
   1.6915276050567627,
   1.6786763668060303,
   1.6626085042953491,
   1.6483665704727173,
   1.6364721059799194,
   1.6241943836212158,
   1.6128129959106445,
   1.5179679393768311,
   1.4527313709259033,
   1.3986718654632568,
   1.3576523065567017,
   1.3238984346389771,
   1.2952682971954346,
   1.2694351673126221,
   1.2510143518447876,
   1.2323205471038818,
   1.1290807723999023,
   1.0886721611022949,
   1.0596586465835571,
   1.0412684679031372,
   1.0304062366485596,
   1.0209616422653198,
   1.0135543346405029,
   1.0109022855758667,
   1.0093601942062378,
   1.0018079280853271,
   0.99257981777191162,
   0.99601566791534424,
   1.0005675554275513,
   0.99335604906082153,
   0.99127960205078125,
   0.99349582195281982,
   0.99155360460281372,
   0.99756032228469849,
   1.0034703016281128,
   0.99183785915374756,
   0.99429988861083984,
   0.99102699756622314,
   1.0145647525787354,
   0.99836331605911255,
   0.98055922985076904,
   0.98221099376678467,
   0.96001005172729492
]
