[
   2.0282952785491943,
   2.0284082889556885,
   2.0304520130157471,
   2.0292761325836182,
   2.029064416885376,
   2.0278730392456055,
   2.0258419513702393,
   2.0268573760986328,
   2.0261759757995605,
   2.0261077880859375,
   2.0205669403076172,
   2.0205156803131104,
   2.0199379920959473,
   2.0166723728179932,
   2.0116057395935059,
   2.0091583728790283,
   2.0081219673156738,
   2.0027971267700195,
   2.0007789134979248,
   1.9701700210571289,
   1.9427671432495117,
   1.9217351675033569,
   1.8966563940048218,
   1.8752791881561279,
   1.8583348989486694,
   1.836106538772583,
   1.8197805881500244,
   1.8003060817718506,
   1.6725183725357056,
   1.5779860019683838,
   1.5077202320098877,
   1.4500772953033447,
   1.403125524520874,
   1.366594672203064,
   1.3379900455474854,
   1.3087857961654663,
   1.2842233180999756,
   1.1450173854827881,
   1.0898703336715698,
   1.0520195960998535,
   1.0426574945449829,
   1.033976674079895,
   1.0225036144256592,
   1.029999852180481,
   1.0199332237243652,
   1.0141205787658691,
   1.0053833723068237,
   1.0001609325408936,
   0.99809253215789795,
   0.99343109130859375,
   1.001797080039978,
   1.0080581903457642,
   1.0011917352676392,
   0.99515902996063232,
   1.0026431083679199,
   1.0022625923156738,
   1.0002033710479736,
   1.0032237768173218,
   0.99942481517791748,
   0.98554325103759766,
   1.0150206089019775,
   0.97757464647293091,
   1.0116804838180542,
   1.0005283355712891
]
