[
   18.239536285400391,
   18.166170120239258,
   18.224159240722656,
   18.166080474853516,
   18.152732849121094,
   18.119480133056641,
   18.125955581665039,
   17.966743469238281,
   17.955127716064453,
   17.935380935668945,
   17.697116851806641,
   17.543176651000977,
   17.225576400756836,
   16.901166915893555,
   16.572717666625977,
   16.534929275512695,
   16.360149383544922,
   16.084135055541992,
   15.884923934936523,
   14.533239364624023,
   13.406442642211914,
   12.305291175842285,
   11.555642127990723,
   11.040472984313965,
   10.395400047302246,
   9.7988748550415039,
   9.1968860626220703,
   8.9475326538085938,
   6.0640444755554199,
   4.5966911315917969,
   3.6950545310974121,
   3.2198596000671387,
   2.7867379188537598,
   2.5110733509063721,
   2.300900936126709,
   2.1771605014801025,
   2.0706372261047363,
   1.4244852066040039,
   1.3231472969055176,
   1.1275346279144287,
   1.1087045669555664,
   1.10413658618927,
   1.0431602001190186,
   0.99464577436447144,
   1.0154106616973877,
   0.98510932922363281,
   0.9785008430480957,
   1.0506876707077026,
   0.9198225736618042,
   0.99303758144378662,
   0.95401239395141602,
   0.99416160583496094,
   1.0284268856048584,
   0.9374079704284668,
   1.0994054079055786,
   0.96425420045852661,
   1.0358030796051025,
   1.0570483207702637,
   1.0093028545379639,
   1.0220835208892822,
   0.85818445682525635,
   1.1429175138473511,
   0.91055154800415039,
   1.1425492763519287
]
