[
   2.7537789344787598,
   2.7512483596801758,
   2.7463521957397461,
   2.7549953460693359,
   2.7508029937744141,
   2.7499165534973145,
   2.7543044090270996,
   2.7482740879058838,
   2.7520015239715576,
   2.744309663772583,
   2.7403841018676758,
   2.7328469753265381,
   2.7237284183502197,
   2.7180678844451904,
   2.7085347175598145,
   2.7025165557861328,
   2.70247483253479,
   2.6882281303405762,
   2.6810421943664551,
   2.6206004619598389,
   2.5598025321960449,
   2.5092682838439941,
   2.4613673686981201,
   2.4146528244018555,
   2.3789815902709961,
   2.3396639823913574,
   2.2999787330627441,
   2.2670788764953613,
   2.0236577987670898,
   1.8551843166351318,
   1.7253427505493164,
   1.6342109441757202,
   1.559349536895752,
   1.4981415271759033,
   1.4431787729263306,
   1.4047317504882812,
   1.3687598705291748,
   1.1858217716217041,
   1.1145108938217163,
   1.0798956155776978,
   1.0504165887832642,
   1.0346338748931885,
   1.031380295753479,
   1.0167667865753174,
   1.0138643980026245,
   1.0118157863616943,
   1.0017629861831665,
   0.99232214689254761,
   0.9988255500793457,
   0.996723473072052,
   0.98460417985916138,
   0.96588337421417236,
   0.98007094860076904,
   1.0004680156707764,
   1.0071631669998169,
   0.99489480257034302,
   0.97364723682403564,
   0.99183005094528198,
   1.0078136920928955,
   1.0109231472015381,
   1.0214015245437622,
   1.0286415815353394,
   1.0090491771697998,
   1.0869166851043701
]
