[
   1.5472002029418945,
   1.5485143661499023,
   1.5471136569976807,
   1.5483033657073975,
   1.5473554134368896,
   1.5472248792648315,
   1.5488018989562988,
   1.5476449728012085,
   1.5460032224655151,
   1.5461642742156982,
   1.5445659160614014,
   1.5437914133071899,
   1.5422658920288086,
   1.5422806739807129,
   1.5402421951293945,
   1.5400787591934204,
   1.5372062921524048,
   1.5384677648544312,
   1.5356160402297974,
   1.5247876644134521,
   1.5144236087799072,
   1.5037434101104736,
   1.4965459108352661,
   1.4848372936248779,
   1.4778726100921631,
   1.4699013233184814,
   1.4590256214141846,
   1.4529608488082886,
   1.3902491331100464,
   1.3437435626983643,
   1.3076952695846558,
   1.2786105871200562,
   1.2520871162414551,
   1.2318332195281982,
   1.2140251398086548,
   1.1985173225402832,
   1.184201717376709,
   1.1009682416915894,
   1.0679423809051514,
   1.0496097803115845,
   1.0363558530807495,
   1.0302631855010986,
   1.0206239223480225,
   1.0111668109893799,
   1.0090100765228271,
   1.0041172504425049,
   0.99400615692138672,
   0.98474693298339844,
   0.99702441692352295,
   0.99770581722259521,
   0.98783433437347412,
   0.99370622634887695,
   0.99691665172576904,
   0.98808079957962036,
   0.98988401889801025,
   0.99393922090530396,
   0.98703974485397339,
   1.0051350593566895,
   1.0069607496261597,
   1.0007624626159668,
   0.98944967985153198,
   1.0062896013259888,
   1.0066282749176025,
   1.0264794826507568
]
