[
   1.6558231115341187,
   1.6554679870605469,
   1.6571890115737915,
   1.6562484502792358,
   1.6566677093505859,
   1.6560217142105103,
   1.6531178951263428,
   1.655536413192749,
   1.6548582315444946,
   1.6553680896759033,
   1.6531150341033936,
   1.6516773700714111,
   1.6512994766235352,
   1.6494691371917725,
   1.6491893529891968,
   1.6483104228973389,
   1.6467428207397461,
   1.6456964015960693,
   1.6440355777740479,
   1.6325286626815796,
   1.621263861656189,
   1.6086399555206299,
   1.6004345417022705,
   1.5886577367782593,
   1.5794700384140015,
   1.5710054636001587,
   1.5619410276412964,
   1.5518282651901245,
   1.4831629991531372,
   1.4304312467575073,
   1.3876100778579712,
   1.3544118404388428,
   1.3237440586090088,
   1.3015784025192261,
   1.2781201601028442,
   1.2593234777450562,
   1.242158055305481,
   1.1400076150894165,
   1.0920885801315308,
   1.0663998126983643,
   1.0490928888320923,
   1.0352094173431396,
   1.0281213521957397,
   1.0235931873321533,
   1.0144844055175781,
   1.0098090171813965,
   0.99720174074172974,
   0.99171841144561768,
   0.99441039562225342,
   1.0044348239898682,
   0.99589681625366211,
   1.0024192333221436,
   1.0034959316253662,
   1.0014508962631226,
   1.007423996925354,
   1.0010476112365723,
   0.99392557144165039,
   0.99409884214401245,
   0.99699193239212036,
   0.99067813158035278,
   1.0064281225204468,
   1.0044618844985962,
   0.99122917652130127,
   0.96443855762481689
]
