[
   7.9254560470581055,
   7.9209847450256348,
   7.9247541427612305,
   7.9375395774841309,
   7.9302797317504883,
   7.9270086288452148,
   7.9286980628967285,
   7.9022417068481445,
   7.8568267822265625,
   7.8711957931518555,
   7.7989683151245117,
   7.76837158203125,
   7.7275733947753906,
   7.6682195663452148,
   7.6194849014282227,
   7.5742936134338379,
   7.5514426231384277,
   7.4468255043029785,
   7.4925537109375,
   7.0353765487670898,
   6.6887831687927246,
   6.4099493026733398,
   6.1454954147338867,
   5.9314508438110352,
   5.7305479049682617,
   5.549250602722168,
   5.4034619331359863,
   5.2252564430236816,
   4.146848201751709,
   3.4551537036895752,
   3.0478765964508057,
   2.7067368030548096,
   2.4619414806365967,
   2.2872130870819092,
   2.1126933097839355,
   1.96954345703125,
   1.8505312204360962,
   1.4100981950759888,
   1.2217354774475098,
   1.1439121961593628,
   1.1451199054718018,
   1.0979382991790771,
   1.0864723920822144,
   1.110973596572876,
   1.0504227876663208,
   1.0210422277450562,
   1.0278458595275879,
   0.96811854839324951,
   1.0384596586227417,
   0.94111174345016479,
   0.99961435794830322,
   0.98271524906158447,
   1.0052103996276855,
   0.98083466291427612,
   0.98394691944122314,
   1.0631983280181885,
   0.98329687118530273,
   1.0282570123672485,
   1.0552315711975098,
   0.97827637195587158,
   0.97942078113555908,
   0.93375170230865479,
   1.026294469833374,
   0.99250984191894531
]
