[
   3.8351120948791504,
   3.8365230560302734,
   3.8392453193664551,
   3.8231635093688965,
   3.8273768424987793,
   3.8302311897277832,
   3.8239731788635254,
   3.8150811195373535,
   3.8287341594696045,
   3.8160595893859863,
   3.8016135692596436,
   3.7953219413757324,
   3.7890496253967285,
   3.7737281322479248,
   3.757697582244873,
   3.7462563514709473,
   3.7240853309631348,
   3.7223961353302002,
   3.7083148956298828,
   3.5984599590301514,
   3.4942023754119873,
   3.4162170886993408,
   3.3396134376525879,
   3.2620348930358887,
   3.1909379959106445,
   3.1307032108306885,
   3.0733716487884521,
   3.0212502479553223,
   2.6180987358093262,
   2.3484370708465576,
   2.148317813873291,
   1.9926776885986328,
   1.8798030614852905,
   1.7858082056045532,
   1.7109619379043579,
   1.6524903774261475,
   1.5941848754882812,
   1.2912211418151855,
   1.1700700521469116,
   1.1015298366546631,
   1.0837647914886475,
   1.0594183206558228,
   1.0530307292938232,
   1.0405501127243042,
   1.0301637649536133,
   1.0260813236236572,
   1.0002197027206421,
   0.98913633823394775,
   0.97309523820877075,
   0.96017009019851685,
   0.987282395362854,
   0.98177641630172729,
   0.97871458530426025,
   0.97872620820999146,
   0.98515623807907104,
   1.0117409229278564,
   0.98207396268844604,
   1.0104130506515503,
   1.016338586807251,
   0.98620349168777466,
   0.94092750549316406,
   1.0409688949584961,
   1.0029884576797485,
   1.126360297203064
]
