[
   31.141851425170898,
   31.589162826538086,
   31.347732543945312,
   31.308023452758789,
   31.223556518554688,
   31.203466415405273,
   31.05743408203125,
   30.895181655883789,
   30.863378524780273,
   30.862268447875977,
   30.158008575439453,
   29.845645904541016,
   29.172927856445312,
   28.697402954101562,
   28.364673614501953,
   28.141775131225586,
   27.360607147216797,
   27.340383529663086,
   26.643590927124023,
   23.945344924926758,
   21.533000946044922,
   19.640951156616211,
   18.27790641784668,
   16.674655914306641,
   15.752626419067383,
   14.777685165405273,
   14.029609680175781,
   13.387346267700195,
   8.404362678527832,
   6.2260756492614746,
   4.595036506652832,
   4.0423798561096191,
   3.4450721740722656,
   3.121323823928833,
   2.676558256149292,
   2.4571962356567383,
   2.2733268737792969,
   1.6266103982925415,
   1.4483538866043091,
   1.2533541917800903,
   1.1751872301101685,
   1.2914345264434814,
   0.99159145355224609,
   1.1415047645568848,
   1.0746119022369385,
   1.0153605937957764,
   0.92697107791900635,
   0.9348980188369751,
   1.0256456136703491,
   0.80001181364059448,
   1.0026986598968506,
   1.1382961273193359,
   0.8558686375617981,
   0.96963059902191162,
   1.0450791120529175,
   1.0091784000396729,
   1.0065910816192627,
   0.85329568386077881,
   0.89544355869293213,
   1.0282291173934937,
   0.87799805402755737,
   0.78653228282928467,
   0.6860581636428833,
   0.86147391796112061
]
