[
   1.7263638973236084,
   1.7241542339324951,
   1.7253917455673218,
   1.7232633829116821,
   1.7255423069000244,
   1.7221523523330688,
   1.7248079776763916,
   1.7230180501937866,
   1.723415732383728,
   1.7250471115112305,
   1.7208566665649414,
   1.7189563512802124,
   1.7183210849761963,
   1.7184484004974365,
   1.7142040729522705,
   1.7130979299545288,
   1.7122318744659424,
   1.712306022644043,
   1.7106765508651733,
   1.6941053867340088,
   1.6807798147201538,
   1.6692641973495483,
   1.6576731204986572,
   1.6460027694702148,
   1.6362810134887695,
   1.6263806819915771,
   1.6148264408111572,
   1.6047933101654053,
   1.5272676944732666,
   1.4651596546173096,
   1.4202779531478882,
   1.381930947303772,
   1.350435733795166,
   1.3215502500534058,
   1.2978532314300537,
   1.2764347791671753,
   1.2589918375015259,
   1.1492699384689331,
   1.0979821681976318,
   1.0715577602386475,
   1.0517646074295044,
   1.0389785766601562,
   1.0268954038619995,
   1.0230001211166382,
   1.0221439599990845,
   1.0181334018707275,
   1.0000274181365967,
   0.99478071928024292,
   0.98758822679519653,
   0.99536961317062378,
   0.99102801084518433,
   0.99740016460418701,
   1.003345251083374,
   1.0096807479858398,
   1.0022352933883667,
   1.0037190914154053,
   0.99954748153686523,
   1.00270676612854,
   1.01228928565979,
   0.99408543109893799,
   0.98293465375900269,
   0.97111588716506958,
   0.99660187959671021,
   0.95804154872894287
]
