[
   136.45674133300781,
   135.55615234375,
   130.48312377929688,
   132.71755981445312,
   133.45683288574219,
   132.8253173828125,
   131.81452941894531,
   131.93772888183594,
   130.20254516601562,
   127.96928405761719,
   121.74008941650391,
   115.54117584228516,
   111.59287261962891,
   107.55857086181641,
   102.10667419433594,
   100.03337860107422,
   98.488883972167969,
   92.983963012695312,
   91.665794372558594,
   68.688224792480469,
   56.141094207763672,
   48.848453521728516,
   42.164405822753906,
   36.912055969238281,
   30.724023818969727,
   29.919290542602539,
   26.687994003295898,
   24.557441711425781,
   11.233000755310059,
   8.7949657440185547,
   6.7184395790100098,
   4.3852853775024414,
   4.028533935546875,
   4.5912942886352539,
   3.5906510353088379,
   3.2685425281524658,
   2.7487006187438965,
   1.4768984317779541,
   1.7654063701629639,
   1.8751156330108643,
   0.72985994815826416,
   0.92195367813110352,
   1.0398709774017334,
   0.9823339581489563,
   1.1496564149856567,
   0.95178639888763428,
   1.0595543384552002,
   0.75869178771972656,
   0.89683616161346436,
   0.81415444612503052,
   0.91537225246429443,
   1.3135672807693481,
   0.67258012294769287,
   1.0043947696685791,
   0.46905317902565002,
   0.95441639423370361,
   0.87988317012786865,
   1.0414679050445557,
   0.79849058389663696,
   1.1823370456695557,
   0.57967239618301392,
   0.81501710414886475,
   1.3390388488769531,
   0.89531803131103516
]
