[
   17.004331588745117,
   17.007928848266602,
   16.911142349243164,
   16.964641571044922,
   17.011768341064453,
   16.726215362548828,
   16.902381896972656,
   16.840917587280273,
   16.753849029541016,
   16.794401168823242,
   16.741975784301758,
   16.504140853881836,
   16.058130264282227,
   16.007255554199219,
   15.94544506072998,
   15.653341293334961,
   15.589259147644043,
   15.311955451965332,
   15.129986763000488,
   13.819604873657227,
   12.904622077941895,
   12.003717422485352,
   11.351186752319336,
   10.784936904907227,
   10.119548797607422,
   9.5863790512084961,
   9.2330007553100586,
   8.9008693695068359,
   6.2332577705383301,
   4.7859034538269043,
   4.0426969528198242,
   3.4802901744842529,
   3.1038436889648438,
   2.8682615756988525,
   2.5043160915374756,
   2.3107542991638184,
   2.1848571300506592,
   1.5564898252487183,
   1.3341460227966309,
   1.167043924331665,
   1.1176135540008545,
   1.1477632522583008,
   1.1152207851409912,
   1.073021411895752,
   1.0181972980499268,
   1.0369949340820312,
   1.029233455657959,
   1.0846406221389771,
   1.0254092216491699,
   1.0033502578735352,
   0.95572912693023682,
   0.94493329524993896,
   0.97283297777175903,
   0.98244524002075195,
   0.95102787017822266,
   1.0339334011077881,
   0.98227465152740479,
   0.91888678073883057,
   1.0432026386260986,
   1.0075790882110596,
   0.90627849102020264,
   0.86595278978347778,
   1.2519235610961914,
   0.92028582096099854
]
