[
   5.1282820701599121,
   5.121187686920166,
   5.1143617630004883,
   5.1171116828918457,
   5.1059799194335938,
   5.1124024391174316,
   5.1120028495788574,
   5.1223840713500977,
   5.1115713119506836,
   5.1036200523376465,
   5.0772652626037598,
   5.0480456352233887,
   5.0535531044006348,
   5.0172948837280273,
   4.9795217514038086,
   4.9841604232788086,
   4.9626259803771973,
   4.9328756332397461,
   4.907987117767334,
   4.733680248260498,
   4.5491418838500977,
   4.4133419990539551,
   4.2814106941223145,
   4.1542234420776367,
   4.0557446479797363,
   3.9599239826202393,
   3.8612937927246094,
   3.7806315422058105,
   3.1701147556304932,
   2.7568631172180176,
   2.4866931438446045,
   2.2749290466308594,
   2.1109187602996826,
   1.9755516052246094,
   1.8566995859146118,
   1.7794344425201416,
   1.7048921585083008,
   1.3541589975357056,
   1.2068212032318115,
   1.1717860698699951,
   1.1217474937438965,
   1.0702192783355713,
   1.040652871131897,
   1.04487144947052,
   1.0672720670700073,
   1.0676484107971191,
   0.98005932569503784,
   0.97808659076690674,
   0.97768038511276245,
   0.99126797914505005,
   0.99316167831420898,
   0.99971294403076172,
   0.98807060718536377,
   0.98495066165924072,
   1.0046513080596924,
   0.99736738204956055,
   1.0316709280014038,
   0.97868329286575317,
   1.0218086242675781,
   1.0127696990966797,
   0.96412241458892822,
   0.96214324235916138,
   1.0615159273147583,
   0.91239321231842041
]
