[
   1.5905488729476929,
   1.5907473564147949,
   1.5906323194503784,
   1.5911080837249756,
   1.5917215347290039,
   1.5911276340484619,
   1.5913960933685303,
   1.5904526710510254,
   1.5904234647750854,
   1.5900988578796387,
   1.5880482196807861,
   1.588672399520874,
   1.5877821445465088,
   1.5864590406417847,
   1.5848351716995239,
   1.5842384099960327,
   1.5826702117919922,
   1.5822492837905884,
   1.5799740552902222,
   1.5703432559967041,
   1.5604736804962158,
   1.5524290800094604,
   1.5436093807220459,
   1.5358426570892334,
   1.5275975465774536,
   1.5201051235198975,
   1.5124315023422241,
   1.5033869743347168,
   1.4437383413314819,
   1.3986666202545166,
   1.3609104156494141,
   1.3306615352630615,
   1.3047134876251221,
   1.2815191745758057,
   1.2622150182723999,
   1.2450305223464966,
   1.2295080423355103,
   1.1366941928863525,
   1.0890772342681885,
   1.0616079568862915,
   1.0450562238693237,
   1.0369224548339844,
   1.031364917755127,
   1.0245097875595093,
   1.016491174697876,
   1.0119996070861816,
   1.003090500831604,
   0.99690121412277222,
   0.99763691425323486,
   0.99872779846191406,
   1.004554271697998,
   1.0048478841781616,
   1.0024793148040771,
   0.99834823608398438,
   0.99547368288040161,
   0.99538117647171021,
   1.0133740901947021,
   1.0110851526260376,
   1.0059479475021362,
   0.97394382953643799,
   0.97715675830841064,
   0.97017002105712891,
   0.99068403244018555,
   0.95945596694946289
]
