[
   1.854588508605957,
   1.8523690700531006,
   1.858070969581604,
   1.8555923700332642,
   1.8550536632537842,
   1.8552764654159546,
   1.8545395135879517,
   1.855818510055542,
   1.8539869785308838,
   1.8546171188354492,
   1.8529322147369385,
   1.8523401021957397,
   1.8474994897842407,
   1.8481994867324829,
   1.8451602458953857,
   1.8423048257827759,
   1.840450644493103,
   1.8391838073730469,
   1.8373922109603882,
   1.8180843591690063,
   1.8021339178085327,
   1.7887014150619507,
   1.7707211971282959,
   1.7557302713394165,
   1.7415540218353271,
   1.7290694713592529,
   1.7176860570907593,
   1.7049064636230469,
   1.6097314357757568,
   1.535980224609375,
   1.4795883893966675,
   1.4326566457748413,
   1.3949936628341675,
   1.3642445802688599,
   1.3341391086578369,
   1.3106905221939087,
   1.2894397974014282,
   1.1619637012481689,
   1.0998622179031372,
   1.0708955526351929,
   1.0518602132797241,
   1.0378880500793457,
   1.0271042585372925,
   1.0177723169326782,
   1.0126645565032959,
   1.004493236541748,
   0.98805123567581177,
   0.99490964412689209,
   0.98896491527557373,
   0.99508780241012573,
   0.99856692552566528,
   0.99436968564987183,
   0.99732303619384766,
   1.0095392465591431,
   0.99725264310836792,
   0.99770450592041016,
   1.0144898891448975,
   0.99170958995819092,
   0.99265158176422119,
   1.0064897537231445,
   1.0050365924835205,
   1.0241619348526001,
   0.98490124940872192,
   0.96580630540847778
]
