[
   2.3699665069580078,
   2.3676676750183105,
   2.3662915229797363,
   2.3691291809082031,
   2.3676371574401855,
   2.3683342933654785,
   2.3670651912689209,
   2.3662748336791992,
   2.3659789562225342,
   2.3629999160766602,
   2.3583199977874756,
   2.3623287677764893,
   2.356508731842041,
   2.3493750095367432,
   2.3466241359710693,
   2.3424520492553711,
   2.3390440940856934,
   2.3373563289642334,
   2.3294203281402588,
   2.3011288642883301,
   2.271308422088623,
   2.2466607093811035,
   2.2222881317138672,
   2.2005085945129395,
   2.1806545257568359,
   2.1590332984924316,
   2.1378195285797119,
   2.1275184154510498,
   1.9973247051239014,
   1.9034668207168579,
   1.8251050710678101,
   1.7626527547836304,
   1.7097404003143311,
   1.6574290990829468,
   1.6181148290634155,
   1.5801069736480713,
   1.5435655117034912,
   1.3159178495407104,
   1.2148339748382568,
   1.1615840196609497,
   1.1207137107849121,
   1.0941308736801147,
   1.0664724111557007,
   1.0617262125015259,
   1.0502415895462036,
   1.0416780710220337,
   1.0199925899505615,
   1.0001990795135498,
   0.98473727703094482,
   1.0051014423370361,
   0.99756228923797607,
   1.0102155208587646,
   1.0073311328887939,
   0.99390000104904175,
   1.0030186176300049,
   0.98234683275222778,
   0.98229247331619263,
   0.98496931791305542,
   0.9874345064163208,
   1.0023142099380493,
   0.99785518646240234,
   0.98964166641235352,
   1.0266927480697632,
   0.92778235673904419
]
