[
   1.7271575927734375,
   1.7266724109649658,
   1.7278308868408203,
   1.7245219945907593,
   1.7247381210327148,
   1.7266943454742432,
   1.7264020442962646,
   1.7255865335464478,
   1.7242110967636108,
   1.7266616821289062,
   1.7246729135513306,
   1.7219343185424805,
   1.7213633060455322,
   1.7199201583862305,
   1.7181708812713623,
   1.7151758670806885,
   1.7144479751586914,
   1.7134637832641602,
   1.7114629745483398,
   1.6997814178466797,
   1.685768723487854,
   1.6756906509399414,
   1.6633754968643188,
   1.6552410125732422,
   1.6458877325057983,
   1.6372518539428711,
   1.6288111209869385,
   1.6213163137435913,
   1.5565836429595947,
   1.5084536075592041,
   1.4722639322280884,
   1.4383460283279419,
   1.4107207059860229,
   1.3857730627059937,
   1.3640202283859253,
   1.3443605899810791,
   1.3280744552612305,
   1.2055509090423584,
   1.1406877040863037,
   1.0992914438247681,
   1.0732450485229492,
   1.0576536655426025,
   1.0434606075286865,
   1.0417041778564453,
   1.0352180004119873,
   1.0282286405563354,
   1.0026836395263672,
   0.98768311738967896,
   0.99544870853424072,
   0.99803942441940308,
   0.98688918352127075,
   0.99756413698196411,
   0.98741310834884644,
   0.9936298131942749,
   0.98781299591064453,
   0.98202502727508545,
   0.99332350492477417,
   1.002198338508606,
   1.008942723274231,
   0.98720759153366089,
   0.99684727191925049,
   1.012584924697876,
   1.0049378871917725,
   1.0224250555038452
]
