[
   4.2145605087280273,
   4.2243514060974121,
   4.231621265411377,
   4.215813159942627,
   4.2161197662353516,
   4.2179164886474609,
   4.2262392044067383,
   4.2166423797607422,
   4.2146048545837402,
   4.2099714279174805,
   4.1943764686584473,
   4.1864218711853027,
   4.1653213500976562,
   4.1419515609741211,
   4.1369099617004395,
   4.1207642555236816,
   4.1165852546691895,
   4.1091294288635254,
   4.0832681655883789,
   3.9700303077697754,
   3.8942496776580811,
   3.8018107414245605,
   3.7260482311248779,
   3.6684272289276123,
   3.5911250114440918,
   3.5581390857696533,
   3.5019118785858154,
   3.4520790576934814,
   3.0727953910827637,
   2.8071131706237793,
   2.6040987968444824,
   2.4273362159729004,
   2.2944419384002686,
   2.1765415668487549,
   2.0708212852478027,
   1.9816923141479492,
   1.9035753011703491,
   1.4706341028213501,
   1.2958993911743164,
   1.2059688568115234,
   1.1309154033660889,
   1.0812550783157349,
   1.0788959264755249,
   1.0527682304382324,
   1.0259722471237183,
   1.0234572887420654,
   1.0094759464263916,
   1.0014773607254028,
   0.98699980974197388,
   1.0135219097137451,
   1.0033066272735596,
   0.98336684703826904,
   1.0162508487701416,
   0.98903608322143555,
   1.0469496250152588,
   0.96865338087081909,
   0.98791760206222534,
   0.96449059247970581,
   0.95004189014434814,
   0.99399983882904053,
   1.0359055995941162,
   0.97851717472076416,
   0.99655163288116455,
   0.88061201572418213
]
