[
   20.68134880065918,
   20.45622444152832,
   20.402149200439453,
   20.501260757446289,
   20.564479827880859,
   20.478775024414062,
   20.243989944458008,
   20.430599212646484,
   20.243980407714844,
   20.402355194091797,
   20.037069320678711,
   19.705326080322266,
   19.676349639892578,
   19.347555160522461,
   19.084522247314453,
   19.098814010620117,
   18.808361053466797,
   18.700908660888672,
   18.536357879638672,
   17.121391296386719,
   16.213016510009766,
   15.317373275756836,
   14.575114250183105,
   13.790990829467773,
   13.321691513061523,
   12.782709121704102,
   12.248781204223633,
   11.728641510009766,
   8.5601387023925781,
   6.6756925582885742,
   5.4738922119140625,
   4.7038106918334961,
   4.0291728973388672,
   3.6737282276153564,
   3.3452296257019043,
   3.0191519260406494,
   2.7693972587585449,
   1.7342277765274048,
   1.3318593502044678,
   1.2536599636077881,
   1.2192380428314209,
   1.1463059186935425,
   1.0436359643936157,
   0.94696295261383057,
   1.1393204927444458,
   1.0738478899002075,
   1.0141829252243042,
   0.9334644079208374,
   1.031841516494751,
   0.94340002536773682,
   0.93946331739425659,
   0.9240192174911499,
   0.92560493946075439,
   1.0063855648040771,
   0.96255147457122803,
   1.0176266431808472,
   1.0078830718994141,
   0.96594297885894775,
   1.1163427829742432,
   0.8337896466255188,
   0.97974175214767456,
   0.91392976045608521,
   1.0130910873413086,
   0.91010874509811401
]
