[
   1.8167222738265991,
   1.8184875249862671,
   1.8182179927825928,
   1.8172727823257446,
   1.8162689208984375,
   1.8179715871810913,
   1.8170185089111328,
   1.8179337978363037,
   1.8171927928924561,
   1.815504789352417,
   1.8142712116241455,
   1.814083456993103,
   1.8137524127960205,
   1.8110138177871704,
   1.8082406520843506,
   1.8055999279022217,
   1.8037545680999756,
   1.8016731739044189,
   1.7999956607818604,
   1.7851753234863281,
   1.7698129415512085,
   1.7579972743988037,
   1.7453712224960327,
   1.7355333566665649,
   1.7226005792617798,
   1.7104994058609009,
   1.701380729675293,
   1.6928192377090454,
   1.6211936473846436,
   1.5651196241378784,
   1.5218819379806519,
   1.4852356910705566,
   1.4537074565887451,
   1.4240869283676147,
   1.3987967967987061,
   1.3749343156814575,
   1.3571934700012207,
   1.2215983867645264,
   1.1511466503143311,
   1.1081817150115967,
   1.076831579208374,
   1.0590384006500244,
   1.0383189916610718,
   1.0260281562805176,
   1.0190913677215576,
   1.0182269811630249,
   0.99802529811859131,
   1.006645679473877,
   1.0025001764297485,
   0.99185311794281006,
   0.99596709012985229,
   0.98473441600799561,
   0.98708266019821167,
   0.99614304304122925,
   0.98968982696533203,
   1.0126420259475708,
   0.99482232332229614,
   0.98296606540679932,
   0.99100732803344727,
   0.98642289638519287,
   1.0241380929946899,
   0.98892343044281006,
   1.0051671266555786,
   1.019199013710022
]
