[
   1.9524185657501221,
   1.9527781009674072,
   1.9484899044036865,
   1.950913667678833,
   1.9484100341796875,
   1.9509626626968384,
   1.949824333190918,
   1.9481134414672852,
   1.9522829055786133,
   1.9479913711547852,
   1.9470666646957397,
   1.9434913396835327,
   1.9408460855484009,
   1.9407413005828857,
   1.9374608993530273,
   1.9348760843276978,
   1.9360405206680298,
   1.931879997253418,
   1.9287550449371338,
   1.913272500038147,
   1.8906065225601196,
   1.8778200149536133,
   1.8599898815155029,
   1.848200798034668,
   1.8359472751617432,
   1.819430947303772,
   1.8086534738540649,
   1.8013511896133423,
   1.7111797332763672,
   1.6485297679901123,
   1.5963003635406494,
   1.5493930578231812,
   1.5129454135894775,
   1.4784438610076904,
   1.4491093158721924,
   1.4212753772735596,
   1.3984580039978027,
   1.2448428869247437,
   1.1620433330535889,
   1.1243877410888672,
   1.0935982465744019,
   1.0687263011932373,
   1.050675630569458,
   1.0397031307220459,
   1.0241433382034302,
   1.0198100805282593,
   1.0089452266693115,
   1.0078113079071045,
   1.0006008148193359,
   1.0023138523101807,
   1.0076373815536499,
   1.0013717412948608,
   1.0078293085098267,
   1.0019242763519287,
   0.99637746810913086,
   0.99418419599533081,
   0.98895484209060669,
   0.99771183729171753,
   0.99528425931930542,
   1.0032503604888916,
   1.0239204168319702,
   1.0100239515304565,
   1.0315907001495361,
   0.99789726734161377
]
