[
   2.6989827156066895,
   2.7004780769348145,
   2.6993982791900635,
   2.6973919868469238,
   2.7028458118438721,
   2.6949286460876465,
   2.6958951950073242,
   2.6992228031158447,
   2.6947979927062988,
   2.6977062225341797,
   2.6947376728057861,
   2.6859545707702637,
   2.6790611743927002,
   2.6730246543884277,
   2.6672701835632324,
   2.6689984798431396,
   2.6601941585540771,
   2.6518199443817139,
   2.6498532295227051,
   2.6047377586364746,
   2.5584495067596436,
   2.5243470668792725,
   2.491645336151123,
   2.4681267738342285,
   2.4359831809997559,
   2.4099504947662354,
   2.3832321166992188,
   2.3661355972290039,
   2.1947858333587646,
   2.0676753520965576,
   1.9689986705780029,
   1.8889119625091553,
   1.8176097869873047,
   1.7578704357147217,
   1.7014391422271729,
   1.6510378122329712,
   1.6030170917510986,
   1.340914249420166,
   1.2349140644073486,
   1.1673786640167236,
   1.1306504011154175,
   1.1009846925735474,
   1.0862280130386353,
   1.0681922435760498,
   1.0522257089614868,
   1.0362646579742432,
   0.99606829881668091,
   1.0129971504211426,
   1.0189323425292969,
   1.0016889572143555,
   0.97775143384933472,
   0.98655855655670166,
   0.99285000562667847,
   0.97871845960617065,
   0.98271143436431885,
   0.95246857404708862,
   0.99348366260528564,
   0.98421919345855713,
   0.99634820222854614,
   1.0228090286254883,
   1.0026699304580688,
   1.0267056226730347,
   1.0642209053039551,
   1.1023267507553101
]
