[
   1.8562858104705811,
   1.8572145700454712,
   1.8539119958877563,
   1.8525466918945312,
   1.8533809185028076,
   1.8522300720214844,
   1.8533403873443604,
   1.8537766933441162,
   1.8531421422958374,
   1.8522703647613525,
   1.8477756977081299,
   1.8464479446411133,
   1.8431103229522705,
   1.8421962261199951,
   1.8383125066757202,
   1.8368120193481445,
   1.8346414566040039,
   1.8317207098007202,
   1.8283560276031494,
   1.8032175302505493,
   1.7781000137329102,
   1.7603881359100342,
   1.7401201725006104,
   1.7217721939086914,
   1.7021973133087158,
   1.6854982376098633,
   1.6716368198394775,
   1.6575193405151367,
   1.5452886819839478,
   1.464928150177002,
   1.4078176021575928,
   1.3593568801879883,
   1.3232028484344482,
   1.2933392524719238,
   1.2645576000213623,
   1.2439053058624268,
   1.2224389314651489,
   1.1191556453704834,
   1.069973349571228,
   1.0537903308868408,
   1.038521409034729,
   1.0278290510177612,
   1.0204617977142334,
   1.0171229839324951,
   1.0155673027038574,
   1.013978123664856,
   0.99894589185714722,
   1.0063188076019287,
   1.0073403120040894,
   0.99153125286102295,
   0.997539222240448,
   0.99720174074172974,
   1.0031869411468506,
   0.99811041355133057,
   1.0015246868133545,
   0.98955583572387695,
   0.98872405290603638,
   1.0008847713470459,
   1.0088217258453369,
   0.98335564136505127,
   1.0059893131256104,
   0.98537814617156982,
   1.0079816579818726,
   0.94678652286529541
]
