[
   2.4003403186798096,
   2.3957998752593994,
   2.3968832492828369,
   2.3980436325073242,
   2.394484281539917,
   2.3896286487579346,
   2.394218921661377,
   2.3957350254058838,
   2.3935940265655518,
   2.3905916213989258,
   2.3851146697998047,
   2.3850090503692627,
   2.3732607364654541,
   2.3689866065979004,
   2.3618946075439453,
   2.3535490036010742,
   2.3522660732269287,
   2.3430802822113037,
   2.3352398872375488,
   2.2882828712463379,
   2.2423186302185059,
   2.2056059837341309,
   2.1633570194244385,
   2.1301376819610596,
   2.1018033027648926,
   2.0720076560974121,
   2.0415537357330322,
   2.0177803039550781,
   1.8256860971450806,
   1.6950407028198242,
   1.5949676036834717,
   1.5198832750320435,
   1.4623024463653564,
   1.4106466770172119,
   1.3703385591506958,
   1.3328889608383179,
   1.3009500503540039,
   1.1432768106460571,
   1.0834454298019409,
   1.0526950359344482,
   1.043093204498291,
   1.0233809947967529,
   1.0261366367340088,
   1.0189230442047119,
   1.0092136859893799,
   1.0110270977020264,
   1.0033551454544067,
   1.0111440420150757,
   0.99034702777862549,
   1.0040733814239502,
   0.9962884783744812,
   0.99914532899856567,
   1.0011423826217651,
   1.0135351419448853,
   0.9983026385307312,
   1.0160270929336548,
   0.98120993375778198,
   1.0021365880966187,
   1.0070396661758423,
   1.0006802082061768,
   1.0012999773025513,
   1.0023126602172852,
   0.93731558322906494,
   0.95889008045196533
]
