[
   1.9838634729385376,
   1.9832013845443726,
   1.9827651977539062,
   1.9879262447357178,
   1.9847981929779053,
   1.9836046695709229,
   1.981464147567749,
   1.9817936420440674,
   1.9798818826675415,
   1.9811298847198486,
   1.9769871234893799,
   1.9733282327651978,
   1.9711501598358154,
   1.9708678722381592,
   1.9637733697891235,
   1.9592082500457764,
   1.9576250314712524,
   1.9562892913818359,
   1.9491008520126343,
   1.9197292327880859,
   1.8913404941558838,
   1.8642532825469971,
   1.8403657674789429,
   1.8187077045440674,
   1.7974783182144165,
   1.7787182331085205,
   1.7581748962402344,
   1.7421314716339111,
   1.6074930429458618,
   1.514223575592041,
   1.4499208927154541,
   1.3945285081863403,
   1.3508535623550415,
   1.3146928548812866,
   1.2832174301147461,
   1.2603709697723389,
   1.2378522157669067,
   1.1191260814666748,
   1.0742394924163818,
   1.0457278490066528,
   1.0248371362686157,
   1.0211213827133179,
   1.0153965950012207,
   1.0118125677108765,
   1.0046623945236206,
   1.0016293525695801,
   0.99896776676177979,
   0.9931146502494812,
   0.9990917444229126,
   1.0020425319671631,
   1.0010892152786255,
   1.0061243772506714,
   1.0066816806793213,
   1.0006430149078369,
   0.99625712633132935,
   1.011626124382019,
   0.99800902605056763,
   0.98954284191131592,
   1.0071499347686768,
   0.98391854763031006,
   1.0165042877197266,
   0.97948217391967773,
   0.97882080078125,
   0.97875595092773438
]
