[
   2.7565388679504395,
   2.7570290565490723,
   2.7582931518554688,
   2.7546207904815674,
   2.751356840133667,
   2.7525703907012939,
   2.7567214965820312,
   2.7524266242980957,
   2.7541978359222412,
   2.7514140605926514,
   2.7449266910552979,
   2.7303292751312256,
   2.7276396751403809,
   2.7218236923217773,
   2.711841344833374,
   2.6968541145324707,
   2.6896252632141113,
   2.6823768615722656,
   2.671755313873291,
   2.6063024997711182,
   2.5397765636444092,
   2.491316556930542,
   2.441544771194458,
   2.3930573463439941,
   2.3492579460144043,
   2.3120663166046143,
   2.2843937873840332,
   2.2436244487762451,
   1.9928770065307617,
   1.8273153305053711,
   1.7107111215591431,
   1.6183822154998779,
   1.5443189144134521,
   1.4852179288864136,
   1.4342629909515381,
   1.3877897262573242,
   1.3439041376113892,
   1.1707054376602173,
   1.1054012775421143,
   1.0612423419952393,
   1.0452930927276611,
   1.0383422374725342,
   1.0214512348175049,
   1.0096216201782227,
   1.022431492805481,
   1.0099078416824341,
   0.99807584285736084,
   1.016880989074707,
   1.0029430389404297,
   1.0191971063613892,
   0.99624979496002197,
   0.99825859069824219,
   1.0281023979187012,
   0.9977300763130188,
   1.007709264755249,
   0.97956389188766479,
   0.99795925617218018,
   0.9905095100402832,
   0.99452006816864014,
   0.99397134780883789,
   1.0067157745361328,
   1.0009478330612183,
   0.98281794786453247,
   0.94681441783905029
]
