[
   8.2365150451660156,
   8.2464885711669922,
   8.2148075103759766,
   8.2380695343017578,
   8.1941919326782227,
   8.2020292282104492,
   8.2129945755004883,
   8.2041034698486328,
   8.2163143157958984,
   8.1965570449829102,
   8.1087522506713867,
   8.0008258819580078,
   7.9451737403869629,
   7.8843107223510742,
   7.8634376525878906,
   7.7589483261108398,
   7.7182021141052246,
   7.6562337875366211,
   7.5809502601623535,
   7.0846242904663086,
   6.7072172164916992,
   6.3755617141723633,
   6.1423616409301758,
   5.8820114135742188,
   5.6756386756896973,
   5.4835915565490723,
   5.312006950378418,
   5.1333737373352051,
   3.9207539558410645,
   3.2378203868865967,
   2.7727651596069336,
   2.4554698467254639,
   2.2116718292236328,
   2.0356111526489258,
   1.8835315704345703,
   1.7745538949966431,
   1.6836255788803101,
   1.2449767589569092,
   1.0865248441696167,
   1.0674145221710205,
   1.0716257095336914,
   1.0396403074264526,
   1.0204349756240845,
   0.99905955791473389,
   1.0194524526596069,
   1.003412127494812,
   0.98212128877639771,
   0.95186698436737061,
   0.96048295497894287,
   1.0104403495788574,
   0.99460840225219727,
   0.9769250750541687,
   1.0265820026397705,
   0.97811001539230347,
   0.96851670742034912,
   0.98633575439453125,
   0.9950789213180542,
   1.0491234064102173,
   1.0051301717758179,
   1.0629527568817139,
   0.98425662517547607,
   0.951701819896698,
   0.90278655290603638,
   0.94122713804244995
]
