[
   151.09645080566406,
   144.72842407226562,
   147.76181030273438,
   144.88339233398438,
   142.19937133789062,
   145.58087158203125,
   145.31169128417969,
   139.2493896484375,
   141.62196350097656,
   144.06021118164062,
   134.11466979980469,
   128.11233520507812,
   122.47016906738281,
   122.64604187011719,
   119.70517730712891,
   113.8680419921875,
   110.18080902099609,
   106.7681884765625,
   104.36750793457031,
   83.382118225097656,
   68.053939819335938,
   59.9420166015625,
   51.764019012451172,
   43.070026397705078,
   38.486793518066406,
   34.886680603027344,
   31.166851043701172,
   27.646673202514648,
   13.404130935668945,
   7.5529708862304688,
   6.6519012451171875,
   4.2849984169006348,
   3.0748357772827148,
   2.6387991905212402,
   2.8993496894836426,
   1.8188581466674805,
   2.5563423633575439,
   1.1794424057006836,
   1.0197863578796387,
   1.0407034158706665,
   1.0110013484954834,
   1.4038524627685547,
   1.4359766244888306,
   0.60764849185943604,
   0.72772455215454102,
   1.0962480306625366,
   0.55280554294586182,
   1.2098169326782227,
   0.90266942977905273,
   0.64290207624435425,
   0.88651382923126221,
   0.83343791961669922,
   0.98906499147415161,
   1.472507119178772,
   1.1319811344146729,
   0.88050013780593872,
   0.90835380554199219,
   1.1119271516799927,
   0.84066545963287354,
   0.84779512882232666,
   1.1190996170043945,
   0.84250670671463013,
   1.0587373971939087,
   0.3497907817363739
]
