[
   6.7958159446716309,
   6.7923583984375,
   6.7757515907287598,
   6.7931928634643555,
   6.782498836517334,
   6.756533145904541,
   6.7672514915466309,
   6.7468085289001465,
   6.7742490768432617,
   6.7580032348632812,
   6.7479043006896973,
   6.6802926063537598,
   6.6118950843811035,
   6.6003293991088867,
   6.5655927658081055,
   6.5140190124511719,
   6.4851522445678711,
   6.4523453712463379,
   6.4118375778198242,
   6.1132326126098633,
   5.8307161331176758,
   5.6438007354736328,
   5.4326601028442383,
   5.2787747383117676,
   5.1167984008789062,
   4.9999723434448242,
   4.8316454887390137,
   4.73333740234375,
   3.8154234886169434,
   3.2716910839080811,
   2.9102206230163574,
   2.6204531192779541,
   2.3729496002197266,
   2.2215371131896973,
   2.0753486156463623,
   1.9546101093292236,
   1.8640139102935791,
   1.4203342199325562,
   1.263758659362793,
   1.1355187892913818,
   1.0606914758682251,
   1.0102612972259521,
   1.0134304761886597,
   0.96739310026168823,
   1.0023895502090454,
   1.0270247459411621,
   0.95385730266571045,
   0.99261969327926636,
   0.99786978960037231,
   1.0412657260894775,
   0.99315834045410156,
   0.98947775363922119,
   0.96527785062789917,
   0.95995843410491943,
   0.98183238506317139,
   1.0271147489547729,
   0.98756253719329834,
   1.0006577968597412,
   0.9589616060256958,
   0.94582223892211914,
   0.99159777164459229,
   1.0190879106521606,
   0.88038462400436401,
   0.89796334505081177
]
