[
   98.961677551269531,
   97.258186340332031,
   97.739166259765625,
   96.485458374023438,
   97.498222351074219,
   95.551239013671875,
   95.805953979492188,
   94.483146667480469,
   93.932266235351562,
   93.55743408203125,
   90.178733825683594,
   85.045738220214844,
   84.396209716796875,
   80.5413818359375,
   79.083419799804688,
   75.764762878417969,
   73.423591613769531,
   71.892196655273438,
   70.457710266113281,
   55.623394012451172,
   47.506214141845703,
   39.768989562988281,
   35.040660858154297,
   30.680852890014648,
   27.063608169555664,
   24.700132369995117,
   22.546537399291992,
   20.272924423217773,
   10.673980712890625,
   6.7419090270996094,
   5.1352276802062988,
   4.576988697052002,
   3.4964191913604736,
   3.014798641204834,
   2.7604842185974121,
   2.8152875900268555,
   2.2158670425415039,
   1.4233410358428955,
   1.011268138885498,
   1.1466505527496338,
   1.2398366928100586,
   1.0600078105926514,
   1.1300086975097656,
   0.88865506649017334,
   1.2744095325469971,
   1.2350548505783081,
   0.92322617769241333,
   0.7466004490852356,
   1.136431097984314,
   0.74128544330596924,
   1.2206379175186157,
   0.93355244398117065,
   1.0912927389144897,
   1.4438832998275757,
   0.90495157241821289,
   1.2941263914108276,
   1.2681608200073242,
   1.1307985782623291,
   0.98251450061798096,
   0.69552171230316162,
   0.63906162977218628,
   0.66820257902145386,
   1.7274482250213623,
   1.0586693286895752
]
