[
   1.6822322607040405,
   1.680659294128418,
   1.6801439523696899,
   1.6796064376831055,
   1.6810634136199951,
   1.6796270608901978,
   1.6793409585952759,
   1.681232213973999,
   1.6783602237701416,
   1.6791566610336304,
   1.6783707141876221,
   1.6747066974639893,
   1.6767698526382446,
   1.6736084222793579,
   1.6727107763290405,
   1.6719846725463867,
   1.6708637475967407,
   1.6697981357574463,
   1.6655750274658203,
   1.6529417037963867,
   1.6430419683456421,
   1.6315212249755859,
   1.6206353902816772,
   1.6107547283172607,
   1.5998826026916504,
   1.5915108919143677,
   1.5837166309356689,
   1.5726773738861084,
   1.5051491260528564,
   1.4554740190505981,
   1.4121556282043457,
   1.3787271976470947,
   1.350961446762085,
   1.3251168727874756,
   1.3010280132293701,
   1.2805807590484619,
   1.2625706195831299,
   1.156715989112854,
   1.1022374629974365,
   1.0722002983093262,
   1.050640344619751,
   1.0365440845489502,
   1.0270884037017822,
   1.0228837728500366,
   1.0173105001449585,
   1.0160229206085205,
   0.9980846643447876,
   1.0004255771636963,
   1.0018022060394287,
   0.99947512149810791,
   0.99547672271728516,
   0.98386156558990479,
   0.98860341310501099,
   1.0013605356216431,
   1.0021629333496094,
   0.9984772801399231,
   0.99903428554534912,
   0.99629843235015869,
   1.0057790279388428,
   1.0054066181182861,
   0.99499309062957764,
   0.96844613552093506,
   0.98536479473114014,
   0.99987077713012695
]
