[
   4.5217118263244629,
   4.5141663551330566,
   4.5226144790649414,
   4.5071682929992676,
   4.5069828033447266,
   4.4976320266723633,
   4.5039052963256836,
   4.5048432350158691,
   4.5020589828491211,
   4.5022306442260742,
   4.4776754379272461,
   4.4604849815368652,
   4.4471120834350586,
   4.4266691207885742,
   4.3953194618225098,
   4.3820428848266602,
   4.3659253120422363,
   4.3585824966430664,
   4.3453397750854492,
   4.1962571144104004,
   4.0655474662780762,
   3.9714970588684082,
   3.8567771911621094,
   3.7820229530334473,
   3.6953139305114746,
   3.6256661415100098,
   3.5538477897644043,
   3.4794127941131592,
   2.9891297817230225,
   2.663590669631958,
   2.4138777256011963,
   2.223721981048584,
   2.0788977146148682,
   1.9522149562835693,
   1.8420836925506592,
   1.7673721313476562,
   1.6896781921386719,
   1.3184711933135986,
   1.1738355159759521,
   1.1227233409881592,
   1.096524715423584,
   1.0595386028289795,
   1.0338230133056641,
   1.0288965702056885,
   1.0328843593597412,
   1.0052568912506104,
   1.0115863084793091,
   1.0005782842636108,
   0.98674118518829346,
   1.0155289173126221,
   0.98555862903594971,
   0.97358465194702148,
   1.0367976427078247,
   1.0157749652862549,
   1.0124304294586182,
   1.0196905136108398,
   0.99705708026885986,
   0.99976968765258789,
   0.97174692153930664,
   1.0177550315856934,
   1.009526252746582,
   1.0491933822631836,
   0.99292623996734619,
   1.1029822826385498
]
