[
   2.504021167755127,
   2.497776985168457,
   2.4983189105987549,
   2.4971895217895508,
   2.5007593631744385,
   2.4976437091827393,
   2.5028126239776611,
   2.4972963333129883,
   2.4948422908782959,
   2.4933803081512451,
   2.490638256072998,
   2.4848809242248535,
   2.4838967323303223,
   2.4819130897521973,
   2.4726605415344238,
   2.4654831886291504,
   2.4614760875701904,
   2.4622936248779297,
   2.4510452747344971,
   2.4147775173187256,
   2.3724513053894043,
   2.335975170135498,
   2.3039431571960449,
   2.273841381072998,
   2.2449600696563721,
   2.2210359573364258,
   2.1899318695068359,
   2.1720614433288574,
   1.989967942237854,
   1.8642396926879883,
   1.7615123987197876,
   1.6796058416366577,
   1.6180922985076904,
   1.5656064748764038,
   1.516944408416748,
   1.4779229164123535,
   1.4393579959869385,
   1.2339721918106079,
   1.1393041610717773,
   1.0961737632751465,
   1.0565303564071655,
   1.0542997121810913,
   1.0257278680801392,
   1.0178292989730835,
   1.01850426197052,
   1.0287728309631348,
   1.0117866992950439,
   0.99715769290924072,
   0.98696672916412354,
   0.9994390606880188,
   0.9942973256111145,
   0.99167537689208984,
   0.98274469375610352,
   0.97326517105102539,
   0.9756963849067688,
   0.9847184419631958,
   0.98700237274169922,
   1.0051047801971436,
   0.98377907276153564,
   1.0034606456756592,
   1.0189690589904785,
   1.0131137371063232,
   1.019127368927002,
   1.1638623476028442
]
