[
   13.469573974609375,
   13.411807060241699,
   13.398989677429199,
   13.406923294067383,
   13.398867607116699,
   13.394166946411133,
   13.362260818481445,
   13.338735580444336,
   13.326169013977051,
   13.376947402954102,
   13.234173774719238,
   13.082252502441406,
   12.944786071777344,
   12.747259140014648,
   12.726473808288574,
   12.530147552490234,
   12.493255615234375,
   12.261321067810059,
   12.251834869384766,
   11.390218734741211,
   10.645723342895508,
   10.15179443359375,
   9.6114635467529297,
   9.2279701232910156,
   8.7608575820922852,
   8.4467439651489258,
   8.0174579620361328,
   7.8476395606994629,
   5.7309403419494629,
   4.5639419555664062,
   3.8790669441223145,
   3.3841023445129395,
   2.994936466217041,
   2.7349205017089844,
   2.5549306869506836,
   2.3367323875427246,
   2.2013554573059082,
   1.4984656572341919,
   1.3482699394226074,
   1.2221361398696899,
   1.116247296333313,
   1.0824806690216064,
   1.0493409633636475,
   0.98212873935699463,
   0.97351378202438354,
   1.0561503171920776,
   1.0026456117630005,
   1.0224277973175049,
   0.96340358257293701,
   0.91934597492218018,
   0.96547430753707886,
   0.96415364742279053,
   1.0161608457565308,
   1.020250678062439,
   1.0548053979873657,
   0.965168297290802,
   0.96654129028320312,
   0.93721944093704224,
   1.0392450094223022,
   0.97726714611053467,
   1.0094883441925049,
   1.2297954559326172,
   1.0245510339736938,
   0.73825258016586304
]
