[
   1.4987829923629761,
   1.4972531795501709,
   1.4968589544296265,
   1.4975560903549194,
   1.4966251850128174,
   1.4981898069381714,
   1.4981540441513062,
   1.4975959062576294,
   1.4965498447418213,
   1.4982751607894897,
   1.496812105178833,
   1.4952789545059204,
   1.4943199157714844,
   1.4927138090133667,
   1.4933513402938843,
   1.4931403398513794,
   1.4898897409439087,
   1.4903753995895386,
   1.488713264465332,
   1.4808423519134521,
   1.4740340709686279,
   1.467531681060791,
   1.4591574668884277,
   1.4534924030303955,
   1.4458557367324829,
   1.440807580947876,
   1.4350537061691284,
   1.4297009706497192,
   1.3827898502349854,
   1.346523642539978,
   1.3176276683807373,
   1.2947652339935303,
   1.2750939130783081,
   1.2570517063140869,
   1.2418558597564697,
   1.2281184196472168,
   1.2140432596206665,
   1.1359380483627319,
   1.0939970016479492,
   1.066917896270752,
   1.0474022626876831,
   1.0366780757904053,
   1.028214693069458,
   1.0233155488967896,
   1.0199410915374756,
   1.0155794620513916,
   1.0006027221679688,
   1.0010125637054443,
   1.0000481605529785,
   0.99602615833282471,
   1.0035698413848877,
   0.99180811643600464,
   1.0028774738311768,
   0.99796390533447266,
   0.99836766719818115,
   0.99573099613189697,
   0.99959325790405273,
   1.0101649761199951,
   1.006784200668335,
   0.99890202283859253,
   0.977466881275177,
   0.9615095853805542,
   1.0037500858306885,
   0.98837631940841675
]
