[
   2.0478649139404297,
   2.0468614101409912,
   2.048393726348877,
   2.0496828556060791,
   2.04685378074646,
   2.0457794666290283,
   2.0443243980407715,
   2.0449552536010742,
   2.0456326007843018,
   2.0491678714752197,
   2.0435605049133301,
   2.0431842803955078,
   2.0368778705596924,
   2.0357034206390381,
   2.0332169532775879,
   2.0293164253234863,
   2.0272719860076904,
   2.0239434242248535,
   2.0214648246765137,
   1.9991095066070557,
   1.9737913608551025,
   1.9541194438934326,
   1.933214545249939,
   1.9167518615722656,
   1.8975101709365845,
   1.8801038265228271,
   1.8648827075958252,
   1.8515726327896118,
   1.7345478534698486,
   1.6487226486206055,
   1.5864048004150391,
   1.5315046310424805,
   1.4872280359268188,
   1.4466379880905151,
   1.4152748584747314,
   1.3831479549407959,
   1.3579912185668945,
   1.2037280797958374,
   1.1375010013580322,
   1.1039814949035645,
   1.0809848308563232,
   1.0583647489547729,
   1.0515596866607666,
   1.0417711734771729,
   1.0384522676467896,
   1.0296069383621216,
   1.0025900602340698,
   1.0021235942840576,
   0.99445599317550659,
   0.9919249415397644,
   0.99631059169769287,
   1.0130172967910767,
   1.0031859874725342,
   0.99607688188552856,
   1.0095605850219727,
   0.98815983533859253,
   0.98410403728485107,
   1.0003827810287476,
   1.0087518692016602,
   0.961933434009552,
   1.0011917352676392,
   1.0277867317199707,
   1.0315414667129517,
   1.0206896066665649
]
