[
   1.7857503890991211,
   1.7853990793228149,
   1.7843843698501587,
   1.784494161605835,
   1.7853295803070068,
   1.7823613882064819,
   1.7834593057632446,
   1.7840235233306885,
   1.7832969427108765,
   1.7820723056793213,
   1.7832492589950562,
   1.7784957885742188,
   1.7784111499786377,
   1.7765763998031616,
   1.7733463048934937,
   1.7741677761077881,
   1.7711074352264404,
   1.7715801000595093,
   1.769244909286499,
   1.75333571434021,
   1.739336371421814,
   1.7238166332244873,
   1.7119076251983643,
   1.7003160715103149,
   1.6856505870819092,
   1.6754448413848877,
   1.6651865243911743,
   1.6544868946075439,
   1.5721299648284912,
   1.5132496356964111,
   1.4661035537719727,
   1.4257824420928955,
   1.3935706615447998,
   1.3629562854766846,
   1.3376996517181396,
   1.3148761987686157,
   1.2942321300506592,
   1.1678237915039062,
   1.1073124408721924,
   1.0783541202545166,
   1.057344913482666,
   1.0425679683685303,
   1.03432297706604,
   1.0313034057617188,
   1.0264250040054321,
   1.0217627286911011,
   0.98918944597244263,
   0.991921067237854,
   0.99521744251251221,
   1.0064736604690552,
   0.9916192889213562,
   0.99236822128295898,
   0.9969792366027832,
   0.99664956331253052,
   0.98994046449661255,
   0.99819737672805786,
   0.981148362159729,
   0.97969150543212891,
   0.99266862869262695,
   1.0012789964675903,
   1.0345300436019897,
   1.054802417755127,
   1.0102592706680298,
   1.0629318952560425
]
