[
   2.8174033164978027,
   2.8201947212219238,
   2.8220610618591309,
   2.820556640625,
   2.8203959465026855,
   2.8202519416809082,
   2.8214640617370605,
   2.8176796436309814,
   2.8230745792388916,
   2.8190844058990479,
   2.8126077651977539,
   2.808215856552124,
   2.80068039894104,
   2.8005337715148926,
   2.794715404510498,
   2.7873930931091309,
   2.7842473983764648,
   2.7829048633575439,
   2.7760236263275146,
   2.7347440719604492,
   2.6931161880493164,
   2.6580643653869629,
   2.6262719631195068,
   2.5988800525665283,
   2.5639054775238037,
   2.5441179275512695,
   2.5140700340270996,
   2.4911642074584961,
   2.2936317920684814,
   2.1409387588500977,
   2.0243291854858398,
   1.9221267700195312,
   1.8438265323638916,
   1.7727286815643311,
   1.709189772605896,
   1.6600726842880249,
   1.6123454570770264,
   1.3537673950195312,
   1.2367928028106689,
   1.1759545803070068,
   1.1455886363983154,
   1.1019966602325439,
   1.0790276527404785,
   1.0741865634918213,
   1.0610729455947876,
   1.0516142845153809,
   1.0095528364181519,
   1.014767050743103,
   0.98752707242965698,
   0.98426687717437744,
   0.98838675022125244,
   0.99924218654632568,
   0.9850541353225708,
   0.97567129135131836,
   1.0006626844406128,
   0.98405265808105469,
   1.0064289569854736,
   0.97195166349411011,
   1.0228182077407837,
   0.99174118041992188,
   0.9969334602355957,
   0.96559876203536987,
   0.97237551212310791,
   0.96846359968185425
]
