[
   1.4678640365600586,
   1.4675934314727783,
   1.4679217338562012,
   1.4671697616577148,
   1.4665656089782715,
   1.4671411514282227,
   1.4665815830230713,
   1.46803879737854,
   1.4667074680328369,
   1.467381477355957,
   1.466048002243042,
   1.4656655788421631,
   1.4654381275177002,
   1.4649674892425537,
   1.4642852544784546,
   1.4639588594436646,
   1.4625036716461182,
   1.4623122215270996,
   1.4624001979827881,
   1.4569022655487061,
   1.4524228572845459,
   1.4468502998352051,
   1.4437061548233032,
   1.4393743276596069,
   1.4344825744628906,
   1.4316284656524658,
   1.427923321723938,
   1.4246799945831299,
   1.3919308185577393,
   1.3669002056121826,
   1.3456032276153564,
   1.3263828754425049,
   1.3100309371948242,
   1.2937567234039307,
   1.2809543609619141,
   1.2679558992385864,
   1.2566418647766113,
   1.1733338832855225,
   1.12811279296875,
   1.0963749885559082,
   1.0727314949035645,
   1.055907130241394,
   1.0443130731582642,
   1.0383560657501221,
   1.0326375961303711,
   1.0320245027542114,
   1.0052754878997803,
   1.0032470226287842,
   0.998454749584198,
   1.0008836984634399,
   0.99948489665985107,
   0.98948538303375244,
   0.99150192737579346,
   0.99049681425094604,
   0.99233520030975342,
   0.99517565965652466,
   0.99837446212768555,
   0.98408734798431396,
   0.98437947034835815,
   0.999714195728302,
   1.0089789628982544,
   0.99698907136917114,
   1.0219272375106812,
   1.0761363506317139
]
