[
   2.1752150058746338,
   2.1714911460876465,
   2.1735529899597168,
   2.1751480102539062,
   2.1723246574401855,
   2.1741416454315186,
   2.1759560108184814,
   2.1725196838378906,
   2.1710085868835449,
   2.1706397533416748,
   2.1703224182128906,
   2.1670911312103271,
   2.161095142364502,
   2.1601824760437012,
   2.1571764945983887,
   2.1588339805603027,
   2.1541399955749512,
   2.1517086029052734,
   2.151221752166748,
   2.1280570030212402,
   2.1122646331787109,
   2.0907559394836426,
   2.0725548267364502,
   2.0619959831237793,
   2.0419142246246338,
   2.0299103260040283,
   2.0139799118041992,
   2.0014300346374512,
   1.8923673629760742,
   1.8102439641952515,
   1.7412197589874268,
   1.6806766986846924,
   1.6350244283676147,
   1.5881578922271729,
   1.5515573024749756,
   1.5175789594650269,
   1.4851869344711304,
   1.2955740690231323,
   1.2006571292877197,
   1.1429108381271362,
   1.1081023216247559,
   1.0886126756668091,
   1.075158953666687,
   1.0673969984054565,
   1.0578281879425049,
   1.0438517332077026,
   1.0069863796234131,
   0.9945252537727356,
   1.0057989358901978,
   0.98301684856414795,
   0.99700295925140381,
   1.0083392858505249,
   0.99801015853881836,
   0.9917980432510376,
   1.0000209808349609,
   0.97133409976959229,
   0.98001736402511597,
   0.99375236034393311,
   0.98747193813323975,
   0.985179603099823,
   1.028033971786499,
   1.0505859851837158,
   1.0786632299423218,
   1.0893352031707764
]
