[
   15.538569450378418,
   15.423444747924805,
   15.463458061218262,
   15.382402420043945,
   15.367691040039062,
   15.359292984008789,
   15.310809135437012,
   15.420788764953613,
   15.314872741699219,
   15.367401123046875,
   15.191368103027344,
   15.031979560852051,
   14.826078414916992,
   14.748388290405273,
   14.598152160644531,
   14.406679153442383,
   14.333738327026367,
   14.300859451293945,
   14.11748218536377,
   12.978937149047852,
   12.11962890625,
   11.379331588745117,
   10.712319374084473,
   10.13355827331543,
   9.6058387756347656,
   9.1805830001831055,
   8.7574939727783203,
   8.3531112670898438,
   5.9417295455932617,
   4.7321925163269043,
   3.9910633563995361,
   3.4756221771240234,
   3.1304657459259033,
   2.8225736618041992,
   2.5402381420135498,
   2.4165160655975342,
   2.2612049579620361,
   1.5210585594177246,
   1.2984150648117065,
   1.1504675149917603,
   1.1110293865203857,
   1.1339657306671143,
   1.064723014831543,
   1.110256552696228,
   1.0355809926986694,
   1.0072286128997803,
   1.0460021495819092,
   1.0564121007919312,
   0.95447170734405518,
   1.023693323135376,
   1.0217592716217041,
   0.95432054996490479,
   1.0117496252059937,
   0.97065001726150513,
   1.0373396873474121,
   0.92463886737823486,
   1.0006043910980225,
   0.908835768699646,
   1.0122153759002686,
   0.973358154296875,
   0.89741373062133789,
   0.93850791454315186,
   1.0261964797973633,
   0.98696136474609375
]
