[
   1.5567123889923096,
   1.5559275150299072,
   1.5566517114639282,
   1.5565763711929321,
   1.5563197135925293,
   1.5555553436279297,
   1.5554057359695435,
   1.5567952394485474,
   1.5558335781097412,
   1.555694580078125,
   1.5546292066574097,
   1.5546369552612305,
   1.5538060665130615,
   1.5525457859039307,
   1.5538867712020874,
   1.5511995553970337,
   1.5493443012237549,
   1.550254225730896,
   1.5488712787628174,
   1.5425862073898315,
   1.5352818965911865,
   1.5291357040405273,
   1.5237038135528564,
   1.5173811912536621,
   1.5117992162704468,
   1.507249116897583,
   1.5018447637557983,
   1.4973413944244385,
   1.4543251991271973,
   1.4229300022125244,
   1.3949321508407593,
   1.3710675239562988,
   1.3501756191253662,
   1.3298656940460205,
   1.314777135848999,
   1.2984548807144165,
   1.2845538854598999,
   1.1923638582229614,
   1.1408888101577759,
   1.1067298650741577,
   1.0801775455474854,
   1.0636736154556274,
   1.0560441017150879,
   1.0486599206924438,
   1.0399421453475952,
   1.040153980255127,
   1.0100756883621216,
   1.0014684200286865,
   0.98644483089447021,
   0.9959181547164917,
   1.0040833950042725,
   1.0072783231735229,
   1.006967306137085,
   1.0017464160919189,
   1.0024750232696533,
   0.99620801210403442,
   0.98874616622924805,
   0.99923884868621826,
   1.0025912523269653,
   0.99195396900177002,
   1.014997124671936,
   1.0000040531158447,
   1.0162526369094849,
   0.97278344631195068
]
