[
   1.6074817180633545,
   1.6084579229354858,
   1.6079795360565186,
   1.6076285839080811,
   1.6081469058990479,
   1.6076650619506836,
   1.609332799911499,
   1.6069869995117188,
   1.6083424091339111,
   1.6086909770965576,
   1.6073272228240967,
   1.6061331033706665,
   1.6045863628387451,
   1.6041672229766846,
   1.6025615930557251,
   1.6032044887542725,
   1.6023792028427124,
   1.601750373840332,
   1.599292516708374,
   1.5908738374710083,
   1.5845845937728882,
   1.5769279003143311,
   1.5691096782684326,
   1.5637989044189453,
   1.5560559034347534,
   1.5505173206329346,
   1.5445706844329834,
   1.5390293598175049,
   1.4927676916122437,
   1.4552896022796631,
   1.422171950340271,
   1.394551157951355,
   1.371333122253418,
   1.3523555994033813,
   1.3305771350860596,
   1.3134415149688721,
   1.2984997034072876,
   1.1939250230789185,
   1.1380809545516968,
   1.10691237449646,
   1.0844829082489014,
   1.068535327911377,
   1.0565818548202515,
   1.0445386171340942,
   1.037639856338501,
   1.0345536470413208,
   1.0046918392181396,
   0.9949113130569458,
   0.99606931209564209,
   0.99345988035202026,
   0.98895514011383057,
   0.99131953716278076,
   0.99321669340133667,
   0.9998595118522644,
   0.99742871522903442,
   1.0081182718276978,
   0.99767476320266724,
   0.99885672330856323,
   1.0118234157562256,
   0.98546946048736572,
   0.98199450969696045,
   1.0034869909286499,
   0.9705432653427124,
   0.97956228256225586
]
