[
   9.2892990112304688,
   9.2672710418701172,
   9.2743873596191406,
   9.2659587860107422,
   9.2664394378662109,
   9.2492923736572266,
   9.1942424774169922,
   9.2193069458007812,
   9.2150869369506836,
   9.1978139877319336,
   9.1007957458496094,
   9.0749282836914062,
   9.0350704193115234,
   8.9936075210571289,
   8.9436607360839844,
   8.8777847290039062,
   8.825810432434082,
   8.7799510955810547,
   8.736180305480957,
   8.2830257415771484,
   7.8711814880371094,
   7.5622010231018066,
   7.2742919921875,
   6.9734182357788086,
   6.7196645736694336,
   6.549405574798584,
   6.341038703918457,
   6.1053485870361328,
   4.7752828598022461,
   3.9210739135742188,
   3.4021370410919189,
   3.0259594917297363,
   2.7192666530609131,
   2.5371756553649902,
   2.3551664352416992,
   2.2032639980316162,
   2.0937910079956055,
   1.542908787727356,
   1.3428704738616943,
   1.2393257617950439,
   1.1513259410858154,
   1.1406627893447876,
   1.1057932376861572,
   1.0607132911682129,
   1.0353806018829346,
   1.0627574920654297,
   1.0304495096206665,
   0.99990969896316528,
   0.96460044384002686,
   1.0169639587402344,
   0.99298352003097534,
   0.92801028490066528,
   0.98423498868942261,
   0.94198340177536011,
   0.96223831176757812,
   0.98478734493255615,
   1.0483963489532471,
   0.96229714155197144,
   1.0168373584747314,
   0.9678884744644165,
   1.0310064554214478,
   1.0680077075958252,
   1.1166350841522217,
   1.2007622718811035
]
