[
   5.0046982765197754,
   4.9821691513061523,
   4.997199535369873,
   4.9947061538696289,
   4.9935617446899414,
   4.9888167381286621,
   4.9741182327270508,
   5.0046310424804688,
   4.9827980995178223,
   4.9956197738647461,
   4.9625844955444336,
   4.9490141868591309,
   4.9229803085327148,
   4.9092187881469727,
   4.8988876342773438,
   4.8721542358398438,
   4.8685212135314941,
   4.8508315086364746,
   4.8447713851928711,
   4.6801333427429199,
   4.5610861778259277,
   4.4425210952758789,
   4.353905200958252,
   4.2636613845825195,
   4.1588196754455566,
   4.0898094177246094,
   3.9918828010559082,
   3.9218997955322266,
   3.3405494689941406,
   2.9506914615631104,
   2.6558029651641846,
   2.4380621910095215,
   2.2763173580169678,
   2.1432924270629883,
   2.0236530303955078,
   1.9355804920196533,
   1.8645585775375366,
   1.4308027029037476,
   1.264133095741272,
   1.1708405017852783,
   1.1207535266876221,
   1.1010167598724365,
   1.0804526805877686,
   1.0745408535003662,
   1.0586202144622803,
   1.0422008037567139,
   0.98179543018341064,
   1.0173364877700806,
   0.96639138460159302,
   1.0009803771972656,
   0.97218084335327148,
   0.96999847888946533,
   0.97435343265533447,
   0.98140156269073486,
   0.96089506149291992,
   0.99604099988937378,
   0.98211115598678589,
   0.97398722171783447,
   1.0016936063766479,
   1.0164293050765991,
   0.97794044017791748,
   1.0124565362930298,
   0.98103237152099609,
   1.0469468832015991
]
