[
   1.7426197528839111,
   1.7422363758087158,
   1.7423632144927979,
   1.7400411367416382,
   1.7419455051422119,
   1.7417209148406982,
   1.7421081066131592,
   1.7419570684432983,
   1.7416740655899048,
   1.7406250238418579,
   1.7392594814300537,
   1.7384655475616455,
   1.7395105361938477,
   1.7361505031585693,
   1.7370723485946655,
   1.7343931198120117,
   1.7323999404907227,
   1.7346656322479248,
   1.7326304912567139,
   1.7213537693023682,
   1.712803840637207,
   1.7027113437652588,
   1.6942164897918701,
   1.6855757236480713,
   1.6790117025375366,
   1.6711227893829346,
   1.6649736166000366,
   1.6551889181137085,
   1.6003783941268921,
   1.5564621686935425,
   1.5166243314743042,
   1.4839458465576172,
   1.4573819637298584,
   1.4322351217269897,
   1.4092220067977905,
   1.3875375986099243,
   1.3696439266204834,
   1.2492926120758057,
   1.1796482801437378,
   1.1387758255004883,
   1.1054732799530029,
   1.0804088115692139,
   1.0682700872421265,
   1.0590959787368774,
   1.0467698574066162,
   1.0364392995834351,
   1.008017897605896,
   0.99350821971893311,
   1.0019365549087524,
   0.99628943204879761,
   0.9847712516784668,
   0.98567545413970947,
   0.99290668964385986,
   0.99297034740447998,
   0.99211931228637695,
   0.97604095935821533,
   0.98820352554321289,
   1.0060335397720337,
   0.97731512784957886,
   1.0079580545425415,
   1.0144116878509521,
   1.0510728359222412,
   1.0486356019973755,
   1.1285115480422974
]
