[
   1.5276451110839844,
   1.5278141498565674,
   1.5276153087615967,
   1.5259559154510498,
   1.5277767181396484,
   1.5287966728210449,
   1.525586724281311,
   1.5255430936813354,
   1.5277941226959229,
   1.5262316465377808,
   1.5263574123382568,
   1.5255300998687744,
   1.5248091220855713,
   1.5240147113800049,
   1.5214855670928955,
   1.5230042934417725,
   1.5226751565933228,
   1.5217726230621338,
   1.5210237503051758,
   1.5153169631958008,
   1.5085880756378174,
   1.5038912296295166,
   1.499422550201416,
   1.4934383630752563,
   1.4894392490386963,
   1.4842759370803833,
   1.4793082475662231,
   1.4751702547073364,
   1.4373165369033813,
   1.407494068145752,
   1.3824307918548584,
   1.361791729927063,
   1.3405824899673462,
   1.3243057727813721,
   1.3091326951980591,
   1.2951616048812866,
   1.2811998128890991,
   1.1903632879257202,
   1.1408863067626953,
   1.1078656911849976,
   1.085073709487915,
   1.0710294246673584,
   1.0602637529373169,
   1.0531296730041504,
   1.0437299013137817,
   1.0391910076141357,
   1.0074789524078369,
   1.0028231143951416,
   1.0050256252288818,
   1.0013085603713989,
   1.0034497976303101,
   1.0051578283309937,
   1.0073935985565186,
   1.005656361579895,
   0.99323546886444092,
   0.98988091945648193,
   0.97858190536499023,
   0.98352062702178955,
   0.98584091663360596,
   1.0091683864593506,
   0.99868714809417725,
   1.019832968711853,
   0.984660804271698,
   1.0113475322723389
]
