[
   5.0990734100341797,
   5.0830678939819336,
   5.1067852973937988,
   5.0945110321044922,
   5.0894594192504883,
   5.0886068344116211,
   5.0776615142822266,
   5.0627126693725586,
   5.0787901878356934,
   5.0796918869018555,
   5.040128231048584,
   5.029118537902832,
   5.0033235549926758,
   4.9637017250061035,
   4.9302430152893066,
   4.898643970489502,
   4.8812341690063477,
   4.8492040634155273,
   4.8223514556884766,
   4.6294336318969727,
   4.4500083923339844,
   4.3048620223999023,
   4.1463427543640137,
   4.0529727935791016,
   3.9341540336608887,
   3.8424644470214844,
   3.7609107494354248,
   3.6803023815155029,
   3.086784839630127,
   2.7216827869415283,
   2.4616637229919434,
   2.2603883743286133,
   2.1248040199279785,
   1.9937813282012939,
   1.8856607675552368,
   1.7959619760513306,
   1.7291162014007568,
   1.3469693660736084,
   1.2045607566833496,
   1.117053747177124,
   1.1082922220230103,
   1.0653008222579956,
   1.0438697338104248,
   1.0263621807098389,
   1.0334267616271973,
   1.0268926620483398,
   1.0209712982177734,
   0.98806273937225342,
   0.99755972623825073,
   0.98058223724365234,
   1.005509614944458,
   0.98627078533172607,
   1.035045862197876,
   1.0104362964630127,
   1.0056940317153931,
   0.99092197418212891,
   1.0046017169952393,
   0.99444103240966797,
   0.9932745099067688,
   0.99679982662200928,
   0.99047344923019409,
   1.0044207572937012,
   0.90707921981811523,
   1.0102274417877197
]
