[
   3.1321985721588135,
   3.1297779083251953,
   3.125957727432251,
   3.1291434764862061,
   3.1276710033416748,
   3.1293635368347168,
   3.1257495880126953,
   3.127418041229248,
   3.1219890117645264,
   3.1270911693572998,
   3.1136617660522461,
   3.1038699150085449,
   3.0996525287628174,
   3.0880277156829834,
   3.0842592716217041,
   3.074068546295166,
   3.0617799758911133,
   3.0556957721710205,
   3.037813663482666,
   2.96659255027771,
   2.8911576271057129,
   2.8363208770751953,
   2.769350528717041,
   2.723797082901001,
   2.665560245513916,
   2.6261353492736816,
   2.588726282119751,
   2.5484943389892578,
   2.2720293998718262,
   2.0945096015930176,
   1.9548895359039307,
   1.8494694232940674,
   1.7655265331268311,
   1.691091775894165,
   1.6390892267227173,
   1.5914676189422607,
   1.5495694875717163,
   1.297128438949585,
   1.1906836032867432,
   1.1209990978240967,
   1.0745419263839722,
   1.0528897047042847,
   1.0414879322052002,
   1.0309073925018311,
   1.0236377716064453,
   1.0232353210449219,
   1.0038050413131714,
   0.97612178325653076,
   1.0219922065734863,
   0.99128913879394531,
   1.0046141147613525,
   1.0066541433334351,
   0.98785555362701416,
   0.99608039855957031,
   0.99960362911224365,
   1.0005828142166138,
   1.015223503112793,
   1.0380892753601074,
   0.99066895246505737,
   0.99689769744873047,
   0.96513336896896362,
   0.98634368181228638,
   1.0104525089263916,
   0.89001291990280151
]
