[
   2.1475100517272949,
   2.144465446472168,
   2.1454920768737793,
   2.1426446437835693,
   2.1460742950439453,
   2.1445598602294922,
   2.1440367698669434,
   2.145744800567627,
   2.1460757255554199,
   2.1446380615234375,
   2.1384768486022949,
   2.1361432075500488,
   2.1341257095336914,
   2.1297047138214111,
   2.1270899772644043,
   2.1227688789367676,
   2.1180124282836914,
   2.1151280403137207,
   2.1109647750854492,
   2.083320140838623,
   2.052238941192627,
   2.0241885185241699,
   1.9997918605804443,
   1.977020263671875,
   1.9521105289459229,
   1.936248779296875,
   1.918169379234314,
   1.8990806341171265,
   1.7632157802581787,
   1.6658670902252197,
   1.5968852043151855,
   1.5416933298110962,
   1.4959548711776733,
   1.45354163646698,
   1.4191699028015137,
   1.388674259185791,
   1.3630073070526123,
   1.202803373336792,
   1.1382262706756592,
   1.0962740182876587,
   1.0721622705459595,
   1.06578528881073,
   1.0492112636566162,
   1.035780668258667,
   1.031363844871521,
   1.017780065536499,
   1.0014361143112183,
   0.99858570098876953,
   0.99469661712646484,
   0.99322670698165894,
   0.99490022659301758,
   1.0029753446578979,
   0.99862796068191528,
   1.0030831098556519,
   1.0011088848114014,
   0.97821444272994995,
   0.99556654691696167,
   0.98770713806152344,
   0.97676098346710205,
   0.99730193614959717,
   1.0256679058074951,
   1.0120252370834351,
   0.98032724857330322,
   0.9761732816696167
]
