[
   1.6518579721450806,
   1.6517829895019531,
   1.6494365930557251,
   1.6501312255859375,
   1.6516706943511963,
   1.6521530151367188,
   1.6487464904785156,
   1.6502605676651001,
   1.6485065221786499,
   1.6500304937362671,
   1.6504280567169189,
   1.6469783782958984,
   1.6456836462020874,
   1.6421962976455688,
   1.6436210870742798,
   1.6417192220687866,
   1.6411079168319702,
   1.6384344100952148,
   1.6360601186752319,
   1.6232178211212158,
   1.6111810207366943,
   1.5982849597930908,
   1.586699366569519,
   1.5755653381347656,
   1.5653953552246094,
   1.5540213584899902,
   1.5448579788208008,
   1.5365183353424072,
   1.4633185863494873,
   1.4134318828582764,
   1.3726694583892822,
   1.3386873006820679,
   1.312531590461731,
   1.2889423370361328,
   1.2688804864883423,
   1.2501900196075439,
   1.2323610782623291,
   1.1378365755081177,
   1.093537449836731,
   1.066209077835083,
   1.0489375591278076,
   1.0357472896575928,
   1.0271905660629272,
   1.0248370170593262,
   1.0156725645065308,
   1.0107536315917969,
   1.0015373229980469,
   0.99702203273773193,
   1.0004980564117432,
   1.0017760992050171,
   0.9998401403427124,
   0.99890822172164917,
   1.0007712841033936,
   0.99893462657928467,
   0.99455583095550537,
   0.99979746341705322,
   0.98694384098052979,
   0.98928594589233398,
   0.99601030349731445,
   1.0077255964279175,
   1.0056570768356323,
   0.99527662992477417,
   1.0180743932723999,
   0.99271523952484131
]
