[
   1.837324857711792,
   1.8384549617767334,
   1.838953971862793,
   1.8370698690414429,
   1.8365557193756104,
   1.8370320796966553,
   1.8387750387191772,
   1.8367660045623779,
   1.8379367589950562,
   1.838109016418457,
   1.8335895538330078,
   1.8345874547958374,
   1.8310644626617432,
   1.8300855159759521,
   1.8288215398788452,
   1.824115514755249,
   1.8208109140396118,
   1.8208831548690796,
   1.817551851272583,
   1.7967360019683838,
   1.7791211605072021,
   1.7628759145736694,
   1.7468125820159912,
   1.7289130687713623,
   1.7181346416473389,
   1.7022737264633179,
   1.69000244140625,
   1.6760575771331787,
   1.5831886529922485,
   1.5140340328216553,
   1.4618375301361084,
   1.4209815263748169,
   1.3848624229431152,
   1.3573319911956787,
   1.3305908441543579,
   1.3105732202529907,
   1.2897459268569946,
   1.1675059795379639,
   1.1110156774520874,
   1.0804665088653564,
   1.0603625774383545,
   1.0510350465774536,
   1.0419274568557739,
   1.0342620611190796,
   1.0275126695632935,
   1.0302683115005493,
   1.0008294582366943,
   1.0016815662384033,
   1.0043724775314331,
   0.99848777055740356,
   1.0070080757141113,
   1.0022441148757935,
   0.99709385633468628,
   0.99064552783966064,
   0.99523961544036865,
   0.99413985013961792,
   1.0046237707138062,
   0.99658328294754028,
   1.0044686794281006,
   1.0018028020858765,
   0.99851381778717041,
   0.99055731296539307,
   0.97892892360687256,
   1.000762939453125
]
