[
   121.89797210693359,
   122.28427886962891,
   122.18656921386719,
   121.29875183105469,
   119.664794921875,
   121.04576110839844,
   119.07468414306641,
   119.74753570556641,
   117.92520904541016,
   117.50077819824219,
   111.73148345947266,
   106.28238677978516,
   103.10197448730469,
   102.47715759277344,
   96.154861450195312,
   92.878707885742188,
   91.058761596679688,
   86.184371948242188,
   83.9554443359375,
   68.48516845703125,
   55.610034942626953,
   48.694755554199219,
   42.540424346923828,
   38.731456756591797,
   36.487312316894531,
   31.934299468994141,
   29.443653106689453,
   26.405132293701172,
   14.600855827331543,
   10.527558326721191,
   8.1066036224365234,
   6.4308662414550781,
   5.9081892967224121,
   5.2628579139709473,
   3.7572131156921387,
   3.957552433013916,
   4.1260952949523926,
   2.3352506160736084,
   1.455865740776062,
   1.2166368961334229,
   1.1363532543182373,
   1.1007006168365479,
   1.1378377676010132,
   1.000626802444458,
   1.0326828956604004,
   0.83416974544525146,
   0.91061383485794067,
   0.77050769329071045,
   1.3339484930038452,
   0.76850295066833496,
   1.6716539859771729,
   1.2910311222076416,
   0.66869866847991943,
   1.1357049942016602,
   0.93735349178314209,
   0.75670254230499268,
   0.47322234511375427,
   1.2605104446411133,
   0.97956991195678711,
   0.55005484819412231,
   1.1453258991241455,
   1.1949640512466431,
   0.48638838529586792,
   0.45234304666519165
]
