[
   1.7440414428710938,
   1.7446448802947998,
   1.745557427406311,
   1.7439861297607422,
   1.7437999248504639,
   1.7430448532104492,
   1.7428131103515625,
   1.7437537908554077,
   1.7431751489639282,
   1.7435916662216187,
   1.7403634786605835,
   1.7397127151489258,
   1.7365567684173584,
   1.7345701456069946,
   1.7337032556533813,
   1.7321236133575439,
   1.7316316366195679,
   1.7295968532562256,
   1.7273432016372681,
   1.7098947763442993,
   1.6962416172027588,
   1.6809523105621338,
   1.6666370630264282,
   1.6524969339370728,
   1.640117883682251,
   1.6319677829742432,
   1.6179783344268799,
   1.6096818447113037,
   1.5222568511962891,
   1.4622018337249756,
   1.4161727428436279,
   1.3815944194793701,
   1.3510122299194336,
   1.324091911315918,
   1.301302433013916,
   1.2803330421447754,
   1.2605030536651611,
   1.1504623889923096,
   1.0977938175201416,
   1.0697942972183228,
   1.0525879859924316,
   1.0440050363540649,
   1.0364745855331421,
   1.0305322408676147,
   1.023090124130249,
   1.018119215965271,
   0.99446618556976318,
   1.0025800466537476,
   1.0046117305755615,
   0.99829626083374023,
   0.99901998043060303,
   0.99860239028930664,
   0.98976123332977295,
   0.99608945846557617,
   1.0017702579498291,
   0.9985162615776062,
   0.99074095487594604,
   1.0008764266967773,
   0.98643523454666138,
   1.0105888843536377,
   1.0108113288879395,
   1.0234911441802979,
   1.0328466892242432,
   0.99538838863372803
]
