[
   3.8783931732177734,
   3.8705172538757324,
   3.8835787773132324,
   3.8782756328582764,
   3.8834757804870605,
   3.874854564666748,
   3.8731331825256348,
   3.8645565509796143,
   3.8758289813995361,
   3.8670902252197266,
   3.8523514270782471,
   3.8472557067871094,
   3.8245620727539062,
   3.8074226379394531,
   3.7924587726593018,
   3.7795670032501221,
   3.7716555595397949,
   3.7522635459899902,
   3.7428462505340576,
   3.6174545288085938,
   3.5104439258575439,
   3.4235072135925293,
   3.3437514305114746,
   3.2677135467529297,
   3.2009422779083252,
   3.1350972652435303,
   3.0834240913391113,
   3.027996301651001,
   2.6400952339172363,
   2.38893723487854,
   2.2098486423492432,
   2.0735108852386475,
   1.9566348791122437,
   1.8550374507904053,
   1.7848188877105713,
   1.7068197727203369,
   1.6528675556182861,
   1.3217768669128418,
   1.1838191747665405,
   1.1219108104705811,
   1.0723354816436768,
   1.0659829378128052,
   1.0588665008544922,
   1.0691778659820557,
   1.0451586246490479,
   1.070279598236084,
   1.0351568460464478,
   0.9927983283996582,
   1.0239765644073486,
   1.0030887126922607,
   0.99877071380615234,
   1.0166300535202026,
   1.0063254833221436,
   1.016287088394165,
   1.0024573802947998,
   1.0217258930206299,
   0.9971998929977417,
   1.0123699903488159,
   1.013064980506897,
   1.0221121311187744,
   0.99266785383224487,
   0.96437054872512817,
   0.94431525468826294,
   0.90975064039230347
]
