[
   1.9550853967666626,
   1.9534956216812134,
   1.9548270702362061,
   1.9572080373764038,
   1.9522659778594971,
   1.9524930715560913,
   1.950946569442749,
   1.9516334533691406,
   1.9487577676773071,
   1.9532943964004517,
   1.9476019144058228,
   1.9460710287094116,
   1.9419238567352295,
   1.940448522567749,
   1.9377965927124023,
   1.9354070425033569,
   1.9311516284942627,
   1.9300168752670288,
   1.9273494482040405,
   1.9051454067230225,
   1.8805834054946899,
   1.858293890953064,
   1.8417119979858398,
   1.822924017906189,
   1.8025840520858765,
   1.7894213199615479,
   1.77046799659729,
   1.7586408853530884,
   1.64601731300354,
   1.568903923034668,
   1.5066395998001099,
   1.4587556123733521,
   1.4214332103729248,
   1.3879464864730835,
   1.3591146469116211,
   1.3373874425888062,
   1.3137357234954834,
   1.1803085803985596,
   1.1153656244277954,
   1.0725319385528564,
   1.051039457321167,
   1.0362505912780762,
   1.0252364873886108,
   1.0141096115112305,
   1.0118492841720581,
   1.0104728937149048,
   1.0013986825942993,
   0.9960627555847168,
   0.98982220888137817,
   1.0088812112808228,
   0.99390661716461182,
   0.98975676298141479,
   0.99248570203781128,
   0.98265963792800903,
   0.99760305881500244,
   0.98801028728485107,
   0.99256438016891479,
   0.99348658323287964,
   0.9945794939994812,
   1.019933819770813,
   1.0217869281768799,
   0.9942779541015625,
   0.99983310699462891,
   1.0218687057495117
]
