[
   1.5205730199813843,
   1.5196176767349243,
   1.5198605060577393,
   1.5192265510559082,
   1.520471453666687,
   1.5209356546401978,
   1.5198431015014648,
   1.5193924903869629,
   1.5189201831817627,
   1.5195460319519043,
   1.5187954902648926,
   1.5182684659957886,
   1.5163033008575439,
   1.5158967971801758,
   1.512883186340332,
   1.513378381729126,
   1.512572169303894,
   1.5114953517913818,
   1.5108909606933594,
   1.5022238492965698,
   1.492901086807251,
   1.4873173236846924,
   1.4799214601516724,
   1.4728155136108398,
   1.4661904573440552,
   1.4595863819122314,
   1.4546650648117065,
   1.4487670660018921,
   1.40679931640625,
   1.375285267829895,
   1.3496634960174561,
   1.3288171291351318,
   1.3103517293930054,
   1.2936396598815918,
   1.2776559591293335,
   1.2639137506484985,
   1.2524549961090088,
   1.1644055843353271,
   1.1112492084503174,
   1.0810126066207886,
   1.055497407913208,
   1.0410327911376953,
   1.0314012765884399,
   1.026086688041687,
   1.0227515697479248,
   1.0226544141769409,
   0.99947547912597656,
   0.99957597255706787,
   0.99121749401092529,
   0.99681359529495239,
   0.9969329833984375,
   0.98827946186065674,
   0.98505020141601562,
   0.98425912857055664,
   0.99708890914916992,
   1.0066430568695068,
   0.99078333377838135,
   0.98579633235931396,
   0.99011677503585815,
   1.0020596981048584,
   0.99999368190765381,
   1.0143370628356934,
   1.0192291736602783,
   1.0660367012023926
]
