[
   76.360313415527344,
   76.730300903320312,
   76.597274780273438,
   77.731315612792969,
   77.83514404296875,
   75.867202758789062,
   76.685272216796875,
   75.133460998535156,
   74.981452941894531,
   75.454483032226562,
   73.150245666503906,
   73.549301147460938,
   69.470504760742188,
   69.345687866210938,
   68.531051635742188,
   67.597724914550781,
   66.272064208984375,
   64.990951538085938,
   64.446029663085938,
   56.450309753417969,
   49.9959716796875,
   44.628002166748047,
   40.947990417480469,
   38.061210632324219,
   34.598686218261719,
   32.217906951904297,
   29.817287445068359,
   27.801370620727539,
   16.038442611694336,
   10.580307960510254,
   8.3640108108520508,
   6.3039712905883789,
   5.2372450828552246,
   4.4065828323364258,
   4.2567610740661621,
   3.3439300060272217,
   3.0992498397827148,
   1.4694576263427734,
   1.5730060338973999,
   0.980368971824646,
   1.3533540964126587,
   1.1688774824142456,
   1.0154932737350464,
   1.0425814390182495,
   0.86727416515350342,
   0.96681815385818481,
   0.90048760175704956,
   0.91460675001144409,
   0.80637252330780029,
   0.83448278903961182,
   0.99438554048538208,
   0.84339970350265503,
   0.8935273289680481,
   0.93738639354705811,
   0.90088212490081787,
   0.96054106950759888,
   0.93573558330535889,
   0.92103636264801025,
   0.67165672779083252,
   0.76181280612945557,
   0.82582920789718628,
   0.90853863954544067,
   0.81812924146652222,
   2.1977987289428711
]
