[
   20.109251022338867,
   20.240077972412109,
   20.137733459472656,
   20.2532958984375,
   20.213832855224609,
   20.061244964599609,
   19.937835693359375,
   19.885444641113281,
   20.010158538818359,
   20.021705627441406,
   19.836185455322266,
   19.500583648681641,
   19.380754470825195,
   19.229740142822266,
   18.920864105224609,
   18.849124908447266,
   18.741291046142578,
   18.629871368408203,
   18.384452819824219,
   17.465824127197266,
   16.555288314819336,
   15.858744621276855,
   15.199392318725586,
   14.563283920288086,
   14.09161376953125,
   13.490878105163574,
   12.94670295715332,
   12.466477394104004,
   9.3095312118530273,
   7.3585596084594727,
   6.1654081344604492,
   5.2863445281982422,
   4.6189374923706055,
   4.1843795776367188,
   3.7276968955993652,
   3.3857262134552002,
   3.1095449924468994,
   1.714672327041626,
   1.3570806980133057,
   1.1599806547164917,
   1.0402417182922363,
   1.1402816772460938,
   1.1990135908126831,
   1.0744329690933228,
   1.1841223239898682,
   1.2150298357009888,
   1.1066975593566895,
   1.1232129335403442,
   1.0099567174911499,
   1.0219759941101074,
   1.0225784778594971,
   0.96693217754364014,
   0.90611982345581055,
   0.92930763959884644,
   0.95338219404220581,
   0.82295525074005127,
   1.0973873138427734,
   0.93323516845703125,
   1.1756327152252197,
   0.96783459186553955,
   1.0205177068710327,
   0.96236163377761841,
   0.91306036710739136,
   0.85891997814178467
]
