[
   1.7212587594985962,
   1.7206720113754272,
   1.7221056222915649,
   1.7221304178237915,
   1.7207777500152588,
   1.7205228805541992,
   1.7207696437835693,
   1.7190368175506592,
   1.7204923629760742,
   1.7196441888809204,
   1.7180906534194946,
   1.7160968780517578,
   1.7162742614746094,
   1.7116295099258423,
   1.7136615514755249,
   1.7117669582366943,
   1.7098543643951416,
   1.7065553665161133,
   1.7046855688095093,
   1.6914352178573608,
   1.6793420314788818,
   1.6678287982940674,
   1.6573635339736938,
   1.6472965478897095,
   1.637951135635376,
   1.6277701854705811,
   1.6209402084350586,
   1.6118276119232178,
   1.5507047176361084,
   1.5093247890472412,
   1.4725959300994873,
   1.4421548843383789,
   1.4161033630371094,
   1.3901928663253784,
   1.369482159614563,
   1.3502962589263916,
   1.3302868604660034,
   1.2095544338226318,
   1.1456589698791504,
   1.1052472591400146,
   1.0789053440093994,
   1.0623346567153931,
   1.0514237880706787,
   1.0395833253860474,
   1.0270836353302002,
   1.0183069705963135,
   1.0048385858535767,
   1.004314661026001,
   1.0060213804244995,
   1.0030510425567627,
   1.0021857023239136,
   1.0070371627807617,
   1.0017669200897217,
   1.0040162801742554,
   1.0031607151031494,
   1.012279748916626,
   0.99101144075393677,
   1.0066192150115967,
   1.0092960596084595,
   1.0030393600463867,
   0.99726533889770508,
   0.96807849407196045,
   0.92424190044403076,
   0.96081656217575073
]
