[
   2.6886229515075684,
   2.6895546913146973,
   2.6906025409698486,
   2.6875922679901123,
   2.6873364448547363,
   2.690157413482666,
   2.6840949058532715,
   2.6870074272155762,
   2.6844820976257324,
   2.6802334785461426,
   2.6775631904602051,
   2.6777069568634033,
   2.664808988571167,
   2.6619117259979248,
   2.6556370258331299,
   2.6549761295318604,
   2.6499381065368652,
   2.6396434307098389,
   2.6356608867645264,
   2.5873997211456299,
   2.5485587120056152,
   2.5065042972564697,
   2.4776389598846436,
   2.451249361038208,
   2.4263594150543213,
   2.401684045791626,
   2.3771767616271973,
   2.3590331077575684,
   2.199141263961792,
   2.0811915397644043,
   1.9848544597625732,
   1.9013906717300415,
   1.8303155899047852,
   1.763705849647522,
   1.7083320617675781,
   1.6546580791473389,
   1.6066081523895264,
   1.3269466161727905,
   1.1989173889160156,
   1.133054256439209,
   1.0870963335037231,
   1.0713574886322021,
   1.0505807399749756,
   1.0365357398986816,
   1.0348832607269287,
   1.032113790512085,
   1.0141003131866455,
   1.0140100717544556,
   0.99125564098358154,
   1.0122193098068237,
   0.97983932495117188,
   0.99139899015426636,
   0.99486654996871948,
   1.00147545337677,
   1.0187346935272217,
   0.98207551240921021,
   0.99637842178344727,
   0.98679143190383911,
   1.0049079656600952,
   1.0122585296630859,
   0.98796045780181885,
   0.94610786437988281,
   0.98224657773971558,
   0.92717087268829346
]
