[
   1.5715185403823853,
   1.5704226493835449,
   1.5711630582809448,
   1.5718317031860352,
   1.5716890096664429,
   1.5709171295166016,
   1.5711294412612915,
   1.570603609085083,
   1.5707579851150513,
   1.5697357654571533,
   1.5690014362335205,
   1.5673868656158447,
   1.5676358938217163,
   1.5651307106018066,
   1.5661497116088867,
   1.5650227069854736,
   1.5630749464035034,
   1.5615308284759521,
   1.5591180324554443,
   1.5500187873840332,
   1.5408275127410889,
   1.5334351062774658,
   1.5245082378387451,
   1.5175410509109497,
   1.5103145837783813,
   1.5025510787963867,
   1.4977383613586426,
   1.4907211065292358,
   1.4430135488510132,
   1.4107980728149414,
   1.3835461139678955,
   1.3585782051086426,
   1.3394490480422974,
   1.3196983337402344,
   1.3034235239028931,
   1.2881238460540771,
   1.2733933925628662,
   1.1783336400985718,
   1.1249159574508667,
   1.0908318758010864,
   1.0674101114273071,
   1.0530537366867065,
   1.0434709787368774,
   1.0329196453094482,
   1.0227166414260864,
   1.0176823139190674,
   1.0032100677490234,
   1.0024192333221436,
   1.0041501522064209,
   1.0020992755889893,
   0.99979287385940552,
   1.0043189525604248,
   1.0008655786514282,
   1.0015226602554321,
   1.0014798641204834,
   1.0099809169769287,
   0.99294745922088623,
   1.0038666725158691,
   1.0073283910751343,
   1.0046319961547852,
   0.99801188707351685,
   0.97053176164627075,
   0.93329775333404541,
   0.96344506740570068
]
