[
   2.2436285018920898,
   2.245729923248291,
   2.2410464286804199,
   2.2412376403808594,
   2.2454242706298828,
   2.2420144081115723,
   2.2417697906494141,
   2.2417237758636475,
   2.2422449588775635,
   2.241318941116333,
   2.2408237457275391,
   2.2360644340515137,
   2.2395880222320557,
   2.2375392913818359,
   2.2331171035766602,
   2.2318661212921143,
   2.2350544929504395,
   2.2345199584960938,
   2.2269177436828613,
   2.2148721218109131,
   2.2033991813659668,
   2.1917240619659424,
   2.1847286224365234,
   2.173309326171875,
   2.1631312370300293,
   2.1530356407165527,
   2.1457724571228027,
   2.13529372215271,
   2.0597217082977295,
   1.9962896108627319,
   1.9357448816299438,
   1.8845056295394897,
   1.834947943687439,
   1.7938600778579712,
   1.7510675191879272,
   1.7195819616317749,
   1.6896259784698486,
   1.4657828807830811,
   1.3509600162506104,
   1.2774393558502197,
   1.2304214239120483,
   1.1945450305938721,
   1.1699488162994385,
   1.1501238346099854,
   1.1301033496856689,
   1.1139580011367798,
   1.0102527141571045,
   0.98542129993438721,
   0.99064415693283081,
   0.99279624223709106,
   0.99010050296783447,
   1.00218665599823,
   0.99597561359405518,
   1.0017036199569702,
   0.99147188663482666,
   0.96292984485626221,
   0.95941352844238281,
   0.98046112060546875,
   0.97712916135787964,
   1.0153526067733765,
   1.0311561822891235,
   1.0332025289535522,
   1.0238344669342041,
   1.0850727558135986
]
