[
   1.9803663492202759,
   1.9798355102539062,
   1.9799419641494751,
   1.981144905090332,
   1.9806671142578125,
   1.9806655645370483,
   1.98036789894104,
   1.9798958301544189,
   1.9796979427337646,
   1.9814596176147461,
   1.9786612987518311,
   1.9801139831542969,
   1.9783016443252563,
   1.9751033782958984,
   1.9745470285415649,
   1.9717401266098022,
   1.9769433736801147,
   1.9738273620605469,
   1.9717508554458618,
   1.9618358612060547,
   1.9544360637664795,
   1.9488296508789062,
   1.9411665201187134,
   1.9337505102157593,
   1.9274488687515259,
   1.920069694519043,
   1.9174425601959229,
   1.9080721139907837,
   1.8570775985717773,
   1.8116937875747681,
   1.7711763381958008,
   1.7362630367279053,
   1.701244592666626,
   1.6728490591049194,
   1.6441354751586914,
   1.6158043146133423,
   1.5912349224090576,
   1.4211193323135376,
   1.3188645839691162,
   1.254845142364502,
   1.210680365562439,
   1.173369288444519,
   1.1451754570007324,
   1.1229007244110107,
   1.107354998588562,
   1.094733715057373,
   1.0287859439849854,
   1.0124714374542236,
   1.0064129829406738,
   1.0036215782165527,
   1.0115940570831299,
   0.99036252498626709,
   0.99678200483322144,
   0.9979015588760376,
   0.98777073621749878,
   0.96767175197601318,
   0.98032885789871216,
   0.97928917407989502,
   0.98985087871551514,
   0.99113607406616211,
   1.0247552394866943,
   1.0535362958908081,
   1.062819242477417,
   1.058349609375
]
