[
   30.887750625610352,
   31.054855346679688,
   31.255916595458984,
   31.280120849609375,
   30.771936416625977,
   30.752300262451172,
   30.862518310546875,
   30.781744003295898,
   30.74169921875,
   30.782918930053711,
   30.196285247802734,
   29.752063751220703,
   29.537643432617188,
   28.921899795532227,
   28.656642913818359,
   28.368921279907227,
   27.896829605102539,
   27.603158950805664,
   27.085592269897461,
   24.06425666809082,
   21.930160522460938,
   19.909908294677734,
   18.193954467773438,
   16.851396560668945,
   15.828946113586426,
   14.734560966491699,
   13.817235946655273,
   13.170495986938477,
   8.5206623077392578,
   6.6069808006286621,
   5.3601503372192383,
   4.5159182548522949,
   3.8831794261932373,
   3.8655104637145996,
   3.4336020946502686,
   2.996391773223877,
   2.8804173469543457,
   1.8995656967163086,
   1.48499596118927,
   1.4352476596832275,
   1.3264051675796509,
   1.220490574836731,
   1.2978408336639404,
   1.2363611459732056,
   1.2104214429855347,
   1.2062184810638428,
   0.96516656875610352,
   0.99945342540740967,
   0.96279460191726685,
   0.98591077327728271,
   1.0231518745422363,
   1.0769776105880737,
   1.0048760175704956,
   0.94172126054763794,
   0.92891424894332886,
   0.93482750654220581,
   1.0796816349029541,
   0.93273907899856567,
   1.1975457668304443,
   0.93232822418212891,
   0.95323753356933594,
   1.2843027114868164,
   0.81467247009277344,
   0.94516980648040771
]
