[
   1.3606745004653931,
   1.3607337474822998,
   1.3608481884002686,
   1.3597922325134277,
   1.3602951765060425,
   1.3607223033905029,
   1.3609930276870728,
   1.360774040222168,
   1.3609287738800049,
   1.3607817888259888,
   1.3605097532272339,
   1.36039137840271,
   1.360617995262146,
   1.3601304292678833,
   1.3601328134536743,
   1.3592960834503174,
   1.3587532043457031,
   1.3599426746368408,
   1.3587194681167603,
   1.357602596282959,
   1.3557311296463013,
   1.3544422388076782,
   1.3521299362182617,
   1.3509128093719482,
   1.3500019311904907,
   1.3474142551422119,
   1.3469421863555908,
   1.3465006351470947,
   1.3344995975494385,
   1.3244191408157349,
   1.3158905506134033,
   1.3077454566955566,
   1.300548791885376,
   1.2929949760437012,
   1.2868478298187256,
   1.2801226377487183,
   1.2741547822952271,
   1.223335862159729,
   1.185686469078064,
   1.1558743715286255,
   1.1401979923248291,
   1.1214194297790527,
   1.106511116027832,
   1.0944057703018188,
   1.0814782381057739,
   1.0754384994506836,
   1.0411453247070312,
   1.0142414569854736,
   1.0089914798736572,
   0.99789130687713623,
   0.98991298675537109,
   0.98440015316009521,
   0.98326092958450317,
   0.9862436056137085,
   0.98781239986419678,
   0.99173182249069214,
   0.97766143083572388,
   0.99113237857818604,
   1.0075534582138062,
   0.98739403486251831,
   1.0247474908828735,
   1.0475212335586548,
   1.0191152095794678,
   1.0760245323181152
]
