[
   1.3319094181060791,
   1.3319178819656372,
   1.331871509552002,
   1.3311519622802734,
   1.3315212726593018,
   1.3319482803344727,
   1.3321387767791748,
   1.3318947553634644,
   1.3319160938262939,
   1.3317147493362427,
   1.3315571546554565,
   1.3314024209976196,
   1.3316223621368408,
   1.3313184976577759,
   1.331485390663147,
   1.3306654691696167,
   1.330046534538269,
   1.3309352397918701,
   1.3299872875213623,
   1.3290468454360962,
   1.3275641202926636,
   1.3260743618011475,
   1.3240864276885986,
   1.3230488300323486,
   1.3223384618759155,
   1.3200867176055908,
   1.3193651437759399,
   1.318894624710083,
   1.3084675073623657,
   1.2996045351028442,
   1.2919657230377197,
   1.2845581769943237,
   1.2782009840011597,
   1.2715637683868408,
   1.2659405469894409,
   1.2599195241928101,
   1.2547035217285156,
   1.2089555263519287,
   1.1743953227996826,
   1.1470134258270264,
   1.1353952884674072,
   1.117999792098999,
   1.1038004159927368,
   1.0922890901565552,
   1.0801730155944824,
   1.0741088390350342,
   1.040593147277832,
   1.0139353275299072,
   1.0078092813491821,
   0.99917668104171753,
   0.99056386947631836,
   0.98481446504592896,
   0.983356773853302,
   0.9880756139755249,
   0.98880118131637573,
   0.99271810054779053,
   0.97967565059661865,
   0.98983603715896606,
   1.0070456266403198,
   0.98824989795684814,
   1.024799108505249,
   1.0457917451858521,
   1.0191113948822021,
   1.0713632106781006
]
