[
   9.8274984359741211,
   9.8473796844482422,
   9.8398876190185547,
   9.8102083206176758,
   9.8415851593017578,
   9.7689151763916016,
   9.8510293960571289,
   9.7951602935791016,
   9.8192768096923828,
   9.7826137542724609,
   9.724787712097168,
   9.6783914566040039,
   9.6385908126831055,
   9.6134490966796875,
   9.5949831008911133,
   9.5216541290283203,
   9.4684000015258789,
   9.4449787139892578,
   9.4342060089111328,
   9.0586347579956055,
   8.7204198837280273,
   8.4862270355224609,
   8.2239742279052734,
   7.9483528137207031,
   7.7204384803771973,
   7.5204343795776367,
   7.2952103614807129,
   7.140467643737793,
   5.6842265129089355,
   4.8085494041442871,
   4.2271132469177246,
   3.7564659118652344,
   3.3784294128417969,
   3.0885608196258545,
   2.8704288005828857,
   2.6743981838226318,
   2.4922327995300293,
   1.7224416732788086,
   1.4494259357452393,
   1.2679555416107178,
   1.1950347423553467,
   1.1409595012664795,
   1.1454508304595947,
   1.1525380611419678,
   1.1118335723876953,
   1.0879338979721069,
   0.97659671306610107,
   0.93934124708175659,
   1.0096207857131958,
   1.0738594532012939,
   0.97599589824676514,
   1.0393087863922119,
   1.0249824523925781,
   0.94165933132171631,
   1.0122001171112061,
   1.0228226184844971,
   1.0123151540756226,
   0.90256530046463013,
   0.93498629331588745,
   0.99827539920806885,
   0.92993670701980591,
   1.0886776447296143,
   0.90262651443481445,
   0.72946125268936157
]
