[
   1.7759196758270264,
   1.7786916494369507,
   1.7763370275497437,
   1.7775983810424805,
   1.7751359939575195,
   1.7771205902099609,
   1.7787730693817139,
   1.7762324810028076,
   1.7761328220367432,
   1.7766491174697876,
   1.7754766941070557,
   1.7754180431365967,
   1.7731170654296875,
   1.7723455429077148,
   1.7699594497680664,
   1.7692601680755615,
   1.7667020559310913,
   1.7648303508758545,
   1.7626466751098633,
   1.7511049509048462,
   1.7395086288452148,
   1.7263786792755127,
   1.7171576023101807,
   1.7067197561264038,
   1.6969316005706787,
   1.688730001449585,
   1.6799167394638062,
   1.6712667942047119,
   1.5984742641448975,
   1.5443681478500366,
   1.4994447231292725,
   1.4599555730819702,
   1.4265975952148438,
   1.3983805179595947,
   1.3712174892425537,
   1.3496944904327393,
   1.3272198438644409,
   1.2014734745025635,
   1.1449910402297974,
   1.1062712669372559,
   1.0800915956497192,
   1.0585647821426392,
   1.0474412441253662,
   1.0378744602203369,
   1.0313117504119873,
   1.0271823406219482,
   1.0181493759155273,
   0.99720609188079834,
   0.99494826793670654,
   0.98890179395675659,
   0.98581206798553467,
   0.98421001434326172,
   0.99169111251831055,
   1.0020264387130737,
   0.99890595674514771,
   1.0017781257629395,
   0.99959421157836914,
   1.0022199153900146,
   1.0024583339691162,
   0.98850297927856445,
   1.0002174377441406,
   0.99359405040740967,
   0.99055278301239014,
   1.0008246898651123
]
