[
   10.594546318054199,
   10.657478332519531,
   10.599452972412109,
   10.56407356262207,
   10.602392196655273,
   10.608036041259766,
   10.587381362915039,
   10.517939567565918,
   10.527866363525391,
   10.539641380310059,
   10.446269035339355,
   10.424894332885742,
   10.348474502563477,
   10.211798667907715,
   10.12934684753418,
   10.036539077758789,
   9.9496746063232422,
   9.8759136199951172,
   9.8017330169677734,
   9.2287178039550781,
   8.7091760635375977,
   8.2969074249267578,
   7.9096717834472656,
   7.5230941772460938,
   7.2297849655151367,
   6.9336562156677246,
   6.6779966354370117,
   6.4922499656677246,
   4.7802438735961914,
   3.9082484245300293,
   3.3236961364746094,
   2.8983285427093506,
   2.6788191795349121,
   2.3941054344177246,
   2.2626683712005615,
   2.0931472778320312,
   1.9888637065887451,
   1.4207284450531006,
   1.2692220211029053,
   1.0998769998550415,
   1.1890056133270264,
   1.1822822093963623,
   1.1618616580963135,
   1.0909231901168823,
   1.0646837949752808,
   1.0449632406234741,
   1.013614296913147,
   1.0218613147735596,
   1.0049897432327271,
   0.98409938812255859,
   0.98321038484573364,
   0.95357847213745117,
   1.0073068141937256,
   1.0207433700561523,
   1.0248496532440186,
   1.006743311882019,
   0.96728765964508057,
   0.99596512317657471,
   0.97822415828704834,
   0.94763851165771484,
   0.87712776660919189,
   0.884022057056427,
   0.97807389497756958,
   0.98873502016067505
]
