[
   2.068148136138916,
   2.0683324337005615,
   2.0693011283874512,
   2.0668861865997314,
   2.0682699680328369,
   2.066577672958374,
   2.0663306713104248,
   2.0660359859466553,
   2.0679950714111328,
   2.0677294731140137,
   2.0606858730316162,
   2.0619339942932129,
   2.0589971542358398,
   2.0559632778167725,
   2.053138256072998,
   2.0494239330291748,
   2.0488681793212891,
   2.0455331802368164,
   2.047966480255127,
   2.0237231254577637,
   2.0058419704437256,
   1.9856815338134766,
   1.9679454565048218,
   1.9493528604507446,
   1.9344323873519897,
   1.9195102453231812,
   1.9084670543670654,
   1.8926712274551392,
   1.7808635234832764,
   1.6986751556396484,
   1.6349112987518311,
   1.5805702209472656,
   1.5339934825897217,
   1.4905745983123779,
   1.4553511142730713,
   1.4207813739776611,
   1.3963725566864014,
   1.2222942113876343,
   1.1517058610916138,
   1.1025518178939819,
   1.0764853954315186,
   1.0699789524078369,
   1.0463815927505493,
   1.0348857641220093,
   1.0328868627548218,
   1.0231579542160034,
   0.99638903141021729,
   1.0009496212005615,
   0.98610341548919678,
   0.99070060253143311,
   0.98754119873046875,
   1.0016739368438721,
   0.99303591251373291,
   0.9959491491317749,
   0.99288243055343628,
   1.0005978345870972,
   1.0089560747146606,
   1.0056965351104736,
   0.99190729856491089,
   1.0038340091705322,
   1.0108449459075928,
   0.98552513122558594,
   1.0310413837432861,
   1.0053563117980957
]
