[
   5.5887641906738281,
   5.5803556442260742,
   5.5937099456787109,
   5.5969219207763672,
   5.5945024490356445,
   5.5895681381225586,
   5.5769648551940918,
   5.5681781768798828,
   5.567901611328125,
   5.5878615379333496,
   5.5606017112731934,
   5.5246362686157227,
   5.4981484413146973,
   5.4836206436157227,
   5.4515881538391113,
   5.4285211563110352,
   5.3878664970397949,
   5.3849668502807617,
   5.3614439964294434,
   5.1490030288696289,
   4.9815921783447266,
   4.8290600776672363,
   4.6688780784606934,
   4.5687131881713867,
   4.4466767311096191,
   4.3379144668579102,
   4.2281942367553711,
   4.1414899826049805,
   3.433518648147583,
   2.9642000198364258,
   2.6488573551177979,
   2.4000391960144043,
   2.2278680801391602,
   2.0966706275939941,
   1.9876247644424438,
   1.879624605178833,
   1.8064095973968506,
   1.37455153465271,
   1.2244541645050049,
   1.1564322710037231,
   1.0837700366973877,
   1.0851849317550659,
   1.0496251583099365,
   1.0512486696243286,
   1.0288846492767334,
   1.0284535884857178,
   1.0143638849258423,
   0.96380537748336792,
   1.0024855136871338,
   0.99877661466598511,
   0.98446595668792725,
   1.0272362232208252,
   0.97826117277145386,
   1.0087128877639771,
   1.0071136951446533,
   0.97984504699707031,
   1.0080771446228027,
   0.9483790397644043,
   1.0421817302703857,
   1.0195193290710449,
   0.99291163682937622,
   1.0931493043899536,
   1.0129897594451904,
   1.0992187261581421
]
