[
   1.502859354019165,
   1.5033601522445679,
   1.5031729936599731,
   1.5029542446136475,
   1.5025793313980103,
   1.5032283067703247,
   1.5029609203338623,
   1.5026816129684448,
   1.5019882917404175,
   1.5021092891693115,
   1.5018422603607178,
   1.5010182857513428,
   1.5010550022125244,
   1.5004708766937256,
   1.4995588064193726,
   1.4976518154144287,
   1.4987360239028931,
   1.4969432353973389,
   1.4964030981063843,
   1.4898406267166138,
   1.4845969676971436,
   1.4770733118057251,
   1.4731655120849609,
   1.468127965927124,
   1.4622867107391357,
   1.4587358236312866,
   1.4525361061096191,
   1.4476290941238403,
   1.4080206155776978,
   1.3768583536148071,
   1.350940465927124,
   1.3284891843795776,
   1.3083198070526123,
   1.2914849519729614,
   1.274857759475708,
   1.260695219039917,
   1.2484138011932373,
   1.1638724803924561,
   1.1175339221954346,
   1.0886090993881226,
   1.0703614950180054,
   1.0531103610992432,
   1.0417129993438721,
   1.0340536832809448,
   1.0270426273345947,
   1.026581883430481,
   0.99820530414581299,
   0.98819243907928467,
   0.98847532272338867,
   0.98687201738357544,
   0.99216973781585693,
   0.99498432874679565,
   0.99285316467285156,
   0.989585280418396,
   0.98530197143554688,
   0.99127131700515747,
   0.99297082424163818,
   0.98699456453323364,
   1.0063302516937256,
   1.0070161819458008,
   1.0091744661331177,
   1.0266779661178589,
   1.0196225643157959,
   1.0792638063430786
]
