[
   18.186061859130859,
   18.313632965087891,
   18.166439056396484,
   18.210958480834961,
   18.132205963134766,
   18.120185852050781,
   18.16185188293457,
   18.122220993041992,
   18.042861938476562,
   17.970012664794922,
   17.7420654296875,
   17.603797912597656,
   17.290262222290039,
   17.021827697753906,
   16.883949279785156,
   16.673976898193359,
   16.57951545715332,
   16.358226776123047,
   16.227998733520508,
   14.71290397644043,
   13.409464836120605,
   12.385622024536133,
   11.56410026550293,
   10.809741020202637,
   10.251348495483398,
   9.6381263732910156,
   9.1768198013305664,
   8.6670436859130859,
   5.9684062004089355,
   4.7358303070068359,
   3.9050068855285645,
   3.3143126964569092,
   2.9484753608703613,
   2.7025449275970459,
   2.4320023059844971,
   2.3452138900756836,
   2.2046561241149902,
   1.5160900354385376,
   1.4421440362930298,
   1.1857148408889771,
   1.1548154354095459,
   1.0729525089263916,
   1.0968323945999146,
   1.1033449172973633,
   1.0312991142272949,
   1.0119080543518066,
   1.0169047117233276,
   0.96876305341720581,
   0.97744196653366089,
   0.94824236631393433,
   0.97099465131759644,
   0.98711144924163818,
   1.0155404806137085,
   0.99624502658843994,
   1.035635232925415,
   0.95064431428909302,
   1.0319246053695679,
   0.99555414915084839,
   0.93826663494110107,
   0.86096012592315674,
   0.95731556415557861,
   1.1286664009094238,
   1.101446270942688,
   1.0455955266952515
]
