[
   1.6257253885269165,
   1.6247661113739014,
   1.6251245737075806,
   1.6239879131317139,
   1.6246452331542969,
   1.6240761280059814,
   1.6245044469833374,
   1.6245085000991821,
   1.6240857839584351,
   1.6249446868896484,
   1.6226915121078491,
   1.6228296756744385,
   1.6225652694702148,
   1.6207411289215088,
   1.6189868450164795,
   1.6183370351791382,
   1.6175072193145752,
   1.6177231073379517,
   1.6154438257217407,
   1.6057169437408447,
   1.5982444286346436,
   1.5895661115646362,
   1.5812301635742188,
   1.5729821920394897,
   1.5672363042831421,
   1.5603978633880615,
   1.5526304244995117,
   1.5467710494995117,
   1.4939637184143066,
   1.4515893459320068,
   1.4187136888504028,
   1.3882995843887329,
   1.3612824678421021,
   1.3401618003845215,
   1.3206727504730225,
   1.3026500940322876,
   1.2869237661361694,
   1.1855853796005249,
   1.1282579898834229,
   1.0918995141983032,
   1.0745235681533813,
   1.0636122226715088,
   1.0524630546569824,
   1.0394608974456787,
   1.0358220338821411,
   1.0318334102630615,
   1.0111448764801025,
   1.006314754486084,
   1.0063036680221558,
   1.0052601099014282,
   1.0118778944015503,
   0.9993017315864563,
   0.99981498718261719,
   1.0118260383605957,
   0.99649268388748169,
   1.0101678371429443,
   1.0171420574188232,
   1.0158107280731201,
   1.0079686641693115,
   0.97849684953689575,
   0.95142251253128052,
   0.91486167907714844,
   0.93863660097122192,
   0.87165611982345581
]
