wxy = 0.071 starts replicate 0
wxy = 0.132 starts replicate 0
wxy = 0.173 starts replicate 0
wxy = 0.241 starts replicate 0
wxy = 0.295 starts replicate 0
wxy = 0.34 starts replicate 0
wxy = 0.379 starts replicate 0
wxy = 0.415 starts replicate 0
wxy = 0.448 starts replicate 0
wxy = 0.479 starts replicate 0
wxy = 0.508 starts replicate 0
wxy = 0.535 starts replicate 0
wxy = 0.561 starts replicate 0
wxy = 0.586 starts replicate 0
wxy = 0.61 starts replicate 0
wxy = 0.632 starts replicate 0
wxy = 0.071 finished replicate 0 total counts 12187
wxy = 0.071 starts replicate 1
wxy = 0.241 finished replicate 0 total counts 168386
wxy = 0.241 starts replicate 1
wxy = 0.295 finished replicate 0 total counts 269572
wxy = 0.295 starts replicate 1
wxy = 0.132 finished replicate 0 total counts 49276
wxy = 0.132 starts replicate 1
wxy = 0.34 finished replicate 0 total counts 359026
wxy = 0.34 starts replicate 1
wxy = 0.173 finished replicate 0 total counts 76616
wxy = 0.173 starts replicate 1
wxy = 0.379 finished replicate 0 total counts 484284
wxy = 0.379 starts replicate 1
wxy = 0.415 finished replicate 0 total counts 630848
wxy = 0.415 starts replicate 1
wxy = 0.479 finished replicate 0 total counts 701862
wxy = 0.479 starts replicate 1
wxy = 0.448 finished replicate 0 total counts 683127
wxy = 0.448 starts replicate 1
wxy = 0.508 finished replicate 0 total counts 916962
wxy = 0.508 starts replicate 1
wxy = 0.535 finished replicate 0 total counts 1.10035e+06
wxy = 0.535 starts replicate 1
wxy = 0.561 finished replicate 0 total counts 1.23228e+06
wxy = 0.561 starts replicate 1
wxy = 0.586 finished replicate 0 total counts 1.19728e+06
wxy = 0.586 starts replicate 1
wxy = 0.632 finished replicate 0 total counts 1.50756e+06
wxy = 0.632 starts replicate 1
wxy = 0.61 finished replicate 0 total counts 1.47528e+06
wxy = 0.61 starts replicate 1
wxy = 0.071 finished replicate 1 total counts 12655
wxy = 0.071 starts replicate 2
wxy = 0.241 finished replicate 1 total counts 154459
wxy = 0.241 starts replicate 2
wxy = 0.295 finished replicate 1 total counts 299009
wxy = 0.295 starts replicate 2
wxy = 0.34 finished replicate 1 total counts 395719
wxy = 0.34 starts replicate 2
wxy = 0.379 finished replicate 1 total counts 442720
wxy = 0.379 starts replicate 2
wxy = 0.132 finished replicate 1 total counts 49450
wxy = 0.132 starts replicate 2
wxy = 0.415 finished replicate 1 total counts 597044
wxy = 0.415 starts replicate 2
wxy = 0.173 finished replicate 1 total counts 92361
wxy = 0.173 starts replicate 2
wxy = 0.479 finished replicate 1 total counts 797581
wxy = 0.479 starts replicate 2
wxy = 0.508 finished replicate 1 total counts 1.00794e+06
wxy = 0.508 starts replicate 2
wxy = 0.586 finished replicate 1 total counts 1.27149e+06
wxy = 0.586 starts replicate 2
wxy = 0.561 finished replicate 1 total counts 1.16426e+06
wxy = 0.561 starts replicate 2
wxy = 0.448 finished replicate 1 total counts 702859
wxy = 0.448 starts replicate 2
wxy = 0.535 finished replicate 1 total counts 1.04036e+06
wxy = 0.535 starts replicate 2
wxy = 0.632 finished replicate 1 total counts 1.52121e+06
wxy = 0.632 starts replicate 2
wxy = 0.61 finished replicate 1 total counts 1.58362e+06
wxy = 0.61 starts replicate 2
wxy = 0.071 finished replicate 2 total counts 12060
wxy = 0.071 starts replicate 3
wxy = 0.241 finished replicate 2 total counts 165349
wxy = 0.241 starts replicate 3
wxy = 0.295 finished replicate 2 total counts 287991
wxy = 0.295 starts replicate 3
wxy = 0.34 finished replicate 2 total counts 368582
wxy = 0.34 starts replicate 3
wxy = 0.379 finished replicate 2 total counts 458670
wxy = 0.379 starts replicate 3
wxy = 0.586 finished replicate 2 total counts 1.35312e+06
wxy = 0.586 starts replicate 3
wxy = 0.508 finished replicate 2 total counts 965316
wxy = 0.508 starts replicate 3
wxy = 0.479 finished replicate 2 total counts 729068
wxy = 0.479 starts replicate 3
wxy = 0.415 finished replicate 2 total counts 626415
wxy = 0.415 starts replicate 3
wxy = 0.561 finished replicate 2 total counts 1.13893e+06
wxy = 0.561 starts replicate 3
wxy = 0.632 finished replicate 2 total counts 1.69528e+06
wxy = 0.632 starts replicate 3
wxy = 0.535 finished replicate 2 total counts 1.08564e+06
wxy = 0.535 starts replicate 3
wxy = 0.448 finished replicate 2 total counts 748300
wxy = 0.448 starts replicate 3
wxy = 0.61 finished replicate 2 total counts 1.40972e+06
wxy = 0.61 starts replicate 3
wxy = 0.132 finished replicate 2 total counts 53566
wxy = 0.132 starts replicate 3
wxy = 0.173 finished replicate 2 total counts 80024
wxy = 0.173 starts replicate 3
wxy = 0.071 finished replicate 3 total counts 13072
wxy = 0.071 starts replicate 4
wxy = 0.241 finished replicate 3 total counts 176940
wxy = 0.241 starts replicate 4
wxy = 0.295 finished replicate 3 total counts 253724
wxy = 0.295 starts replicate 4
wxy = 0.34 finished replicate 3 total counts 385333
wxy = 0.34 starts replicate 4
wxy = 0.586 finished replicate 3 total counts 1.32026e+06
wxy = 0.586 starts replicate 4
wxy = 0.508 finished replicate 3 total counts 944968
wxy = 0.508 starts replicate 4
wxy = 0.479 finished replicate 3 total counts 758664
wxy = 0.479 starts replicate 4
wxy = 0.379 finished replicate 3 total counts 484629
wxy = 0.379 starts replicate 4
wxy = 0.561 finished replicate 3 total counts 1.0851e+06
wxy = 0.561 starts replicate 4
wxy = 0.632 finished replicate 3 total counts 1.56867e+06
wxy = 0.632 starts replicate 4
wxy = 0.415 finished replicate 3 total counts 531706
wxy = 0.415 starts replicate 4
wxy = 0.535 finished replicate 3 total counts 1.11016e+06
wxy = 0.535 starts replicate 4
wxy = 0.61 finished replicate 3 total counts 1.4615e+06
wxy = 0.61 starts replicate 4
wxy = 0.448 finished replicate 3 total counts 691175
wxy = 0.448 starts replicate 4
wxy = 0.173 finished replicate 3 total counts 70172
wxy = 0.173 starts replicate 4
wxy = 0.132 finished replicate 3 total counts 45270
wxy = 0.132 starts replicate 4
wxy = 0.071 finished replicate 4 total counts 14238
wxy = 0.071 starts replicate 5
wxy = 0.241 finished replicate 4 total counts 168264
wxy = 0.241 starts replicate 5
wxy = 0.295 finished replicate 4 total counts 240087
wxy = 0.295 starts replicate 5
wxy = 0.586 finished replicate 4 total counts 1.32179e+06
wxy = 0.586 starts replicate 5
wxy = 0.34 finished replicate 4 total counts 314144
wxy = 0.34 starts replicate 5
wxy = 0.508 finished replicate 4 total counts 933328
wxy = 0.508 starts replicate 5
wxy = 0.632 finished replicate 4 total counts 1.43247e+06
wxy = 0.632 starts replicate 5
wxy = 0.561 finished replicate 4 total counts 1.1843e+06
wxy = 0.561 starts replicate 5
wxy = 0.479 finished replicate 4 total counts 798264
wxy = 0.479 starts replicate 5
wxy = 0.379 finished replicate 4 total counts 445953
wxy = 0.379 starts replicate 5
wxy = 0.535 finished replicate 4 total counts 1.21837e+06
wxy = 0.535 starts replicate 5
wxy = 0.415 finished replicate 4 total counts 599965
wxy = 0.415 starts replicate 5
wxy = 0.61 finished replicate 4 total counts 1.35327e+06
wxy = 0.61 starts replicate 5
wxy = 0.448 finished replicate 4 total counts 625748
wxy = 0.448 starts replicate 5
wxy = 0.173 finished replicate 4 total counts 85221
wxy = 0.173 starts replicate 5
wxy = 0.132 finished replicate 4 total counts 42067
wxy = 0.132 starts replicate 5
wxy = 0.071 finished replicate 5 total counts 13730
wxy = 0.071 starts replicate 6
wxy = 0.241 finished replicate 5 total counts 169252
wxy = 0.241 starts replicate 6
wxy = 0.295 finished replicate 5 total counts 288907
wxy = 0.295 starts replicate 6
wxy = 0.586 finished replicate 5 total counts 1.27893e+06
wxy = 0.586 starts replicate 6
wxy = 0.632 finished replicate 5 total counts 1.63407e+06
wxy = 0.632 starts replicate 6
wxy = 0.508 finished replicate 5 total counts 941555
wxy = 0.508 starts replicate 6
wxy = 0.561 finished replicate 5 total counts 1.25847e+06
wxy = 0.561 starts replicate 6
wxy = 0.34 finished replicate 5 total counts 370074
wxy = 0.34 starts replicate 6
wxy = 0.479 finished replicate 5 total counts 840678
wxy = 0.479 starts replicate 6
wxy = 0.535 finished replicate 5 total counts 1.06703e+06
wxy = 0.535 starts replicate 6
wxy = 0.61 finished replicate 5 total counts 1.40057e+06
wxy = 0.61 starts replicate 6
wxy = 0.379 finished replicate 5 total counts 499626
wxy = 0.379 starts replicate 6
wxy = 0.415 finished replicate 5 total counts 547559
wxy = 0.415 starts replicate 6
wxy = 0.448 finished replicate 5 total counts 731839
wxy = 0.448 starts replicate 6
wxy = 0.173 finished replicate 5 total counts 78065
wxy = 0.173 starts replicate 6
wxy = 0.132 finished replicate 5 total counts 44221
wxy = 0.132 starts replicate 6
wxy = 0.071 finished replicate 6 total counts 11556
wxy = 0.071 starts replicate 7
wxy = 0.241 finished replicate 6 total counts 170377
wxy = 0.241 starts replicate 7
wxy = 0.295 finished replicate 6 total counts 253281
wxy = 0.295 starts replicate 7
wxy = 0.586 finished replicate 6 total counts 1.25046e+06
wxy = 0.586 starts replicate 7
wxy = 0.632 finished replicate 6 total counts 1.63105e+06
wxy = 0.632 starts replicate 7
wxy = 0.508 finished replicate 6 total counts 949521
wxy = 0.508 starts replicate 7
wxy = 0.561 finished replicate 6 total counts 1.19742e+06
wxy = 0.561 starts replicate 7
wxy = 0.479 finished replicate 6 total counts 762056
wxy = 0.479 starts replicate 7
wxy = 0.34 finished replicate 6 total counts 374219
wxy = 0.34 starts replicate 7
wxy = 0.535 finished replicate 6 total counts 1.00972e+06
wxy = 0.535 starts replicate 7
wxy = 0.61 finished replicate 6 total counts 1.34486e+06
wxy = 0.61 starts replicate 7
wxy = 0.415 finished replicate 6 total counts 503634
wxy = 0.415 starts replicate 7
wxy = 0.379 finished replicate 6 total counts 448629
wxy = 0.379 starts replicate 7
wxy = 0.448 finished replicate 6 total counts 643542
wxy = 0.448 starts replicate 7
wxy = 0.173 finished replicate 6 total counts 101032
wxy = 0.173 starts replicate 7
wxy = 0.132 finished replicate 6 total counts 54256
wxy = 0.132 starts replicate 7
wxy = 0.071 finished replicate 7 total counts 13506
wxy = 0.071 starts replicate 8
wxy = 0.241 finished replicate 7 total counts 136242
wxy = 0.241 starts replicate 8
wxy = 0.586 finished replicate 7 total counts 1.23051e+06
wxy = 0.586 starts replicate 8
wxy = 0.295 finished replicate 7 total counts 276878
wxy = 0.295 starts replicate 8
wxy = 0.632 finished replicate 7 total counts 1.63152e+06
wxy = 0.632 starts replicate 8
wxy = 0.561 finished replicate 7 total counts 1.06843e+06
wxy = 0.561 starts replicate 8
wxy = 0.508 finished replicate 7 total counts 836877
wxy = 0.508 starts replicate 8
wxy = 0.479 finished replicate 7 total counts 822573
wxy = 0.479 starts replicate 8
wxy = 0.34 finished replicate 7 total counts 380128
wxy = 0.34 starts replicate 8
wxy = 0.535 finished replicate 7 total counts 1.05793e+06
wxy = 0.535 starts replicate 8
wxy = 0.61 finished replicate 7 total counts 1.50341e+06
wxy = 0.61 starts replicate 8
wxy = 0.415 finished replicate 7 total counts 552013
wxy = 0.415 starts replicate 8
wxy = 0.379 finished replicate 7 total counts 497566
wxy = 0.379 starts replicate 8
wxy = 0.448 finished replicate 7 total counts 719111
wxy = 0.448 starts replicate 8
wxy = 0.173 finished replicate 7 total counts 88765
wxy = 0.173 starts replicate 8
wxy = 0.132 finished replicate 7 total counts 38503
wxy = 0.132 starts replicate 8
wxy = 0.071 finished replicate 8 total counts 15063
wxy = 0.071 starts replicate 9
wxy = 0.586 finished replicate 8 total counts 1.38538e+06
wxy = 0.586 starts replicate 9
wxy = 0.241 finished replicate 8 total counts 171782
wxy = 0.241 starts replicate 9
wxy = 0.295 finished replicate 8 total counts 288608
wxy = 0.295 starts replicate 9
wxy = 0.632 finished replicate 8 total counts 1.47163e+06
wxy = 0.632 starts replicate 9
wxy = 0.561 finished replicate 8 total counts 1.12869e+06
wxy = 0.561 starts replicate 9
wxy = 0.508 finished replicate 8 total counts 1.05157e+06
wxy = 0.508 starts replicate 9
wxy = 0.479 finished replicate 8 total counts 790092
wxy = 0.479 starts replicate 9
wxy = 0.61 finished replicate 8 total counts 1.34378e+06
wxy = 0.61 starts replicate 9
wxy = 0.34 finished replicate 8 total counts 365023
wxy = 0.34 starts replicate 9
wxy = 0.535 finished replicate 8 total counts 1.09188e+06
wxy = 0.535 starts replicate 9
wxy = 0.415 finished replicate 8 total counts 547200
wxy = 0.415 starts replicate 9
wxy = 0.379 finished replicate 8 total counts 459499
wxy = 0.379 starts replicate 9
wxy = 0.448 finished replicate 8 total counts 744916
wxy = 0.448 starts replicate 9
wxy = 0.173 finished replicate 8 total counts 90110
wxy = 0.173 starts replicate 9
wxy = 0.132 finished replicate 8 total counts 41374
wxy = 0.132 starts replicate 9
wxy = 0.071 finished replicate 9 total counts 10415
wxy = 0.071 starts replicate 10
wxy = 0.586 finished replicate 9 total counts 1.35256e+06
wxy = 0.586 starts replicate 10
wxy = 0.241 finished replicate 9 total counts 154454
wxy = 0.241 starts replicate 10
wxy = 0.632 finished replicate 9 total counts 1.49004e+06
wxy = 0.632 starts replicate 10
wxy = 0.295 finished replicate 9 total counts 265379
wxy = 0.295 starts replicate 10
wxy = 0.561 finished replicate 9 total counts 1.22755e+06
wxy = 0.561 starts replicate 10
wxy = 0.508 finished replicate 9 total counts 988331
wxy = 0.508 starts replicate 10
wxy = 0.479 finished replicate 9 total counts 730676
wxy = 0.479 starts replicate 10
wxy = 0.61 finished replicate 9 total counts 1.33329e+06
wxy = 0.61 starts replicate 10
wxy = 0.535 finished replicate 9 total counts 1.06529e+06
wxy = 0.535 starts replicate 10
wxy = 0.34 finished replicate 9 total counts 403929
wxy = 0.34 starts replicate 10
wxy = 0.415 finished replicate 9 total counts 581322
wxy = 0.415 starts replicate 10
wxy = 0.379 finished replicate 9 total counts 472551
wxy = 0.379 starts replicate 10
wxy = 0.448 finished replicate 9 total counts 663383
wxy = 0.448 starts replicate 10
wxy = 0.173 finished replicate 9 total counts 74917
wxy = 0.173 starts replicate 10
wxy = 0.132 finished replicate 9 total counts 47971
wxy = 0.132 starts replicate 10
wxy = 0.071 finished replicate 10 total counts 12736
wxy = 0.071 starts replicate 11
wxy = 0.586 finished replicate 10 total counts 1.39614e+06
wxy = 0.586 starts replicate 11
wxy = 0.632 finished replicate 10 total counts 1.67929e+06
wxy = 0.632 starts replicate 11
wxy = 0.241 finished replicate 10 total counts 180381
wxy = 0.241 starts replicate 11
wxy = 0.295 finished replicate 10 total counts 246094
wxy = 0.295 starts replicate 11
wxy = 0.561 finished replicate 10 total counts 1.11288e+06
wxy = 0.561 starts replicate 11
wxy = 0.508 finished replicate 10 total counts 930783
wxy = 0.508 starts replicate 11
wxy = 0.479 finished replicate 10 total counts 790783
wxy = 0.479 starts replicate 11
wxy = 0.61 finished replicate 10 total counts 1.39827e+06
wxy = 0.61 starts replicate 11
wxy = 0.535 finished replicate 10 total counts 1.0491e+06
wxy = 0.535 starts replicate 11
wxy = 0.34 finished replicate 10 total counts 407949
wxy = 0.34 starts replicate 11
wxy = 0.415 finished replicate 10 total counts 623654
wxy = 0.415 starts replicate 11
wxy = 0.379 finished replicate 10 total counts 496777
wxy = 0.379 starts replicate 11
wxy = 0.448 finished replicate 10 total counts 644485
wxy = 0.448 starts replicate 11
wxy = 0.173 finished replicate 10 total counts 73347
wxy = 0.173 starts replicate 11
wxy = 0.132 finished replicate 10 total counts 46076
wxy = 0.132 starts replicate 11
wxy = 0.071 finished replicate 11 total counts 12120
wxy = 0.071 starts replicate 12
wxy = 0.586 finished replicate 11 total counts 1.38155e+06
wxy = 0.586 starts replicate 12
wxy = 0.632 finished replicate 11 total counts 1.56812e+06
wxy = 0.632 starts replicate 12
wxy = 0.241 finished replicate 11 total counts 163927
wxy = 0.241 starts replicate 12
wxy = 0.295 finished replicate 11 total counts 256400
wxy = 0.295 starts replicate 12
wxy = 0.561 finished replicate 11 total counts 1.04604e+06
wxy = 0.561 starts replicate 12
wxy = 0.508 finished replicate 11 total counts 1.00826e+06
wxy = 0.508 starts replicate 12
wxy = 0.479 finished replicate 11 total counts 804086
wxy = 0.479 starts replicate 12
wxy = 0.61 finished replicate 11 total counts 1.51532e+06
wxy = 0.61 starts replicate 12
wxy = 0.535 finished replicate 11 total counts 1.02045e+06
wxy = 0.535 starts replicate 12
wxy = 0.34 finished replicate 11 total counts 374824
wxy = 0.34 starts replicate 12
wxy = 0.415 finished replicate 11 total counts 588489
wxy = 0.415 starts replicate 12
wxy = 0.379 finished replicate 11 total counts 431710
wxy = 0.379 starts replicate 12
wxy = 0.448 finished replicate 11 total counts 665762
wxy = 0.448 starts replicate 12
wxy = 0.173 finished replicate 11 total counts 75558
wxy = 0.173 starts replicate 12
wxy = 0.132 finished replicate 11 total counts 47522
wxy = 0.132 starts replicate 12
wxy = 0.071 finished replicate 12 total counts 11933
wxy = 0.071 starts replicate 13
wxy = 0.586 finished replicate 12 total counts 1.27043e+06
wxy = 0.586 starts replicate 13
wxy = 0.632 finished replicate 12 total counts 1.58847e+06
wxy = 0.632 starts replicate 13
wxy = 0.241 finished replicate 12 total counts 148213
wxy = 0.241 starts replicate 13
wxy = 0.561 finished replicate 12 total counts 1.17166e+06
wxy = 0.561 starts replicate 13
wxy = 0.295 finished replicate 12 total counts 250276
wxy = 0.295 starts replicate 13
wxy = 0.508 finished replicate 12 total counts 993636
wxy = 0.508 starts replicate 13
wxy = 0.479 finished replicate 12 total counts 795024
wxy = 0.479 starts replicate 13
wxy = 0.61 finished replicate 12 total counts 1.40523e+06
wxy = 0.61 starts replicate 13
wxy = 0.535 finished replicate 12 total counts 948098
wxy = 0.535 starts replicate 13
wxy = 0.34 finished replicate 12 total counts 362681
wxy = 0.34 starts replicate 13
wxy = 0.415 finished replicate 12 total counts 539987
wxy = 0.415 starts replicate 13
wxy = 0.379 finished replicate 12 total counts 501155
wxy = 0.379 starts replicate 13
wxy = 0.448 finished replicate 12 total counts 668990
wxy = 0.448 starts replicate 13
wxy = 0.173 finished replicate 12 total counts 81805
wxy = 0.173 starts replicate 13
wxy = 0.132 finished replicate 12 total counts 45389
wxy = 0.132 starts replicate 13
wxy = 0.071 finished replicate 13 total counts 10597
wxy = 0.071 starts replicate 14
wxy = 0.586 finished replicate 13 total counts 1.31548e+06
wxy = 0.586 starts replicate 14
wxy = 0.632 finished replicate 13 total counts 1.53662e+06
wxy = 0.632 starts replicate 14
wxy = 0.241 finished replicate 13 total counts 169278
wxy = 0.241 starts replicate 14
wxy = 0.561 finished replicate 13 total counts 1.24042e+06
wxy = 0.561 starts replicate 14
wxy = 0.295 finished replicate 13 total counts 301293
wxy = 0.295 starts replicate 14
wxy = 0.508 finished replicate 13 total counts 938116
wxy = 0.508 starts replicate 14
wxy = 0.479 finished replicate 13 total counts 745865
wxy = 0.479 starts replicate 14
wxy = 0.61 finished replicate 13 total counts 1.61625e+06
wxy = 0.61 starts replicate 14
wxy = 0.535 finished replicate 13 total counts 1.0059e+06
wxy = 0.535 starts replicate 14
wxy = 0.34 finished replicate 13 total counts 380386
wxy = 0.34 starts replicate 14
wxy = 0.415 finished replicate 13 total counts 572626
wxy = 0.415 starts replicate 14
wxy = 0.379 finished replicate 13 total counts 416764
wxy = 0.379 starts replicate 14
wxy = 0.448 finished replicate 13 total counts 602458
wxy = 0.448 starts replicate 14
wxy = 0.173 finished replicate 13 total counts 83865
wxy = 0.173 starts replicate 14
wxy = 0.071 finished replicate 14 total counts 10850
wxy = 0.071 starts replicate 15
wxy = 0.132 finished replicate 13 total counts 52504
wxy = 0.132 starts replicate 14
wxy = 0.586 finished replicate 14 total counts 1.27374e+06
wxy = 0.586 starts replicate 15
wxy = 0.632 finished replicate 14 total counts 1.64374e+06
wxy = 0.632 starts replicate 15
wxy = 0.241 finished replicate 14 total counts 171782
wxy = 0.241 starts replicate 15
wxy = 0.561 finished replicate 14 total counts 1.06506e+06
wxy = 0.561 starts replicate 15
wxy = 0.508 finished replicate 14 total counts 911491
wxy = 0.508 starts replicate 15
wxy = 0.295 finished replicate 14 total counts 243802
wxy = 0.295 starts replicate 15
wxy = 0.61 finished replicate 14 total counts 1.442e+06
wxy = 0.61 starts replicate 15
wxy = 0.479 finished replicate 14 total counts 737972
wxy = 0.479 starts replicate 15
wxy = 0.535 finished replicate 14 total counts 1.05212e+06
wxy = 0.535 starts replicate 15
wxy = 0.34 finished replicate 14 total counts 404682
wxy = 0.34 starts replicate 15
wxy = 0.415 finished replicate 14 total counts 584471
wxy = 0.415 starts replicate 15
wxy = 0.379 finished replicate 14 total counts 457336
wxy = 0.379 starts replicate 15
wxy = 0.448 finished replicate 14 total counts 671528
wxy = 0.448 starts replicate 15
wxy = 0.173 finished replicate 14 total counts 94419
wxy = 0.173 starts replicate 15
wxy = 0.071 finished replicate 15 total counts 13469
wxy = 0.071 starts replicate 16
wxy = 0.586 finished replicate 15 total counts 1.27685e+06
wxy = 0.586 starts replicate 16
wxy = 0.632 finished replicate 15 total counts 1.51103e+06
wxy = 0.632 starts replicate 16
wxy = 0.132 finished replicate 14 total counts 38348
wxy = 0.132 starts replicate 15
wxy = 0.241 finished replicate 15 total counts 193737
wxy = 0.241 starts replicate 16
wxy = 0.561 finished replicate 15 total counts 1.15415e+06
wxy = 0.561 starts replicate 16
wxy = 0.508 finished replicate 15 total counts 909608
wxy = 0.508 starts replicate 16
wxy = 0.295 finished replicate 15 total counts 231396
wxy = 0.295 starts replicate 16
wxy = 0.61 finished replicate 15 total counts 1.48283e+06
wxy = 0.61 starts replicate 16
wxy = 0.479 finished replicate 15 total counts 733143
wxy = 0.479 starts replicate 16
wxy = 0.535 finished replicate 15 total counts 1.01208e+06
wxy = 0.535 starts replicate 16
wxy = 0.34 finished replicate 15 total counts 349947
wxy = 0.34 starts replicate 16
wxy = 0.415 finished replicate 15 total counts 551921
wxy = 0.415 starts replicate 16
wxy = 0.379 finished replicate 15 total counts 459397
wxy = 0.379 starts replicate 16
wxy = 0.448 finished replicate 15 total counts 725779
wxy = 0.448 starts replicate 16
wxy = 0.071 finished replicate 16 total counts 9190
wxy = 0.071 starts replicate 17
wxy = 0.173 finished replicate 15 total counts 89401
wxy = 0.173 starts replicate 16
wxy = 0.586 finished replicate 16 total counts 1.25636e+06
wxy = 0.586 starts replicate 17
wxy = 0.632 finished replicate 16 total counts 1.52567e+06
wxy = 0.632 starts replicate 17
wxy = 0.561 finished replicate 16 total counts 1.1407e+06
wxy = 0.561 starts replicate 17
wxy = 0.241 finished replicate 16 total counts 153119
wxy = 0.241 starts replicate 17
wxy = 0.508 finished replicate 16 total counts 920402
wxy = 0.508 starts replicate 17
wxy = 0.132 finished replicate 15 total counts 40886
wxy = 0.132 starts replicate 16
wxy = 0.295 finished replicate 16 total counts 276529
wxy = 0.295 starts replicate 17
wxy = 0.61 finished replicate 16 total counts 1.46173e+06
wxy = 0.61 starts replicate 17
wxy = 0.479 finished replicate 16 total counts 756788
wxy = 0.479 starts replicate 17
wxy = 0.535 finished replicate 16 total counts 1.01122e+06
wxy = 0.535 starts replicate 17
wxy = 0.34 finished replicate 16 total counts 325762
wxy = 0.34 starts replicate 17
wxy = 0.415 finished replicate 16 total counts 587347
wxy = 0.415 starts replicate 17
wxy = 0.379 finished replicate 16 total counts 445360
wxy = 0.379 starts replicate 17
wxy = 0.448 finished replicate 16 total counts 701320
wxy = 0.448 starts replicate 17
wxy = 0.071 finished replicate 17 total counts 11920
wxy = 0.071 starts replicate 18
wxy = 0.586 finished replicate 17 total counts 1.31314e+06
wxy = 0.586 starts replicate 18
wxy = 0.173 finished replicate 16 total counts 65543
wxy = 0.173 starts replicate 17
wxy = 0.632 finished replicate 17 total counts 1.64517e+06
wxy = 0.632 starts replicate 18
wxy = 0.561 finished replicate 17 total counts 1.27002e+06
wxy = 0.561 starts replicate 18
wxy = 0.241 finished replicate 17 total counts 184508
wxy = 0.241 starts replicate 18
wxy = 0.508 finished replicate 17 total counts 963186
wxy = 0.508 starts replicate 18
wxy = 0.295 finished replicate 17 total counts 275704
wxy = 0.295 starts replicate 18
wxy = 0.61 finished replicate 17 total counts 1.40651e+06
wxy = 0.61 starts replicate 18
wxy = 0.132 finished replicate 16 total counts 53156
wxy = 0.132 starts replicate 17
wxy = 0.479 finished replicate 17 total counts 888763
wxy = 0.479 starts replicate 18
wxy = 0.535 finished replicate 17 total counts 1.02732e+06
wxy = 0.535 starts replicate 18
wxy = 0.34 finished replicate 17 total counts 383712
wxy = 0.34 starts replicate 18
wxy = 0.415 finished replicate 17 total counts 656453
wxy = 0.415 starts replicate 18
wxy = 0.379 finished replicate 17 total counts 436537
wxy = 0.379 starts replicate 18
wxy = 0.448 finished replicate 17 total counts 685465
wxy = 0.448 starts replicate 18
wxy = 0.071 finished replicate 18 total counts 15533
wxy = 0.071 starts replicate 19
wxy = 0.586 finished replicate 18 total counts 1.2095e+06
wxy = 0.586 starts replicate 19
wxy = 0.632 finished replicate 18 total counts 1.57679e+06
wxy = 0.632 starts replicate 19
wxy = 0.173 finished replicate 17 total counts 79595
wxy = 0.173 starts replicate 18
wxy = 0.561 finished replicate 18 total counts 1.1197e+06
wxy = 0.561 starts replicate 19
wxy = 0.241 finished replicate 18 total counts 184010
wxy = 0.241 starts replicate 19
wxy = 0.508 finished replicate 18 total counts 848834
wxy = 0.508 starts replicate 19
wxy = 0.295 finished replicate 18 total counts 291707
wxy = 0.295 starts replicate 19
wxy = 0.61 finished replicate 18 total counts 1.43836e+06
wxy = 0.61 starts replicate 19
wxy = 0.479 finished replicate 18 total counts 890942
wxy = 0.479 starts replicate 19
wxy = 0.535 finished replicate 18 total counts 1.04448e+06
wxy = 0.535 starts replicate 19
wxy = 0.132 finished replicate 17 total counts 47110
wxy = 0.132 starts replicate 18
wxy = 0.34 finished replicate 18 total counts 413622
wxy = 0.34 starts replicate 19
wxy = 0.415 finished replicate 18 total counts 645312
wxy = 0.415 starts replicate 19
wxy = 0.379 finished replicate 18 total counts 484821
wxy = 0.379 starts replicate 19
wxy = 0.448 finished replicate 18 total counts 626738
wxy = 0.448 starts replicate 19
wxy = 0.071 finished replicate 19 total counts 11702
wxy = 0.586 finished replicate 19 total counts 1.35268e+06
wxy = 0.632 finished replicate 19 total counts 1.49439e+06
wxy = 0.508 finished replicate 19 total counts 963666
wxy = 0.173 finished replicate 18 total counts 77745
wxy = 0.173 starts replicate 19
wxy = 0.561 finished replicate 19 total counts 1.09196e+06
wxy = 0.241 finished replicate 19 total counts 167066
wxy = 0.61 finished replicate 19 total counts 1.34777e+06
wxy = 0.295 finished replicate 19 total counts 279830
wxy = 0.535 finished replicate 19 total counts 1.10134e+06
wxy = 0.479 finished replicate 19 total counts 897203
wxy = 0.132 finished replicate 18 total counts 46349
wxy = 0.132 starts replicate 19
wxy = 0.34 finished replicate 19 total counts 405396
wxy = 0.415 finished replicate 19 total counts 605945
wxy = 0.379 finished replicate 19 total counts 497638
wxy = 0.448 finished replicate 19 total counts 646387
wxy = 0.173 finished replicate 19 total counts 89872
wxy = 0.132 finished replicate 19 total counts 42502
