[
   1.3768014907836914,
   1.3768641948699951,
   1.3762742280960083,
   1.3767087459564209,
   1.3765504360198975,
   1.3766951560974121,
   1.3764954805374146,
   1.3767348527908325,
   1.3767795562744141,
   1.3761364221572876,
   1.3763988018035889,
   1.3760457038879395,
   1.3748624324798584,
   1.3753798007965088,
   1.3751498460769653,
   1.3742241859436035,
   1.3747233152389526,
   1.3741132020950317,
   1.3733681440353394,
   1.3704105615615845,
   1.3677470684051514,
   1.3648912906646729,
   1.3624751567840576,
   1.3599865436553955,
   1.3572018146514893,
   1.3552913665771484,
   1.3533151149749756,
   1.3505746126174927,
   1.3334629535675049,
   1.319527268409729,
   1.3075529336929321,
   1.2958053350448608,
   1.2867615222930908,
   1.2776720523834229,
   1.2690321207046509,
   1.2602288722991943,
   1.2529948949813843,
   1.1936173439025879,
   1.1533362865447998,
   1.1232467889785767,
   1.1045993566513062,
   1.0846943855285645,
   1.0722616910934448,
   1.0625925064086914,
   1.0545423030853271,
   1.0494887828826904,
   1.0114017724990845,
   0.99740618467330933,
   1.0001136064529419,
   0.98395252227783203,
   0.98938971757888794,
   0.98928385972976685,
   0.99516600370407104,
   0.99233400821685791,
   0.99159795045852661,
   1.0013344287872314,
   1.0180145502090454,
   1.0169401168823242,
   1.0070602893829346,
   0.99251347780227661,
   0.95460808277130127,
   0.98281508684158325,
   0.96731531620025635,
   0.97682857513427734
]
