[
   1.6274471282958984,
   1.627551794052124,
   1.6266353130340576,
   1.6267818212509155,
   1.626721978187561,
   1.6274242401123047,
   1.6281124353408813,
   1.6274780035018921,
   1.627367377281189,
   1.6256997585296631,
   1.6266167163848877,
   1.6252667903900146,
   1.6249101161956787,
   1.6243606805801392,
   1.62477707862854,
   1.6230615377426147,
   1.6233850717544556,
   1.6215394735336304,
   1.6196178197860718,
   1.6141780614852905,
   1.6083929538726807,
   1.602434515953064,
   1.5981398820877075,
   1.5933494567871094,
   1.5876914262771606,
   1.5839568376541138,
   1.5797698497772217,
   1.5754754543304443,
   1.5425567626953125,
   1.5155011415481567,
   1.4921376705169678,
   1.4692790508270264,
   1.4509052038192749,
   1.4326021671295166,
   1.4144136905670166,
   1.3997914791107178,
   1.3858236074447632,
   1.2771966457366943,
   1.2102420330047607,
   1.1636476516723633,
   1.1305060386657715,
   1.1028335094451904,
   1.0863864421844482,
   1.0740753412246704,
   1.0651159286499023,
   1.058441162109375,
   1.0099601745605469,
   1.0003955364227295,
   0.99674195051193237,
   0.97324550151824951,
   0.98103457689285278,
   0.98716181516647339,
   0.98790562152862549,
   0.98884409666061401,
   0.98277217149734497,
   0.99663054943084717,
   1.0258530378341675,
   1.0212609767913818,
   1.0109909772872925,
   0.99197816848754883,
   0.94549095630645752,
   0.98539292812347412,
   0.97486430406570435,
   0.99483871459960938
]
