[
   1.6999648809432983,
   1.6996781826019287,
   1.6982660293579102,
   1.6991779804229736,
   1.6976388692855835,
   1.6981914043426514,
   1.6974442005157471,
   1.698577880859375,
   1.6980743408203125,
   1.6976467370986938,
   1.6965267658233643,
   1.6973578929901123,
   1.6951786279678345,
   1.6937719583511353,
   1.6947746276855469,
   1.6939976215362549,
   1.692038893699646,
   1.6906309127807617,
   1.6896610260009766,
   1.6834812164306641,
   1.675462007522583,
   1.6695941686630249,
   1.6631104946136475,
   1.6569197177886963,
   1.652645468711853,
   1.6470791101455688,
   1.643214225769043,
   1.6392498016357422,
   1.5988242626190186,
   1.567252516746521,
   1.5401604175567627,
   1.5141280889511108,
   1.4915573596954346,
   1.4689998626708984,
   1.4502633810043335,
   1.4337340593338013,
   1.4157873392105103,
   1.2922751903533936,
   1.2143648862838745,
   1.1620733737945557,
   1.1271774768829346,
   1.103049635887146,
   1.0823343992233276,
   1.0729634761810303,
   1.064048171043396,
   1.0592515468597412,
   1.0075502395629883,
   1.0038516521453857,
   1.0024724006652832,
   0.98014533519744873,
   0.981192946434021,
   0.99154454469680786,
   0.99267607927322388,
   0.99513369798660278,
   0.99026262760162354,
   0.99942171573638916,
   0.99583375453948975,
   0.98342430591583252,
   0.99457132816314697,
   1.0108205080032349,
   0.99469387531280518,
   1.0395864248275757,
   0.96473234891891479,
   1.0579334497451782
]
