[
   7.4592108726501465,
   7.4496560096740723,
   7.4519948959350586,
   7.4270033836364746,
   7.467071533203125,
   7.444699764251709,
   7.455897331237793,
   7.4436087608337402,
   7.4246659278869629,
   7.4114227294921875,
   7.3939199447631836,
   7.3581490516662598,
   7.3056640625,
   7.2711687088012695,
   7.2556586265563965,
   7.2434754371643066,
   7.2411613464355469,
   7.18841552734375,
   7.1554832458496094,
   6.9888443946838379,
   6.7510385513305664,
   6.6314454078674316,
   6.4678511619567871,
   6.3218960762023926,
   6.1908440589904785,
   6.027857780456543,
   5.9340715408325195,
   5.8150606155395508,
   4.8780093193054199,
   4.2106904983520508,
   3.7520089149475098,
   3.395988941192627,
   3.105985164642334,
   2.8535530567169189,
   2.6517727375030518,
   2.4903733730316162,
   2.3566136360168457,
   1.6991212368011475,
   1.4413334131240845,
   1.3332283496856689,
   1.2910821437835693,
   1.2086610794067383,
   1.1872798204421997,
   1.1855032444000244,
   1.131678581237793,
   1.1461429595947266,
   1.0661923885345459,
   1.0001513957977295,
   0.93991029262542725,
   0.9976685643196106,
   0.95374667644500732,
   1.0031991004943848,
   1.0403525829315186,
   1.0164464712142944,
   0.94734829664230347,
   0.95130431652069092,
   1.0101325511932373,
   1.0238087177276611,
   0.96573460102081299,
   0.97079575061798096,
   0.92107993364334106,
   0.97202169895172119,
   0.83902072906494141,
   1.0153852701187134
]
