[
   1.967327356338501,
   1.9659099578857422,
   1.9662529230117798,
   1.9692316055297852,
   1.9653171300888062,
   1.9683583974838257,
   1.9670200347900391,
   1.968539834022522,
   1.9677822589874268,
   1.9664595127105713,
   1.9673497676849365,
   1.9632164239883423,
   1.9625799655914307,
   1.9595279693603516,
   1.9613380432128906,
   1.9562883377075195,
   1.9559051990509033,
   1.9540054798126221,
   1.9530365467071533,
   1.9399731159210205,
   1.9302257299423218,
   1.9214271306991577,
   1.9088913202285767,
   1.9037082195281982,
   1.893445611000061,
   1.8885049819946289,
   1.880382776260376,
   1.8728578090667725,
   1.8136022090911865,
   1.7664382457733154,
   1.7220885753631592,
   1.6830205917358398,
   1.6485576629638672,
   1.615573525428772,
   1.5856677293777466,
   1.5580111742019653,
   1.5337424278259277,
   1.3601688146591187,
   1.2612419128417969,
   1.1937336921691895,
   1.1528886556625366,
   1.1182581186294556,
   1.0914723873138428,
   1.0785787105560303,
   1.0696390867233276,
   1.0576350688934326,
   1.0204967260360718,
   1.0109975337982178,
   1.0132672786712646,
   1.0122945308685303,
   1.0020784139633179,
   0.99948704242706299,
   0.98871535062789917,
   0.98901224136352539,
   0.98614442348480225,
   0.990683913230896,
   0.981548011302948,
   1.0009256601333618,
   1.015851616859436,
   0.99608629941940308,
   0.99417686462402344,
   0.99216127395629883,
   0.98481190204620361,
   1.0787304639816284
]
