[
   40.669963836669922,
   40.305198669433594,
   40.947540283203125,
   40.605018615722656,
   40.751384735107422,
   40.5877685546875,
   40.015514373779297,
   40.372810363769531,
   40.519760131835938,
   40.317173004150391,
   38.887340545654297,
   38.562404632568359,
   38.330417633056641,
   37.387470245361328,
   37.140525817871094,
   36.426189422607422,
   35.896690368652344,
   35.543094635009766,
   35.238960266113281,
   30.641269683837891,
   27.556589126586914,
   24.939651489257812,
   22.526407241821289,
   21.052219390869141,
   19.220664978027344,
   17.878194808959961,
   16.924554824829102,
   15.953288078308105,
   9.7574892044067383,
   7.040102481842041,
   5.778571605682373,
   5.0041203498840332,
   4.2429170608520508,
   3.9941127300262451,
   3.6629829406738281,
   3.4171404838562012,
   3.0344583988189697,
   2.020625114440918,
   1.6094439029693604,
   1.2935720682144165,
   1.2276437282562256,
   1.1711435317993164,
   1.2482963800430298,
   1.0719536542892456,
   1.0535863637924194,
   1.1841309070587158,
   0.95541369915008545,
   0.98823356628417969,
   0.95658618211746216,
   1.1145615577697754,
   1.0351215600967407,
   0.90285414457321167,
   0.96157950162887573,
   1.0391676425933838,
   0.92216432094573975,
   1.03699791431427,
   0.91314876079559326,
   1.049203634262085,
   0.72904610633850098,
   0.9302336573600769,
   1.1593785285949707,
   0.80068886280059814,
   0.77731019258499146,
   0.63042914867401123
]
