[
   1.5298416614532471,
   1.52797532081604,
   1.5289185047149658,
   1.5292074680328369,
   1.5297962427139282,
   1.5288985967636108,
   1.5281857252120972,
   1.5279848575592041,
   1.5286185741424561,
   1.5275152921676636,
   1.5264184474945068,
   1.5266107320785522,
   1.5248832702636719,
   1.5238269567489624,
   1.5214284658432007,
   1.5229216814041138,
   1.5214364528656006,
   1.5209290981292725,
   1.5188924074172974,
   1.5102720260620117,
   1.5017249584197998,
   1.4928959608078003,
   1.4846484661102295,
   1.4778095483779907,
   1.4711642265319824,
   1.4658305644989014,
   1.4584400653839111,
   1.4519472122192383,
   1.4020191431045532,
   1.3636462688446045,
   1.3330514430999756,
   1.3070268630981445,
   1.2846702337265015,
   1.2666031122207642,
   1.2479188442230225,
   1.2339766025543213,
   1.2193342447280884,
   1.1345968246459961,
   1.0893394947052002,
   1.0636537075042725,
   1.046367883682251,
   1.0346701145172119,
   1.0257127285003662,
   1.0217063426971436,
   1.0192149877548218,
   1.0185103416442871,
   0.99912261962890625,
   1.0013184547424316,
   0.99439126253128052,
   0.99561530351638794,
   0.98681032657623291,
   1.0003722906112671,
   0.99001562595367432,
   0.99245864152908325,
   0.9975663423538208,
   0.99217206239700317,
   0.99472558498382568,
   1.0125257968902588,
   0.99093043804168701,
   0.99111759662628174,
   0.97939169406890869,
   1.0078505277633667,
   1.0176314115524292,
   1.0474600791931152
]
