[
   2.7678914070129395,
   2.7670483589172363,
   2.7744200229644775,
   2.7630085945129395,
   2.7641663551330566,
   2.7648694515228271,
   2.7644505500793457,
   2.7643380165100098,
   2.7647030353546143,
   2.7569460868835449,
   2.7544772624969482,
   2.750737190246582,
   2.7385292053222656,
   2.7352254390716553,
   2.7312512397766113,
   2.7262668609619141,
   2.7125725746154785,
   2.7078738212585449,
   2.7019703388214111,
   2.6457271575927734,
   2.5951447486877441,
   2.5540022850036621,
   2.5072510242462158,
   2.4704117774963379,
   2.4340319633483887,
   2.4007890224456787,
   2.3682379722595215,
   2.3406660556793213,
   2.1132807731628418,
   1.9519917964935303,
   1.8320238590240479,
   1.7322719097137451,
   1.6497542858123779,
   1.5836292505264282,
   1.5295267105102539,
   1.4810856580734253,
   1.4420602321624756,
   1.2203019857406616,
   1.1393609046936035,
   1.103718638420105,
   1.0770899057388306,
   1.0576225519180298,
   1.050169825553894,
   1.0498607158660889,
   1.0421885251998901,
   1.0310659408569336,
   1.0124895572662354,
   1.004703164100647,
   1.015270471572876,
   1.0105645656585693,
   0.98322886228561401,
   1.0177239179611206,
   1.0005325078964233,
   0.99353504180908203,
   1.0064717531204224,
   1.0026752948760986,
   0.99485224485397339,
   1.0261391401290894,
   1.0446560382843018,
   0.96658933162689209,
   0.97652685642242432,
   1.0148409605026245,
   1.0103693008422852,
   0.99367266893386841
]
