[
   3.2731411457061768,
   3.2643997669219971,
   3.2656853199005127,
   3.2669835090637207,
   3.2679493427276611,
   3.2674660682678223,
   3.2622203826904297,
   3.2616143226623535,
   3.2678408622741699,
   3.2574763298034668,
   3.2537021636962891,
   3.2369124889373779,
   3.2314395904541016,
   3.213226318359375,
   3.2113215923309326,
   3.2032058238983154,
   3.19205641746521,
   3.188368558883667,
   3.1699268817901611,
   3.0964260101318359,
   3.0259771347045898,
   2.9619176387786865,
   2.9027960300445557,
   2.8536622524261475,
   2.8019616603851318,
   2.7635283470153809,
   2.7150325775146484,
   2.6719088554382324,
   2.3685340881347656,
   2.1575267314910889,
   1.9948217868804932,
   1.8715517520904541,
   1.7718210220336914,
   1.6828072071075439,
   1.6223232746124268,
   1.5694634914398193,
   1.512829065322876,
   1.2348660230636597,
   1.1521830558776855,
   1.0909819602966309,
   1.0728479623794556,
   1.0506024360656738,
   1.0364629030227661,
   1.0256578922271729,
   1.0155311822891235,
   1.0249547958374023,
   0.99919223785400391,
   1.0080454349517822,
   1.0123097896575928,
   0.98072624206542969,
   0.99785852432250977,
   0.9912835955619812,
   0.97986495494842529,
   1.0058691501617432,
   0.99462622404098511,
   0.99606627225875854,
   0.98509091138839722,
   0.98020792007446289,
   0.99766141176223755,
   1.0153135061264038,
   1.0090043544769287,
   1.0271888971328735,
   1.0925161838531494,
   0.94474780559539795
]
