[
   4.4045953750610352,
   4.396028995513916,
   4.4042882919311523,
   4.3989276885986328,
   4.3966593742370605,
   4.3972578048706055,
   4.3817048072814941,
   4.3911318778991699,
   4.3845329284667969,
   4.3868722915649414,
   4.3714265823364258,
   4.3457436561584473,
   4.3124322891235352,
   4.3049263954162598,
   4.2956666946411133,
   4.2850370407104492,
   4.2692975997924805,
   4.2465786933898926,
   4.2236547470092773,
   4.0980520248413086,
   3.9708447456359863,
   3.8652253150939941,
   3.7663893699645996,
   3.6791408061981201,
   3.5987772941589355,
   3.5319042205810547,
   3.4573478698730469,
   3.3908748626708984,
   2.9068112373352051,
   2.568436861038208,
   2.3252596855163574,
   2.1421396732330322,
   1.9925620555877686,
   1.8845407962799072,
   1.7930713891983032,
   1.7234575748443604,
   1.6533838510513306,
   1.3280748128890991,
   1.1952370405197144,
   1.124326229095459,
   1.0725585222244263,
   1.0483658313751221,
   1.0205382108688354,
   1.0144801139831543,
   1.031684398651123,
   1.0145297050476074,
   0.96713387966156006,
   0.99805754423141479,
   0.99058693647384644,
   0.99745100736618042,
   0.97886103391647339,
   0.99675607681274414,
   1.0025186538696289,
   1.0055367946624756,
   1.0106027126312256,
   1.0263144969940186,
   1.0467867851257324,
   0.98753452301025391,
   0.99274730682373047,
   0.98117208480834961,
   0.96286565065383911,
   0.97236931324005127,
   1.0002601146697998,
   1.0451657772064209
]
