[
   12.17722225189209,
   12.169261932373047,
   12.119723320007324,
   12.157060623168945,
   12.129875183105469,
   12.128981590270996,
   12.108510971069336,
   12.096773147583008,
   12.082479476928711,
   12.051326751708984,
   11.946706771850586,
   11.783525466918945,
   11.73255443572998,
   11.603446006774902,
   11.474086761474609,
   11.361618995666504,
   11.24510383605957,
   11.181035041809082,
   11.070096969604492,
   10.284479141235352,
   9.6651096343994141,
   9.0529098510742188,
   8.7088823318481445,
   8.1852245330810547,
   7.8277711868286133,
   7.5219049453735352,
   7.1772117614746094,
   6.9186873435974121,
   5.006868839263916,
   4.0026636123657227,
   3.3461196422576904,
   2.9200494289398193,
   2.5887761116027832,
   2.3649623394012451,
   2.1463558673858643,
   1.9931055307388306,
   1.8767284154891968,
   1.4306304454803467,
   1.2742893695831299,
   1.1513686180114746,
   1.1047362089157104,
   1.0801904201507568,
   1.0439856052398682,
   1.0296140909194946,
   1.0231211185455322,
   1.029110312461853,
   1.0006800889968872,
   1.0237083435058594,
   1.0507895946502686,
   1.0375064611434937,
   0.97789353132247925,
   0.96331501007080078,
   1.0451177358627319,
   0.9645506739616394,
   1.0191941261291504,
   0.97611463069915771,
   0.99196827411651611,
   1.0092241764068604,
   1.1011488437652588,
   1.0873838663101196,
   0.92150163650512695,
   0.88854169845581055,
   0.87493515014648438,
   0.76838487386703491
]
