[
   1.6046082973480225,
   1.6039419174194336,
   1.604151725769043,
   1.6023399829864502,
   1.6042861938476562,
   1.6027059555053711,
   1.6031183004379272,
   1.6038904190063477,
   1.6028740406036377,
   1.6020200252532959,
   1.6019575595855713,
   1.6021124124526978,
   1.6005804538726807,
   1.5991886854171753,
   1.5977246761322021,
   1.5970094203948975,
   1.5949820280075073,
   1.5930818319320679,
   1.5922089815139771,
   1.5809793472290039,
   1.5721842050552368,
   1.5625505447387695,
   1.5528615713119507,
   1.5447844266891479,
   1.5357022285461426,
   1.5271596908569336,
   1.5194545984268188,
   1.5133597850799561,
   1.4538042545318604,
   1.409716010093689,
   1.3753533363342285,
   1.3452173471450806,
   1.3204996585845947,
   1.2969073057174683,
   1.2776844501495361,
   1.2607109546661377,
   1.2451887130737305,
   1.1497495174407959,
   1.1004250049591064,
   1.0768730640411377,
   1.0546058416366577,
   1.0390894412994385,
   1.0298486948013306,
   1.026436448097229,
   1.0227688550949097,
   1.0193074941635132,
   1.0117295980453491,
   1.0057227611541748,
   0.99751073122024536,
   0.99883776903152466,
   0.99516803026199341,
   0.99949300289154053,
   0.99003994464874268,
   0.98706978559494019,
   0.99238061904907227,
   0.98830717802047729,
   0.99726331233978271,
   1.0035578012466431,
   0.99412631988525391,
   0.99977380037307739,
   1.0115606784820557,
   1.0025244951248169,
   1.0302424430847168,
   1.1025290489196777
]
