[
   2.1668186187744141,
   2.1674942970275879,
   2.1684291362762451,
   2.1671648025512695,
   2.1668145656585693,
   2.1650321483612061,
   2.1636786460876465,
   2.1658735275268555,
   2.1648612022399902,
   2.1642851829528809,
   2.1603455543518066,
   2.1593155860900879,
   2.1531603336334229,
   2.1510071754455566,
   2.1457502841949463,
   2.142982006072998,
   2.1432280540466309,
   2.1397476196289062,
   2.1363248825073242,
   2.1093018054962158,
   2.0801079273223877,
   2.0535819530487061,
   2.0330829620361328,
   2.0114426612854004,
   1.9882733821868896,
   1.9700431823730469,
   1.9534871578216553,
   1.9371013641357422,
   1.8030067682266235,
   1.706773042678833,
   1.6262710094451904,
   1.5670516490936279,
   1.5173194408416748,
   1.4724991321563721,
   1.4372272491455078,
   1.4029345512390137,
   1.3718386888504028,
   1.1961314678192139,
   1.1205418109893799,
   1.0851391553878784,
   1.0701656341552734,
   1.0497931241989136,
   1.032744288444519,
   1.0285022258758545,
   1.0133002996444702,
   1.0069431066513062,
   1.0076664686203003,
   1.0058436393737793,
   1.006868839263916,
   1.004969596862793,
   0.98528397083282471,
   0.99494534730911255,
   1.0024604797363281,
   0.99772578477859497,
   0.99026405811309814,
   0.98961943387985229,
   0.99866312742233276,
   0.99477529525756836,
   0.99307382106781006,
   1.0012075901031494,
   0.98883116245269775,
   0.96797209978103638,
   1.0278017520904541,
   0.99050015211105347
]
