[
   6.286067008972168,
   6.2907724380493164,
   6.2641334533691406,
   6.2808761596679688,
   6.2814884185791016,
   6.2573208808898926,
   6.2595162391662598,
   6.2622184753417969,
   6.2620348930358887,
   6.2589931488037109,
   6.2162027359008789,
   6.1670331954956055,
   6.1434693336486816,
   6.1003537178039551,
   6.0740871429443359,
   6.0390510559082031,
   6.0041818618774414,
   5.9692883491516113,
   5.9480304718017578,
   5.6609573364257812,
   5.458859920501709,
   5.2661232948303223,
   5.0704755783081055,
   4.9261178970336914,
   4.7592630386352539,
   4.6341638565063477,
   4.5152463912963867,
   4.3895878791809082,
   3.5667126178741455,
   3.044379711151123,
   2.6750586032867432,
   2.3894655704498291,
   2.1904902458190918,
   2.0266900062561035,
   1.895308256149292,
   1.8037465810775757,
   1.7090675830841064,
   1.3536213636398315,
   1.1945955753326416,
   1.0967251062393188,
   1.1103649139404297,
   1.1096370220184326,
   1.0677828788757324,
   1.0782492160797119,
   1.016635537147522,
   1.0018141269683838,
   0.98947429656982422,
   0.95490074157714844,
   1.0012490749359131,
   0.96403932571411133,
   1.0139766931533813,
   1.012505054473877,
   1.0365010499954224,
   1.0243608951568604,
   1.0243871212005615,
   0.99632424116134644,
   1.0283420085906982,
   1.0105025768280029,
   1.0186035633087158,
   0.9684111475944519,
   0.97916853427886963,
   0.98757278919219971,
   1.0324201583862305,
   0.9929739236831665
]
