[
   1.9833272695541382,
   1.9819538593292236,
   1.9857925176620483,
   1.9829937219619751,
   1.9842355251312256,
   1.9813897609710693,
   1.9810173511505127,
   1.9835277795791626,
   1.9827747344970703,
   1.9805068969726562,
   1.9801250696182251,
   1.9752738475799561,
   1.9742282629013062,
   1.9718329906463623,
   1.967137336730957,
   1.9663457870483398,
   1.9621042013168335,
   1.959978461265564,
   1.9545654058456421,
   1.9328558444976807,
   1.9101150035858154,
   1.8918545246124268,
   1.8711048364639282,
   1.8542501926422119,
   1.8380870819091797,
   1.8206096887588501,
   1.8059663772583008,
   1.7934420108795166,
   1.6822078227996826,
   1.5988668203353882,
   1.5323237180709839,
   1.4798362255096436,
   1.4362280368804932,
   1.3982112407684326,
   1.3681437969207764,
   1.3434209823608398,
   1.3173422813415527,
   1.1768614053726196,
   1.1108179092407227,
   1.0724040269851685,
   1.0605374574661255,
   1.0442450046539307,
   1.0382530689239502,
   1.0353647470474243,
   1.0314347743988037,
   1.023780345916748,
   1.0018439292907715,
   1.0016112327575684,
   1.002738356590271,
   0.99830561876296997,
   0.99249505996704102,
   0.9886322021484375,
   1.013206958770752,
   1.0061614513397217,
   0.99811112880706787,
   0.99658691883087158,
   0.98207771778106689,
   0.99614733457565308,
   0.99923169612884521,
   1.0055285692214966,
   0.99617356061935425,
   1.0236649513244629,
   0.99595487117767334,
   0.98476028442382812
]
