[
   1.7561982870101929,
   1.7549794912338257,
   1.7553510665893555,
   1.7573986053466797,
   1.7547422647476196,
   1.755571722984314,
   1.7564477920532227,
   1.7542451620101929,
   1.7542884349822998,
   1.7542932033538818,
   1.7535759210586548,
   1.7515519857406616,
   1.7502752542495728,
   1.7483727931976318,
   1.7453575134277344,
   1.7458465099334717,
   1.7446810007095337,
   1.7424077987670898,
   1.7393525838851929,
   1.7235052585601807,
   1.7089656591415405,
   1.6952205896377563,
   1.6813099384307861,
   1.6721031665802002,
   1.6604251861572266,
   1.6492767333984375,
   1.6398748159408569,
   1.6293046474456787,
   1.5467089414596558,
   1.4912459850311279,
   1.4429597854614258,
   1.4041817188262939,
   1.372505784034729,
   1.3444998264312744,
   1.3195946216583252,
   1.2986046075820923,
   1.2797321081161499,
   1.1655209064483643,
   1.1109704971313477,
   1.0724526643753052,
   1.0520381927490234,
   1.0383251905441284,
   1.0300756692886353,
   1.0289686918258667,
   1.0267168283462524,
   1.0253010988235474,
   0.99560630321502686,
   0.99683535099029541,
   0.99830007553100586,
   0.99543905258178711,
   1.0007753372192383,
   1.0016602277755737,
   0.98885786533355713,
   0.99294441938400269,
   0.99808990955352783,
   1.0057271718978882,
   1.0033520460128784,
   0.99752533435821533,
   0.9932398796081543,
   0.99165809154510498,
   0.97827166318893433,
   0.97327327728271484,
   0.99877709150314331,
   1.0166728496551514
]
