[
   1.8699594736099243,
   1.8698947429656982,
   1.8687289953231812,
   1.8655258417129517,
   1.868640661239624,
   1.8710715770721436,
   1.868324875831604,
   1.8675626516342163,
   1.8675909042358398,
   1.8701999187469482,
   1.8639624118804932,
   1.8624734878540039,
   1.8583946228027344,
   1.8579587936401367,
   1.8558886051177979,
   1.8516778945922852,
   1.8501027822494507,
   1.8493894338607788,
   1.8475210666656494,
   1.8270647525787354,
   1.8108259439468384,
   1.7922697067260742,
   1.7773988246917725,
   1.7637031078338623,
   1.7497466802597046,
   1.7371141910552979,
   1.7263501882553101,
   1.7130476236343384,
   1.6202974319458008,
   1.5492120981216431,
   1.4969207048416138,
   1.4540237188339233,
   1.4166610240936279,
   1.384269118309021,
   1.3546398878097534,
   1.3334159851074219,
   1.3103562593460083,
   1.1797162294387817,
   1.1138262748718262,
   1.0749876499176025,
   1.0530029535293579,
   1.0424025058746338,
   1.0357211828231812,
   1.0273709297180176,
   1.0245221853256226,
   1.0198295116424561,
   0.99701786041259766,
   0.99741411209106445,
   0.995197594165802,
   0.99892675876617432,
   1.005035400390625,
   1.0034070014953613,
   1.0077530145645142,
   1.0016647577285767,
   0.99641549587249756,
   0.99349343776702881,
   0.99786281585693359,
   0.98522156476974487,
   1.0036256313323975,
   1.0035135746002197,
   0.98310959339141846,
   0.98509073257446289,
   0.98468273878097534,
   0.94389474391937256
]
