[
   2.2390227317810059,
   2.2394003868103027,
   2.2417619228363037,
   2.2395386695861816,
   2.2371184825897217,
   2.2402863502502441,
   2.2388978004455566,
   2.2384026050567627,
   2.2399287223815918,
   2.2363567352294922,
   2.2315127849578857,
   2.228163480758667,
   2.223926305770874,
   2.2239141464233398,
   2.2169599533081055,
   2.2164597511291504,
   2.2108864784240723,
   2.2115466594696045,
   2.2049148082733154,
   2.1763143539428711,
   2.1405935287475586,
   2.1177008152008057,
   2.0918488502502441,
   2.0605566501617432,
   2.0455927848815918,
   2.0236515998840332,
   2.0011792182922363,
   1.9858541488647461,
   1.8432319164276123,
   1.7348775863647461,
   1.655429482460022,
   1.5891326665878296,
   1.5358932018280029,
   1.4880144596099854,
   1.4473464488983154,
   1.4163361787796021,
   1.3827776908874512,
   1.196760892868042,
   1.1195670366287231,
   1.0861814022064209,
   1.0646005868911743,
   1.054440975189209,
   1.0449045896530151,
   1.0298502445220947,
   1.0298920869827271,
   1.0152466297149658,
   1.0018284320831299,
   0.9830557107925415,
   0.98878222703933716,
   0.98944997787475586,
   0.99083423614501953,
   0.99954855442047119,
   0.99948966503143311,
   0.99674665927886963,
   0.98979872465133667,
   0.98455697298049927,
   0.98822033405303955,
   0.9942811131477356,
   1.0081374645233154,
   0.99745333194732666,
   1.0012286901473999,
   1.0032861232757568,
   1.026747465133667,
   1.0130150318145752
]
