[
   24.879980087280273,
   24.920520782470703,
   24.638778686523438,
   24.70643424987793,
   24.847579956054688,
   24.744298934936523,
   24.991214752197266,
   24.510799407958984,
   24.649166107177734,
   24.676239013671875,
   24.071090698242188,
   23.779962539672852,
   23.308233261108398,
   23.048063278198242,
   22.898876190185547,
   22.354850769042969,
   22.187633514404297,
   21.748577117919922,
   21.52949333190918,
   19.237285614013672,
   17.420909881591797,
   15.95716667175293,
   14.812726974487305,
   13.88794994354248,
   12.904586791992188,
   12.264505386352539,
   11.441884994506836,
   10.767742156982422,
   6.9836721420288086,
   5.2821779251098633,
   4.2417869567871094,
   3.6223266124725342,
   3.1532397270202637,
   2.7190787792205811,
   2.4936602115631104,
   2.2824878692626953,
   2.230109691619873,
   1.4072825908660889,
   1.2507226467132568,
   1.0972148180007935,
   1.170758843421936,
   1.1479535102844238,
   1.1608335971832275,
   1.0920829772949219,
   1.0116124153137207,
   1.1095867156982422,
   1.0234487056732178,
   1.0684555768966675,
   0.99264878034591675,
   1.0786969661712646,
   0.91907083988189697,
   1.0245531797409058,
   0.93341827392578125,
   0.95724219083786011,
   1.1153966188430786,
   1.1980044841766357,
   1.0098291635513306,
   0.97158241271972656,
   1.0124380588531494,
   1.0135177373886108,
   0.92629700899124146,
   1.0510485172271729,
   0.94210213422775269,
   0.83190536499023438
]
