[
   1.556962251663208,
   1.5580275058746338,
   1.5565837621688843,
   1.5569989681243896,
   1.5583064556121826,
   1.5558054447174072,
   1.5562916994094849,
   1.5570113658905029,
   1.5570271015167236,
   1.5573635101318359,
   1.5563763380050659,
   1.555333137512207,
   1.5538365840911865,
   1.5532330274581909,
   1.5515168905258179,
   1.5497610569000244,
   1.5482907295227051,
   1.549136757850647,
   1.5469992160797119,
   1.5386196374893188,
   1.5291908979415894,
   1.5213745832443237,
   1.513757586479187,
   1.5032937526702881,
   1.4973454475402832,
   1.4907530546188354,
   1.4830062389373779,
   1.4768832921981812,
   1.4212229251861572,
   1.3801885843276978,
   1.3462808132171631,
   1.3191646337509155,
   1.2953441143035889,
   1.2749617099761963,
   1.2576725482940674,
   1.2422590255737305,
   1.2274658679962158,
   1.1386368274688721,
   1.095928430557251,
   1.0713207721710205,
   1.0516022443771362,
   1.0406801700592041,
   1.0288653373718262,
   1.0242310762405396,
   1.0198196172714233,
   1.016191840171814,
   1.0017470121383667,
   1.0020401477813721,
   1.0024765729904175,
   1.0007272958755493,
   1.0007846355438232,
   0.99460667371749878,
   0.99884605407714844,
   1.0023763179779053,
   1.0021934509277344,
   1.0096786022186279,
   1.0054253339767456,
   0.99383270740509033,
   0.98947679996490479,
   1.002048134803772,
   0.99146956205368042,
   0.98684155941009521,
   0.99073666334152222,
   0.99798524379730225
]
