[
   97.118850708007812,
   96.008468627929688,
   96.328292846679688,
   95.363929748535156,
   94.385093688964844,
   95.272514343261719,
   94.566421508789062,
   93.652481079101562,
   92.199951171875,
   92.740058898925781,
   87.946075439453125,
   83.917022705078125,
   82.953842163085938,
   79.01568603515625,
   76.2850341796875,
   74.183448791503906,
   71.437530517578125,
   69.344955444335938,
   67.117034912109375,
   53.698707580566406,
   44.515716552734375,
   37.169792175292969,
   32.455173492431641,
   28.683084487915039,
   25.583175659179688,
   23.17936897277832,
   20.688961029052734,
   19.544956207275391,
   9.6125583648681641,
   7.2258386611938477,
   5.6049513816833496,
   3.6805179119110107,
   3.5169315338134766,
   3.0282320976257324,
   2.6830716133117676,
   2.9150099754333496,
   2.2963671684265137,
   1.4341303110122681,
   1.2218021154403687,
   1.0416442155838013,
   1.3279190063476562,
   1.1937156915664673,
   1.1680557727813721,
   0.87825566530227661,
   0.7564469575881958,
   1.0323747396469116,
   0.99679124355316162,
   0.92609292268753052,
   0.89897251129150391,
   1.1703921556472778,
   1.016643762588501,
   0.95039558410644531,
   1.0444371700286865,
   1.1461770534515381,
   1.0383999347686768,
   1.0996201038360596,
   1.2800233364105225,
   1.0512089729309082,
   1.4014227390289307,
   0.62679880857467651,
   0.75584214925765991,
   0.82217884063720703,
   1.0411121845245361,
   2.341731071472168
]
