[
   13.50145149230957,
   13.498039245605469,
   13.475153923034668,
   13.397831916809082,
   13.40411376953125,
   13.409665107727051,
   13.423429489135742,
   13.384036064147949,
   13.393549919128418,
   13.381155014038086,
   13.205401420593262,
   13.055272102355957,
   12.965794563293457,
   12.793835639953613,
   12.65989875793457,
   12.504901885986328,
   12.342816352844238,
   12.375017166137695,
   12.248991012573242,
   11.27778148651123,
   10.557916641235352,
   9.9312305450439453,
   9.425877571105957,
   8.9635868072509766,
   8.5644893646240234,
   8.1110048294067383,
   7.7544112205505371,
   7.4792847633361816,
   5.3213543891906738,
   4.2380180358886719,
   3.6406280994415283,
   3.1190857887268066,
   2.7708618640899658,
   2.4694671630859375,
   2.2868020534515381,
   2.1733071804046631,
   2.0339360237121582,
   1.3512947559356689,
   1.2768614292144775,
   1.1259287595748901,
   1.085476279258728,
   1.1124863624572754,
   1.0342502593994141,
   1.055189847946167,
   1.0260770320892334,
   1.0470070838928223,
   0.99880951642990112,
   0.95731085538864136,
   1.0096468925476074,
   0.99048280715942383,
   0.97901022434234619,
   0.93374550342559814,
   0.87732851505279541,
   1.0111091136932373,
   0.97033488750457764,
   0.96185767650604248,
   0.98681050539016724,
   1.1089329719543457,
   0.99975091218948364,
   1.053937554359436,
   1.1776969432830811,
   0.98229187726974487,
   0.99027222394943237,
   1.0524961948394775
]
