[
   150.24734497070312,
   151.38026428222656,
   151.38150024414062,
   149.70339965820312,
   149.85220336914062,
   147.9683837890625,
   145.38368225097656,
   144.14933776855469,
   145.68386840820312,
   143.22634887695312,
   139.8826904296875,
   133.30256652832031,
   128.70515441894531,
   126.50650787353516,
   123.02436828613281,
   121.69166564941406,
   116.11728668212891,
   113.73236083984375,
   113.01338958740234,
   97.328041076660156,
   83.532730102539062,
   73.697555541992188,
   62.558662414550781,
   56.009044647216797,
   52.262184143066406,
   46.48297119140625,
   41.548183441162109,
   38.191535949707031,
   18.337718963623047,
   9.9789934158325195,
   7.9268417358398438,
   5.6515641212463379,
   4.518244743347168,
   2.7762997150421143,
   2.8319296836853027,
   2.6251263618469238,
   2.0452785491943359,
   1.2822054624557495,
   1.5116511583328247,
   1.602389931678772,
   0.53674221038818359,
   1.0286490917205811,
   1.0121238231658936,
   1.2328726053237915,
   1.5394461154937744,
   0.90245676040649414,
   0.53137767314910889,
   0.68966400623321533,
   0.57831400632858276,
   0.65147781372070312,
   0.71387112140655518,
   1.0882165431976318,
   1.010488748550415,
   1.2323455810546875,
   1.4991838932037354,
   0.87918281555175781,
   1.3393005132675171,
   1.1824420690536499,
   1.1840598583221436,
   0.85751092433929443,
   0.72640979290008545,
   0.35071879625320435,
   0.23321437835693359,
   0.72108757495880127
]
