[
   5.5509090423583984,
   5.5453176498413086,
   5.5355978012084961,
   5.5228796005249023,
   5.5335512161254883,
   5.5306587219238281,
   5.5245685577392578,
   5.5226945877075195,
   5.5109376907348633,
   5.5046420097351074,
   5.4650278091430664,
   5.4517641067504883,
   5.3981356620788574,
   5.3707070350646973,
   5.344210147857666,
   5.2986326217651367,
   5.2765746116638184,
   5.2534613609313965,
   5.2204270362854004,
   4.9687585830688477,
   4.7456216812133789,
   4.5688514709472656,
   4.4342789649963379,
   4.2812943458557129,
   4.166536808013916,
   4.0413260459899902,
   3.9536445140838623,
   3.8665947914123535,
   3.1889333724975586,
   2.7742609977722168,
   2.4787473678588867,
   2.2258310317993164,
   2.0490641593933105,
   1.8915426731109619,
   1.7629413604736328,
   1.6747980117797852,
   1.5999099016189575,
   1.2369096279144287,
   1.108349084854126,
   1.0876582860946655,
   1.0646531581878662,
   1.0366666316986084,
   1.0303490161895752,
   1.0103298425674438,
   0.98859184980392456,
   1.014549732208252,
   0.99615299701690674,
   1.0141259431838989,
   1.011246919631958,
   0.96293210983276367,
   1.0107595920562744,
   0.97652971744537354,
   0.98071801662445068,
   0.96757519245147705,
   1.0030124187469482,
   0.98609912395477295,
   1.0110268592834473,
   0.99323767423629761,
   1.0097388029098511,
   0.98785030841827393,
   1.0095577239990234,
   1.0115674734115601,
   1.1077606678009033,
   1.0284546613693237
]
