[
   18.550159454345703,
   18.526409149169922,
   18.645212173461914,
   18.556913375854492,
   18.465198516845703,
   18.406360626220703,
   18.438314437866211,
   18.288913726806641,
   18.340663909912109,
   18.273332595825195,
   18.128894805908203,
   17.778938293457031,
   17.555273056030273,
   17.308361053466797,
   17.054327011108398,
   16.860912322998047,
   16.641819000244141,
   16.507318496704102,
   16.260471343994141,
   14.827160835266113,
   13.754180908203125,
   13.042126655578613,
   12.345592498779297,
   11.645715713500977,
   11.116003036499023,
   10.620367050170898,
   10.228699684143066,
   9.9059638977050781,
   6.8736848831176758,
   5.3577756881713867,
   4.2843184471130371,
   3.4792180061340332,
   3.1320257186889648,
   2.6707947254180908,
   2.3540759086608887,
   2.1328887939453125,
   2.0172572135925293,
   1.2379735708236694,
   1.1608631610870361,
   1.0962257385253906,
   1.0541746616363525,
   0.93617790937423706,
   1.0503180027008057,
   1.1054918766021729,
   0.96347314119338989,
   0.93649399280548096,
   1.0475149154663086,
   0.95497119426727295,
   0.92539709806442261,
   1.0710550546646118,
   1.0482356548309326,
   1.0173306465148926,
   1.0039862394332886,
   1.0599143505096436,
   1.0154492855072021,
   0.98652231693267822,
   1.0432038307189941,
   0.99573755264282227,
   1.0147593021392822,
   0.83842802047729492,
   0.95812588930130005,
   1.0173285007476807,
   1.2087628841400146,
   0.57282674312591553
]
