[
   1.6730629205703735,
   1.6721605062484741,
   1.6737165451049805,
   1.6742595434188843,
   1.6725406646728516,
   1.6725536584854126,
   1.6724525690078735,
   1.671703577041626,
   1.6722128391265869,
   1.6717735528945923,
   1.6697248220443726,
   1.6680008172988892,
   1.6666675806045532,
   1.6634509563446045,
   1.6609077453613281,
   1.6584236621856689,
   1.6572577953338623,
   1.6543254852294922,
   1.6549237966537476,
   1.6353318691253662,
   1.6208317279815674,
   1.6056478023529053,
   1.591416597366333,
   1.5772672891616821,
   1.5637389421463013,
   1.5528455972671509,
   1.5398104190826416,
   1.5305221080780029,
   1.4463111162185669,
   1.385395884513855,
   1.342287540435791,
   1.3041849136352539,
   1.27622389793396,
   1.2499784231185913,
   1.2280529737472534,
   1.2106482982635498,
   1.1907755136489868,
   1.0992035865783691,
   1.0601073503494263,
   1.037501335144043,
   1.0258679389953613,
   1.0177209377288818,
   1.0115185976028442,
   1.0146522521972656,
   1.0188322067260742,
   1.0149738788604736,
   1.0004489421844482,
   0.99591672420501709,
   1.0009263753890991,
   0.99183768033981323,
   1.0000296831130981,
   1.0049455165863037,
   1.0111734867095947,
   1.0039706230163574,
   1.0083774328231812,
   1.0110327005386353,
   1.0110888481140137,
   1.0017249584197998,
   0.99799835681915283,
   0.99512434005737305,
   1.0033135414123535,
   0.97807186841964722,
   0.94175088405609131,
   0.93678712844848633
]
