[
   2.4028496742248535,
   2.4029011726379395,
   2.4068081378936768,
   2.3995034694671631,
   2.401125431060791,
   2.404963493347168,
   2.3978397846221924,
   2.4017009735107422,
   2.4018130302429199,
   2.4009416103363037,
   2.3903539180755615,
   2.3874340057373047,
   2.3824315071105957,
   2.3821728229522705,
   2.3759968280792236,
   2.3713531494140625,
   2.3639559745788574,
   2.3567533493041992,
   2.356586217880249,
   2.319434642791748,
   2.2811925411224365,
   2.2478601932525635,
   2.2164833545684814,
   2.1846776008605957,
   2.1546022891998291,
   2.1316146850585938,
   2.10577392578125,
   2.0838990211486816,
   1.8957698345184326,
   1.7664613723754883,
   1.6670547723770142,
   1.5840914249420166,
   1.5241758823394775,
   1.4688793420791626,
   1.4246854782104492,
   1.3891329765319824,
   1.3557920455932617,
   1.189423680305481,
   1.1306865215301514,
   1.0832312107086182,
   1.0627084970474243,
   1.0511267185211182,
   1.0399340391159058,
   1.0365380048751831,
   1.0299793481826782,
   1.0149173736572266,
   1.0077625513076782,
   1.0107008218765259,
   0.99017763137817383,
   0.99598532915115356,
   1.0009599924087524,
   0.98057430982589722,
   0.98890626430511475,
   0.98217850923538208,
   0.98736655712127686,
   0.99112081527709961,
   1.0040819644927979,
   1.0067398548126221,
   1.0054081678390503,
   0.99135887622833252,
   0.99368172883987427,
   1.0015577077865601,
   1.0126020908355713,
   1.0755172967910767
]
