[
   2.1962542533874512,
   2.1929030418395996,
   2.1932423114776611,
   2.1947727203369141,
   2.1951563358306885,
   2.1983239650726318,
   2.1912124156951904,
   2.1909060478210449,
   2.1945528984069824,
   2.1908371448516846,
   2.1866130828857422,
   2.1835324764251709,
   2.183804988861084,
   2.1762259006500244,
   2.1746058464050293,
   2.1721515655517578,
   2.1679973602294922,
   2.1624345779418945,
   2.1595911979675293,
   2.1315617561340332,
   2.0993034839630127,
   2.0733175277709961,
   2.0487627983093262,
   2.0271763801574707,
   2.0017385482788086,
   1.9820387363433838,
   1.9583702087402344,
   1.9410355091094971,
   1.791812539100647,
   1.6850235462188721,
   1.6004003286361694,
   1.5389893054962158,
   1.4861254692077637,
   1.4430267810821533,
   1.40283203125,
   1.3708776235580444,
   1.3411494493484497,
   1.1848505735397339,
   1.112323522567749,
   1.0772454738616943,
   1.0468316078186035,
   1.0378181934356689,
   1.0246458053588867,
   1.0242785215377808,
   1.0266784429550171,
   1.0223562717437744,
   1.0030452013015747,
   0.99748122692108154,
   0.99496400356292725,
   0.99800729751586914,
   0.99273407459259033,
   0.99448806047439575,
   0.98678570985794067,
   0.98471391201019287,
   1.0004550218582153,
   0.99649637937545776,
   0.97752934694290161,
   0.98743569850921631,
   1.0062893629074097,
   1.0052108764648438,
   0.98782235383987427,
   1.0231879949569702,
   0.99367219209671021,
   0.9596678614616394
]
