[
   2.7717630863189697,
   2.7742829322814941,
   2.768380880355835,
   2.7716584205627441,
   2.7649476528167725,
   2.7743849754333496,
   2.766364574432373,
   2.7665107250213623,
   2.7645289897918701,
   2.7655413150787354,
   2.7613093852996826,
   2.7545554637908936,
   2.747236967086792,
   2.7399282455444336,
   2.7330031394958496,
   2.7319931983947754,
   2.716998815536499,
   2.7183210849761963,
   2.7109971046447754,
   2.6534247398376465,
   2.5981907844543457,
   2.5495963096618652,
   2.5066442489624023,
   2.4692244529724121,
   2.4300479888916016,
   2.3937597274780273,
   2.3563711643218994,
   2.3285226821899414,
   2.0826859474182129,
   1.9180940389633179,
   1.7974650859832764,
   1.7003870010375977,
   1.6244672536849976,
   1.5614087581634521,
   1.5078648328781128,
   1.4643996953964233,
   1.4279510974884033,
   1.2187206745147705,
   1.152672290802002,
   1.103624701499939,
   1.0724468231201172,
   1.0547709465026855,
   1.0454747676849365,
   1.042138934135437,
   1.0263729095458984,
   1.023171067237854,
   1.0265856981277466,
   1.0234086513519287,
   1.0005686283111572,
   0.99384135007858276,
   1.0053936243057251,
   1.0013245344161987,
   0.9880717396736145,
   0.999103844165802,
   0.99793446063995361,
   0.99218815565109253,
   0.97430932521820068,
   1.0091631412506104,
   1.0062018632888794,
   1.0246192216873169,
   1.0058214664459229,
   1.042492151260376,
   0.99788916110992432,
   1.030057430267334
]
