[
   1.7705671787261963,
   1.7696235179901123,
   1.7682392597198486,
   1.7691967487335205,
   1.7704637050628662,
   1.7704565525054932,
   1.7683296203613281,
   1.7711813449859619,
   1.7701358795166016,
   1.7670615911483765,
   1.7666155099868774,
   1.7647949457168579,
   1.7618287801742554,
   1.7610971927642822,
   1.7608150243759155,
   1.7562081813812256,
   1.7564458847045898,
   1.7568185329437256,
   1.7548555135726929,
   1.7383205890655518,
   1.7230393886566162,
   1.7090675830841064,
   1.6911048889160156,
   1.6820112466812134,
   1.6671234369277954,
   1.6552579402923584,
   1.6453895568847656,
   1.6341078281402588,
   1.5454039573669434,
   1.4810692071914673,
   1.4304625988006592,
   1.3868864774703979,
   1.3504669666290283,
   1.3202416896820068,
   1.2952841520309448,
   1.2734026908874512,
   1.2557333707809448,
   1.1465222835540771,
   1.100994348526001,
   1.0711823701858521,
   1.0504742860794067,
   1.0369038581848145,
   1.0304239988327026,
   1.0192005634307861,
   1.0089352130889893,
   1.0128316879272461,
   0.99735033512115479,
   0.99994784593582153,
   1.0040481090545654,
   1.0043678283691406,
   0.98868405818939209,
   0.99759948253631592,
   1.0084198713302612,
   1.004599928855896,
   1.0055599212646484,
   0.98670274019241333,
   0.99282968044281006,
   0.99213141202926636,
   0.99039602279663086,
   0.99502313137054443,
   1.0075510740280151,
   1.0190771818161011,
   1.0284268856048584,
   0.99259293079376221
]
