[
   3.2782783508300781,
   3.2712662220001221,
   3.2798123359680176,
   3.2765040397644043,
   3.2713451385498047,
   3.2695307731628418,
   3.2713503837585449,
   3.2675883769989014,
   3.272413969039917,
   3.2641129493713379,
   3.2585647106170654,
   3.2533154487609863,
   3.2467494010925293,
   3.2331357002258301,
   3.2290987968444824,
   3.2235913276672363,
   3.2060279846191406,
   3.1982207298278809,
   3.1952424049377441,
   3.1068387031555176,
   3.0317313671112061,
   2.9581115245819092,
   2.9051141738891602,
   2.843876838684082,
   2.7957007884979248,
   2.7481160163879395,
   2.7049481868743896,
   2.659104585647583,
   2.3299582004547119,
   2.1201767921447754,
   1.9663797616958618,
   1.840672492980957,
   1.7520215511322021,
   1.6706721782684326,
   1.6083883047103882,
   1.5557591915130615,
   1.5068948268890381,
   1.243529200553894,
   1.1622406244277954,
   1.106748104095459,
   1.0709844827651978,
   1.0544048547744751,
   1.0310866832733154,
   1.0277172327041626,
   1.007272481918335,
   1.0150874853134155,
   0.9989587664604187,
   1.00156569480896,
   0.98545706272125244,
   0.99342232942581177,
   0.97827017307281494,
   1.0008491277694702,
   1.0005844831466675,
   0.99302434921264648,
   1.007066011428833,
   0.99213123321533203,
   0.99227762222290039,
   0.99169719219207764,
   0.9885181188583374,
   0.95693361759185791,
   0.98664379119873047,
   0.98418319225311279,
   0.9723740816116333,
   1.0273663997650146
]
