[
   140.95053100585938,
   142.14024353027344,
   138.66572570800781,
   140.18936157226562,
   141.29922485351562,
   138.33218383789062,
   136.75350952148438,
   137.08721923828125,
   130.78318786621094,
   134.67558288574219,
   129.38075256347656,
   123.19110107421875,
   118.42232513427734,
   116.58552551269531,
   111.24382019042969,
   106.16180419921875,
   106.16485595703125,
   101.88400268554688,
   101.06022644042969,
   81.138236999511719,
   65.771560668945312,
   56.008872985839844,
   47.522647857666016,
   40.714817047119141,
   37.077339172363281,
   31.633098602294922,
   31.220149993896484,
   26.850906372070312,
   13.974879264831543,
   9.4387149810791016,
   6.9202203750610352,
   4.7019186019897461,
   4.9044575691223145,
   3.7955882549285889,
   3.4537677764892578,
   2.8173885345458984,
   2.9362261295318604,
   1.168231725692749,
   1.3560607433319092,
   1.4193711280822754,
   0.98918187618255615,
   1.1816093921661377,
   1.1113259792327881,
   1.2073591947555542,
   0.84734773635864258,
   1.0990629196166992,
   1.1058919429779053,
   0.87222748994827271,
   0.893035888671875,
   1.1101579666137695,
   1.1661781072616577,
   1.0998461246490479,
   1.2472492456436157,
   0.99446707963943481,
   0.93541890382766724,
   0.54148983955383301,
   0.76767975091934204,
   1.4749559164047241,
   0.38964289426803589,
   0.91249066591262817,
   0.91619431972503662,
   0.96709519624710083,
   1.2073103189468384,
   1.1096508502960205
]
