[
   4.003974437713623,
   3.9904556274414062,
   3.9996585845947266,
   4.0004253387451172,
   4.0050182342529297,
   3.9984309673309326,
   3.9937813282012939,
   3.9934887886047363,
   3.9967739582061768,
   3.9860222339630127,
   3.9731872081756592,
   3.9595634937286377,
   3.9510283470153809,
   3.9384219646453857,
   3.9119143486022949,
   3.9029037952423096,
   3.8933873176574707,
   3.8769340515136719,
   3.8633427619934082,
   3.7470536231994629,
   3.6236138343811035,
   3.5224661827087402,
   3.4480044841766357,
   3.3474287986755371,
   3.2753016948699951,
   3.2136578559875488,
   3.1513772010803223,
   3.1001601219177246,
   2.6467194557189941,
   2.3449280261993408,
   2.1530814170837402,
   1.9846878051757812,
   1.8557913303375244,
   1.7570879459381104,
   1.6787941455841064,
   1.6078386306762695,
   1.5565946102142334,
   1.2573755979537964,
   1.1433815956115723,
   1.0931892395019531,
   1.066704273223877,
   1.0419995784759521,
   1.0363924503326416,
   1.0271295309066772,
   1.0171355009078979,
   1.0209531784057617,
   1.008291482925415,
   1.0017111301422119,
   0.99984008073806763,
   1.0046907663345337,
   1.0038279294967651,
   0.99065083265304565,
   0.965401291847229,
   0.97255057096481323,
   1.0062600374221802,
   0.99674397706985474,
   1.0089123249053955,
   0.99755781888961792,
   1.0445141792297363,
   1.007652759552002,
   0.9727213978767395,
   0.96592026948928833,
   0.93234509229660034,
   0.94817972183227539
]
