[
   1.8563543558120728,
   1.8592029809951782,
   1.8565009832382202,
   1.8573751449584961,
   1.8557100296020508,
   1.8570449352264404,
   1.8555797338485718,
   1.8550088405609131,
   1.8530120849609375,
   1.8556640148162842,
   1.8547283411026001,
   1.8523743152618408,
   1.848466157913208,
   1.8461067676544189,
   1.8447889089584351,
   1.8433568477630615,
   1.8405311107635498,
   1.8417198657989502,
   1.8367999792098999,
   1.8192644119262695,
   1.8016815185546875,
   1.7816896438598633,
   1.763296365737915,
   1.7502782344818115,
   1.7366527318954468,
   1.7216088771820068,
   1.7085469961166382,
   1.6947876214981079,
   1.5933374166488647,
   1.5172529220581055,
   1.4604756832122803,
   1.4136626720428467,
   1.3734833002090454,
   1.3414022922515869,
   1.3141891956329346,
   1.2867672443389893,
   1.2673103809356689,
   1.1367079019546509,
   1.0880600214004517,
   1.0570980310440063,
   1.0376565456390381,
   1.0292526483535767,
   1.0182263851165771,
   1.0121031999588013,
   1.0116045475006104,
   1.0108486413955688,
   1.0000391006469727,
   1.0058540105819702,
   0.99308395385742188,
   1.0038821697235107,
   0.99754267930984497,
   1.0087779760360718,
   1.003121018409729,
   1.0020744800567627,
   1.0036795139312744,
   1.0099105834960938,
   1.007097601890564,
   0.99879378080368042,
   0.99711501598358154,
   1.0072437524795532,
   0.99492663145065308,
   0.99862515926361084,
   0.97401630878448486,
   0.9095834493637085
]
