[
   1.6779205799102783,
   1.6773935556411743,
   1.6776840686798096,
   1.6776653528213501,
   1.6785333156585693,
   1.6752312183380127,
   1.6776673793792725,
   1.6777689456939697,
   1.6772787570953369,
   1.6760690212249756,
   1.6742019653320312,
   1.6725383996963501,
   1.6708770990371704,
   1.6697696447372437,
   1.6691436767578125,
   1.6667066812515259,
   1.6655921936035156,
   1.6650435924530029,
   1.6624953746795654,
   1.6488635540008545,
   1.6398379802703857,
   1.62542724609375,
   1.6168636083602905,
   1.6047279834747314,
   1.5933454036712646,
   1.583876371383667,
   1.5734412670135498,
   1.5650795698165894,
   1.4907593727111816,
   1.4331660270690918,
   1.3887183666229248,
   1.3523433208465576,
   1.320580005645752,
   1.2958812713623047,
   1.2726558446884155,
   1.2533342838287354,
   1.2368118762969971,
   1.1394088268280029,
   1.0921586751937866,
   1.0603040456771851,
   1.046078085899353,
   1.0386555194854736,
   1.0321547985076904,
   1.0211664438247681,
   1.0135953426361084,
   1.0064888000488281,
   0.99889564514160156,
   1.0060436725616455,
   1.0074697732925415,
   1.0061637163162231,
   1.0029646158218384,
   0.99714362621307373,
   1.0041098594665527,
   1.001495361328125,
   1.0106832981109619,
   1.0007510185241699,
   1.004650354385376,
   0.99897623062133789,
   1.0017755031585693,
   0.99809247255325317,
   0.995108962059021,
   0.99786347150802612,
   0.97681105136871338,
   0.96834260225296021
]
