[
   1.5925483703613281,
   1.5932290554046631,
   1.5914324522018433,
   1.5933430194854736,
   1.5927298069000244,
   1.5923935174942017,
   1.5935143232345581,
   1.5909624099731445,
   1.5929045677185059,
   1.5921609401702881,
   1.5909140110015869,
   1.5896584987640381,
   1.587522029876709,
   1.5872862339019775,
   1.585302472114563,
   1.5844653844833374,
   1.5836646556854248,
   1.5829832553863525,
   1.5817134380340576,
   1.5708719491958618,
   1.5614006519317627,
   1.5491807460784912,
   1.5397666692733765,
   1.531468391418457,
   1.5227301120758057,
   1.5134637355804443,
   1.5049502849578857,
   1.4971357583999634,
   1.4322046041488647,
   1.3839777708053589,
   1.3446036577224731,
   1.3121358156204224,
   1.2867677211761475,
   1.2667413949966431,
   1.2457668781280518,
   1.228506326675415,
   1.2112457752227783,
   1.1214190721511841,
   1.082172155380249,
   1.0602898597717285,
   1.0453455448150635,
   1.0322492122650146,
   1.0223109722137451,
   1.0188850164413452,
   1.0077850818634033,
   1.0038061141967773,
   0.99269711971282959,
   0.99953573942184448,
   0.99518156051635742,
   0.99447333812713623,
   0.99546605348587036,
   0.99196016788482666,
   0.99873065948486328,
   0.99153298139572144,
   0.99564445018768311,
   0.99900853633880615,
   0.99816858768463135,
   1.0021591186523438,
   1.0001437664031982,
   0.99545729160308838,
   0.99717509746551514,
   0.98145091533660889,
   0.98862916231155396,
   1.0141336917877197
]
