[
   5.4076218605041504,
   5.3817853927612305,
   5.3873395919799805,
   5.3882851600646973,
   5.380732536315918,
   5.379666805267334,
   5.386927604675293,
   5.3579826354980469,
   5.3483190536499023,
   5.3681058883666992,
   5.3249325752258301,
   5.314885139465332,
   5.2999935150146484,
   5.2711915969848633,
   5.2274003028869629,
   5.2242169380187988,
   5.1958274841308594,
   5.1809601783752441,
   5.1362447738647461,
   4.9282803535461426,
   4.7407293319702148,
   4.6044836044311523,
   4.4383187294006348,
   4.3301572799682617,
   4.1952204704284668,
   4.1119837760925293,
   3.9929287433624268,
   3.9122042655944824,
   3.2594459056854248,
   2.8248436450958252,
   2.5312261581420898,
   2.2996029853820801,
   2.1427972316741943,
   1.9932615756988525,
   1.8931529521942139,
   1.7842928171157837,
   1.7267673015594482,
   1.3054697513580322,
   1.1603262424468994,
   1.0977134704589844,
   1.0543632507324219,
   1.0406824350357056,
   1.0402494668960571,
   1.0435843467712402,
   1.0392252206802368,
   1.0382661819458008,
   0.98556315898895264,
   0.93088245391845703,
   1.001110315322876,
   1.0154550075531006,
   0.97902792692184448,
   0.97662973403930664,
   0.99876296520233154,
   0.98372995853424072,
   0.99247282743453979,
   0.96102392673492432,
   0.98799437284469604,
   0.97489148378372192,
   1.0071520805358887,
   0.97306424379348755,
   1.0303938388824463,
   1.008676290512085,
   0.95755910873413086,
   1.07282555103302
]
