[
   3.1356487274169922,
   3.1337993144989014,
   3.1286633014678955,
   3.1212677955627441,
   3.1287446022033691,
   3.1270995140075684,
   3.1200220584869385,
   3.1243419647216797,
   3.1217713356018066,
   3.1147933006286621,
   3.104595422744751,
   3.097337007522583,
   3.0863556861877441,
   3.0741989612579346,
   3.0689806938171387,
   3.0492842197418213,
   3.0429768562316895,
   3.0293717384338379,
   3.0227162837982178,
   2.9286084175109863,
   2.8440947532653809,
   2.7824900150299072,
   2.7043166160583496,
   2.6560819149017334,
   2.6048235893249512,
   2.5616440773010254,
   2.5128512382507324,
   2.486299991607666,
   2.1765561103820801,
   1.9705692529678345,
   1.8295199871063232,
   1.7167050838470459,
   1.633204460144043,
   1.5554163455963135,
   1.4982907772064209,
   1.4484646320343018,
   1.3960517644882202,
   1.1587651968002319,
   1.0914322137832642,
   1.0703999996185303,
   1.0503213405609131,
   1.0358211994171143,
   1.0285365581512451,
   1.0335404872894287,
   1.0157828330993652,
   1.0294032096862793,
   0.99641084671020508,
   0.98607361316680908,
   0.98091137409210205,
   0.99990922212600708,
   1.0033441781997681,
   0.99396687746047974,
   0.99066257476806641,
   1.0023648738861084,
   0.9805222749710083,
   0.97721254825592041,
   0.98811835050582886,
   0.97575581073760986,
   0.99857378005981445,
   0.97295266389846802,
   1.0317285060882568,
   1.0149321556091309,
   1.0526779890060425,
   1.0310240983963013
]
