[
   1.5831024646759033,
   1.582166314125061,
   1.5806787014007568,
   1.5811992883682251,
   1.5834276676177979,
   1.5801088809967041,
   1.5801956653594971,
   1.5814212560653687,
   1.5798437595367432,
   1.5799437761306763,
   1.5792150497436523,
   1.5785610675811768,
   1.5756962299346924,
   1.5735986232757568,
   1.572523832321167,
   1.5706484317779541,
   1.5695130825042725,
   1.5678383111953735,
   1.5672709941864014,
   1.5529224872589111,
   1.5397800207138062,
   1.5276618003845215,
   1.5152194499969482,
   1.504646897315979,
   1.4933865070343018,
   1.4822190999984741,
   1.4738255739212036,
   1.4655883312225342,
   1.3952443599700928,
   1.3444596529006958,
   1.3066332340240479,
   1.2747800350189209,
   1.2500436305999756,
   1.2270265817642212,
   1.2077209949493408,
   1.193745493888855,
   1.1791960000991821,
   1.0918731689453125,
   1.0554783344268799,
   1.0420017242431641,
   1.0259147882461548,
   1.0173342227935791,
   1.0121567249298096,
   1.0121598243713379,
   1.0010946989059448,
   0.99963676929473877,
   0.99598520994186401,
   0.9936944842338562,
   0.99032706022262573,
   0.9941679835319519,
   0.99143773317337036,
   0.99505007266998291,
   1.0018360614776611,
   0.99575603008270264,
   0.98385828733444214,
   0.98606663942337036,
   0.98446398973464966,
   0.99193012714385986,
   0.99615132808685303,
   1.0124963521957397,
   1.0152919292449951,
   1.0339089632034302,
   1.0066417455673218,
   1.0505282878875732
]
