[
   1.9723951816558838,
   1.9715673923492432,
   1.9688514471054077,
   1.9697468280792236,
   1.9687633514404297,
   1.966183066368103,
   1.9693008661270142,
   1.9668773412704468,
   1.9686447381973267,
   1.9681918621063232,
   1.9614822864532471,
   1.9590094089508057,
   1.9616903066635132,
   1.9558919668197632,
   1.9510352611541748,
   1.949899435043335,
   1.9417943954467773,
   1.9423196315765381,
   1.9369022846221924,
   1.9079830646514893,
   1.8782920837402344,
   1.8552820682525635,
   1.8315563201904297,
   1.8103307485580444,
   1.7886940240859985,
   1.7737630605697632,
   1.7543227672576904,
   1.7384681701660156,
   1.6144211292266846,
   1.5300159454345703,
   1.4641993045806885,
   1.4114631414413452,
   1.3703224658966064,
   1.3325126171112061,
   1.3019267320632935,
   1.2746304273605347,
   1.250118613243103,
   1.1214905977249146,
   1.0732735395431519,
   1.0487048625946045,
   1.0346752405166626,
   1.0286000967025757,
   1.0175153017044067,
   1.0066561698913574,
   1.011472225189209,
   1.0104831457138062,
   0.98787593841552734,
   0.99500149488449097,
   0.99816340208053589,
   1.002133846282959,
   1.0022748708724976,
   0.99436599016189575,
   0.990622878074646,
   1.0108089447021484,
   1.0026810169219971,
   1.0034809112548828,
   1.0027343034744263,
   0.99668008089065552,
   1.0043001174926758,
   0.99255818128585815,
   0.99522179365158081,
   1.0114538669586182,
   0.99926602840423584,
   0.97775012254714966
]
