[
   126.06130218505859,
   126.88875579833984,
   120.99367523193359,
   124.12349700927734,
   119.95387268066406,
   120.02931976318359,
   121.61534118652344,
   120.28962707519531,
   118.27305603027344,
   121.61567687988281,
   111.70841217041016,
   109.01639556884766,
   105.49996185302734,
   102.64595794677734,
   98.961814880371094,
   95.608802795410156,
   94.453163146972656,
   92.717292785644531,
   89.948768615722656,
   72.493583679199219,
   61.120067596435547,
   53.134777069091797,
   46.118869781494141,
   41.422763824462891,
   36.167285919189453,
   32.267021179199219,
   29.672327041625977,
   26.197921752929688,
   14.443361282348633,
   8.5883207321166992,
   7.0479621887207031,
   5.593785285949707,
   4.8003091812133789,
   3.8849167823791504,
   3.351661205291748,
   2.6862471103668213,
   2.7008569240570068,
   2.0075078010559082,
   1.5838899612426758,
   1.3379057645797729,
   0.94701117277145386,
   1.1436417102813721,
   1.4214506149291992,
   0.74339753389358521,
   0.98820763826370239,
   0.74727946519851685,
   1.1366592645645142,
   1.0329325199127197,
   0.72132790088653564,
   0.86463052034378052,
   1.098440408706665,
   0.85162961483001709,
   0.93744230270385742,
   1.5098754167556763,
   0.76598411798477173,
   0.7764362096786499,
   1.299854040145874,
   1.0487254858016968,
   0.88100850582122803,
   1.0423966646194458,
   0.81293123960494995,
   1.1997373104095459,
   0.56984424591064453,
   0.30535697937011719
]
