[
   2.7035174369812012,
   2.703624963760376,
   2.7010579109191895,
   2.6967201232910156,
   2.6984732151031494,
   2.7041432857513428,
   2.6995244026184082,
   2.6962337493896484,
   2.6949295997619629,
   2.6961379051208496,
   2.6882212162017822,
   2.677894115447998,
   2.6685879230499268,
   2.6620593070983887,
   2.6561617851257324,
   2.653430700302124,
   2.6388680934906006,
   2.6326992511749268,
   2.6236691474914551,
   2.5579314231872559,
   2.504361629486084,
   2.4499106407165527,
   2.4052033424377441,
   2.3600544929504395,
   2.3240485191345215,
   2.2878577709197998,
   2.2543468475341797,
   2.2225341796875,
   1.9985605478286743,
   1.8392881155014038,
   1.7298511266708374,
   1.6422837972640991,
   1.5688951015472412,
   1.5089877843856812,
   1.4519971609115601,
   1.4102227687835693,
   1.3702989816665649,
   1.1722862720489502,
   1.0909457206726074,
   1.0563153028488159,
   1.0394809246063232,
   1.0373275279998779,
   1.0201348066329956,
   0.99980878829956055,
   0.99792921543121338,
   0.98399925231933594,
   0.99059516191482544,
   0.99333220720291138,
   0.99967116117477417,
   0.99346703290939331,
   0.99119758605957031,
   0.99855268001556396,
   0.98444163799285889,
   0.97970330715179443,
   0.98103159666061401,
   1.0143911838531494,
   1.0026110410690308,
   1.017688512802124,
   0.98155003786087036,
   0.99981003999710083,
   1.0104361772537231,
   0.97050619125366211,
   0.9744488000869751,
   1.0019497871398926
]
