[
   16.789520263671875,
   16.743972778320312,
   16.760231018066406,
   16.746158599853516,
   16.7431640625,
   16.550571441650391,
   16.5843505859375,
   16.559680938720703,
   16.605644226074219,
   16.565473556518555,
   16.348484039306641,
   16.110095977783203,
   15.779487609863281,
   15.76872444152832,
   15.462849617004395,
   15.279398918151855,
   15.150054931640625,
   14.94373607635498,
   14.856657028198242,
   13.562658309936523,
   12.673494338989258,
   11.966904640197754,
   11.282464981079102,
   10.728307723999023,
   10.217838287353516,
   9.734431266784668,
   9.2812891006469727,
   9.0261917114257812,
   6.2163691520690918,
   4.7214217185974121,
   3.7672698497772217,
   3.2080123424530029,
   2.8767287731170654,
   2.565028190612793,
   2.2869095802307129,
   2.156163215637207,
   2.0239706039428711,
   1.2986479997634888,
   1.1510592699050903,
   1.0209563970565796,
   1.0511311292648315,
   0.99866276979446411,
   0.9844401478767395,
   1.0433082580566406,
   0.97948586940765381,
   0.99091732501983643,
   0.91523802280426025,
   0.97760838270187378,
   1.0436528921127319,
   0.97175538539886475,
   0.92380034923553467,
   1.0029481649398804,
   1.1048171520233154,
   0.96158868074417114,
   1.0272858142852783,
   0.92869484424591064,
   1.0409259796142578,
   1.0185363292694092,
   0.87668752670288086,
   0.9318888783454895,
   0.83318960666656494,
   0.92134320735931396,
   0.92824000120162964,
   0.90788233280181885
]
