[
   7.7727212905883789,
   7.7952141761779785,
   7.7754392623901367,
   7.794677734375,
   7.7797760963439941,
   7.7840433120727539,
   7.7738547325134277,
   7.7414107322692871,
   7.7095146179199219,
   7.7987074851989746,
   7.6430320739746094,
   7.6029634475708008,
   7.5310044288635254,
   7.464752197265625,
   7.3895659446716309,
   7.3301520347595215,
   7.2758111953735352,
   7.2061729431152344,
   7.131230354309082,
   6.7504873275756836,
   6.3938703536987305,
   6.1314573287963867,
   5.921593189239502,
   5.6702699661254883,
   5.4732980728149414,
   5.2936177253723145,
   5.1657094955444336,
   4.984346866607666,
   3.9178738594055176,
   3.2526092529296875,
   2.7807743549346924,
   2.4457607269287109,
   2.2000975608825684,
   2.0235738754272461,
   1.9045114517211914,
   1.787523627281189,
   1.67494797706604,
   1.2459739446640015,
   1.1148030757904053,
   1.0689128637313843,
   1.0488684177398682,
   1.0290073156356812,
   0.98859328031539917,
   0.98271435499191284,
   0.98489588499069214,
   0.9898717999458313,
   0.98888236284255981,
   1.0088944435119629,
   0.97519654035568237,
   1.0080761909484863,
   0.94314098358154297,
   0.98324745893478394,
   0.92638999223709106,
   0.94927084445953369,
   0.97479927539825439,
   0.9836496114730835,
   1.0148634910583496,
   0.96031457185745239,
   1.0587993860244751,
   1.0091109275817871,
   0.99054956436157227,
   0.97113257646560669,
   0.88976556062698364,
   0.91561812162399292
]
