[
   3.8731720447540283,
   3.8704991340637207,
   3.8629570007324219,
   3.8674633502960205,
   3.8620903491973877,
   3.870725154876709,
   3.8564066886901855,
   3.8640491962432861,
   3.8504948616027832,
   3.8509902954101562,
   3.8375458717346191,
   3.8213620185852051,
   3.803077220916748,
   3.778048038482666,
   3.7664318084716797,
   3.7476012706756592,
   3.7254486083984375,
   3.7157261371612549,
   3.7052302360534668,
   3.5461640357971191,
   3.4478626251220703,
   3.3345539569854736,
   3.2493255138397217,
   3.1696157455444336,
   3.1036746501922607,
   3.0358037948608398,
   2.9754729270935059,
   2.9228310585021973,
   2.5139155387878418,
   2.2451925277709961,
   2.040593147277832,
   1.8801562786102295,
   1.743477463722229,
   1.663020133972168,
   1.5770677328109741,
   1.5057002305984497,
   1.4461575746536255,
   1.2002111673355103,
   1.1231247186660767,
   1.0611011981964111,
   1.0236408710479736,
   1.0163891315460205,
   1.0227727890014648,
   1.0331637859344482,
   1.0029370784759521,
   0.99883759021759033,
   0.99023783206939697,
   1.0046374797821045,
   0.99948275089263916,
   1.0026242733001709,
   0.9769776463508606,
   0.99912375211715698,
   1.0002495050430298,
   0.99932920932769775,
   1.0028648376464844,
   0.98450154066085815,
   0.99419945478439331,
   0.96713745594024658,
   0.96930491924285889,
   1.0008810758590698,
   0.9939502477645874,
   0.99442899227142334,
   0.97009646892547607,
   1.012665867805481
]
