[
   5.2330522537231445,
   5.2255420684814453,
   5.2280006408691406,
   5.2211599349975586,
   5.21356201171875,
   5.2234005928039551,
   5.2071242332458496,
   5.2085070610046387,
   5.1953434944152832,
   5.2178335189819336,
   5.1771712303161621,
   5.1398744583129883,
   5.091954231262207,
   5.0764856338500977,
   5.0330190658569336,
   5.0134344100952148,
   4.9730496406555176,
   4.9642343521118164,
   4.9189848899841309,
   4.6956744194030762,
   4.5143356323242188,
   4.3420124053955078,
   4.2099847793579102,
   4.074376106262207,
   3.9866232872009277,
   3.8678748607635498,
   3.7753028869628906,
   3.7056610584259033,
   3.0765261650085449,
   2.6572673320770264,
   2.3711910247802734,
   2.1590666770935059,
   2.0026390552520752,
   1.8445827960968018,
   1.7434123754501343,
   1.6572204828262329,
   1.5700350999832153,
   1.2446033954620361,
   1.1230909824371338,
   1.0456697940826416,
   1.007163405418396,
   1.0299752950668335,
   1.0472078323364258,
   1.0344600677490234,
   1.048711895942688,
   1.0344139337539673,
   0.98153531551361084,
   1.0110827684402466,
   0.99529534578323364,
   0.97337883710861206,
   0.99310123920440674,
   0.99676668643951416,
   0.99551570415496826,
   1.0237122774124146,
   1.0168712139129639,
   1.0031381845474243,
   0.99524164199829102,
   1.0053627490997314,
   0.95000696182250977,
   0.98539257049560547,
   1.0324790477752686,
   1.0016899108886719,
   1.0352245569229126,
   0.92775136232376099
]
