[
   1.7581155300140381,
   1.7599446773529053,
   1.7569395303726196,
   1.756596565246582,
   1.7576291561126709,
   1.7555868625640869,
   1.7570257186889648,
   1.7579084634780884,
   1.7569010257720947,
   1.7562698125839233,
   1.7543649673461914,
   1.7526092529296875,
   1.7497804164886475,
   1.7479902505874634,
   1.7447181940078735,
   1.7415183782577515,
   1.7404739856719971,
   1.7382024526596069,
   1.736345648765564,
   1.715298056602478,
   1.6959240436553955,
   1.6778533458709717,
   1.6630735397338867,
   1.6442024707794189,
   1.6325900554656982,
   1.6192655563354492,
   1.6051934957504272,
   1.5937180519104004,
   1.5006881952285767,
   1.4370536804199219,
   1.3870141506195068,
   1.3460549116134644,
   1.3102068901062012,
   1.2840468883514404,
   1.2584705352783203,
   1.2382247447967529,
   1.2224986553192139,
   1.1189923286437988,
   1.0718071460723877,
   1.0470120906829834,
   1.0320351123809814,
   1.0293052196502686,
   1.0194265842437744,
   1.0118749141693115,
   1.0060948133468628,
   1.0043729543685913,
   1.0043553113937378,
   1.0029075145721436,
   1.0035382509231567,
   1.0100710391998291,
   1.0057473182678223,
   0.99911749362945557,
   0.99730527400970459,
   1.0035178661346436,
   0.99933987855911255,
   1.0034422874450684,
   1.0004705190658569,
   0.99520909786224365,
   0.99199885129928589,
   0.99208199977874756,
   0.99719488620758057,
   1.0040087699890137,
   1.0374112129211426,
   1.0005624294281006
]
