[
   1.5281330347061157,
   1.5278245210647583,
   1.5267350673675537,
   1.5272810459136963,
   1.5290443897247314,
   1.5261105298995972,
   1.525951623916626,
   1.5268573760986328,
   1.5259773731231689,
   1.5255329608917236,
   1.5251399278640747,
   1.5247038602828979,
   1.5218690633773804,
   1.5200879573822021,
   1.5198085308074951,
   1.5179123878479004,
   1.5170868635177612,
   1.5155390501022339,
   1.5152195692062378,
   1.5027487277984619,
   1.4911847114562988,
   1.4805190563201904,
   1.4695150852203369,
   1.4609899520874023,
   1.4504929780960083,
   1.4410685300827026,
   1.4335713386535645,
   1.4259089231491089,
   1.3628802299499512,
   1.3176244497299194,
   1.2835239171981812,
   1.2547272443771362,
   1.2327574491500854,
   1.2114617824554443,
   1.1943237781524658,
   1.1812952756881714,
   1.1678097248077393,
   1.0877801179885864,
   1.0531545877456665,
   1.0398547649383545,
   1.0246515274047852,
   1.016855001449585,
   1.0113033056259155,
   1.0111963748931885,
   1.0008505582809448,
   1.0002181529998779,
   0.99587583541870117,
   0.99426984786987305,
   0.99039793014526367,
   0.99451339244842529,
   0.99162942171096802,
   0.99491250514984131,
   1.0009415149688721,
   0.99579572677612305,
   0.98465949296951294,
   0.98675042390823364,
   0.98441445827484131,
   0.99136418104171753,
   0.99582064151763916,
   1.0127643346786499,
   1.0152853727340698,
   1.0319902896881104,
   1.0077697038650513,
   1.0484774112701416
]
