[
   2.0118317604064941,
   2.0146403312683105,
   2.013735294342041,
   2.0143444538116455,
   2.0131978988647461,
   2.0140261650085449,
   2.0129032135009766,
   2.0124380588531494,
   2.0137550830841064,
   2.0142381191253662,
   2.0107979774475098,
   2.0099904537200928,
   2.0067305564880371,
   2.0045077800750732,
   2.0032467842102051,
   1.9990411996841431,
   1.996181845664978,
   1.9949071407318115,
   1.990553617477417,
   1.9688246250152588,
   1.9482110738754272,
   1.9287621974945068,
   1.9105103015899658,
   1.8916629552841187,
   1.8746163845062256,
   1.8587757349014282,
   1.8438537120819092,
   1.8282334804534912,
   1.7116953134536743,
   1.6295942068099976,
   1.56180739402771,
   1.5083322525024414,
   1.4636811017990112,
   1.4265215396881104,
   1.3920705318450928,
   1.3653457164764404,
   1.3357844352722168,
   1.1814250946044922,
   1.1202142238616943,
   1.0804431438446045,
   1.0570566654205322,
   1.0434756278991699,
   1.0309135913848877,
   1.0182230472564697,
   1.0141639709472656,
   1.0073769092559814,
   0.99740588665008545,
   1.0050246715545654,
   0.98730307817459106,
   0.99465686082839966,
   0.9993058443069458,
   0.99351418018341064,
   1.0050007104873657,
   0.99900782108306885,
   0.98890125751495361,
   1.0005428791046143,
   1.0161663293838501,
   0.9959748387336731,
   0.98162269592285156,
   1.0176026821136475,
   1.0002415180206299,
   0.94990646839141846,
   0.96898138523101807,
   1.0093082189559937
]
