[
   2.7143740653991699,
   2.7139449119567871,
   2.7104177474975586,
   2.7122254371643066,
   2.7125742435455322,
   2.7152085304260254,
   2.7079401016235352,
   2.7128846645355225,
   2.7103202342987061,
   2.7105903625488281,
   2.7080492973327637,
   2.6943826675415039,
   2.6934599876403809,
   2.692432165145874,
   2.6819937229156494,
   2.6665949821472168,
   2.6726293563842773,
   2.661766529083252,
   2.6587634086608887,
   2.6108853816986084,
   2.5600757598876953,
   2.5150618553161621,
   2.4760174751281738,
   2.4426004886627197,
   2.4092206954956055,
   2.377338171005249,
   2.3466958999633789,
   2.3260798454284668,
   2.1098551750183105,
   1.9536060094833374,
   1.8417781591415405,
   1.7491185665130615,
   1.6762971878051758,
   1.6108815670013428,
   1.5535770654678345,
   1.5051484107971191,
   1.4666777849197388,
   1.2464321851730347,
   1.148687481880188,
   1.1056580543518066,
   1.0754954814910889,
   1.0540622472763062,
   1.0457355976104736,
   1.0412266254425049,
   1.0259523391723633,
   1.0226385593414307,
   0.99857091903686523,
   0.98832976818084717,
   0.99117028713226318,
   0.99744480848312378,
   0.98953694105148315,
   1.0049237012863159,
   0.99334156513214111,
   0.99244832992553711,
   0.99697905778884888,
   0.98853862285614014,
   0.9779658317565918,
   1.0003496408462524,
   0.98692572116851807,
   0.96568900346755981,
   0.96680295467376709,
   1.0163326263427734,
   1.0059223175048828,
   1.0991756916046143
]
