[
   2.1818170547485352,
   2.1803653240203857,
   2.1796483993530273,
   2.180351734161377,
   2.177154541015625,
   2.1791548728942871,
   2.1788344383239746,
   2.1792593002319336,
   2.1761412620544434,
   2.1792285442352295,
   2.1733839511871338,
   2.1735568046569824,
   2.1665594577789307,
   2.1647894382476807,
   2.162949800491333,
   2.1610407829284668,
   2.1554548740386963,
   2.1551249027252197,
   2.1474936008453369,
   2.1205270290374756,
   2.096245288848877,
   2.0670647621154785,
   2.0482194423675537,
   2.0264630317687988,
   2.0052309036254883,
   1.9863532781600952,
   1.9672168493270874,
   1.9489047527313232,
   1.8107868432998657,
   1.709720253944397,
   1.631848931312561,
   1.5724037885665894,
   1.5194971561431885,
   1.475074291229248,
   1.4311525821685791,
   1.3975566625595093,
   1.3686482906341553,
   1.1971546411514282,
   1.1302244663238525,
   1.0922994613647461,
   1.0695008039474487,
   1.0527946949005127,
   1.0469133853912354,
   1.0399291515350342,
   1.0303547382354736,
   1.0255699157714844,
   0.99846601486206055,
   0.99987661838531494,
   1.0007615089416504,
   1.0125319957733154,
   1.0020941495895386,
   1.0062226057052612,
   1.0133230686187744,
   1.0063750743865967,
   0.99822092056274414,
   1.0069267749786377,
   1.0122047662734985,
   0.99301367998123169,
   1.0038642883300781,
   0.98049908876419067,
   0.9934462308883667,
   0.9790070652961731,
   0.95826166868209839,
   0.94291198253631592
]
