[
   2.0675091743469238,
   2.06998610496521,
   2.0690436363220215,
   2.0670478343963623,
   2.0660264492034912,
   2.0661869049072266,
   2.0669195652008057,
   2.0671801567077637,
   2.0689055919647217,
   2.0665481090545654,
   2.0665912628173828,
   2.0664992332458496,
   2.0637576580047607,
   2.0599143505096436,
   2.0606834888458252,
   2.0579931735992432,
   2.0566830635070801,
   2.0543904304504395,
   2.0515022277832031,
   2.0365028381347656,
   2.0266075134277344,
   2.0138130187988281,
   1.998369574546814,
   1.9880510568618774,
   1.9752002954483032,
   1.9631748199462891,
   1.9484033584594727,
   1.9409984350204468,
   1.8408384323120117,
   1.7580693960189819,
   1.6940075159072876,
   1.6364721059799194,
   1.5862635374069214,
   1.5448172092437744,
   1.5083199739456177,
   1.4754986763000488,
   1.4459360837936401,
   1.2761681079864502,
   1.194122314453125,
   1.142009973526001,
   1.1133804321289062,
   1.0931141376495361,
   1.0783069133758545,
   1.0741698741912842,
   1.0601183176040649,
   1.0540328025817871,
   1.0270510911941528,
   1.0057382583618164,
   1.0008722543716431,
   1.0030722618103027,
   1.0022678375244141,
   0.98434269428253174,
   0.99077290296554565,
   0.98793280124664307,
   1.0012776851654053,
   0.98287153244018555,
   0.98272979259490967,
   1.0015450716018677,
   0.97867029905319214,
   1.0108773708343506,
   1.0145332813262939,
   0.99121177196502686,
   1.0149303674697876,
   1.0560173988342285
]
