[
   1.308539867401123,
   1.3091788291931152,
   1.3082752227783203,
   1.3081715106964111,
   1.3085296154022217,
   1.3083616495132446,
   1.3091459274291992,
   1.3088276386260986,
   1.3082911968231201,
   1.3088078498840332,
   1.3084026575088501,
   1.3080370426177979,
   1.3080375194549561,
   1.3075166940689087,
   1.3075897693634033,
   1.3075990676879883,
   1.3074148893356323,
   1.3069518804550171,
   1.3066203594207764,
   1.3050467967987061,
   1.3034075498580933,
   1.3031938076019287,
   1.3014286756515503,
   1.2999777793884277,
   1.2980540990829468,
   1.2967917919158936,
   1.2959980964660645,
   1.2941826581954956,
   1.2823336124420166,
   1.2705926895141602,
   1.2602478265762329,
   1.2504197359085083,
   1.2411962747573853,
   1.2335460186004639,
   1.2254185676574707,
   1.2185280323028564,
   1.211039662361145,
   1.1587773561477661,
   1.1237666606903076,
   1.0996743440628052,
   1.0923349857330322,
   1.0781329870223999,
   1.0684101581573486,
   1.060288667678833,
   1.0539364814758301,
   1.0491040945053101,
   1.0248764753341675,
   1.0062104463577271,
   1.0064423084259033,
   1.0124741792678833,
   1.0120033025741577,
   1.0010772943496704,
   1.0025306940078735,
   1.0074393749237061,
   1.0077239274978638,
   1.0106672048568726,
   1.0059627294540405,
   1.0021387338638306,
   0.98477470874786377,
   1.0088682174682617,
   0.98415565490722656,
   0.99702149629592896,
   0.96038132905960083,
   0.93005001544952393
]
