[
   1.4654552936553955,
   1.4658877849578857,
   1.465747594833374,
   1.465662956237793,
   1.4664821624755859,
   1.4655783176422119,
   1.4666181802749634,
   1.4658341407775879,
   1.4662288427352905,
   1.4647760391235352,
   1.4656879901885986,
   1.465402364730835,
   1.4642503261566162,
   1.4635765552520752,
   1.4635465145111084,
   1.4646071195602417,
   1.4633034467697144,
   1.4628207683563232,
   1.4626094102859497,
   1.4594577550888062,
   1.4570281505584717,
   1.4542222023010254,
   1.4515440464019775,
   1.4476578235626221,
   1.4462008476257324,
   1.442530632019043,
   1.4403154850006104,
   1.4369029998779297,
   1.4133790731430054,
   1.3915555477142334,
   1.3724952936172485,
   1.3550765514373779,
   1.3383028507232666,
   1.3248059749603271,
   1.3104507923126221,
   1.2982902526855469,
   1.286486029624939,
   1.2062735557556152,
   1.1579086780548096,
   1.1287605762481689,
   1.1077426671981812,
   1.0899837017059326,
   1.0767790079116821,
   1.0661931037902832,
   1.0564916133880615,
   1.0513428449630737,
   1.0224213600158691,
   1.0044574737548828,
   1.0023084878921509,
   0.99687731266021729,
   0.99336844682693481,
   0.99047839641571045,
   0.99456340074539185,
   0.98876631259918213,
   0.99141740798950195,
   0.98021429777145386,
   0.99280911684036255,
   1.0000077486038208,
   0.99626952409744263,
   0.99182593822479248,
   1.0061664581298828,
   0.99545013904571533,
   1.0534236431121826,
   1.0430970191955566
]
