[
   26.14605712890625,
   26.110372543334961,
   26.044713973999023,
   26.057779312133789,
   26.092916488647461,
   25.894155502319336,
   25.801275253295898,
   25.849254608154297,
   25.895565032958984,
   25.589715957641602,
   24.947216033935547,
   24.130031585693359,
   23.58006477355957,
   23.014278411865234,
   22.58363151550293,
   22.187829971313477,
   21.493968963623047,
   20.978713989257812,
   20.760198593139648,
   17.002031326293945,
   14.56602668762207,
   12.562749862670898,
   11.183370590209961,
   10.126768112182617,
   9.1522884368896484,
   8.4665203094482422,
   7.7707624435424805,
   7.379664421081543,
   4.5932211875915527,
   3.5449149608612061,
   2.9748778343200684,
   2.5910482406616211,
   2.3114199638366699,
   2.1304175853729248,
   2.050051212310791,
   1.9246095418930054,
   1.8789514303207397,
   1.3665553331375122,
   1.2639225721359253,
   1.2171530723571777,
   1.1838197708129883,
   1.0836598873138428,
   1.1533949375152588,
   1.2011922597885132,
   1.0133355855941772,
   0.99438828229904175,
   1.0670390129089355,
   1.0303590297698975,
   0.9047120213508606,
   1.0946091413497925,
   1.0474954843521118,
   0.9369196891784668,
   1.1530982255935669,
   1.0613633394241333,
   0.95910680294036865,
   0.9805113673210144,
   1.0137239694595337,
   0.93409270048141479,
   1.0511391162872314,
   0.99159097671508789,
   1.0198782682418823,
   0.94398784637451172,
   0.93790739774703979,
   0.84318006038665771
]
