[
   1.5005743503570557,
   1.501489520072937,
   1.5013134479522705,
   1.5015933513641357,
   1.4999362230300903,
   1.5016891956329346,
   1.5010294914245605,
   1.5004361867904663,
   1.5011115074157715,
   1.5004040002822876,
   1.501059889793396,
   1.4995789527893066,
   1.4991533756256104,
   1.4991443157196045,
   1.4989145994186401,
   1.4993306398391724,
   1.49806809425354,
   1.4983518123626709,
   1.4973022937774658,
   1.493890643119812,
   1.490278959274292,
   1.4866631031036377,
   1.4830046892166138,
   1.4799555540084839,
   1.4772509336471558,
   1.4728611707687378,
   1.4705222845077515,
   1.4665716886520386,
   1.4368259906768799,
   1.4119434356689453,
   1.3887957334518433,
   1.3671996593475342,
   1.3490496873855591,
   1.3310257196426392,
   1.3161947727203369,
   1.3014316558837891,
   1.2890856266021729,
   1.1996262073516846,
   1.1472954750061035,
   1.1141355037689209,
   1.0893044471740723,
   1.0744329690933228,
   1.0624830722808838,
   1.0545172691345215,
   1.0445252656936646,
   1.0430881977081299,
   1.0200188159942627,
   1.0125331878662109,
   1.005318284034729,
   0.99867135286331177,
   0.99788236618041992,
   1.0002410411834717,
   1.0074166059494019,
   0.99544918537139893,
   1.0038697719573975,
   0.99661862850189209,
   0.99696624279022217,
   1.0030739307403564,
   0.9950750470161438,
   0.97710168361663818,
   0.9877287745475769,
   0.99632298946380615,
   1.020010232925415,
   0.98168337345123291
]
