[
   1.5539062023162842,
   1.5526833534240723,
   1.5542840957641602,
   1.5542416572570801,
   1.5543196201324463,
   1.5539160966873169,
   1.5542968511581421,
   1.5548355579376221,
   1.5528609752655029,
   1.5546064376831055,
   1.5527141094207764,
   1.5512063503265381,
   1.5508072376251221,
   1.5500293970108032,
   1.5501270294189453,
   1.5489504337310791,
   1.5484472513198853,
   1.5472851991653442,
   1.5456545352935791,
   1.5387808084487915,
   1.5307637453079224,
   1.5254920721054077,
   1.5188015699386597,
   1.5114022493362427,
   1.5049241781234741,
   1.499940037727356,
   1.493788480758667,
   1.4880936145782471,
   1.4424502849578857,
   1.4064252376556396,
   1.3766225576400757,
   1.3514144420623779,
   1.3302747011184692,
   1.310808539390564,
   1.2933508157730103,
   1.2780206203460693,
   1.2645342350006104,
   1.1716864109039307,
   1.1156237125396729,
   1.0895364284515381,
   1.0668054819107056,
   1.0499701499938965,
   1.0373188257217407,
   1.0296666622161865,
   1.0269801616668701,
   1.0248038768768311,
   1.0058000087738037,
   0.99480342864990234,
   0.99542033672332764,
   0.99829882383346558,
   0.99930638074874878,
   0.98870646953582764,
   0.99877148866653442,
   0.99755603075027466,
   0.99316346645355225,
   1.0040984153747559,
   1.0079071521759033,
   1.0137383937835693,
   1.0069278478622437,
   0.98453724384307861,
   0.98652923107147217,
   0.97775107622146606,
   0.95254546403884888,
   0.9764481782913208
]
