[
   3.0450921058654785,
   3.0440037250518799,
   3.0437664985656738,
   3.0419571399688721,
   3.0408985614776611,
   3.0435905456542969,
   3.0348868370056152,
   3.0397515296936035,
   3.0397472381591797,
   3.0316030979156494,
   3.0252387523651123,
   3.0272464752197266,
   3.0080277919769287,
   3.0054364204406738,
   3.0048880577087402,
   2.9941432476043701,
   2.9928097724914551,
   2.9875762462615967,
   2.9782364368438721,
   2.9198894500732422,
   2.8708329200744629,
   2.8226644992828369,
   2.7747979164123535,
   2.7378368377685547,
   2.7014451026916504,
   2.6640071868896484,
   2.6334714889526367,
   2.598984956741333,
   2.3499557971954346,
   2.1683831214904785,
   2.0224363803863525,
   1.9098984003067017,
   1.8142929077148438,
   1.7412364482879639,
   1.6784950494766235,
   1.6229639053344727,
   1.5702908039093018,
   1.3066709041595459,
   1.2056262493133545,
   1.1445801258087158,
   1.1053144931793213,
   1.0959569215774536,
   1.0877580642700195,
   1.0907020568847656,
   1.0741908550262451,
   1.0562305450439453,
   1.0188887119293213,
   0.9756438136100769,
   0.998371422290802,
   0.98817950487136841,
   0.98975598812103271,
   0.99810326099395752,
   0.98713314533233643,
   0.97229892015457153,
   0.98004674911499023,
   1.0019890069961548,
   0.98243206739425659,
   0.98511391878128052,
   0.99246388673782349,
   0.99732482433319092,
   0.99425429105758667,
   1.0052870512008667,
   0.94956719875335693,
   0.98011624813079834
]
