[
   64.767829895019531,
   65.202774047851562,
   64.319648742675781,
   64.269508361816406,
   63.956401824951172,
   63.70025634765625,
   63.650917053222656,
   62.373680114746094,
   63.020099639892578,
   62.795734405517578,
   60.084789276123047,
   58.491889953613281,
   56.256660461425781,
   54.428943634033203,
   52.980255126953125,
   51.513080596923828,
   50.378070831298828,
   48.711456298828125,
   47.608665466308594,
   38.085391998291016,
   31.827159881591797,
   26.912246704101562,
   23.436408996582031,
   20.690908432006836,
   19.163394927978516,
   17.099504470825195,
   15.351641654968262,
   14.842103958129883,
   7.9929742813110352,
   5.7563238143920898,
   5.0055570602416992,
   3.8952000141143799,
   3.4411730766296387,
   3.3392860889434814,
   2.765693187713623,
   2.3282196521759033,
   2.0937461853027344,
   1.694196343421936,
   1.4284594058990479,
   1.2230827808380127,
   1.2633345127105713,
   1.2623269557952881,
   0.93262612819671631,
   0.92286759614944458,
   0.97207021713256836,
   0.99256753921508789,
   0.95128488540649414,
   0.9967004656791687,
   0.87021410465240479,
   1.049485445022583,
   0.95057690143585205,
   1.1120349168777466,
   1.0409235954284668,
   1.2316091060638428,
   0.80463898181915283,
   0.82842952013015747,
   0.91662108898162842,
   1.0389504432678223,
   0.84972411394119263,
   0.83829939365386963,
   0.9444580078125,
   0.94572174549102783,
   0.682017982006073,
   1.0740410089492798
]
