[
   18.457706451416016,
   18.536657333374023,
   18.537891387939453,
   18.42796516418457,
   18.430767059326172,
   18.281772613525391,
   18.24293327331543,
   18.417064666748047,
   18.178537368774414,
   18.18365478515625,
   17.843246459960938,
   17.879999160766602,
   17.581411361694336,
   17.267087936401367,
   17.154796600341797,
   17.002567291259766,
   16.752925872802734,
   16.622936248779297,
   16.458545684814453,
   15.00140380859375,
   13.675567626953125,
   12.745088577270508,
   11.972249031066895,
   11.18644905090332,
   10.527864456176758,
   9.9881916046142578,
   9.3717813491821289,
   8.9869241714477539,
   6.1357688903808594,
   4.8257722854614258,
   3.9498050212860107,
   3.3751883506774902,
   2.9887800216674805,
   2.6722371578216553,
   2.4212195873260498,
   2.3020944595336914,
   2.2666745185852051,
   1.5420682430267334,
   1.2631379365921021,
   1.224665641784668,
   1.2299133539199829,
   1.1565737724304199,
   1.0739593505859375,
   1.1597356796264648,
   1.0030887126922607,
   0.98858344554901123,
   1.0925767421722412,
   0.93626368045806885,
   1.0081766843795776,
   0.98862189054489136,
   1.0388898849487305,
   1.0186755657196045,
   0.97059077024459839,
   0.96504127979278564,
   0.9802936315536499,
   0.99232321977615356,
   1.0890741348266602,
   0.95790350437164307,
   0.91098231077194214,
   0.99268072843551636,
   0.93246477842330933,
   1.0425961017608643,
   1.1220786571502686,
   0.79548400640487671
]
