[
   1.4579707384109497,
   1.4572081565856934,
   1.4583920240402222,
   1.458217978477478,
   1.4585859775543213,
   1.4585340023040771,
   1.4585044384002686,
   1.4587478637695312,
   1.4572970867156982,
   1.4586193561553955,
   1.4578559398651123,
   1.456629753112793,
   1.4561153650283813,
   1.4552217721939087,
   1.4552096128463745,
   1.4546936750411987,
   1.4533373117446899,
   1.4531790018081665,
   1.4525154829025269,
   1.4468858242034912,
   1.4416320323944092,
   1.436995267868042,
   1.4316991567611694,
   1.4265615940093994,
   1.4217472076416016,
   1.4178073406219482,
   1.4125263690948486,
   1.4083483219146729,
   1.3728071451187134,
   1.3446533679962158,
   1.3214108943939209,
   1.3006892204284668,
   1.2836666107177734,
   1.2688560485839844,
   1.2538824081420898,
   1.2416629791259766,
   1.2308816909790039,
   1.1531548500061035,
   1.1049339771270752,
   1.0810482501983643,
   1.0614849328994751,
   1.0459387302398682,
   1.0347695350646973,
   1.0277460813522339,
   1.0249695777893066,
   1.0222181081771851,
   1.0055508613586426,
   0.99519491195678711,
   0.99689227342605591,
   0.99818789958953857,
   1.0015081167221069,
   0.99041986465454102,
   0.99918967485427856,
   0.99719208478927612,
   0.99454182386398315,
   1.0056784152984619,
   1.0074113607406616,
   1.0124075412750244,
   1.0063612461090088,
   0.98572713136672974,
   0.98771935701370239,
   0.97700679302215576,
   0.95499354600906372,
   0.97676622867584229
]
