[
   2.0074448585510254,
   2.0074141025543213,
   2.007972240447998,
   2.0070207118988037,
   2.0073652267456055,
   2.0062901973724365,
   2.0070927143096924,
   2.0078346729278564,
   2.0073733329772949,
   2.0052485466003418,
   2.0020503997802734,
   1.9992120265960693,
   1.9957250356674194,
   1.9932464361190796,
   1.9929163455963135,
   1.9897489547729492,
   1.9866882562637329,
   1.9835342168807983,
   1.9800525903701782,
   1.9537473917007446,
   1.9318287372589111,
   1.9086440801620483,
   1.8862701654434204,
   1.8708969354629517,
   1.8503780364990234,
   1.8318412303924561,
   1.8164688348770142,
   1.802168607711792,
   1.6799850463867188,
   1.5891082286834717,
   1.5233725309371948,
   1.4743291139602661,
   1.4289023876190186,
   1.391727089881897,
   1.3605151176452637,
   1.3347886800765991,
   1.3117506504058838,
   1.1718413829803467,
   1.1080161333084106,
   1.0743162631988525,
   1.0542018413543701,
   1.0393263101577759,
   1.031764030456543,
   1.0175679922103882,
   1.0099493265151978,
   1.0100138187408447,
   0.99962615966796875,
   1.0009763240814209,
   1.0014206171035767,
   0.99646741151809692,
   0.9939347505569458,
   1.0045392513275146,
   0.99108541011810303,
   1.0002833604812622,
   0.98980599641799927,
   1.0064687728881836,
   1.0037028789520264,
   0.99038535356521606,
   0.99203240871429443,
   0.99918204545974731,
   1.007331371307373,
   1.0163295269012451,
   1.0081146955490112,
   1.0478522777557373
]
