[
   1.5488771200180054,
   1.5483793020248413,
   1.5490820407867432,
   1.5478478670120239,
   1.5476515293121338,
   1.5475056171417236,
   1.5467120409011841,
   1.5481700897216797,
   1.5479910373687744,
   1.5485239028930664,
   1.5455821752548218,
   1.5444891452789307,
   1.5427858829498291,
   1.5434364080429077,
   1.542100191116333,
   1.5414600372314453,
   1.5387119054794312,
   1.5381019115447998,
   1.5372287034988403,
   1.526125431060791,
   1.5179274082183838,
   1.5096466541290283,
   1.4994422197341919,
   1.4920049905776978,
   1.4819933176040649,
   1.4746495485305786,
   1.4677803516387939,
   1.4618600606918335,
   1.4036571979522705,
   1.3607221841812134,
   1.3245773315429688,
   1.2971521615982056,
   1.2733633518218994,
   1.252153754234314,
   1.2349703311920166,
   1.2189931869506836,
   1.2044394016265869,
   1.1222159862518311,
   1.0862065553665161,
   1.0598709583282471,
   1.0468122959136963,
   1.0375174283981323,
   1.029984712600708,
   1.0209970474243164,
   1.0194073915481567,
   1.0200858116149902,
   0.99839878082275391,
   0.99790877103805542,
   1.0034273862838745,
   0.99925976991653442,
   0.99484270811080933,
   0.99743080139160156,
   1.0025769472122192,
   0.99399745464324951,
   0.9975627064704895,
   1.0016419887542725,
   0.99567317962646484,
   1.0006139278411865,
   0.9973607063293457,
   1.0008294582366943,
   1.0016112327575684,
   0.97772276401519775,
   1.0045778751373291,
   1.0023033618927002
]
