[
   3.2218520641326904,
   3.2223892211914062,
   3.2208054065704346,
   3.2166256904602051,
   3.2177398204803467,
   3.2217757701873779,
   3.2227718830108643,
   3.2178225517272949,
   3.2165718078613281,
   3.2127861976623535,
   3.2020473480224609,
   3.195711612701416,
   3.1888179779052734,
   3.1755020618438721,
   3.1633868217468262,
   3.1577680110931396,
   3.1457171440124512,
   3.1366381645202637,
   3.1253716945648193,
   3.0510268211364746,
   2.9680688381195068,
   2.9162628650665283,
   2.8504245281219482,
   2.8014845848083496,
   2.7518429756164551,
   2.707134485244751,
   2.6615080833435059,
   2.627985954284668,
   2.3198492527008057,
   2.1177182197570801,
   1.9748855829238892,
   1.859574556350708,
   1.7593597173690796,
   1.6748571395874023,
   1.606550931930542,
   1.5456987619400024,
   1.496591329574585,
   1.2386012077331543,
   1.1551257371902466,
   1.1222175359725952,
   1.0877023935317993,
   1.0483603477478027,
   1.0612043142318726,
   1.0363185405731201,
   1.0353138446807861,
   1.0290900468826294,
   1.0003527402877808,
   0.99754446744918823,
   0.98351019620895386,
   1.003443717956543,
   0.99518668651580811,
   0.98198765516281128,
   0.9862600564956665,
   0.98452359437942505,
   1.0003241300582886,
   0.97403925657272339,
   0.98771011829376221,
   0.99651402235031128,
   0.96986693143844604,
   1.0350992679595947,
   1.0058377981185913,
   1.0258288383483887,
   0.96250611543655396,
   0.96893870830535889
]
