[
   1.6825212240219116,
   1.6820118427276611,
   1.6816694736480713,
   1.6808665990829468,
   1.6825069189071655,
   1.6843332052230835,
   1.6815664768218994,
   1.6829655170440674,
   1.6806259155273438,
   1.6814095973968506,
   1.6781852245330811,
   1.6761127710342407,
   1.6760151386260986,
   1.6753000020980835,
   1.6729139089584351,
   1.6726503372192383,
   1.6703640222549438,
   1.6679744720458984,
   1.6699545383453369,
   1.6524568796157837,
   1.6409580707550049,
   1.6278259754180908,
   1.6138985157012939,
   1.6039804220199585,
   1.5924261808395386,
   1.5813007354736328,
   1.5720316171646118,
   1.5609347820281982,
   1.4843366146087646,
   1.4270527362823486,
   1.3843477964401245,
   1.3470084667205811,
   1.3191854953765869,
   1.2920089960098267,
   1.2719824314117432,
   1.2528769969940186,
   1.2361640930175781,
   1.1358141899108887,
   1.0866944789886475,
   1.0608437061309814,
   1.0452167987823486,
   1.0374057292938232,
   1.0349745750427246,
   1.0309585332870483,
   1.0239666700363159,
   1.0149470567703247,
   1.0064771175384521,
   0.99340665340423584,
   0.99224966764450073,
   0.98908102512359619,
   0.99405115842819214,
   0.9904053807258606,
   0.99824744462966919,
   0.98611944913864136,
   0.99489003419876099,
   0.98938244581222534,
   0.98969316482543945,
   0.99743586778640747,
   0.99478566646575928,
   0.99795675277709961,
   1.0092622041702271,
   1.0032809972763062,
   1.0588510036468506,
   1.069150447845459
]
