[
   17.643945693969727,
   17.616569519042969,
   17.581203460693359,
   17.619014739990234,
   17.608438491821289,
   17.52947998046875,
   17.464668273925781,
   17.391942977905273,
   17.479402542114258,
   17.40015983581543,
   17.227306365966797,
   17.112979888916016,
   16.693462371826172,
   16.652273178100586,
   16.471225738525391,
   16.206249237060547,
   16.096410751342773,
   15.88042163848877,
   15.733114242553711,
   14.549321174621582,
   13.545068740844727,
   12.766214370727539,
   12.177776336669922,
   11.55534839630127,
   10.976244926452637,
   10.52037239074707,
   10.131768226623535,
   9.6157665252685547,
   6.9457054138183594,
   5.3887290954589844,
   4.3674211502075195,
   3.7520649433135986,
   3.159027099609375,
   2.8421502113342285,
   2.6558322906494141,
   2.4756181240081787,
   2.3499565124511719,
   1.37856125831604,
   1.2032132148742676,
   1.0989277362823486,
   1.0618951320648193,
   1.1460456848144531,
   1.1107487678527832,
   1.015466570854187,
   0.99495112895965576,
   1.0106830596923828,
   1.0201156139373779,
   0.92174661159515381,
   0.89503085613250732,
   1.1039375066757202,
   1.0977694988250732,
   1.0892941951751709,
   1.0054284334182739,
   1.0156331062316895,
   0.95784711837768555,
   1.0944674015045166,
   0.89624893665313721,
   1.0540934801101685,
   0.94779080152511597,
   0.88023602962493896,
   0.9052661657333374,
   0.89993441104888916,
   1.2935134172439575,
   1.1288429498672485
]
