[
   1.7701542377471924,
   1.7681852579116821,
   1.7680835723876953,
   1.7688014507293701,
   1.7694524526596069,
   1.7695891857147217,
   1.7673075199127197,
   1.7677154541015625,
   1.7680085897445679,
   1.7682015895843506,
   1.7638086080551147,
   1.7649389505386353,
   1.7621004581451416,
   1.7602132558822632,
   1.7606227397918701,
   1.7568546533584595,
   1.7561851739883423,
   1.7546024322509766,
   1.7509911060333252,
   1.7367012500762939,
   1.719552755355835,
   1.704188346862793,
   1.6908693313598633,
   1.6768941879272461,
   1.6662518978118896,
   1.6515003442764282,
   1.6411691904067993,
   1.629873514175415,
   1.5407898426055908,
   1.4771707057952881,
   1.4289603233337402,
   1.3903764486312866,
   1.356586217880249,
   1.3259085416793823,
   1.3034857511520386,
   1.28114914894104,
   1.2611777782440186,
   1.1486344337463379,
   1.0928691625595093,
   1.0621480941772461,
   1.04390549659729,
   1.0287339687347412,
   1.0159449577331543,
   1.0142433643341064,
   1.0104756355285645,
   1.0141756534576416,
   1.0014492273330688,
   0.99102962017059326,
   0.99722445011138916,
   1.0002365112304688,
   0.99977791309356689,
   0.99917477369308472,
   0.99880397319793701,
   0.99085062742233276,
   0.98958742618560791,
   0.98535460233688354,
   0.98298817873001099,
   0.9823002815246582,
   0.99416673183441162,
   0.98548758029937744,
   1.0146962404251099,
   1.0409713983535767,
   1.0268535614013672,
   1.0239431858062744
]
