[
   5.4327349662780762,
   5.4291644096374512,
   5.4268026351928711,
   5.4125308990478516,
   5.436802864074707,
   5.4101886749267578,
   5.4239702224731445,
   5.4127688407897949,
   5.4050297737121582,
   5.4031438827514648,
   5.3984184265136719,
   5.3501696586608887,
   5.3200969696044922,
   5.3118438720703125,
   5.275538444519043,
   5.2404909133911133,
   5.2009286880493164,
   5.1998505592346191,
   5.1690688133239746,
   4.9473257064819336,
   4.7719216346740723,
   4.616724967956543,
   4.4481215476989746,
   4.3313989639282227,
   4.221435546875,
   4.1217288970947266,
   4.0259537696838379,
   3.9373180866241455,
   3.2950310707092285,
   2.8910067081451416,
   2.6016414165496826,
   2.3731789588928223,
   2.1799156665802002,
   2.0402424335479736,
   1.9201751947402954,
   1.8364927768707275,
   1.7484426498413086,
   1.3096466064453125,
   1.1462787389755249,
   1.0918090343475342,
   1.0739473104476929,
   1.0392382144927979,
   1.0383249521255493,
   1.0146903991699219,
   1.0181292295455933,
   1.0050160884857178,
   0.97923099994659424,
   1.0193777084350586,
   0.99897611141204834,
   0.98526990413665771,
   0.99531537294387817,
   1.0026830434799194,
   0.98023432493209839,
   1.046789288520813,
   1.0186623334884644,
   1.0088884830474854,
   0.99480688571929932,
   0.97394400835037231,
   1.005536675453186,
   1.0311102867126465,
   0.95343577861785889,
   0.96005928516387939,
   0.94420117139816284,
   1.0762618780136108
]
