[
   17.521755218505859,
   17.588108062744141,
   17.586544036865234,
   17.436897277832031,
   17.512201309204102,
   17.454219818115234,
   17.46685791015625,
   17.387149810791016,
   17.416563034057617,
   17.278451919555664,
   17.053804397583008,
   16.999050140380859,
   16.698030471801758,
   16.59991455078125,
   16.200277328491211,
   16.108297348022461,
   15.947830200195312,
   15.739338874816895,
   15.633275985717773,
   14.174267768859863,
   13.228612899780273,
   12.457513809204102,
   11.657057762145996,
   10.985586166381836,
   10.459077835083008,
   9.895838737487793,
   9.461848258972168,
   8.9778575897216797,
   6.1852655410766602,
   4.63275146484375,
   3.858792781829834,
   3.2733879089355469,
   2.8607065677642822,
   2.570465087890625,
   2.3114652633666992,
   2.1319324970245361,
   2.03969407081604,
   1.3491532802581787,
   1.1495537757873535,
   1.0971261262893677,
   0.99473190307617188,
   1.033002495765686,
   1.1363708972930908,
   1.0153853893280029,
   1.0323441028594971,
   1.061922550201416,
   0.98943442106246948,
   0.96632832288742065,
   1.0748194456100464,
   1.0629150867462158,
   0.90829217433929443,
   0.96644753217697144,
   1.0880452394485474,
   1.0039860010147095,
   0.98349571228027344,
   0.98543202877044678,
   1.0627057552337646,
   1.0366990566253662,
   0.99267512559890747,
   1.0906981229782104,
   0.94228667020797729,
   0.95225775241851807,
   1.050248384475708,
   1.1834661960601807
]
