[
   32.497871398925781,
   32.137489318847656,
   32.260246276855469,
   32.243499755859375,
   31.831680297851562,
   32.065513610839844,
   32.06488037109375,
   31.888513565063477,
   31.993640899658203,
   32.081081390380859,
   31.252450942993164,
   30.891109466552734,
   29.993213653564453,
   29.769342422485352,
   29.084756851196289,
   28.756479263305664,
   28.010494232177734,
   27.738485336303711,
   27.413000106811523,
   24.629650115966797,
   22.469236373901367,
   20.492605209350586,
   18.788141250610352,
   17.503376007080078,
   16.327911376953125,
   15.288998603820801,
   14.587041854858398,
   13.664576530456543,
   8.5222005844116211,
   6.2504787445068359,
   4.6402640342712402,
   3.8170769214630127,
   3.3072140216827393,
   2.9378533363342285,
   2.813438892364502,
   2.3446564674377441,
   2.1901016235351562,
   1.4399768114089966,
   1.4279196262359619,
   1.1088416576385498,
   1.0870651006698608,
   1.1414684057235718,
   1.1409821510314941,
   1.029310941696167,
   1.0849809646606445,
   1.0509822368621826,
   0.92124974727630615,
   1.0611016750335693,
   1.0008238554000854,
   0.97942036390304565,
   1.0963122844696045,
   1.0277189016342163,
   0.91675490140914917,
   1.0079969167709351,
   0.96857178211212158,
   0.97182369232177734,
   0.73762786388397217,
   1.0952999591827393,
   1.0175313949584961,
   0.76893794536590576,
   1.234540581703186,
   1.0120885372161865,
   0.77234780788421631,
   1.3110284805297852
]
