[
   2.1634469032287598,
   2.1623110771179199,
   2.1613898277282715,
   2.1633071899414062,
   2.157562255859375,
   2.1636404991149902,
   2.1604800224304199,
   2.1603012084960938,
   2.1595783233642578,
   2.1615636348724365,
   2.1596474647521973,
   2.1519041061401367,
   2.1500051021575928,
   2.147017240524292,
   2.1440520286560059,
   2.1395115852355957,
   2.135481595993042,
   2.1308870315551758,
   2.1295430660247803,
   2.0985801219940186,
   2.076077938079834,
   2.0416343212127686,
   2.0169637203216553,
   1.9951235055923462,
   1.9722013473510742,
   1.9497585296630859,
   1.9307117462158203,
   1.9133498668670654,
   1.7673027515411377,
   1.6656463146209717,
   1.5915577411651611,
   1.5294927358627319,
   1.4790043830871582,
   1.438316822052002,
   1.3960283994674683,
   1.3681747913360596,
   1.34218430519104,
   1.1813690662384033,
   1.1182495355606079,
   1.089077353477478,
   1.0712724924087524,
   1.0495709180831909,
   1.0270960330963135,
   1.018741250038147,
   1.0180729627609253,
   1.0142130851745605,
   1.0148063898086548,
   1.0000704526901245,
   1.0070468187332153,
   1.0077793598175049,
   1.0053945779800415,
   1.0236109495162964,
   1.0109641551971436,
   1.0070953369140625,
   1.0135334730148315,
   0.9980999231338501,
   0.97945976257324219,
   0.97726333141326904,
   0.995308518409729,
   1.0184056758880615,
   1.024744987487793,
   1.0445038080215454,
   0.97701513767242432,
   0.88825976848602295
]
