[
   1.8656294345855713,
   1.86533522605896,
   1.8638744354248047,
   1.8649234771728516,
   1.8635947704315186,
   1.8631442785263062,
   1.8648567199707031,
   1.8628151416778564,
   1.8651043176651001,
   1.8627960681915283,
   1.8593267202377319,
   1.859039306640625,
   1.8576507568359375,
   1.8547801971435547,
   1.8533143997192383,
   1.8496363162994385,
   1.8475124835968018,
   1.8460394144058228,
   1.8448349237442017,
   1.8242788314819336,
   1.8027511835098267,
   1.7879800796508789,
   1.7706396579742432,
   1.7542369365692139,
   1.7413139343261719,
   1.7260297536849976,
   1.7123798131942749,
   1.700757622718811,
   1.5991008281707764,
   1.5254155397415161,
   1.4664373397827148,
   1.4202041625976562,
   1.3777450323104858,
   1.3456623554229736,
   1.3167765140533447,
   1.2909197807312012,
   1.2684000730514526,
   1.1467407941818237,
   1.0904335975646973,
   1.0630567073822021,
   1.0447515249252319,
   1.0357596874237061,
   1.0252920389175415,
   1.0155996084213257,
   1.0112705230712891,
   1.0109583139419556,
   0.99640589952468872,
   1.0018938779830933,
   0.99763423204421997,
   0.98616468906402588,
   0.99192380905151367,
   0.98631447553634644,
   0.98065900802612305,
   0.98657113313674927,
   0.98456478118896484,
   0.99452340602874756,
   0.99617069959640503,
   0.99797534942626953,
   0.99208289384841919,
   0.99557828903198242,
   1.0064420700073242,
   1.0236135721206665,
   1.0137431621551514,
   1.1181775331497192
]
