[
   1.593807578086853,
   1.5928322076797485,
   1.5931822061538696,
   1.593498706817627,
   1.5940538644790649,
   1.5936617851257324,
   1.5926104784011841,
   1.5933579206466675,
   1.592100977897644,
   1.5918310880661011,
   1.5924499034881592,
   1.5905389785766602,
   1.5889173746109009,
   1.5869685411453247,
   1.5865963697433472,
   1.5836803913116455,
   1.5836765766143799,
   1.5827591419219971,
   1.5819544792175293,
   1.5692086219787598,
   1.5588059425354004,
   1.5492119789123535,
   1.539209246635437,
   1.5290384292602539,
   1.5205029249191284,
   1.5135462284088135,
   1.5038868188858032,
   1.4972296953201294,
   1.4311679601669312,
   1.385053277015686,
   1.3455250263214111,
   1.3133169412612915,
   1.2859921455383301,
   1.2642995119094849,
   1.2441966533660889,
   1.2265464067459106,
   1.2104530334472656,
   1.12336266040802,
   1.0822057723999023,
   1.0592401027679443,
   1.0400576591491699,
   1.0309844017028809,
   1.0231614112854004,
   1.0183627605438232,
   1.0128118991851807,
   1.0145323276519775,
   1.005337119102478,
   1.0041806697845459,
   1.0012619495391846,
   0.9990045428276062,
   1.0023717880249023,
   1.0076502561569214,
   1.0045706033706665,
   1.0137926340103149,
   1.007341742515564,
   1.0136145353317261,
   1.0123581886291504,
   1.0000698566436768,
   0.99845731258392334,
   0.99682694673538208,
   0.97955024242401123,
   0.9802318811416626,
   0.968161940574646,
   0.87304878234863281
]
