[
   136.81564331054688,
   135.69511413574219,
   136.14015197753906,
   133.65516662597656,
   133.78913879394531,
   132.38058471679688,
   135.09101867675781,
   129.95626831054688,
   130.86253356933594,
   131.73330688476562,
   126.05135345458984,
   118.71922302246094,
   115.80424499511719,
   112.38960266113281,
   108.46977233886719,
   106.64347839355469,
   101.32402801513672,
   99.300582885742188,
   95.758148193359375,
   75.552803039550781,
   62.764019012451172,
   53.20635986328125,
   45.501380920410156,
   40.614158630371094,
   36.324604034423828,
   33.813972473144531,
   30.868215560913086,
   27.769805908203125,
   15.463574409484863,
   9.4791021347045898,
   7.3217201232910156,
   5.4639148712158203,
   4.6231937408447266,
   4.1818246841430664,
   2.9190640449523926,
   2.7052779197692871,
   3.0704343318939209,
   1.5332381725311279,
   0.96937733888626099,
   2.0169167518615723,
   1.1440224647521973,
   1.0391290187835693,
   1.2176144123077393,
   0.99033081531524658,
   1.1804749965667725,
   0.83526390790939331,
   1.0932527780532837,
   1.1060662269592285,
   0.80284583568572998,
   0.68278568983078003,
   1.5928032398223877,
   1.0993244647979736,
   1.2676975727081299,
   0.90642529726028442,
   0.70266622304916382,
   1.1367897987365723,
   1.631679892539978,
   1.2652833461761475,
   0.73146826028823853,
   1.3144289255142212,
   1.411907434463501,
   1.0191686153411865,
   1.4582493305206299,
   1.998470664024353
]
