[
   2.7078890800476074,
   2.7110114097595215,
   2.6977484226226807,
   2.7021012306213379,
   2.7019543647766113,
   2.7062559127807617,
   2.7077677249908447,
   2.7054386138916016,
   2.7003505229949951,
   2.7031865119934082,
   2.6948184967041016,
   2.6882889270782471,
   2.6843142509460449,
   2.6752359867095947,
   2.6648144721984863,
   2.6650958061218262,
   2.657224178314209,
   2.6485559940338135,
   2.6439695358276367,
   2.5879898071289062,
   2.5411441326141357,
   2.4902503490447998,
   2.4443106651306152,
   2.4061324596405029,
   2.3642385005950928,
   2.3333852291107178,
   2.2999505996704102,
   2.2725129127502441,
   2.0396158695220947,
   1.8830749988555908,
   1.7668802738189697,
   1.6799068450927734,
   1.6101219654083252,
   1.5509350299835205,
   1.5021384954452515,
   1.4506103992462158,
   1.4123140573501587,
   1.1949256658554077,
   1.1079046726226807,
   1.0653947591781616,
   1.0491888523101807,
   1.0407695770263672,
   1.0257397890090942,
   1.0223586559295654,
   1.0276237726211548,
   1.025368332862854,
   0.99936628341674805,
   0.99973213672637939,
   0.99374067783355713,
   0.99906939268112183,
   0.98933327198028564,
   0.99961340427398682,
   0.98246526718139648,
   0.99557840824127197,
   1.0019181966781616,
   1.0142396688461304,
   1.0200088024139404,
   1.0151673555374146,
   0.98271733522415161,
   0.99024498462677002,
   1.0028293132781982,
   0.94994223117828369,
   0.99555528163909912,
   0.98338109254837036
]
