[
   1.3396065235137939,
   1.3400974273681641,
   1.339444637298584,
   1.3398985862731934,
   1.3394953012466431,
   1.3393009901046753,
   1.3386671543121338,
   1.3392999172210693,
   1.3398090600967407,
   1.3400793075561523,
   1.3396942615509033,
   1.3402944803237915,
   1.3394852876663208,
   1.3382936716079712,
   1.3386161327362061,
   1.3386086225509644,
   1.3383902311325073,
   1.3381655216217041,
   1.3376083374023438,
   1.3358466625213623,
   1.3338931798934937,
   1.3327196836471558,
   1.3307644128799438,
   1.3290251493453979,
   1.3273241519927979,
   1.3251273632049561,
   1.3240611553192139,
   1.3226509094238281,
   1.309943675994873,
   1.2987855672836304,
   1.2891284227371216,
   1.2804425954818726,
   1.2728041410446167,
   1.264129638671875,
   1.256976842880249,
   1.2508672475814819,
   1.2428767681121826,
   1.1909091472625732,
   1.1540771722793579,
   1.1268866062164307,
   1.1131842136383057,
   1.096550464630127,
   1.0831397771835327,
   1.0741411447525024,
   1.0662822723388672,
   1.0603065490722656,
   1.029579758644104,
   1.008465051651001,
   1.0121023654937744,
   1.0001968145370483,
   0.994315505027771,
   0.99501883983612061,
   0.99257296323776245,
   1.0035821199417114,
   1.0014104843139648,
   1.0168263912200928,
   0.99190729856491089,
   0.99521207809448242,
   0.98855495452880859,
   1.0195536613464355,
   0.99053239822387695,
   0.982463538646698,
   0.94345742464065552,
   0.96890050172805786
]
