[
   1.3734451532363892,
   1.3740184307098389,
   1.3733093738555908,
   1.3740350008010864,
   1.3731915950775146,
   1.3731017112731934,
   1.3725990056991577,
   1.3731820583343506,
   1.3739373683929443,
   1.3740013837814331,
   1.3735097646713257,
   1.3741778135299683,
   1.3733128309249878,
   1.3719894886016846,
   1.3722934722900391,
   1.3722778558731079,
   1.371945858001709,
   1.371692419052124,
   1.3713116645812988,
   1.3691620826721191,
   1.3670334815979004,
   1.3652305603027344,
   1.363201379776001,
   1.3614143133163452,
   1.3593802452087402,
   1.3571690320968628,
   1.3557064533233643,
   1.3540394306182861,
   1.3394960165023804,
   1.3272826671600342,
   1.3158876895904541,
   1.3061592578887939,
   1.2973206043243408,
   1.287432074546814,
   1.2794544696807861,
   1.2724261283874512,
   1.2636511325836182,
   1.2052885293960571,
   1.1644141674041748,
   1.1346995830535889,
   1.1157948970794678,
   1.0980291366577148,
   1.0838663578033447,
   1.0742251873016357,
   1.0661420822143555,
   1.0604933500289917,
   1.0292919874191284,
   1.0078586339950562,
   1.0133488178253174,
   0.99842453002929688,
   0.993477463722229,
   0.99479258060455322,
   0.99269628524780273,
   1.0025006532669067,
   1.0001974105834961,
   1.0164803266525269,
   0.99021446704864502,
   0.99553024768829346,
   0.98779332637786865,
   1.0197573900222778,
   0.9898296594619751,
   0.98268824815750122,
   0.94379597902297974,
   0.97063243389129639
]
