[
   1.4140115976333618,
   1.4143726825714111,
   1.4138740301132202,
   1.4147756099700928,
   1.4136247634887695,
   1.4133470058441162,
   1.4132592678070068,
   1.4140052795410156,
   1.4145690202713013,
   1.4145252704620361,
   1.4136757850646973,
   1.4147695302963257,
   1.4137809276580811,
   1.4124712944030762,
   1.4124034643173218,
   1.4123313426971436,
   1.4120329618453979,
   1.4116975069046021,
   1.4115726947784424,
   1.4086929559707642,
   1.4065300226211548,
   1.4043529033660889,
   1.4020446538925171,
   1.3999199867248535,
   1.3974120616912842,
   1.3951488733291626,
   1.3931143283843994,
   1.3913236856460571,
   1.3748362064361572,
   1.360727071762085,
   1.3476860523223877,
   1.336040735244751,
   1.3259284496307373,
   1.3148385286331177,
   1.3054268360137939,
   1.2971140146255493,
   1.2873504161834717,
   1.2211207151412964,
   1.1756775379180908,
   1.1433397531509399,
   1.1191298961639404,
   1.1001025438308716,
   1.0851370096206665,
   1.0745373964309692,
   1.0666240453720093,
   1.0607759952545166,
   1.0289161205291748,
   1.0072731971740723,
   1.0141716003417969,
   0.99728286266326904,
   0.9923359751701355,
   0.99475133419036865,
   0.99175989627838135,
   1.0017943382263184,
   0.99878823757171631,
   1.0159900188446045,
   0.98969459533691406,
   0.99537068605422974,
   0.98709309101104736,
   1.0203174352645874,
   0.98896110057830811,
   0.98282468318939209,
   0.94259727001190186,
   0.97466307878494263
]
