[
   1.4919140338897705,
   1.4918222427368164,
   1.4923803806304932,
   1.4901629686355591,
   1.490214467048645,
   1.4907609224319458,
   1.4914381504058838,
   1.4916250705718994,
   1.4911701679229736,
   1.4902427196502686,
   1.4911800622940063,
   1.4901831150054932,
   1.4902608394622803,
   1.4900153875350952,
   1.4899579286575317,
   1.4901647567749023,
   1.4889414310455322,
   1.4878643751144409,
   1.4886032342910767,
   1.4850467443466187,
   1.4817373752593994,
   1.4796863794326782,
   1.4769290685653687,
   1.4738566875457764,
   1.4712932109832764,
   1.4693198204040527,
   1.465811014175415,
   1.4651520252227783,
   1.4454911947250366,
   1.4286899566650391,
   1.4141886234283447,
   1.400707483291626,
   1.3879941701889038,
   1.3765939474105835,
   1.3655834197998047,
   1.3561111688613892,
   1.3455884456634521,
   1.270638108253479,
   1.2199567556381226,
   1.1834328174591064,
   1.1547625064849854,
   1.1351990699768066,
   1.1188071966171265,
   1.1091682910919189,
   1.1002433300018311,
   1.0932481288909912,
   1.0411450862884521,
   1.0241096019744873,
   1.0261543989181519,
   1.015313982963562,
   1.003190279006958,
   1.0087066888809204,
   1.0141831636428833,
   1.0044478178024292,
   1.0009509325027466,
   0.98919999599456787,
   0.98682469129562378,
   0.98923337459564209,
   0.98643600940704346,
   0.97759377956390381,
   0.98849856853485107,
   0.98552161455154419,
   0.99433815479278564,
   0.95272570848464966
]
