[
   1.8094902038574219,
   1.8084070682525635,
   1.8085060119628906,
   1.8073530197143555,
   1.8079560995101929,
   1.8091624975204468,
   1.806929349899292,
   1.8084741830825806,
   1.806134819984436,
   1.8058925867080688,
   1.8078063726425171,
   1.8046014308929443,
   1.8056694269180298,
   1.8020093441009521,
   1.8024791479110718,
   1.801100492477417,
   1.8011710643768311,
   1.7980884313583374,
   1.7994922399520874,
   1.7930021286010742,
   1.7859888076782227,
   1.7778909206390381,
   1.771344780921936,
   1.7661987543106079,
   1.7580159902572632,
   1.7541860342025757,
   1.7485990524291992,
   1.742184042930603,
   1.6982371807098389,
   1.6599346399307251,
   1.6260055303573608,
   1.5951008796691895,
   1.5663607120513916,
   1.5420644283294678,
   1.5172569751739502,
   1.4962673187255859,
   1.4784668684005737,
   1.3388468027114868,
   1.2566841840744019,
   1.208287239074707,
   1.1700656414031982,
   1.1411405801773071,
   1.1169919967651367,
   1.1042273044586182,
   1.0858789682388306,
   1.0715405941009521,
   1.0177682638168335,
   1.0285012722015381,
   1.0120836496353149,
   0.99428653717041016,
   0.98486852645874023,
   0.99569875001907349,
   0.99410867691040039,
   0.99436318874359131,
   1.0117044448852539,
   0.98759967088699341,
   1.013957142829895,
   1.0025817155838013,
   0.9887620210647583,
   0.9917525053024292,
   0.99226713180541992,
   0.96753799915313721,
   0.92320966720581055,
   1.0445215702056885
]
