[
   1.3123266696929932,
   1.3124537467956543,
   1.3121187686920166,
   1.3124866485595703,
   1.3120267391204834,
   1.3120418787002563,
   1.3114330768585205,
   1.311855673789978,
   1.3124634027481079,
   1.3124746084213257,
   1.3122546672821045,
   1.3131402730941772,
   1.3120511770248413,
   1.3110167980194092,
   1.3113224506378174,
   1.3113291263580322,
   1.3110016584396362,
   1.3109883069992065,
   1.3103245496749878,
   1.3086875677108765,
   1.307086706161499,
   1.3061761856079102,
   1.3043451309204102,
   1.302862286567688,
   1.3013099431991577,
   1.2994716167449951,
   1.2986190319061279,
   1.2971780300140381,
   1.2859489917755127,
   1.2757964134216309,
   1.2673883438110352,
   1.2596447467803955,
   1.2527287006378174,
   1.2448539733886719,
   1.238578200340271,
   1.2328305244445801,
   1.2260100841522217,
   1.1789220571517944,
   1.1452300548553467,
   1.119873046875,
   1.1103708744049072,
   1.0947859287261963,
   1.0820090770721436,
   1.073462963104248,
   1.0660774707794189,
   1.0602216720581055,
   1.0298011302947998,
   1.0085917711257935,
   1.0107265710830688,
   1.0016164779663086,
   0.99534237384796143,
   0.99516934156417847,
   0.99227410554885864,
   1.0046548843383789,
   1.0023652315139771,
   1.0173991918563843,
   0.99318945407867432,
   0.99467706680297852,
   0.98932570219039917,
   1.0190608501434326,
   0.99103611707687378,
   0.98199367523193359,
   0.94428712129592896,
   0.96750384569168091
]
