[
   1.6079336404800415,
   1.607898473739624,
   1.6089861392974854,
   1.6069595813751221,
   1.6084665060043335,
   1.6082985401153564,
   1.6084117889404297,
   1.6080725193023682,
   1.6077325344085693,
   1.6093488931655884,
   1.6073615550994873,
   1.6059563159942627,
   1.6050723791122437,
   1.6060320138931274,
   1.6053451299667358,
   1.6070741415023804,
   1.6052043437957764,
   1.6026471853256226,
   1.6032615900039673,
   1.599578857421875,
   1.596577525138855,
   1.5903222560882568,
   1.587369441986084,
   1.5839002132415771,
   1.5794566869735718,
   1.5756416320800781,
   1.5722633600234985,
   1.5696097612380981,
   1.5401601791381836,
   1.5155996084213257,
   1.4949171543121338,
   1.4752980470657349,
   1.4576342105865479,
   1.4401509761810303,
   1.4264905452728271,
   1.4112914800643921,
   1.3972289562225342,
   1.2989099025726318,
   1.2328286170959473,
   1.188065767288208,
   1.1554933786392212,
   1.1332933902740479,
   1.1120223999023438,
   1.0993220806121826,
   1.0866495370864868,
   1.0794721841812134,
   1.027649998664856,
   1.0192587375640869,
   1.0094709396362305,
   1.0137559175491333,
   1.0091210603713989,
   1.0072634220123291,
   1.0006940364837646,
   1.0068352222442627,
   0.99355614185333252,
   0.99676001071929932,
   1.0003366470336914,
   1.0050827264785767,
   1.0070701837539673,
   0.95410078763961792,
   0.96474158763885498,
   0.95615482330322266,
   0.98665314912796021,
   0.99388349056243896
]
