[
   4.1376276016235352,
   4.1356682777404785,
   4.1458706855773926,
   4.1284751892089844,
   4.1465883255004883,
   4.1404180526733398,
   4.1346721649169922,
   4.1280522346496582,
   4.1284704208374023,
   4.1292319297790527,
   4.1142721176147461,
   4.0991497039794922,
   4.092799186706543,
   4.0677938461303711,
   4.0494632720947266,
   4.0512967109680176,
   4.0364217758178711,
   4.0098299980163574,
   3.9974479675292969,
   3.8888745307922363,
   3.7814342975616455,
   3.6851913928985596,
   3.6188349723815918,
   3.536898136138916,
   3.471895694732666,
   3.4066967964172363,
   3.3608016967773438,
   3.2854907512664795,
   2.8880696296691895,
   2.5894889831542969,
   2.3669600486755371,
   2.202465295791626,
   2.0645604133605957,
   1.9589399099349976,
   1.8603918552398682,
   1.7744801044464111,
   1.7216542959213257,
   1.3527295589447021,
   1.2376097440719604,
   1.1470321416854858,
   1.10152268409729,
   1.0659803152084351,
   1.0362780094146729,
   1.0365514755249023,
   1.0374805927276611,
   1.0327537059783936,
   0.97770416736602783,
   0.99533736705780029,
   0.9835820198059082,
   1.0218756198883057,
   0.98789513111114502,
   0.99525964260101318,
   1.0166043043136597,
   1.0187487602233887,
   1.0007054805755615,
   0.98411434888839722,
   0.99348533153533936,
   0.99442517757415771,
   1.02338707447052,
   0.96352100372314453,
   0.94977807998657227,
   0.90493857860565186,
   1.0315697193145752,
   0.97827643156051636
]
