[
   2.3847441673278809,
   2.3861861228942871,
   2.3847737312316895,
   2.382601261138916,
   2.3844022750854492,
   2.3837006092071533,
   2.3814151287078857,
   2.3814835548400879,
   2.3853228092193604,
   2.3802776336669922,
   2.3785319328308105,
   2.3724474906921387,
   2.3716363906860352,
   2.3663592338562012,
   2.3594164848327637,
   2.3592796325683594,
   2.3503947257995605,
   2.3517346382141113,
   2.3467488288879395,
   2.3097071647644043,
   2.2799811363220215,
   2.249725341796875,
   2.2218425273895264,
   2.1983845233917236,
   2.1744446754455566,
   2.1474981307983398,
   2.1309523582458496,
   2.1169524192810059,
   1.9609533548355103,
   1.8523021936416626,
   1.7594188451766968,
   1.6874196529388428,
   1.6251589059829712,
   1.5716292858123779,
   1.5259261131286621,
   1.4885901212692261,
   1.4526865482330322,
   1.2443168163299561,
   1.1481249332427979,
   1.1010236740112305,
   1.0738303661346436,
   1.0541226863861084,
   1.0357972383499146,
   1.0275236368179321,
   1.0164567232131958,
   1.0151407718658447,
   1.012565016746521,
   0.98469734191894531,
   0.98767930269241333,
   0.99482595920562744,
   0.98991000652313232,
   0.99564611911773682,
   0.98486822843551636,
   0.97966146469116211,
   0.9910547137260437,
   0.99605453014373779,
   0.97695338726043701,
   0.975577712059021,
   1.0008387565612793,
   1.0134053230285645,
   1.0368797779083252,
   1.0596076250076294,
   1.0853939056396484,
   1.0127726793289185
]
