[
   2.7354185581207275,
   2.7351996898651123,
   2.7348155975341797,
   2.732205867767334,
   2.7277407646179199,
   2.7301516532897949,
   2.7328293323516846,
   2.7299141883850098,
   2.7291369438171387,
   2.7302019596099854,
   2.7201647758483887,
   2.7138652801513672,
   2.7083711624145508,
   2.6993231773376465,
   2.7001612186431885,
   2.6937754154205322,
   2.6893661022186279,
   2.6806550025939941,
   2.6764025688171387,
   2.6310360431671143,
   2.5871779918670654,
   2.5410373210906982,
   2.5025389194488525,
   2.4660320281982422,
   2.437067985534668,
   2.4081733226776123,
   2.3766078948974609,
   2.3522152900695801,
   2.1525967121124268,
   1.9947410821914673,
   1.8865801095962524,
   1.7887933254241943,
   1.7110999822616577,
   1.6415507793426514,
   1.5854015350341797,
   1.5346380472183228,
   1.4925678968429565,
   1.2617200613021851,
   1.1586916446685791,
   1.1234418153762817,
   1.0879611968994141,
   1.0595844984054565,
   1.0467952489852905,
   1.0478112697601318,
   1.0345542430877686,
   1.0311161279678345,
   0.99935036897659302,
   1.0197365283966064,
   1.0101827383041382,
   0.97395163774490356,
   0.99562442302703857,
   1.0144368410110474,
   1.0067785978317261,
   0.9922720193862915,
   1.0056231021881104,
   0.97002136707305908,
   0.98745983839035034,
   0.99693554639816284,
   1.0060572624206543,
   0.98668003082275391,
   1.0010014772415161,
   0.97935140132904053,
   0.95707100629806519,
   0.95599347352981567
]
