[
   1.4852712154388428,
   1.4840668439865112,
   1.4832651615142822,
   1.4838296175003052,
   1.4829250574111938,
   1.4850635528564453,
   1.4837267398834229,
   1.4836353063583374,
   1.4840009212493896,
   1.4839750528335571,
   1.4830173254013062,
   1.4815462827682495,
   1.4813086986541748,
   1.4807050228118896,
   1.4791933298110962,
   1.4792693853378296,
   1.4778389930725098,
   1.4772516489028931,
   1.4771113395690918,
   1.470213770866394,
   1.4619557857513428,
   1.4554014205932617,
   1.4498564004898071,
   1.4448955059051514,
   1.4391450881958008,
   1.4338734149932861,
   1.4292125701904297,
   1.4226844310760498,
   1.3815667629241943,
   1.3506935834884644,
   1.3251141309738159,
   1.303661584854126,
   1.2833772897720337,
   1.2663518190383911,
   1.2519985437393188,
   1.2388801574707031,
   1.2276260852813721,
   1.1480565071105957,
   1.1052103042602539,
   1.0789667367935181,
   1.0593103170394897,
   1.0459274053573608,
   1.0357592105865479,
   1.0277096033096313,
   1.0194072723388672,
   1.0156607627868652,
   0.99297207593917847,
   0.99708116054534912,
   0.99504363536834717,
   1.0026065111160278,
   0.99025458097457886,
   0.9908478856086731,
   1.0027314424514771,
   1.0000160932540894,
   1.0035666227340698,
   1.0094972848892212,
   1.0005394220352173,
   1.0003678798675537,
   0.99617272615432739,
   0.99630868434906006,
   0.99219018220901489,
   0.97890537977218628,
   0.9700663685798645,
   0.97903883457183838
]
