[
   2.188788890838623,
   2.1866626739501953,
   2.1850540637969971,
   2.1824040412902832,
   2.1848721504211426,
   2.184356689453125,
   2.1851935386657715,
   2.18587327003479,
   2.1880555152893066,
   2.1808888912200928,
   2.1807830333709717,
   2.1756942272186279,
   2.1753144264221191,
   2.1723952293395996,
   2.1684255599975586,
   2.1641597747802734,
   2.1626355648040771,
   2.1561458110809326,
   2.1581296920776367,
   2.1296172142028809,
   2.1007099151611328,
   2.081789493560791,
   2.0564532279968262,
   2.0383129119873047,
   2.0198163986206055,
   2.0012650489807129,
   1.9836994409561157,
   1.9690803289413452,
   1.841966986656189,
   1.7500524520874023,
   1.6734119653701782,
   1.6114206314086914,
   1.5625594854354858,
   1.5182783603668213,
   1.4813603162765503,
   1.4471324682235718,
   1.4157254695892334,
   1.2344214916229248,
   1.1475899219512939,
   1.1083590984344482,
   1.0833628177642822,
   1.0676579475402832,
   1.0529100894927979,
   1.0377540588378906,
   1.0351059436798096,
   1.0193808078765869,
   1.0017387866973877,
   0.99374788999557495,
   0.99379646778106689,
   0.98348557949066162,
   1.0007706880569458,
   0.98332959413528442,
   0.99140387773513794,
   0.99203288555145264,
   0.98377573490142822,
   0.99217879772186279,
   0.98497706651687622,
   0.97055596113204956,
   0.97848927974700928,
   1.0140087604522705,
   1.0363924503326416,
   1.0296119451522827,
   1.0640929937362671,
   1.0894931554794312
]
