[
   1.9702255725860596,
   1.9712512493133545,
   1.9715820550918579,
   1.9695889949798584,
   1.9691770076751709,
   1.9689363241195679,
   1.9689881801605225,
   1.9688408374786377,
   1.9693237543106079,
   1.9675486087799072,
   1.9658262729644775,
   1.9617025852203369,
   1.959071159362793,
   1.9554630517959595,
   1.9584217071533203,
   1.9555740356445312,
   1.9527044296264648,
   1.9491889476776123,
   1.9497302770614624,
   1.9270164966583252,
   1.9064165353775024,
   1.8913877010345459,
   1.8732656240463257,
   1.859020471572876,
   1.8462173938751221,
   1.831027626991272,
   1.8181499242782593,
   1.8083165884017944,
   1.7059227228164673,
   1.6351878643035889,
   1.5762408971786499,
   1.5250028371810913,
   1.486512303352356,
   1.4519846439361572,
   1.420254111289978,
   1.3925822973251343,
   1.3673069477081299,
   1.2155208587646484,
   1.1400693655014038,
   1.1055901050567627,
   1.086006760597229,
   1.0682581663131714,
   1.0535166263580322,
   1.0427209138870239,
   1.0353004932403564,
   1.0290460586547852,
   1.0035712718963623,
   0.99433976411819458,
   1.0069801807403564,
   1.0113946199417114,
   0.98547667264938354,
   0.99575674533843994,
   0.9987066388130188,
   0.99365633726119995,
   0.98978441953659058,
   0.99240952730178833,
   0.98949956893920898,
   0.983714759349823,
   0.99239766597747803,
   1.0000289678573608,
   0.99499082565307617,
   1.0307289361953735,
   1.0082817077636719,
   0.97424030303955078
]
