[
   1.8189589977264404,
   1.8196389675140381,
   1.8192850351333618,
   1.8182723522186279,
   1.8182529211044312,
   1.8202476501464844,
   1.8175003528594971,
   1.8189035654067993,
   1.8185088634490967,
   1.8158066272735596,
   1.8156623840332031,
   1.8157463073730469,
   1.8145910501480103,
   1.8106234073638916,
   1.8103525638580322,
   1.806287407875061,
   1.805519700050354,
   1.8043508529663086,
   1.8025290966033936,
   1.7863578796386719,
   1.7694486379623413,
   1.7585277557373047,
   1.7427093982696533,
   1.7316815853118896,
   1.7196712493896484,
   1.7092549800872803,
   1.6970069408416748,
   1.6874593496322632,
   1.6078627109527588,
   1.5463064908981323,
   1.4970462322235107,
   1.4577434062957764,
   1.42388916015625,
   1.3932504653930664,
   1.3669480085372925,
   1.3444292545318604,
   1.3232433795928955,
   1.1917756795883179,
   1.1265366077423096,
   1.0902141332626343,
   1.0670068264007568,
   1.0515415668487549,
   1.0417881011962891,
   1.0367432832717896,
   1.0277667045593262,
   1.0217236280441284,
   1.0017541646957397,
   1.00274658203125,
   0.98865717649459839,
   1.0026428699493408,
   0.99608767032623291,
   0.9980158805847168,
   0.99270820617675781,
   0.99465453624725342,
   1.0047452449798584,
   0.99710762500762939,
   1.0193153619766235,
   1.0027573108673096,
   1.0022615194320679,
   0.97659730911254883,
   0.97583389282226562,
   0.96884888410568237,
   0.96959477663040161,
   0.93813610076904297
]
