[
   1.5680555105209351,
   1.5681531429290771,
   1.5680047273635864,
   1.5666265487670898,
   1.5670328140258789,
   1.5667068958282471,
   1.5665556192398071,
   1.5673472881317139,
   1.5662744045257568,
   1.5667241811752319,
   1.5661665201187134,
   1.5670062303543091,
   1.5645157098770142,
   1.5635607242584229,
   1.5616694688796997,
   1.5618501901626587,
   1.5594382286071777,
   1.5589926242828369,
   1.5583608150482178,
   1.5486353635787964,
   1.5386613607406616,
   1.5318788290023804,
   1.5235927104949951,
   1.5139777660369873,
   1.5074919462203979,
   1.5013666152954102,
   1.495168924331665,
   1.4887363910675049,
   1.4372074604034424,
   1.3975400924682617,
   1.3658583164215088,
   1.3370519876480103,
   1.3153022527694702,
   1.2954219579696655,
   1.2759629487991333,
   1.2607961893081665,
   1.2469402551651001,
   1.1485955715179443,
   1.0983132123947144,
   1.0697391033172607,
   1.0497511625289917,
   1.0409988164901733,
   1.0280243158340454,
   1.02089524269104,
   1.0149288177490234,
   1.0112874507904053,
   0.99499446153640747,
   0.99720203876495361,
   1.0037379264831543,
   0.99288046360015869,
   0.99685764312744141,
   1.0074269771575928,
   1.0070762634277344,
   0.99407577514648438,
   0.9948195219039917,
   0.99086016416549683,
   0.98578089475631714,
   0.98578453063964844,
   0.99822962284088135,
   0.997902512550354,
   1.0067464113235474,
   1.0169742107391357,
   1.0350039005279541,
   0.99899780750274658
]
