[
   21.198993682861328,
   21.25419807434082,
   21.267292022705078,
   21.058916091918945,
   21.081405639648438,
   20.96583366394043,
   21.146465301513672,
   21.073715209960938,
   20.94169807434082,
   20.966625213623047,
   20.653617858886719,
   20.309207916259766,
   20.158428192138672,
   19.736385345458984,
   19.501096725463867,
   19.332710266113281,
   19.190853118896484,
   18.735584259033203,
   18.603338241577148,
   16.967411041259766,
   15.464139938354492,
   14.363163948059082,
   13.378067016601562,
   12.53559398651123,
   11.760571479797363,
   10.967254638671875,
   10.435731887817383,
   9.9228487014770508,
   6.6661086082458496,
   5.0530571937561035,
   4.0342855453491211,
   3.3495612144470215,
   3.0278756618499756,
   2.7023544311523438,
   2.5400469303131104,
   2.2839334011077881,
   2.1199345588684082,
   1.5080339908599854,
   1.2481241226196289,
   1.1555076837539673,
   1.2181867361068726,
   1.0900226831436157,
   0.95243489742279053,
   1.0021624565124512,
   1.0487258434295654,
   1.0202112197875977,
   0.99518889188766479,
   1.0560917854309082,
   1.0337954759597778,
   0.94476234912872314,
   0.90104752779006958,
   0.93268632888793945,
   1.1592682600021362,
   1.0495394468307495,
   0.96719396114349365,
   0.96549618244171143,
   1.0351423025131226,
   1.067064642906189,
   0.96580886840820312,
   0.96996384859085083,
   1.0931714773178101,
   0.9996868371963501,
   0.73363876342773438,
   0.60968863964080811
]
