[
   1.7280452251434326,
   1.7289056777954102,
   1.7289049625396729,
   1.7282721996307373,
   1.7280353307723999,
   1.7279590368270874,
   1.7272670269012451,
   1.7278293371200562,
   1.7269357442855835,
   1.7264900207519531,
   1.7247873544692993,
   1.7259782552719116,
   1.7205873727798462,
   1.7225933074951172,
   1.7204620838165283,
   1.7186237573623657,
   1.7152755260467529,
   1.7142751216888428,
   1.7142918109893799,
   1.7014119625091553,
   1.6857602596282959,
   1.6726453304290771,
   1.66213059425354,
   1.6522114276885986,
   1.6436010599136353,
   1.6337583065032959,
   1.623390793800354,
   1.6141761541366577,
   1.543495774269104,
   1.4895251989364624,
   1.4467880725860596,
   1.4124219417572021,
   1.3829400539398193,
   1.3529256582260132,
   1.3297563791275024,
   1.3091180324554443,
   1.2903501987457275,
   1.170762300491333,
   1.112291693687439,
   1.0790170431137085,
   1.0575931072235107,
   1.0405118465423584,
   1.0295056104660034,
   1.0286324024200439,
   1.0252104997634888,
   1.0179507732391357,
   1.0010440349578857,
   0.99990451335906982,
   1.0039889812469482,
   1.001194953918457,
   0.99949246644973755,
   0.99581003189086914,
   0.98955124616622925,
   0.9870569109916687,
   0.99065124988555908,
   0.98782742023468018,
   0.99103033542633057,
   0.9902578592300415,
   0.99136954545974731,
   1.0003441572189331,
   1.0288683176040649,
   1.0231993198394775,
   1.0218571424484253,
   1.0409880876541138
]
