[
   1.5515196323394775,
   1.5515321493148804,
   1.5512039661407471,
   1.5505225658416748,
   1.5505506992340088,
   1.5495355129241943,
   1.5508468151092529,
   1.5504276752471924,
   1.5499240159988403,
   1.5506899356842041,
   1.5499125719070435,
   1.5489873886108398,
   1.5496485233306885,
   1.5478509664535522,
   1.547687292098999,
   1.5468616485595703,
   1.5456421375274658,
   1.5456634759902954,
   1.5445687770843506,
   1.5373605489730835,
   1.5322363376617432,
   1.5271118879318237,
   1.5219199657440186,
   1.5165601968765259,
   1.5106511116027832,
   1.5064741373062134,
   1.5030860900878906,
   1.4972074031829834,
   1.4579246044158936,
   1.4273756742477417,
   1.4018580913543701,
   1.3780488967895508,
   1.356843113899231,
   1.3382960557937622,
   1.3215203285217285,
   1.306342601776123,
   1.2912516593933105,
   1.1926206350326538,
   1.1388448476791382,
   1.1043912172317505,
   1.0804965496063232,
   1.0615171194076538,
   1.0530025959014893,
   1.0456435680389404,
   1.0377576351165771,
   1.0381095409393311,
   1.0115267038345337,
   1.0058213472366333,
   1.0033719539642334,
   0.99676895141601562,
   0.9994044303894043,
   0.99583661556243896,
   0.99490374326705933,
   0.9990086555480957,
   0.99405306577682495,
   0.99342715740203857,
   1.0052319765090942,
   1.0051407814025879,
   0.99188691377639771,
   1.013984203338623,
   0.99081170558929443,
   1.0061460733413696,
   0.97647655010223389,
   0.98136818408966064
]
