[
   2.1845707893371582,
   2.1866235733032227,
   2.1849310398101807,
   2.1864721775054932,
   2.1819701194763184,
   2.1863081455230713,
   2.1818203926086426,
   2.1857056617736816,
   2.1828761100769043,
   2.1824252605438232,
   2.1800088882446289,
   2.1785368919372559,
   2.1754598617553711,
   2.1692860126495361,
   2.1724207401275635,
   2.1668119430541992,
   2.1678609848022461,
   2.1638257503509521,
   2.1622655391693115,
   2.13883376121521,
   2.121896505355835,
   2.1038331985473633,
   2.0862483978271484,
   2.0715043544769287,
   2.0559539794921875,
   2.0416548252105713,
   2.0269150733947754,
   2.0143775939941406,
   1.9003368616104126,
   1.8108199834823608,
   1.741058349609375,
   1.6795861721038818,
   1.6272239685058594,
   1.5768277645111084,
   1.5375235080718994,
   1.5038391351699829,
   1.4713027477264404,
   1.2778692245483398,
   1.1944043636322021,
   1.1258031129837036,
   1.0893043279647827,
   1.0735933780670166,
   1.0539801120758057,
   1.0475156307220459,
   1.0375216007232666,
   1.0237139463424683,
   1.009223461151123,
   0.99818974733352661,
   1.0077040195465088,
   1.0134580135345459,
   1.0032833814620972,
   1.0113770961761475,
   1.0070239305496216,
   1.0031158924102783,
   1.0112851858139038,
   0.97238796949386597,
   0.97024834156036377,
   0.98806428909301758,
   0.98463410139083862,
   0.99865657091140747,
   1.0182106494903564,
   1.0234837532043457,
   1.0357139110565186,
   1.0378632545471191
]
