[
   1.4836575984954834,
   1.4833829402923584,
   1.4830431938171387,
   1.4830925464630127,
   1.4827316999435425,
   1.4835306406021118,
   1.4826903343200684,
   1.4823529720306396,
   1.4828355312347412,
   1.4838413000106812,
   1.4826052188873291,
   1.4819090366363525,
   1.4803951978683472,
   1.4800094366073608,
   1.480344295501709,
   1.4783722162246704,
   1.4785505533218384,
   1.4781254529953003,
   1.4780588150024414,
   1.472541332244873,
   1.4677224159240723,
   1.4623012542724609,
   1.4577537775039673,
   1.4536309242248535,
   1.4490082263946533,
   1.4449466466903687,
   1.4411182403564453,
   1.4378077983856201,
   1.4048672914505005,
   1.3799904584884644,
   1.357292652130127,
   1.3384106159210205,
   1.3200154304504395,
   1.3044406175613403,
   1.28871750831604,
   1.2758108377456665,
   1.2630817890167236,
   1.1788172721862793,
   1.1284935474395752,
   1.0948885679244995,
   1.0744028091430664,
   1.0623886585235596,
   1.0515573024749756,
   1.046100378036499,
   1.039952278137207,
   1.0371071100234985,
   1.0058548450469971,
   0.99894630908966064,
   0.99730598926544189,
   0.99053347110748291,
   0.99795961380004883,
   0.99804544448852539,
   0.99616944789886475,
   0.98616456985473633,
   0.99385404586791992,
   0.99213707447052002,
   1.0005650520324707,
   1.0082616806030273,
   0.99848449230194092,
   0.98002403974533081,
   0.975108802318573,
   0.96792697906494141,
   1.0316154956817627,
   1.0398898124694824
]
