[
   1.4047030210494995,
   1.4045588970184326,
   1.4028333425521851,
   1.4043465852737427,
   1.4035112857818604,
   1.4040114879608154,
   1.4039179086685181,
   1.4041904211044312,
   1.4039115905761719,
   1.4043190479278564,
   1.4031769037246704,
   1.4028984308242798,
   1.4022058248519897,
   1.4022221565246582,
   1.4017040729522705,
   1.4008138179779053,
   1.4006834030151367,
   1.4010401964187622,
   1.4000638723373413,
   1.3965177536010742,
   1.3926889896392822,
   1.3890450000762939,
   1.3864161968231201,
   1.3827520608901978,
   1.3798148632049561,
   1.3771121501922607,
   1.3742343187332153,
   1.370741605758667,
   1.3465192317962646,
   1.3273559808731079,
   1.3101694583892822,
   1.2960275411605835,
   1.2816308736801147,
   1.2695550918579102,
   1.2584044933319092,
   1.2473561763763428,
   1.2376056909561157,
   1.1684094667434692,
   1.1253130435943604,
   1.0971347093582153,
   1.0781004428863525,
   1.0629396438598633,
   1.0511430501937866,
   1.0432360172271729,
   1.0347840785980225,
   1.0318570137023926,
   1.0107018947601318,
   0.99529421329498291,
   0.99324262142181396,
   0.99314773082733154,
   1.0042811632156372,
   0.995078444480896,
   0.99874937534332275,
   0.99207067489624023,
   0.99584120512008667,
   0.99020546674728394,
   0.9874032735824585,
   0.9870142936706543,
   0.98916465044021606,
   1.012567400932312,
   1.0145056247711182,
   1.0168716907501221,
   1.0189378261566162,
   1.0185267925262451
]
