[
   1.6875938177108765,
   1.6871702671051025,
   1.6863323450088501,
   1.685699462890625,
   1.6875970363616943,
   1.6853879690170288,
   1.6853387355804443,
   1.6851794719696045,
   1.6860389709472656,
   1.6861598491668701,
   1.6848354339599609,
   1.6845352649688721,
   1.6826114654541016,
   1.6805393695831299,
   1.6805448532104492,
   1.6791133880615234,
   1.6783478260040283,
   1.6770925521850586,
   1.6767250299453735,
   1.6680161952972412,
   1.6599280834197998,
   1.6526920795440674,
   1.6445589065551758,
   1.6371400356292725,
   1.6306673288345337,
   1.6256300210952759,
   1.6157562732696533,
   1.6120169162750244,
   1.559231162071228,
   1.5161492824554443,
   1.4823033809661865,
   1.450427770614624,
   1.4237879514694214,
   1.400195837020874,
   1.3764245510101318,
   1.3578722476959229,
   1.3388601541519165,
   1.2167791128158569,
   1.1532230377197266,
   1.1166093349456787,
   1.0883209705352783,
   1.0753892660140991,
   1.0596634149551392,
   1.0483212471008301,
   1.0395686626434326,
   1.0337998867034912,
   1.0150461196899414,
   1.0070701837539673,
   0.99819612503051758,
   0.99115657806396484,
   0.99202919006347656,
   0.99087065458297729,
   0.98948752880096436,
   0.99397218227386475,
   0.9915848970413208,
   1.0066756010055542,
   1.0107491016387939,
   0.97544181346893311,
   1.002368688583374,
   1.0118691921234131,
   1.0267593860626221,
   0.99367034435272217,
   0.96167385578155518,
   1.002509593963623
]
