[
   4.1754627227783203,
   4.1622271537780762,
   4.176755428314209,
   4.1723809242248535,
   4.1743955612182617,
   4.1661486625671387,
   4.1606078147888184,
   4.166409969329834,
   4.1728634834289551,
   4.174992561340332,
   4.145939826965332,
   4.1294384002685547,
   4.1359243392944336,
   4.120152473449707,
   4.0893559455871582,
   4.0854597091674805,
   4.0857291221618652,
   4.0686450004577637,
   4.0509738922119141,
   3.9482598304748535,
   3.8512511253356934,
   3.7640082836151123,
   3.692232608795166,
   3.602724552154541,
   3.5472922325134277,
   3.4775848388671875,
   3.4306557178497314,
   3.3637118339538574,
   2.9157438278198242,
   2.6048684120178223,
   2.3696861267089844,
   2.2036516666412354,
   2.0587315559387207,
   1.9430164098739624,
   1.8544445037841797,
   1.7911466360092163,
   1.7176542282104492,
   1.3872082233428955,
   1.2498137950897217,
   1.1842471361160278,
   1.1273114681243896,
   1.1012179851531982,
   1.0846692323684692,
   1.0501682758331299,
   1.0497936010360718,
   1.0430018901824951,
   1.0438520908355713,
   0.98804938793182373,
   0.97447717189788818,
   1.0164458751678467,
   0.969565749168396,
   0.99280226230621338,
   0.97969895601272583,
   0.99810904264450073,
   0.99570941925048828,
   0.98671740293502808,
   0.99261391162872314,
   0.97431260347366333,
   1.0441223382949829,
   1.0079034566879272,
   0.97208642959594727,
   0.96648585796356201,
   1.0308749675750732,
   1.0134809017181396
]
