[
   1.6313257217407227,
   1.6301829814910889,
   1.6303501129150391,
   1.6306740045547485,
   1.6284528970718384,
   1.6301672458648682,
   1.6302928924560547,
   1.6302690505981445,
   1.6296861171722412,
   1.6296331882476807,
   1.6288316249847412,
   1.6285585165023804,
   1.6271429061889648,
   1.6273180246353149,
   1.6258827447891235,
   1.6257801055908203,
   1.6250674724578857,
   1.6234861612319946,
   1.6225904226303101,
   1.6159074306488037,
   1.6088311672210693,
   1.6020845174789429,
   1.5964871644973755,
   1.5894443988800049,
   1.5837948322296143,
   1.5792983770370483,
   1.5741845369338989,
   1.5695339441299438,
   1.5247471332550049,
   1.4885950088500977,
   1.459395170211792,
   1.4318803548812866,
   1.4092552661895752,
   1.3881653547286987,
   1.3702512979507446,
   1.3533490896224976,
   1.3359768390655518,
   1.2274768352508545,
   1.1686052083969116,
   1.1243131160736084,
   1.0943243503570557,
   1.0796369314193726,
   1.0666129589080811,
   1.0532734394073486,
   1.0442798137664795,
   1.0416543483734131,
   1.0097124576568604,
   0.99661815166473389,
   0.99709910154342651,
   0.98248350620269775,
   0.99728852510452271,
   0.99597561359405518,
   1.0006765127182007,
   0.99161922931671143,
   0.99266844987869263,
   1.001081109046936,
   0.99373644590377808,
   0.98924064636230469,
   1.0017216205596924,
   0.9773174524307251,
   1.0139681100845337,
   1.0225675106048584,
   1.0027704238891602,
   1.0055468082427979
]
