[
   40.538745880126953,
   40.065677642822266,
   39.529552459716797,
   39.791152954101562,
   39.875644683837891,
   39.318004608154297,
   39.325569152832031,
   39.399692535400391,
   39.042415618896484,
   38.900009155273438,
   37.570533752441406,
   36.343776702880859,
   35.459629058837891,
   34.389213562011719,
   33.547420501708984,
   32.697883605957031,
   32.094226837158203,
   31.439907073974609,
   30.554758071899414,
   24.688312530517578,
   20.889505386352539,
   18.07054328918457,
   15.817207336425781,
   13.91517162322998,
   12.818097114562988,
   11.677239418029785,
   10.723700523376465,
   9.9824943542480469,
   5.9214916229248047,
   4.2647542953491211,
   3.5632414817810059,
   3.0794715881347656,
   2.8218779563903809,
   2.4406561851501465,
   2.1817786693572998,
   2.1314873695373535,
   1.9420477151870728,
   1.4235236644744873,
   1.3454155921936035,
   1.1853315830230713,
   1.1564968824386597,
   0.85717928409576416,
   1.0783886909484863,
   1.1172609329223633,
   1.0131529569625854,
   1.0370715856552124,
   1.069092869758606,
   0.9696124792098999,
   0.94662272930145264,
   0.99065017700195312,
   0.87617415189743042,
   0.95554721355438232,
   0.95180875062942505,
   1.0100611448287964,
   1.0176112651824951,
   1.0024325847625732,
   1.0464451313018799,
   0.92085540294647217,
   0.92197912931442261,
   0.98368942737579346,
   1.1627949476242065,
   0.83702260255813599,
   0.84426307678222656,
   1.2218532562255859
]
