[
   2.3259167671203613,
   2.327235221862793,
   2.327925443649292,
   2.3271243572235107,
   2.3260552883148193,
   2.328441858291626,
   2.3274760246276855,
   2.3265118598937988,
   2.3266537189483643,
   2.3250584602355957,
   2.3191583156585693,
   2.3150196075439453,
   2.311516284942627,
   2.3124337196350098,
   2.3055217266082764,
   2.3005201816558838,
   2.2967867851257324,
   2.2971749305725098,
   2.2934620380401611,
   2.2587246894836426,
   2.2340273857116699,
   2.209928035736084,
   2.1824698448181152,
   2.155853271484375,
   2.1391103267669678,
   2.1201777458190918,
   2.1023681163787842,
   2.0835602283477783,
   1.9456746578216553,
   1.8441530466079712,
   1.7649879455566406,
   1.6985185146331787,
   1.6391655206680298,
   1.5907739400863647,
   1.5414571762084961,
   1.5049960613250732,
   1.4726893901824951,
   1.2692372798919678,
   1.1772842407226562,
   1.122073769569397,
   1.0882135629653931,
   1.0645852088928223,
   1.0436832904815674,
   1.0411062240600586,
   1.0388449430465698,
   1.0263248682022095,
   1.00380539894104,
   1.0054422616958618,
   1.0146629810333252,
   0.99506455659866333,
   0.98618191480636597,
   1.0165691375732422,
   1.0024001598358154,
   0.99407005310058594,
   0.98746621608734131,
   0.97736358642578125,
   0.95563328266143799,
   0.95701742172241211,
   0.98069143295288086,
   0.99115467071533203,
   1.0074813365936279,
   1.0891191959381104,
   1.1096112728118896,
   1.0527980327606201
]
