[
   3.2001736164093018,
   3.1973187923431396,
   3.1959095001220703,
   3.1870112419128418,
   3.1915109157562256,
   3.1924624443054199,
   3.1909763813018799,
   3.1935102939605713,
   3.1881277561187744,
   3.1956241130828857,
   3.1877429485321045,
   3.1718852519989014,
   3.1652452945709229,
   3.1601109504699707,
   3.1527426242828369,
   3.1470463275909424,
   3.1351611614227295,
   3.1306910514831543,
   3.1188259124755859,
   3.0615780353546143,
   2.9986104965209961,
   2.9545965194702148,
   2.9002361297607422,
   2.861142635345459,
   2.821373462677002,
   2.7926616668701172,
   2.7541947364807129,
   2.7167017459869385,
   2.4669718742370605,
   2.2768979072570801,
   2.122316837310791,
   2.0082898139953613,
   1.9051183462142944,
   1.8245776891708374,
   1.7494924068450928,
   1.6859071254730225,
   1.6261507272720337,
   1.3231760263442993,
   1.2088876962661743,
   1.1533684730529785,
   1.1060545444488525,
   1.0912599563598633,
   1.0718632936477661,
   1.0598317384719849,
   1.042845606803894,
   1.0350685119628906,
   1.0208535194396973,
   1.0088803768157959,
   1.0063250064849854,
   1.0103614330291748,
   1.0063362121582031,
   1.0024945735931396,
   0.99031227827072144,
   1.0067794322967529,
   1.0141738653182983,
   0.99008572101593018,
   0.96911591291427612,
   0.99357831478118896,
   1.0106509923934937,
   1.00313401222229,
   0.99979531764984131,
   0.99418479204177856,
   1.1495101451873779,
   1.0018011331558228
]
