[
   2.1202695369720459,
   2.121037483215332,
   2.1160030364990234,
   2.1178727149963379,
   2.1198351383209229,
   2.1177945137023926,
   2.118567943572998,
   2.1175458431243896,
   2.1157739162445068,
   2.1130857467651367,
   2.1131739616394043,
   2.1108596324920654,
   2.1091599464416504,
   2.1053814888000488,
   2.1028943061828613,
   2.1013014316558838,
   2.0984854698181152,
   2.0929436683654785,
   2.093050479888916,
   2.0688414573669434,
   2.0464432239532471,
   2.0272078514099121,
   2.0081067085266113,
   1.9890801906585693,
   1.9737675189971924,
   1.95566725730896,
   1.9408708810806274,
   1.9280636310577393,
   1.8178657293319702,
   1.7322537899017334,
   1.6627016067504883,
   1.605534553527832,
   1.5594161748886108,
   1.5159292221069336,
   1.4811856746673584,
   1.4488317966461182,
   1.4170912504196167,
   1.2374413013458252,
   1.1457440853118896,
   1.106512188911438,
   1.0794550180435181,
   1.0565567016601562,
   1.0393997430801392,
   1.0309435129165649,
   1.0161789655685425,
   1.0147674083709717,
   0.98710048198699951,
   1.008263111114502,
   0.97879207134246826,
   0.99496793746948242,
   1.0047800540924072,
   0.98164737224578857,
   0.98825943470001221,
   1.0023400783538818,
   1.0059006214141846,
   1.0003653764724731,
   0.97950279712677002,
   1.0166754722595215,
   0.99130630493164062,
   1.0000412464141846,
   0.99933493137359619,
   0.99477303028106689,
   0.9891357421875,
   0.94393521547317505
]
