[
   1.5670235157012939,
   1.566230297088623,
   1.5680450201034546,
   1.567351222038269,
   1.5668917894363403,
   1.5674319267272949,
   1.5658432245254517,
   1.5662229061126709,
   1.567216157913208,
   1.5658755302429199,
   1.5658777952194214,
   1.5638604164123535,
   1.5633487701416016,
   1.5629866123199463,
   1.5622559785842896,
   1.5598427057266235,
   1.558072566986084,
   1.5586155652999878,
   1.5582845211029053,
   1.5474917888641357,
   1.5395692586898804,
   1.5328634977340698,
   1.5247596502304077,
   1.5172121524810791,
   1.509713888168335,
   1.5027880668640137,
   1.4971514940261841,
   1.492082953453064,
   1.4437602758407593,
   1.4058456420898438,
   1.3748571872711182,
   1.3497762680053711,
   1.3280453681945801,
   1.3075850009918213,
   1.2901926040649414,
   1.2752226591110229,
   1.2605040073394775,
   1.1675187349319458,
   1.1103994846343994,
   1.0780709981918335,
   1.0565316677093506,
   1.0448151826858521,
   1.0368058681488037,
   1.031489372253418,
   1.0271387100219727,
   1.0273321866989136,
   0.99970483779907227,
   0.99139821529388428,
   0.99154359102249146,
   0.98875677585601807,
   0.98671019077301025,
   0.98778045177459717,
   0.98979252576828003,
   1.0029865503311157,
   1.0028059482574463,
   0.99240195751190186,
   0.9981924295425415,
   0.98699367046356201,
   0.98284071683883667,
   1.0125842094421387,
   0.99661892652511597,
   0.98412114381790161,
   1.0041823387145996,
   0.99662655591964722
]
