[
   11.406671524047852,
   11.439738273620605,
   11.38121223449707,
   11.389529228210449,
   11.415453910827637,
   11.369894027709961,
   11.353605270385742,
   11.310483932495117,
   11.342952728271484,
   11.279977798461914,
   11.305253028869629,
   11.100570678710938,
   11.022510528564453,
   10.946907043457031,
   10.858732223510742,
   10.842473983764648,
   10.726755142211914,
   10.622186660766602,
   10.53516960144043,
   9.9632034301757812,
   9.4976873397827148,
   9.0702447891235352,
   8.6932201385498047,
   8.3556356430053711,
   7.9278707504272461,
   7.7640762329101562,
   7.4850502014160156,
   7.2472009658813477,
   5.5226278305053711,
   4.390444278717041,
   3.7553181648254395,
   3.3203041553497314,
   2.9365148544311523,
   2.7130064964294434,
   2.4902043342590332,
   2.3576717376708984,
   2.2087550163269043,
   1.5355598926544189,
   1.2764432430267334,
   1.115514874458313,
   1.0821845531463623,
   1.0704818964004517,
   1.063079833984375,
   1.0334792137145996,
   1.0001864433288574,
   1.034716010093689,
   0.9758874773979187,
   0.97209280729293823,
   1.0206109285354614,
   0.95925092697143555,
   1.0290044546127319,
   1.0818004608154297,
   0.89587831497192383,
   1.0001686811447144,
   1.0305261611938477,
   0.95541703701019287,
   0.91905677318572998,
   0.9414178729057312,
   1.0638304948806763,
   0.96360647678375244,
   0.84744489192962646,
   1.1977320909500122,
   1.1192626953125,
   0.98431289196014404
]
