[
   1.7141788005828857,
   1.7123878002166748,
   1.7148691415786743,
   1.7138839960098267,
   1.7131315469741821,
   1.7143380641937256,
   1.7116382122039795,
   1.7127799987792969,
   1.7130510807037354,
   1.7107036113739014,
   1.7113401889801025,
   1.7094700336456299,
   1.7083057165145874,
   1.7083008289337158,
   1.7070325613021851,
   1.7033481597900391,
   1.7015068531036377,
   1.7012523412704468,
   1.7004381418228149,
   1.6862180233001709,
   1.6744651794433594,
   1.6656343936920166,
   1.6549723148345947,
   1.6440207958221436,
   1.6344702243804932,
   1.624977707862854,
   1.6183668375015259,
   1.6102488040924072,
   1.5460125207901001,
   1.4963980913162231,
   1.4559810161590576,
   1.4232621192932129,
   1.3952908515930176,
   1.3682883977890015,
   1.3457016944885254,
   1.3263018131256104,
   1.3072224855422974,
   1.1926534175872803,
   1.1250952482223511,
   1.0855778455734253,
   1.0623911619186401,
   1.0500228404998779,
   1.0410506725311279,
   1.0343797206878662,
   1.031414270401001,
   1.0281170606613159,
   1.0019958019256592,
   0.99206990003585815,
   0.99154740571975708,
   0.98804962635040283,
   0.98506289720535278,
   0.98424261808395386,
   0.98821288347244263,
   1.0035086870193481,
   1.0025938749313354,
   0.99284857511520386,
   0.99675148725509644,
   0.98445397615432739,
   0.98074948787689209,
   1.0128598213195801,
   0.99914205074310303,
   0.98190337419509888,
   1.0050103664398193,
   0.99730300903320312
]
