[
   1.8127397298812866,
   1.8106603622436523,
   1.8132261037826538,
   1.8125966787338257,
   1.8120458126068115,
   1.8132874965667725,
   1.8112970590591431,
   1.8118126392364502,
   1.8113253116607666,
   1.8101879358291626,
   1.8094412088394165,
   1.8079420328140259,
   1.8063509464263916,
   1.8063730001449585,
   1.8045861721038818,
   1.8007643222808838,
   1.7986786365509033,
   1.7974910736083984,
   1.7962818145751953,
   1.7796850204467773,
   1.7651584148406982,
   1.7543275356292725,
   1.7413536310195923,
   1.7291495800018311,
   1.7178976535797119,
   1.7070863246917725,
   1.6975181102752686,
   1.6890987157821655,
   1.6133816242218018,
   1.556188702583313,
   1.5089633464813232,
   1.4702789783477783,
   1.4376441240310669,
   1.4072996377944946,
   1.3804258108139038,
   1.3573665618896484,
   1.336132287979126,
   1.2077664136886597,
   1.1332082748413086,
   1.0903226137161255,
   1.0659784078598022,
   1.0531749725341797,
   1.0429725646972656,
   1.0362497568130493,
   1.0336441993713379,
   1.0294480323791504,
   1.0029233694076538,
   0.99170047044754028,
   0.99200713634490967,
   0.98760157823562622,
   0.98459798097610474,
   0.98217141628265381,
   0.98637944459915161,
   1.0022990703582764,
   1.0021375417709351,
   0.99362468719482422,
   0.99602919816970825,
   0.98211270570755005,
   0.97915089130401611,
   1.0120993852615356,
   1.0011496543884277,
   0.98109245300292969,
   1.0064506530761719,
   0.99752533435821533
]
