[
   1.6333881616592407,
   1.632310152053833,
   1.6344344615936279,
   1.6336753368377686,
   1.6328309774398804,
   1.6334612369537354,
   1.6318883895874023,
   1.6324888467788696,
   1.6334041357040405,
   1.6314480304718018,
   1.6311886310577393,
   1.6292680501937866,
   1.6289072036743164,
   1.6283098459243774,
   1.6272971630096436,
   1.6251041889190674,
   1.6226329803466797,
   1.6226816177368164,
   1.6223398447036743,
   1.6103957891464233,
   1.6005756855010986,
   1.5930030345916748,
   1.5838768482208252,
   1.5744988918304443,
   1.5663297176361084,
   1.5583136081695557,
   1.5518380403518677,
   1.5451887845993042,
   1.4898924827575684,
   1.4476553201675415,
   1.4117896556854248,
   1.3829176425933838,
   1.3589975833892822,
   1.3355909585952759,
   1.3157868385314941,
   1.2988922595977783,
   1.282029390335083,
   1.179487943649292,
   1.1171149015426636,
   1.0816166400909424,
   1.0594562292098999,
   1.0474971532821655,
   1.0386751890182495,
   1.0328691005706787,
   1.0292396545410156,
   1.0279959440231323,
   1.0009974241256714,
   0.99125492572784424,
   0.99130707979202271,
   0.98844850063323975,
   0.98545801639556885,
   0.98611575365066528,
   0.98891335725784302,
   1.0035595893859863,
   1.0025355815887451,
   0.99264031648635864,
   0.99818772077560425,
   0.98580294847488403,
   0.98241949081420898,
   1.012939453125,
   0.99728643894195557,
   0.98245954513549805,
   1.0043792724609375,
   0.99587041139602661
]
