[
   4.044276237487793,
   4.0531172752380371,
   4.0553908348083496,
   4.0393486022949219,
   4.0431656837463379,
   4.0599193572998047,
   4.0418095588684082,
   4.045905590057373,
   4.0289483070373535,
   4.0424814224243164,
   4.017786979675293,
   4.0094351768493652,
   3.9948909282684326,
   3.9888668060302734,
   3.9631836414337158,
   3.9643332958221436,
   3.9479587078094482,
   3.9390213489532471,
   3.9245479106903076,
   3.8207263946533203,
   3.719895601272583,
   3.6415362358093262,
   3.5780472755432129,
   3.5146465301513672,
   3.4597251415252686,
   3.3953735828399658,
   3.3400540351867676,
   3.2874279022216797,
   2.899261474609375,
   2.6189982891082764,
   2.4074738025665283,
   2.2427093982696533,
   2.1138191223144531,
   2.0131053924560547,
   1.9125747680664062,
   1.8266971111297607,
   1.7676311731338501,
   1.4162725210189819,
   1.2371979951858521,
   1.1499006748199463,
   1.1120429039001465,
   1.0683951377868652,
   1.0684076547622681,
   1.02994704246521,
   1.0132894515991211,
   0.99778282642364502,
   1.0084949731826782,
   0.97163105010986328,
   1.0451557636260986,
   1.0119653940200806,
   1.0319924354553223,
   1.018150806427002,
   0.99337828159332275,
   1.0176123380661011,
   1.0388393402099609,
   1.0060911178588867,
   1.0057332515716553,
   1.0125933885574341,
   0.99280279874801636,
   0.9699370265007019,
   1.0161830186843872,
   1.0448571443557739,
   0.95665347576141357,
   0.89601027965545654
]
