[
   71.690902709960938,
   72.089157104492188,
   72.146568298339844,
   70.551834106445312,
   71.841659545898438,
   70.832710266113281,
   70.4508056640625,
   70.232818603515625,
   70.327896118164062,
   69.505928039550781,
   66.724990844726562,
   66.043289184570312,
   62.795967102050781,
   61.46533203125,
   61.212486267089844,
   59.762519836425781,
   56.615943908691406,
   55.982185363769531,
   55.224662780761719,
   45.115913391113281,
   37.944667816162109,
   33.161464691162109,
   29.064502716064453,
   26.652948379516602,
   23.687252044677734,
   21.641952514648438,
   19.161657333374023,
   18.188541412353516,
   10.189046859741211,
   7.4232511520385742,
   5.4366254806518555,
   4.3401975631713867,
   3.630537748336792,
   3.2663676738739014,
   2.9146161079406738,
   2.5701305866241455,
   2.1657836437225342,
   1.6908986568450928,
   1.3394081592559814,
   1.2307913303375244,
   1.1184722185134888,
   0.974415123462677,
   1.2092676162719727,
   1.1681832075119019,
   0.86874550580978394,
   0.96046125888824463,
   1.0876379013061523,
   0.94015198945999146,
   0.79201561212539673,
   0.93976432085037231,
   0.96075761318206787,
   1.0035138130187988,
   0.98940438032150269,
   1.2059800624847412,
   1.0456278324127197,
   1.1754238605499268,
   1.1668988466262817,
   1.0953825712203979,
   0.89824455976486206,
   0.79435741901397705,
   1.066209077835083,
   1.4940344095230103,
   0.59457242488861084,
   1.0823788642883301
]
