[
   1.381155252456665,
   1.3811424970626831,
   1.3811792135238647,
   1.3811434507369995,
   1.3808326721191406,
   1.3800497055053711,
   1.3811632394790649,
   1.3805118799209595,
   1.3809313774108887,
   1.3804409503936768,
   1.3805210590362549,
   1.3795467615127563,
   1.3793623447418213,
   1.3790781497955322,
   1.3783707618713379,
   1.3786003589630127,
   1.3786437511444092,
   1.3778458833694458,
   1.377750039100647,
   1.3751863241195679,
   1.3717482089996338,
   1.3686854839324951,
   1.3655445575714111,
   1.3618075847625732,
   1.3596467971801758,
   1.3578482866287231,
   1.3553111553192139,
   1.3516943454742432,
   1.3298394680023193,
   1.3108928203582764,
   1.2942092418670654,
   1.2789983749389648,
   1.2656378746032715,
   1.2545626163482666,
   1.2430573701858521,
   1.2324975728988647,
   1.2225115299224854,
   1.1572637557983398,
   1.1178441047668457,
   1.0912573337554932,
   1.0756652355194092,
   1.0618116855621338,
   1.0498368740081787,
   1.0431435108184814,
   1.0407750606536865,
   1.0379161834716797,
   1.0149842500686646,
   1.0018675327301025,
   1.000336766242981,
   1.0004088878631592,
   0.9970623254776001,
   0.99292027950286865,
   0.99779617786407471,
   0.98972827196121216,
   0.99516373872756958,
   0.99818134307861328,
   0.99774092435836792,
   0.99706393480300903,
   0.99410855770111084,
   0.99036568403244019,
   1.0023965835571289,
   1.0098098516464233,
   1.0052429437637329,
   1.0022151470184326
]
