[
   2.6886706352233887,
   2.6848452091217041,
   2.6818180084228516,
   2.6840391159057617,
   2.6817004680633545,
   2.6848986148834229,
   2.6839890480041504,
   2.679610013961792,
   2.6829018592834473,
   2.6820449829101562,
   2.6773879528045654,
   2.6749224662780762,
   2.6688172817230225,
   2.665583610534668,
   2.6580557823181152,
   2.6547236442565918,
   2.653688907623291,
   2.6467108726501465,
   2.6448593139648438,
   2.6059539318084717,
   2.5665647983551025,
   2.5352835655212402,
   2.5024890899658203,
   2.4658980369567871,
   2.4376533031463623,
   2.4151513576507568,
   2.3886122703552246,
   2.3622753620147705,
   2.1567373275756836,
   2.0050513744354248,
   1.8882982730865479,
   1.7944281101226807,
   1.7184727191925049,
   1.6557810306549072,
   1.6031687259674072,
   1.5635868310928345,
   1.5216531753540039,
   1.2992959022521973,
   1.2085788249969482,
   1.158319354057312,
   1.1150293350219727,
   1.0828351974487305,
   1.0867023468017578,
   1.0743700265884399,
   1.0543596744537354,
   1.0499752759933472,
   1.0014770030975342,
   0.99799460172653198,
   0.99930858612060547,
   0.96924793720245361,
   0.9966852068901062,
   1.0010455846786499,
   0.989524245262146,
   0.97048342227935791,
   0.96202051639556885,
   0.97614705562591553,
   0.98015689849853516,
   0.96417653560638428,
   1.0038950443267822,
   0.99856150150299072,
   1.0028512477874756,
   1.0727943181991577,
   1.0028671026229858,
   1.1277406215667725
]
