[
   1.6954418420791626,
   1.6954183578491211,
   1.695560097694397,
   1.6961610317230225,
   1.6950067281723022,
   1.6954615116119385,
   1.6953794956207275,
   1.6943538188934326,
   1.6944230794906616,
   1.6942392587661743,
   1.6940377950668335,
   1.6926978826522827,
   1.6926358938217163,
   1.6915929317474365,
   1.689684271812439,
   1.6906683444976807,
   1.6888437271118164,
   1.6880359649658203,
   1.6857764720916748,
   1.6787824630737305,
   1.6695092916488647,
   1.6622641086578369,
   1.6551969051361084,
   1.6477172374725342,
   1.6407554149627686,
   1.6353151798248291,
   1.6280720233917236,
   1.6232578754425049,
   1.5660150051116943,
   1.5223418474197388,
   1.4830734729766846,
   1.4509257078170776,
   1.4208643436431885,
   1.393418550491333,
   1.3732367753982544,
   1.3510138988494873,
   1.3325550556182861,
   1.2180811166763306,
   1.1602952480316162,
   1.1256592273712158,
   1.1011306047439575,
   1.080794095993042,
   1.0637792348861694,
   1.0516335964202881,
   1.0449706315994263,
   1.0382297039031982,
   1.0097548961639404,
   0.99916094541549683,
   0.98892098665237427,
   0.99820393323898315,
   0.99032765626907349,
   0.9927908182144165,
   0.99803894758224487,
   0.99665755033493042,
   1.0112842321395874,
   1.0091680288314819,
   0.9859081506729126,
   0.98263424634933472,
   0.99204683303833008,
   1.0128039121627808,
   1.0062211751937866,
   0.99017363786697388,
   1.0124012231826782,
   1.0277143716812134
]
