[
   1.9889066219329834,
   1.9886171817779541,
   1.9842147827148438,
   1.9875209331512451,
   1.9874851703643799,
   1.9901812076568604,
   1.988513708114624,
   1.9869178533554077,
   1.9869970083236694,
   1.9852508306503296,
   1.9823325872421265,
   1.9815057516098022,
   1.9795812368392944,
   1.9762750864028931,
   1.9727146625518799,
   1.9675623178482056,
   1.9644424915313721,
   1.9645841121673584,
   1.9630082845687866,
   1.9370155334472656,
   1.9135255813598633,
   1.893726110458374,
   1.8734796047210693,
   1.8567527532577515,
   1.8362842798233032,
   1.8201205730438232,
   1.8018944263458252,
   1.7866328954696655,
   1.6655346155166626,
   1.5779328346252441,
   1.5124680995941162,
   1.4581180810928345,
   1.4107320308685303,
   1.3758100271224976,
   1.3416594266891479,
   1.3156130313873291,
   1.2919552326202393,
   1.1609784364700317,
   1.1058728694915771,
   1.0729155540466309,
   1.0459773540496826,
   1.0312918424606323,
   1.02838134765625,
   1.029697060585022,
   1.0235228538513184,
   1.0176256895065308,
   0.99840629100799561,
   0.99640405178070068,
   1.0035154819488525,
   0.99334037303924561,
   0.99626284837722778,
   1.0077154636383057,
   1.0138647556304932,
   1.0046381950378418,
   0.99723690748214722,
   1.0042155981063843,
   1.0049057006835938,
   0.98189049959182739,
   1.0023831129074097,
   1.0056235790252686,
   1.0113207101821899,
   1.0056140422821045,
   0.97935819625854492,
   0.91117703914642334
]
