[
   1.5487459897994995,
   1.5484660863876343,
   1.5497540235519409,
   1.5480095148086548,
   1.5474493503570557,
   1.5466048717498779,
   1.5461547374725342,
   1.5469896793365479,
   1.5461885929107666,
   1.5466864109039307,
   1.5460488796234131,
   1.5438328981399536,
   1.5434170961380005,
   1.5425804853439331,
   1.5403969287872314,
   1.5394802093505859,
   1.5394340753555298,
   1.5381209850311279,
   1.5359795093536377,
   1.527859091758728,
   1.5173424482345581,
   1.5093590021133423,
   1.5000231266021729,
   1.4924395084381104,
   1.4850175380706787,
   1.4772440195083618,
   1.4688374996185303,
   1.4630841016769409,
   1.4042730331420898,
   1.3586175441741943,
   1.3235479593276978,
   1.2960909605026245,
   1.2698354721069336,
   1.2490549087524414,
   1.2320264577865601,
   1.2154576778411865,
   1.2007336616516113,
   1.1158292293548584,
   1.0730659961700439,
   1.0557963848114014,
   1.0411386489868164,
   1.0299127101898193,
   1.0274219512939453,
   1.0236549377441406,
   1.0157071352005005,
   1.0122188329696655,
   0.99915504455566406,
   1.0055177211761475,
   0.9951481819152832,
   0.99771976470947266,
   0.99248874187469482,
   1.0020738840103149,
   0.99999523162841797,
   0.99993735551834106,
   1.0003237724304199,
   1.0018579959869385,
   0.99541950225830078,
   0.99946433305740356,
   1.0057320594787598,
   0.99992620944976807,
   0.99710434675216675,
   1.0015360116958618,
   0.96517932415008545,
   0.96661150455474854
]
