[
   4.0102624893188477,
   4.0106163024902344,
   4.0078234672546387,
   4.0087528228759766,
   3.9942963123321533,
   3.995607852935791,
   3.9939696788787842,
   4.0069398880004883,
   4.0017280578613281,
   3.9974780082702637,
   3.9761233329772949,
   3.9587090015411377,
   3.9663710594177246,
   3.9385428428649902,
   3.9240775108337402,
   3.9039924144744873,
   3.8988041877746582,
   3.8900954723358154,
   3.8572330474853516,
   3.7414002418518066,
   3.6294162273406982,
   3.5300173759460449,
   3.4288544654846191,
   3.3574490547180176,
   3.2711129188537598,
   3.1955804824829102,
   3.1462945938110352,
   3.0904536247253418,
   2.6416974067687988,
   2.3511111736297607,
   2.1573860645294189,
   1.9867496490478516,
   1.8619630336761475,
   1.7721952199935913,
   1.690143346786499,
   1.6279302835464478,
   1.5764704942703247,
   1.2687182426452637,
   1.1691240072250366,
   1.10494065284729,
   1.0613459348678589,
   1.0408556461334229,
   1.0379745960235596,
   1.0384067296981812,
   1.0113471746444702,
   1.0176955461502075,
   0.99723899364471436,
   0.99389535188674927,
   0.99110662937164307,
   0.98295581340789795,
   0.96754330396652222,
   1.0052077770233154,
   1.0090333223342896,
   0.99252521991729736,
   1.0044600963592529,
   0.98029220104217529,
   1.0012547969818115,
   0.97425329685211182,
   0.98702079057693481,
   1.039780855178833,
   1.0030214786529541,
   0.99598884582519531,
   0.9842904806137085,
   0.93713474273681641
]
