[
   1.6038538217544556,
   1.6039741039276123,
   1.6045812368392944,
   1.6045652627944946,
   1.6045290231704712,
   1.6037336587905884,
   1.6041368246078491,
   1.6025078296661377,
   1.6041383743286133,
   1.6046425104141235,
   1.6039011478424072,
   1.6006466150283813,
   1.5992201566696167,
   1.5993001461029053,
   1.5974867343902588,
   1.5966982841491699,
   1.5964115858078003,
   1.593254566192627,
   1.5929796695709229,
   1.5806759595870972,
   1.5720150470733643,
   1.5602272748947144,
   1.5513679981231689,
   1.5401657819747925,
   1.5321044921875,
   1.5215134620666504,
   1.5134246349334717,
   1.5062035322189331,
   1.4398077726364136,
   1.3876981735229492,
   1.348413348197937,
   1.3177016973495483,
   1.2892477512359619,
   1.266653299331665,
   1.2449569702148438,
   1.2273955345153809,
   1.211727499961853,
   1.1222721338272095,
   1.0837368965148926,
   1.0638294219970703,
   1.0486115217208862,
   1.0341078042984009,
   1.0258166790008545,
   1.0223314762115479,
   1.0191414356231689,
   1.0155329704284668,
   1.0013643503189087,
   0.99951279163360596,
   0.99524080753326416,
   1.0019122362136841,
   1.0041950941085815,
   0.99274051189422607,
   0.99824702739715576,
   0.99173861742019653,
   0.99186801910400391,
   0.99221265316009521,
   0.98936712741851807,
   0.99408465623855591,
   0.98603945970535278,
   1.0067894458770752,
   1.0113818645477295,
   1.0169098377227783,
   1.0230157375335693,
   1.0268241167068481
]
