[
   8.569279670715332,
   8.5752553939819336,
   8.5373039245605469,
   8.5192813873291016,
   8.5198631286621094,
   8.5381526947021484,
   8.5041112899780273,
   8.5101604461669922,
   8.4977312088012695,
   8.5093727111816406,
   8.4737262725830078,
   8.3656167984008789,
   8.2829694747924805,
   8.229151725769043,
   8.1952419281005859,
   8.1279001235961914,
   8.072382926940918,
   8.0111551284790039,
   7.9595365524291992,
   7.4911065101623535,
   7.1243448257446289,
   6.7295393943786621,
   6.4881095886230469,
   6.1827297210693359,
   5.9883031845092773,
   5.7945280075073242,
   5.6199197769165039,
   5.4856934547424316,
   4.244441032409668,
   3.5056509971618652,
   3.0213174819946289,
   2.7103097438812256,
   2.4316658973693848,
   2.2488267421722412,
   2.0777153968811035,
   1.9289785623550415,
   1.8124231100082397,
   1.3731887340545654,
   1.1793097257614136,
   1.1205694675445557,
   1.0784274339675903,
   1.0904452800750732,
   1.0498217344284058,
   1.0154331922531128,
   1.0836498737335205,
   1.0650029182434082,
   0.9554753303527832,
   0.98451173305511475,
   0.9907267689704895,
   0.96798008680343628,
   0.96259129047393799,
   0.95736676454544067,
   0.99699628353118896,
   1.0329258441925049,
   0.99135750532150269,
   0.99837779998779297,
   1.0299265384674072,
   0.98479127883911133,
   0.99856406450271606,
   0.93793535232543945,
   1.0724360942840576,
   1.1071557998657227,
   0.99834698438644409,
   1.0727267265319824
]
