[
   2.3940653800964355,
   2.3935396671295166,
   2.3884520530700684,
   2.3934080600738525,
   2.3885610103607178,
   2.3917498588562012,
   2.3922760486602783,
   2.3883469104766846,
   2.3889038562774658,
   2.3883051872253418,
   2.3832161426544189,
   2.3768470287322998,
   2.3760814666748047,
   2.3677029609680176,
   2.3623738288879395,
   2.360898494720459,
   2.3572204113006592,
   2.3522250652313232,
   2.3480968475341797,
   2.3088021278381348,
   2.2705473899841309,
   2.2323613166809082,
   2.1951751708984375,
   2.1688332557678223,
   2.13767409324646,
   2.1116070747375488,
   2.0876529216766357,
   2.0622909069061279,
   1.8799558877944946,
   1.7577651739120483,
   1.6610548496246338,
   1.5898211002349854,
   1.5216236114501953,
   1.4686325788497925,
   1.4270913600921631,
   1.3895198106765747,
   1.3588927984237671,
   1.1900994777679443,
   1.1157320737838745,
   1.0835725069046021,
   1.0550333261489868,
   1.0452505350112915,
   1.030657172203064,
   1.033481240272522,
   1.0165032148361206,
   1.0103375911712646,
   1.0014827251434326,
   0.99881207942962646,
   0.99164599180221558,
   0.99359828233718872,
   0.98954790830612183,
   0.98825091123580933,
   0.99668824672698975,
   0.99113303422927856,
   0.99542868137359619,
   0.99638068675994873,
   1.0022203922271729,
   0.98368185758590698,
   1.0029451847076416,
   1.0159233808517456,
   0.98765885829925537,
   0.99165153503417969,
   1.0171267986297607,
   1.0253849029541016
]
