[
   1.7705730199813843,
   1.7681440114974976,
   1.7685922384262085,
   1.7684237957000732,
   1.7674522399902344,
   1.7694095373153687,
   1.7681043148040771,
   1.7667407989501953,
   1.7677433490753174,
   1.7670011520385742,
   1.765006422996521,
   1.7632783651351929,
   1.7593214511871338,
   1.7591483592987061,
   1.7578108310699463,
   1.7585340738296509,
   1.7545484304428101,
   1.7509028911590576,
   1.7542324066162109,
   1.7326362133026123,
   1.721082329750061,
   1.7038919925689697,
   1.692613959312439,
   1.6780860424041748,
   1.6640567779541016,
   1.6516335010528564,
   1.6405966281890869,
   1.629351019859314,
   1.5408055782318115,
   1.4765008687973022,
   1.4267172813415527,
   1.3843971490859985,
   1.3494975566864014,
   1.3195266723632812,
   1.2975746393203735,
   1.2751337289810181,
   1.2554638385772705,
   1.1390413045883179,
   1.0963493585586548,
   1.0701882839202881,
   1.0558880567550659,
   1.0422112941741943,
   1.0335257053375244,
   1.022014856338501,
   1.0153080224990845,
   1.0107157230377197,
   0.99394959211349487,
   0.99429017305374146,
   0.99975597858428955,
   0.99519747495651245,
   0.99451541900634766,
   0.9971851110458374,
   1.0083277225494385,
   0.99014919996261597,
   0.99049866199493408,
   0.988933265209198,
   0.98558109998703003,
   0.98457813262939453,
   0.98587048053741455,
   1.0060319900512695,
   1.0172785520553589,
   1.0335177183151245,
   1.0186350345611572,
   0.95994138717651367
]
