[
   34.799537658691406,
   34.789440155029297,
   34.789867401123047,
   34.805244445800781,
   34.529933929443359,
   34.841114044189453,
   34.906917572021484,
   34.260658264160156,
   33.912982940673828,
   34.021614074707031,
   33.86334228515625,
   32.900737762451172,
   32.112239837646484,
   31.825122833251953,
   31.223430633544922,
   31.0086669921875,
   30.397083282470703,
   29.840499877929688,
   29.571487426757812,
   25.900283813476562,
   23.762691497802734,
   21.942522048950195,
   20.238922119140625,
   18.718730926513672,
   17.424789428710938,
   16.594684600830078,
   15.552149772644043,
   14.824320793151855,
   9.3439302444458008,
   6.6625127792358398,
   5.0682048797607422,
   3.975433349609375,
   3.6292405128479004,
   3.2488102912902832,
   2.7012670040130615,
   2.4141995906829834,
   2.1628031730651855,
   1.7562143802642822,
   1.2163088321685791,
   1.1020095348358154,
   1.1132930517196655,
   1.0815804004669189,
   1.1344515085220337,
   1.0107325315475464,
   1.1707061529159546,
   1.0707106590270996,
   1.0979809761047363,
   0.92655736207962036,
   0.99496424198150635,
   0.96096611022949219,
   1.0643386840820312,
   0.78255778551101685,
   1.1302530765533447,
   0.78541600704193115,
   1.0869721174240112,
   0.87926232814788818,
   0.91871452331542969,
   0.70231550931930542,
   1.0076093673706055,
   1.1746931076049805,
   1.3275250196456909,
   1.1733279228210449,
   0.92928445339202881,
   0.65179312229156494
]
