[
   5.0107007026672363,
   5.0128870010375977,
   4.9966464042663574,
   4.9921655654907227,
   4.9829320907592773,
   4.9845132827758789,
   4.9872088432312012,
   4.9834113121032715,
   4.9773550033569336,
   4.9784669876098633,
   4.9494485855102539,
   4.9111580848693848,
   4.8979368209838867,
   4.8433256149291992,
   4.8418960571289062,
   4.8019132614135742,
   4.7551736831665039,
   4.7374248504638672,
   4.7170953750610352,
   4.4805703163146973,
   4.3126406669616699,
   4.1449160575866699,
   4.0037178993225098,
   3.8762142658233643,
   3.7735152244567871,
   3.6802551746368408,
   3.5736000537872314,
   3.5083210468292236,
   2.8783755302429199,
   2.5036592483520508,
   2.2313675880432129,
   2.0349271297454834,
   1.8774007558822632,
   1.7772544622421265,
   1.6838452816009521,
   1.6251415014266968,
   1.5646932125091553,
   1.255522608757019,
   1.1457984447479248,
   1.0692378282546997,
   1.0510596036911011,
   1.0498894453048706,
   1.0328997373580933,
   1.0443944931030273,
   1.0226175785064697,
   1.0264047384262085,
   1.0249024629592896,
   0.96516513824462891,
   0.99017083644866943,
   0.99629414081573486,
   0.99897116422653198,
   0.97076284885406494,
   0.96877610683441162,
   1.0146248340606689,
   0.99555015563964844,
   0.99929171800613403,
   0.970741868019104,
   1.0022523403167725,
   0.99786984920501709,
   0.97476816177368164,
   0.99476718902587891,
   0.99266624450683594,
   0.99446952342987061,
   0.94900274276733398
]
