[
   2.6218631267547607,
   2.6239356994628906,
   2.6298322677612305,
   2.621096134185791,
   2.6224799156188965,
   2.6236996650695801,
   2.6211361885070801,
   2.6196589469909668,
   2.6108255386352539,
   2.6152567863464355,
   2.6110358238220215,
   2.5993609428405762,
   2.5922939777374268,
   2.5857837200164795,
   2.5780472755432129,
   2.5716423988342285,
   2.5646359920501709,
   2.5588541030883789,
   2.5520312786102295,
   2.4812538623809814,
   2.4226236343383789,
   2.3759391307830811,
   2.3285667896270752,
   2.294011116027832,
   2.2496175765991211,
   2.217904806137085,
   2.1851146221160889,
   2.1491861343383789,
   1.9217277765274048,
   1.7677453756332397,
   1.6571747064590454,
   1.5689296722412109,
   1.5027916431427002,
   1.4525701999664307,
   1.4083845615386963,
   1.3663464784622192,
   1.3369824886322021,
   1.1686161756515503,
   1.1036325693130493,
   1.0636215209960938,
   1.0439168214797974,
   1.0269172191619873,
   1.0124659538269043,
   1.0026305913925171,
   0.99240195751190186,
   1.0062340497970581,
   1.0035955905914307,
   1.0052326917648315,
   1.0052785873413086,
   0.99311721324920654,
   0.99870550632476807,
   0.99892598390579224,
   0.99112975597381592,
   0.97685450315475464,
   1.0024343729019165,
   0.99098968505859375,
   0.98332405090332031,
   0.99171817302703857,
   0.98394519090652466,
   1.0111486911773682,
   0.99386072158813477,
   1.0072997808456421,
   1.0363773107528687,
   1.0141257047653198
]
