[
   108.52827453613281,
   109.45584869384766,
   108.49227142333984,
   106.85224914550781,
   106.87162780761719,
   106.89555358886719,
   106.6448974609375,
   105.42774963378906,
   104.23765563964844,
   103.97100830078125,
   99.256851196289062,
   93.673774719238281,
   90.002731323242188,
   86.414710998535156,
   83.547843933105469,
   82.337249755859375,
   79.52618408203125,
   77.04132080078125,
   73.792678833007812,
   57.594196319580078,
   46.461997985839844,
   38.005908966064453,
   32.473285675048828,
   28.404407501220703,
   25.087278366088867,
   22.967870712280273,
   19.788625717163086,
   19.008504867553711,
   9.2957820892333984,
   6.5769867897033691,
   4.1935586929321289,
   3.3891119956970215,
   2.9530246257781982,
   2.6641411781311035,
   2.3687644004821777,
   1.9316976070404053,
   2.1292567253112793,
   1.1422140598297119,
   0.86154621839523315,
   1.0708119869232178,
   1.4071213006973267,
   1.3724286556243896,
   1.1185303926467896,
   1.535671591758728,
   1.2450423240661621,
   0.79103219509124756,
   1.3463908433914185,
   1.1682637929916382,
   1.4050577878952026,
   0.84241026639938354,
   1.0534249544143677,
   1.0932061672210693,
   1.3033931255340576,
   0.73063921928405762,
   1.2066547870635986,
   1.1312237977981567,
   1.0580698251724243,
   1.0689394474029541,
   0.97036713361740112,
   0.95708483457565308,
   1.3676116466522217,
   0.71437138319015503,
   0.85650408267974854,
   0.53333121538162231
]
