[
   1.8292051553726196,
   1.8285738229751587,
   1.8299335241317749,
   1.8272171020507812,
   1.827174186706543,
   1.8289740085601807,
   1.8286418914794922,
   1.8269455432891846,
   1.8281004428863525,
   1.8278071880340576,
   1.8242728710174561,
   1.8216975927352905,
   1.8190730810165405,
   1.8170545101165771,
   1.8149633407592773,
   1.810354471206665,
   1.8092944622039795,
   1.8064895868301392,
   1.8040405511856079,
   1.7770446538925171,
   1.7569128274917603,
   1.7350006103515625,
   1.7169849872589111,
   1.6978085041046143,
   1.6823962926864624,
   1.6684999465942383,
   1.6532825231552124,
   1.6385791301727295,
   1.5314329862594604,
   1.4591622352600098,
   1.4026796817779541,
   1.3603307008743286,
   1.3228185176849365,
   1.2938636541366577,
   1.2675216197967529,
   1.243765115737915,
   1.2239296436309814,
   1.1172676086425781,
   1.0759023427963257,
   1.0495897531509399,
   1.0258581638336182,
   1.0146021842956543,
   1.0139381885528564,
   1.0142509937286377,
   1.0129386186599731,
   1.0088255405426025,
   1.00343918800354,
   0.99761217832565308,
   0.99655818939208984,
   0.99812781810760498,
   0.99218940734863281,
   1.0012295246124268,
   1.0032259225845337,
   0.99664199352264404,
   1.0023632049560547,
   1.0002436637878418,
   1.0113451480865479,
   0.99853163957595825,
   1.0085465908050537,
   0.99523055553436279,
   0.98392152786254883,
   0.98214453458786011,
   0.96557998657226562,
   0.94465363025665283
]
