[
   29.179458618164062,
   29.318378448486328,
   29.054912567138672,
   29.144130706787109,
   28.792531967163086,
   28.802083969116211,
   28.530014038085938,
   28.605983734130859,
   28.484537124633789,
   28.498632431030273,
   27.991382598876953,
   27.286823272705078,
   26.806249618530273,
   26.367532730102539,
   25.825881958007812,
   25.494178771972656,
   24.993032455444336,
   24.425971984863281,
   24.23291015625,
   21.330867767333984,
   19.110794067382812,
   17.397315979003906,
   16.046810150146484,
   14.908784866333008,
   13.723762512207031,
   12.898458480834961,
   12.024946212768555,
   11.438535690307617,
   7.0792341232299805,
   5.1122236251831055,
   3.8108170032501221,
   3.3059432506561279,
   2.8234431743621826,
   2.6604413986206055,
   2.3751716613769531,
   2.1350207328796387,
   1.8324997425079346,
   1.3491301536560059,
   1.0293228626251221,
   1.0206329822540283,
   1.0055983066558838,
   1.0203664302825928,
   0.95939463376998901,
   1.0256904363632202,
   1.0281796455383301,
   1.0088529586791992,
   0.81832534074783325,
   1.0723339319229126,
   0.89911288022994995,
   0.94677555561065674,
   1.0735009908676147,
   0.97950917482376099,
   0.86493480205535889,
   0.90095531940460205,
   0.93911981582641602,
   0.84019708633422852,
   0.80390787124633789,
   0.85345375537872314,
   0.96998167037963867,
   1.0600550174713135,
   1.0993015766143799,
   1.1081101894378662,
   1.0554740428924561,
   0.95228880643844604
]
