[
   2.097318172454834,
   2.0992696285247803,
   2.099287748336792,
   2.0940666198730469,
   2.099581241607666,
   2.0965945720672607,
   2.096787691116333,
   2.0961928367614746,
   2.0932121276855469,
   2.0949902534484863,
   2.090487003326416,
   2.0874326229095459,
   2.0861210823059082,
   2.0785291194915771,
   2.0693888664245605,
   2.0701112747192383,
   2.066460132598877,
   2.0621528625488281,
   2.0563256740570068,
   2.0190861225128174,
   1.9851957559585571,
   1.955270528793335,
   1.9267628192901611,
   1.9024025201797485,
   1.8766930103302002,
   1.8529374599456787,
   1.8320333957672119,
   1.8141152858734131,
   1.6677049398422241,
   1.5663481950759888,
   1.492728590965271,
   1.4319231510162354,
   1.3876558542251587,
   1.3481403589248657,
   1.3131735324859619,
   1.2837947607040405,
   1.2618423700332642,
   1.1253635883331299,
   1.0806667804718018,
   1.0543283224105835,
   1.0305814743041992,
   1.0323243141174316,
   1.028769850730896,
   1.0139272212982178,
   1.0175521373748779,
   1.0112082958221436,
   0.99871575832366943,
   0.99689638614654541,
   0.99897259473800659,
   1.0017082691192627,
   0.98372495174407959,
   0.99269485473632812,
   0.99780702590942383,
   0.9911571741104126,
   0.98371231555938721,
   1.0004758834838867,
   1.0030193328857422,
   0.98361623287200928,
   0.99679994583129883,
   0.98674851655960083,
   1.0143622159957886,
   0.98706740140914917,
   1.0187675952911377,
   1.002918004989624
]
