[
   15.929162979125977,
   15.9583740234375,
   15.817619323730469,
   15.953346252441406,
   15.778829574584961,
   15.722860336303711,
   15.735148429870605,
   15.728144645690918,
   15.667718887329102,
   15.677716255187988,
   15.52177906036377,
   15.253166198730469,
   15.047836303710938,
   14.831321716308594,
   14.634051322937012,
   14.446722030639648,
   14.290338516235352,
   14.094050407409668,
   13.99528694152832,
   12.648600578308105,
   11.653385162353516,
   10.942824363708496,
   10.280084609985352,
   9.7457103729248047,
   9.1668367385864258,
   8.7026653289794922,
   8.3157243728637695,
   7.9695572853088379,
   5.4501733779907227,
   4.1357831954956055,
   3.2844538688659668,
   2.8498268127441406,
   2.5161385536193848,
   2.3098404407501221,
   2.0761852264404297,
   1.9415204524993896,
   1.7735313177108765,
   1.2853859663009644,
   1.0372765064239502,
   1.0904009342193604,
   1.0043585300445557,
   1.003931999206543,
   0.97145259380340576,
   1.0777428150177002,
   1.0006355047225952,
   1.0333535671234131,
   0.90509796142578125,
   1.0398211479187012,
   0.94472521543502808,
   0.92303740978240967,
   1.0600359439849854,
   0.99455535411834717,
   0.93075525760650635,
   0.94585180282592773,
   0.93680411577224731,
   0.93010932207107544,
   0.9030187726020813,
   0.93504178524017334,
   0.96890008449554443,
   1.0590837001800537,
   1.0461165904998779,
   1.0873473882675171,
   1.0271555185317993,
   0.96796953678131104
]
