[
   2.1427319049835205,
   2.1446032524108887,
   2.1409478187561035,
   2.1475811004638672,
   2.1419892311096191,
   2.1455757617950439,
   2.14040207862854,
   2.1454625129699707,
   2.1414027214050293,
   2.1406116485595703,
   2.1385922431945801,
   2.1312613487243652,
   2.1258788108825684,
   2.1201057434082031,
   2.1187751293182373,
   2.1142585277557373,
   2.1106762886047363,
   2.1076054573059082,
   2.1007399559020996,
   2.0624096393585205,
   2.0274615287780762,
   1.9988123178482056,
   1.9699928760528564,
   1.9462270736694336,
   1.921640157699585,
   1.9008290767669678,
   1.8765643835067749,
   1.859824538230896,
   1.7141139507293701,
   1.6115176677703857,
   1.5374635457992554,
   1.4788917303085327,
   1.4266042709350586,
   1.3888455629348755,
   1.3557088375091553,
   1.3257454633712769,
   1.3020391464233398,
   1.1487805843353271,
   1.0886480808258057,
   1.0550081729888916,
   1.0263406038284302,
   1.0141222476959229,
   1.0105947256088257,
   1.0035636425018311,
   1.0068737268447876,
   0.99637383222579956,
   0.9946589469909668,
   1.0048891305923462,
   1.0002821683883667,
   0.99476897716522217,
   0.99784457683563232,
   0.99308615922927856,
   1.0000097751617432,
   1.0025163888931274,
   0.99180334806442261,
   1.0034412145614624,
   0.99292957782745361,
   0.98306894302368164,
   0.99183082580566406,
   1.0050227642059326,
   1.0121152400970459,
   1.0201491117477417,
   1.0058218240737915,
   1.0255061388015747
]
