[
   1.8486003875732422,
   1.8481804132461548,
   1.8461555242538452,
   1.8473978042602539,
   1.8452365398406982,
   1.8471286296844482,
   1.8465484380722046,
   1.8459155559539795,
   1.8452810049057007,
   1.8463805913925171,
   1.8433916568756104,
   1.838422417640686,
   1.8373302221298218,
   1.8345520496368408,
   1.832467794418335,
   1.828727126121521,
   1.8270002603530884,
   1.8260999917984009,
   1.8209397792816162,
   1.7973425388336182,
   1.7754077911376953,
   1.7549108266830444,
   1.735918402671814,
   1.7179985046386719,
   1.7013671398162842,
   1.6847864389419556,
   1.6723333597183228,
   1.6577752828598022,
   1.5548940896987915,
   1.4810250997543335,
   1.4254097938537598,
   1.3813865184783936,
   1.3434922695159912,
   1.3113957643508911,
   1.2827786207199097,
   1.2614443302154541,
   1.2417047023773193,
   1.1225799322128296,
   1.0736620426177979,
   1.0433433055877686,
   1.0314664840698242,
   1.0234549045562744,
   1.0159995555877686,
   1.014440655708313,
   1.0058549642562866,
   1.0061081647872925,
   0.99558621644973755,
   1.0009943246841431,
   1.0040837526321411,
   1.0004135370254517,
   0.99271535873413086,
   1.0037534236907959,
   1.0062906742095947,
   1.0045598745346069,
   1.0004684925079346,
   1.0014855861663818,
   1.0090534687042236,
   1.0058298110961914,
   1.0130517482757568,
   0.98439407348632812,
   0.98599833250045776,
   0.97380673885345459,
   1.0027209520339966,
   1.0001000165939331
]
