[
   1.5988461971282959,
   1.5974831581115723,
   1.5973150730133057,
   1.5964763164520264,
   1.5966594219207764,
   1.5964020490646362,
   1.5962519645690918,
   1.5979067087173462,
   1.595887303352356,
   1.5954413414001465,
   1.5932649374008179,
   1.5933725833892822,
   1.5923576354980469,
   1.5904502868652344,
   1.5894362926483154,
   1.587227463722229,
   1.5851695537567139,
   1.5835769176483154,
   1.5821484327316284,
   1.5695617198944092,
   1.5543363094329834,
   1.5422183275222778,
   1.5299961566925049,
   1.5193260908126831,
   1.5067604780197144,
   1.4970835447311401,
   1.4897559881210327,
   1.4800664186477661,
   1.4095577001571655,
   1.3606852293014526,
   1.3227216005325317,
   1.2900995016098022,
   1.2643822431564331,
   1.2431882619857788,
   1.2236078977584839,
   1.2071921825408936,
   1.1945024728775024,
   1.1031858921051025,
   1.0658113956451416,
   1.041570782661438,
   1.0283503532409668,
   1.0162804126739502,
   1.009540319442749,
   1.0087053775787354,
   1.0069446563720703,
   1.0097801685333252,
   0.99365949630737305,
   0.99331462383270264,
   0.99787604808807373,
   1.0004265308380127,
   1.0003374814987183,
   0.99311220645904541,
   0.99805289506912231,
   0.99716347455978394,
   0.99830591678619385,
   1.0003187656402588,
   1.0022575855255127,
   0.99563580751419067,
   1.0098392963409424,
   0.99603784084320068,
   0.982108473777771,
   0.96519869565963745,
   0.99521207809448242,
   1.0327916145324707
]
