[
   5.0979933738708496,
   5.1071152687072754,
   5.0870428085327148,
   5.0863862037658691,
   5.0836067199707031,
   5.0721635818481445,
   5.0865731239318848,
   5.0933241844177246,
   5.0585050582885742,
   5.0600132942199707,
   5.0258021354675293,
   5.0193166732788086,
   4.971644401550293,
   4.9475698471069336,
   4.9095802307128906,
   4.8949284553527832,
   4.8598089218139648,
   4.8277196884155273,
   4.8107423782348633,
   4.5887041091918945,
   4.4223918914794922,
   4.2672104835510254,
   4.1353998184204102,
   4.0296335220336914,
   3.9214653968811035,
   3.8339576721191406,
   3.7489948272705078,
   3.6717433929443359,
   3.0778975486755371,
   2.6865234375,
   2.3937551975250244,
   2.1920609474182129,
   2.0145113468170166,
   1.8786109685897827,
   1.7820713520050049,
   1.6681677103042603,
   1.5968323945999146,
   1.2448216676712036,
   1.1235988140106201,
   1.0775861740112305,
   1.0540652275085449,
   1.0196349620819092,
   1.0469882488250732,
   1.0395445823669434,
   1.015137791633606,
   1.0413178205490112,
   1.0074141025543213,
   0.97246348857879639,
   0.98350107669830322,
   0.9936528205871582,
   0.9721444845199585,
   1.0453439950942993,
   0.98770409822463989,
   1.0009315013885498,
   0.97563314437866211,
   0.99729442596435547,
   1.0077683925628662,
   0.99451035261154175,
   0.95673960447311401,
   0.992054283618927,
   0.95335614681243896,
   0.94626551866531372,
   1.0808660984039307,
   1.0272077322006226
]
