[
   2.6712870597839355,
   2.6687846183776855,
   2.6687490940093994,
   2.6667380332946777,
   2.6674144268035889,
   2.6637113094329834,
   2.6644711494445801,
   2.6619534492492676,
   2.6623616218566895,
   2.6688351631164551,
   2.6561172008514404,
   2.6528587341308594,
   2.6394352912902832,
   2.6301007270812988,
   2.6246273517608643,
   2.6184468269348145,
   2.6103246212005615,
   2.6016016006469727,
   2.5960581302642822,
   2.5288383960723877,
   2.4744904041290283,
   2.4215211868286133,
   2.3728759288787842,
   2.3372013568878174,
   2.301429271697998,
   2.2656285762786865,
   2.2350056171417236,
   2.2018041610717773,
   1.9895429611206055,
   1.8341934680938721,
   1.7231121063232422,
   1.6350536346435547,
   1.5563480854034424,
   1.4992580413818359,
   1.4471595287322998,
   1.4029223918914795,
   1.3670165538787842,
   1.1572171449661255,
   1.0918948650360107,
   1.0553810596466064,
   1.0278457403182983,
   1.0209916830062866,
   1.0019228458404541,
   0.99208194017410278,
   1.0034674406051636,
   0.99931037425994873,
   1.0100152492523193,
   0.99664163589477539,
   0.99807298183441162,
   0.99036866426467896,
   0.98746234178543091,
   1.0144635438919067,
   0.98724573850631714,
   1.0077861547470093,
   0.99368190765380859,
   0.99954044818878174,
   1.0004956722259521,
   0.98798608779907227,
   1.0057520866394043,
   1.0035057067871094,
   0.9704926609992981,
   0.98029440641403198,
   0.96581315994262695,
   1.0067698955535889
]
