[
   2.3727624416351318,
   2.3780076503753662,
   2.3733313083648682,
   2.3759095668792725,
   2.376209020614624,
   2.3744304180145264,
   2.3711447715759277,
   2.3720097541809082,
   2.3710780143737793,
   2.3707220554351807,
   2.3620908260345459,
   2.3589158058166504,
   2.3477187156677246,
   2.3494503498077393,
   2.3440699577331543,
   2.338106632232666,
   2.3290064334869385,
   2.3243927955627441,
   2.3169631958007812,
   2.2717263698577881,
   2.2270400524139404,
   2.1885919570922852,
   2.1602921485900879,
   2.1254255771636963,
   2.0942444801330566,
   2.0652427673339844,
   2.0433545112609863,
   2.0219266414642334,
   1.8406358957290649,
   1.7242000102996826,
   1.6339057683944702,
   1.5585085153579712,
   1.503385066986084,
   1.4507958889007568,
   1.4029898643493652,
   1.365760326385498,
   1.3358242511749268,
   1.1662123203277588,
   1.1034966707229614,
   1.0768760442733765,
   1.0474666357040405,
   1.0313376188278198,
   1.0231153964996338,
   1.0250427722930908,
   1.0081087350845337,
   1.0032211542129517,
   0.99950540065765381,
   0.98387306928634644,
   1.0004150867462158,
   0.99464434385299683,
   0.99156016111373901,
   0.98030692338943481,
   0.98788917064666748,
   0.99155682325363159,
   1.0161416530609131,
   0.97832000255584717,
   0.98431187868118286,
   1.0100314617156982,
   1.0058261156082153,
   0.96510189771652222,
   0.99879235029220581,
   1.0219061374664307,
   1.0193768739700317,
   1.0187809467315674
]
