[
   7.8926553726196289,
   7.8987579345703125,
   7.8734650611877441,
   7.8903846740722656,
   7.8533124923706055,
   7.8443770408630371,
   7.859250545501709,
   7.8184151649475098,
   7.8354644775390625,
   7.8342523574829102,
   7.7728052139282227,
   7.697906494140625,
   7.6341133117675781,
   7.5454201698303223,
   7.5366926193237305,
   7.4129424095153809,
   7.3967714309692383,
   7.3610243797302246,
   7.2579817771911621,
   6.852053165435791,
   6.5039854049682617,
   6.1954188346862793,
   5.9905638694763184,
   5.8117265701293945,
   5.6212797164916992,
   5.4435081481933594,
   5.2985568046569824,
   5.1456360816955566,
   4.0457258224487305,
   3.3547368049621582,
   2.9245421886444092,
   2.5633082389831543,
   2.3006095886230469,
   2.1209299564361572,
   1.9692329168319702,
   1.8306291103363037,
   1.7402572631835938,
   1.2803089618682861,
   1.1505292654037476,
   1.0747872591018677,
   1.0153858661651611,
   1.0037938356399536,
   1.0305787324905396,
   1.0431852340698242,
   1.0108175277709961,
   0.99394911527633667,
   1.0178558826446533,
   0.96035754680633545,
   0.9975544810295105,
   0.98014438152313232,
   0.99663209915161133,
   1.007835865020752,
   0.96932804584503174,
   1.0281106233596802,
   1.0150344371795654,
   0.95642644166946411,
   1.0338095426559448,
   1.0463895797729492,
   1.0207561254501343,
   0.98026180267333984,
   0.96442663669586182,
   1.0460977554321289,
   0.91205233335494995,
   1.0429198741912842
]
