[
   8.6413784027099609,
   8.6315746307373047,
   8.6346302032470703,
   8.6533098220825195,
   8.6238422393798828,
   8.605647087097168,
   8.5830364227294922,
   8.6108989715576172,
   8.6133327484130859,
   8.5937185287475586,
   8.4644002914428711,
   8.3779878616333008,
   8.3201913833618164,
   8.2242345809936523,
   8.1976985931396484,
   8.1231546401977539,
   8.042816162109375,
   7.9310708045959473,
   7.8897371292114258,
   7.3611793518066406,
   6.9401159286499023,
   6.578951358795166,
   6.2703828811645508,
   6.0034403800964355,
   5.7373661994934082,
   5.5730338096618652,
   5.3899111747741699,
   5.1932754516601562,
   3.9610934257507324,
   3.2571291923522949,
   2.7522106170654297,
   2.4284634590148926,
   2.147723913192749,
   1.9653575420379639,
   1.8022552728652954,
   1.7119066715240479,
   1.6377627849578857,
   1.2057516574859619,
   1.1044464111328125,
   1.0757383108139038,
   1.014104962348938,
   0.98325240612030029,
   1.0137243270874023,
   0.99959850311279297,
   1.0033109188079834,
   0.97616851329803467,
   0.98119717836380005,
   0.98658466339111328,
   0.95502984523773193,
   0.94022446870803833,
   0.97427749633789062,
   1.0016897916793823,
   0.96397799253463745,
   0.99654322862625122,
   0.98473912477493286,
   1.0078351497650146,
   1.010210394859314,
   0.93987208604812622,
   1.0091378688812256,
   0.91820591688156128,
   1.0293427705764771,
   1.0358974933624268,
   0.94630128145217896,
   1.0820536613464355
]
