[
   1.8763892650604248,
   1.8780174255371094,
   1.8760616779327393,
   1.8761522769927979,
   1.8767349720001221,
   1.8768682479858398,
   1.8756049871444702,
   1.8737566471099854,
   1.8755642175674438,
   1.8750425577163696,
   1.8725059032440186,
   1.8699327707290649,
   1.867068886756897,
   1.8619470596313477,
   1.8588809967041016,
   1.8561737537384033,
   1.8556442260742188,
   1.8513667583465576,
   1.8490304946899414,
   1.8223272562026978,
   1.798275351524353,
   1.7743089199066162,
   1.7542009353637695,
   1.7334823608398438,
   1.7159411907196045,
   1.6983346939086914,
   1.6828489303588867,
   1.6663942337036133,
   1.5499224662780762,
   1.4688503742218018,
   1.4055893421173096,
   1.3588263988494873,
   1.3183704614639282,
   1.284732460975647,
   1.2541878223419189,
   1.2319190502166748,
   1.2116496562957764,
   1.1057590246200562,
   1.0684723854064941,
   1.0515124797821045,
   1.0320334434509277,
   1.0205072164535522,
   1.0145838260650635,
   1.0133635997772217,
   1.010851263999939,
   1.0109032392501831,
   0.99300146102905273,
   1.0045977830886841,
   0.99767792224884033,
   0.99324482679367065,
   0.99392259120941162,
   0.98793566226959229,
   0.98764216899871826,
   0.99200856685638428,
   0.98787415027618408,
   0.99085032939910889,
   0.98645830154418945,
   0.98559635877609253,
   0.9958571195602417,
   1.002177357673645,
   0.9912186861038208,
   1.0402462482452393,
   1.0326359272003174,
   1.0628783702850342
]
