[
   1.7588056325912476,
   1.7590827941894531,
   1.7606146335601807,
   1.7588214874267578,
   1.7597334384918213,
   1.7592666149139404,
   1.7574756145477295,
   1.759879469871521,
   1.7561740875244141,
   1.7585723400115967,
   1.7570054531097412,
   1.7529579401016235,
   1.7501277923583984,
   1.747942328453064,
   1.7435636520385742,
   1.7439454793930054,
   1.7394998073577881,
   1.7388999462127686,
   1.7358617782592773,
   1.7135393619537354,
   1.6928703784942627,
   1.6779794692993164,
   1.6570184230804443,
   1.6419553756713867,
   1.6268777847290039,
   1.6114619970321655,
   1.5983036756515503,
   1.5832850933074951,
   1.4834730625152588,
   1.4123867750167847,
   1.3588237762451172,
   1.3157510757446289,
   1.2837872505187988,
   1.2548028230667114,
   1.2323585748672485,
   1.2120181322097778,
   1.1934547424316406,
   1.0996482372283936,
   1.0599018335342407,
   1.040316104888916,
   1.0284168720245361,
   1.0210548639297485,
   1.0145149230957031,
   1.0167181491851807,
   1.0101711750030518,
   1.0058350563049316,
   1.0031197071075439,
   0.99584352970123291,
   0.99891585111618042,
   0.9969635009765625,
   1.002000093460083,
   0.99270278215408325,
   1.00174880027771,
   1.0015311241149902,
   0.99374091625213623,
   1.0123975276947021,
   1.0128793716430664,
   1.0186038017272949,
   1.0047171115875244,
   0.99486845731735229,
   0.98506152629852295,
   0.95357120037078857,
   0.97647202014923096,
   0.96832162141799927
]
