[
   19.066150665283203,
   18.976472854614258,
   18.959939956665039,
   19.020862579345703,
   18.744394302368164,
   18.780271530151367,
   18.776371002197266,
   18.698123931884766,
   18.73858642578125,
   18.630077362060547,
   18.624778747558594,
   18.038021087646484,
   17.835134506225586,
   17.614702224731445,
   17.339500427246094,
   16.998970031738281,
   16.921329498291016,
   16.681678771972656,
   16.518070220947266,
   15.02869987487793,
   13.766952514648438,
   12.871699333190918,
   11.969388008117676,
   11.338118553161621,
   10.806307792663574,
   10.247223854064941,
   9.8003730773925781,
   9.2729091644287109,
   6.2864704132080078,
   4.7612061500549316,
   3.6658375263214111,
   3.0403599739074707,
   2.6913456916809082,
   2.3988041877746582,
   2.1203436851501465,
   2.0134005546569824,
   1.8938376903533936,
   1.3187589645385742,
   1.1391197443008423,
   1.1147071123123169,
   1.0937362909317017,
   1.116896390914917,
   1.1168925762176514,
   1.0241110324859619,
   0.9875909686088562,
   0.90428143739700317,
   0.98749101161956787,
   1.0028723478317261,
   1.1011168956756592,
   0.98412704467773438,
   1.0090672969818115,
   0.95586317777633667,
   1.0317652225494385,
   1.033589243888855,
   1.0215780735015869,
   0.98686230182647705,
   1.1160118579864502,
   0.98185157775878906,
   1.0048799514770508,
   1.0257604122161865,
   1.0054943561553955,
   0.95161741971969604,
   0.93833619356155396,
   0.82510232925415039
]
