[
   161.25552368164062,
   162.19267272949219,
   160.08430480957031,
   156.92526245117188,
   154.70755004882812,
   154.61453247070312,
   156.59884643554688,
   157.29817199707031,
   154.28120422363281,
   154.46415710449219,
   146.22601318359375,
   137.34014892578125,
   132.2611083984375,
   130.56594848632812,
   128.40423583984375,
   125.04362487792969,
   121.00860595703125,
   120.0084228515625,
   114.19000244140625,
   91.440032958984375,
   77.323898315429688,
   67.759628295898438,
   55.625312805175781,
   51.376220703125,
   43.690662384033203,
   38.998321533203125,
   35.509071350097656,
   32.436115264892578,
   13.798083305358887,
   8.7442493438720703,
   5.0985350608825684,
   5.0830850601196289,
   3.9406516551971436,
   3.1391236782073975,
   3.2359817028045654,
   2.1624717712402344,
   2.4697995185852051,
   1.3503575325012207,
   1.5120983123779297,
   1.2694816589355469,
   1.2086650133132935,
   1.2837918996810913,
   1.2239383459091187,
   0.72902357578277588,
   1.0789718627929688,
   0.8664061427116394,
   0.84765166044235229,
   0.54839998483657837,
   0.90036046504974365,
   1.1422626972198486,
   0.45188036561012268,
   0.65805816650390625,
   1.0283498764038086,
   0.86257392168045044,
   1.1277906894683838,
   0.76673686504364014,
   1.381925106048584,
   0.98502379655838013,
   0.43483108282089233,
   0.85247880220413208,
   0.70821678638458252,
   0.27101078629493713,
   0.23933906853199005,
   0.24631583690643311
]
