[
   1.4568824768066406,
   1.4567832946777344,
   1.4578938484191895,
   1.457385778427124,
   1.4567945003509521,
   1.4571361541748047,
   1.4570724964141846,
   1.4574369192123413,
   1.4568425416946411,
   1.4569064378738403,
   1.4560019969940186,
   1.4554644823074341,
   1.4549850225448608,
   1.4541205167770386,
   1.4536334276199341,
   1.4520876407623291,
   1.4518134593963623,
   1.4512926340103149,
   1.4504941701889038,
   1.4460127353668213,
   1.4396703243255615,
   1.4326844215393066,
   1.4286148548126221,
   1.4239635467529297,
   1.4189531803131104,
   1.4136689901351929,
   1.4096710681915283,
   1.4051858186721802,
   1.3685692548751831,
   1.3389766216278076,
   1.3159204721450806,
   1.2952064275741577,
   1.2779200077056885,
   1.2618508338928223,
   1.2468564510345459,
   1.234635591506958,
   1.2222727537155151,
   1.1458905935287476,
   1.104129433631897,
   1.075742244720459,
   1.0609314441680908,
   1.0502732992172241,
   1.0411067008972168,
   1.032644510269165,
   1.0260449647903442,
   1.0276610851287842,
   1.0040791034698486,
   1.0006921291351318,
   1.0027064085006714,
   0.99557268619537354,
   0.99424278736114502,
   0.99245297908782959,
   0.98810923099517822,
   0.98691654205322266,
   0.98902738094329834,
   0.98802566528320312,
   0.97736978530883789,
   0.98637217283248901,
   0.979653000831604,
   1.0104061365127563,
   1.0013120174407959,
   1.0332779884338379,
   1.0543534755706787,
   1.0780508518218994
]
