[
   5.7935667037963867,
   5.7867522239685059,
   5.7794981002807617,
   5.7577972412109375,
   5.7875618934631348,
   5.7528281211853027,
   5.7580385208129883,
   5.7600340843200684,
   5.7564725875854492,
   5.754948616027832,
   5.7115888595581055,
   5.703099250793457,
   5.664860725402832,
   5.6486997604370117,
   5.6087055206298828,
   5.5806479454040527,
   5.5617661476135254,
   5.5475239753723145,
   5.5172214508056641,
   5.3414459228515625,
   5.1410136222839355,
   4.9900712966918945,
   4.8594932556152344,
   4.723177433013916,
   4.5919790267944336,
   4.4845285415649414,
   4.380528450012207,
   4.3017206192016602,
   3.5694916248321533,
   3.0922629833221436,
   2.7712826728820801,
   2.5329241752624512,
   2.3426799774169922,
   2.1953186988830566,
   2.080294132232666,
   1.9774128198623657,
   1.8760471343994141,
   1.4577391147613525,
   1.2980794906616211,
   1.2120482921600342,
   1.1350409984588623,
   1.0945351123809814,
   1.1092720031738281,
   1.0655142068862915,
   1.0332373380661011,
   1.0465426445007324,
   1.0299713611602783,
   0.98652678728103638,
   1.0053050518035889,
   0.98206412792205811,
   1.0106923580169678,
   0.97065889835357666,
   1.0087128877639771,
   0.95167839527130127,
   0.97255420684814453,
   0.94762641191482544,
   0.93021881580352783,
   0.98533469438552856,
   0.99859094619750977,
   0.98277425765991211,
   0.97286641597747803,
   1.0217103958129883,
   1.1744232177734375,
   1.0097863674163818
]
