[
   1.6957681179046631,
   1.6966676712036133,
   1.695888876914978,
   1.6982256174087524,
   1.6970329284667969,
   1.6962020397186279,
   1.696131706237793,
   1.6957986354827881,
   1.696241021156311,
   1.6968768835067749,
   1.6944383382797241,
   1.6928737163543701,
   1.6921027898788452,
   1.6902334690093994,
   1.6892198324203491,
   1.6862993240356445,
   1.6863021850585938,
   1.6843465566635132,
   1.6834417581558228,
   1.6749742031097412,
   1.6636202335357666,
   1.6507705450057983,
   1.6409978866577148,
   1.6335837841033936,
   1.6238193511962891,
   1.6158254146575928,
   1.6071994304656982,
   1.6002938747406006,
   1.5366199016571045,
   1.4883966445922852,
   1.4498804807662964,
   1.4165542125701904,
   1.3878488540649414,
   1.3625752925872803,
   1.3382736444473267,
   1.3207136392593384,
   1.3004724979400635,
   1.1875545978546143,
   1.1291379928588867,
   1.0924515724182129,
   1.0756409168243408,
   1.0611151456832886,
   1.0513255596160889,
   1.040851354598999,
   1.0320565700531006,
   1.0316293239593506,
   1.0048859119415283,
   1.0047147274017334,
   1.0029908418655396,
   0.99470919370651245,
   0.98989754915237427,
   0.99215680360794067,
   0.98438727855682373,
   0.9842604398727417,
   0.98533755540847778,
   0.98733294010162354,
   0.97382485866546631,
   0.98562413454055786,
   0.97922390699386597,
   1.0131322145462036,
   0.99774110317230225,
   1.0355324745178223,
   1.0614813566207886,
   1.0998313426971436
]
