[
   11.240434646606445,
   11.247945785522461,
   11.243663787841797,
   11.237443923950195,
   11.229048728942871,
   11.201532363891602,
   11.258234024047852,
   11.230436325073242,
   11.207212448120117,
   11.202362060546875,
   11.070314407348633,
   10.963176727294922,
   10.892906188964844,
   10.806824684143066,
   10.682775497436523,
   10.648021697998047,
   10.528796195983887,
   10.526331901550293,
   10.40916919708252,
   9.7301616668701172,
   9.2211322784423828,
   8.7211093902587891,
   8.3236236572265625,
   7.8709325790405273,
   7.6437482833862305,
   7.3490662574768066,
   7.071469783782959,
   6.794583797454834,
   5.0578522682189941,
   4.1343293190002441,
   3.5698018074035645,
   3.1376311779022217,
   2.7908720970153809,
   2.5273761749267578,
   2.3233952522277832,
   2.2384626865386963,
   2.0994551181793213,
   1.5162076950073242,
   1.299263596534729,
   1.1553728580474854,
   1.1156342029571533,
   1.0689443349838257,
   1.0670064687728882,
   1.0431540012359619,
   1.06620192527771,
   1.0219247341156006,
   1.0218805074691772,
   1.0401166677474976,
   0.99227035045623779,
   1.0086828470230103,
   1.0113873481750488,
   0.94134920835494995,
   0.96337282657623291,
   1.0958054065704346,
   1.0350000858306885,
   1.0012753009796143,
   0.96834439039230347,
   0.9671473503112793,
   0.9980815052986145,
   1.0588756799697876,
   1.0393177270889282,
   0.91780072450637817,
   0.89483767747879028,
   1.1196169853210449
]
