[
   20.195793151855469,
   20.289409637451172,
   20.158365249633789,
   20.001155853271484,
   20.15855598449707,
   19.983512878417969,
   20.083868026733398,
   20.015060424804688,
   19.996286392211914,
   19.863359451293945,
   19.67591667175293,
   19.293804168701172,
   19.166181564331055,
   18.889318466186523,
   18.606021881103516,
   18.578353881835938,
   18.374374389648438,
   18.085180282592773,
   17.793146133422852,
   16.208122253417969,
   15.020988464355469,
   13.754605293273926,
   12.836949348449707,
   12.057306289672852,
   11.415431022644043,
   10.691408157348633,
   10.106781005859375,
   9.6994495391845703,
   6.5482625961303711,
   5.1416220664978027,
   4.2780542373657227,
   3.6027626991271973,
   3.2369239330291748,
   2.8738677501678467,
   2.6678872108459473,
   2.4508862495422363,
   2.2420096397399902,
   1.3453315496444702,
   1.2184388637542725,
   1.1139465570449829,
   1.1586858034133911,
   1.1586456298828125,
   1.1193790435791016,
   1.0658137798309326,
   1.1456005573272705,
   1.1034491062164307,
   0.95325124263763428,
   0.91738498210906982,
   1.0307824611663818,
   1.0389535427093506,
   1.0168876647949219,
   1.0416073799133301,
   0.92512476444244385,
   1.0249245166778564,
   0.98598736524581909,
   0.93111419677734375,
   0.96276205778121948,
   0.95627850294113159,
   0.98546439409255981,
   1.0713498592376709,
   1.0763933658599854,
   1.0253310203552246,
   1.2018229961395264,
   1.1123440265655518
]
