[
   1.500131368637085,
   1.500234842300415,
   1.5013340711593628,
   1.5010340213775635,
   1.5004504919052124,
   1.5003262758255005,
   1.5003007650375366,
   1.5009026527404785,
   1.5003265142440796,
   1.5006442070007324,
   1.499427318572998,
   1.4987637996673584,
   1.4980697631835938,
   1.4968093633651733,
   1.4962648153305054,
   1.4949636459350586,
   1.4947211742401123,
   1.4942338466644287,
   1.492816686630249,
   1.4878754615783691,
   1.4803845882415771,
   1.4724997282028198,
   1.4678394794464111,
   1.4622880220413208,
   1.4566191434860229,
   1.4510654211044312,
   1.4461910724639893,
   1.4411503076553345,
   1.3999217748641968,
   1.3666837215423584,
   1.3413403034210205,
   1.318034291267395,
   1.2993296384811401,
   1.2812116146087646,
   1.2647418975830078,
   1.2512476444244385,
   1.2376999855041504,
   1.1545025110244751,
   1.1094925403594971,
   1.0795425176620483,
   1.0640244483947754,
   1.0527076721191406,
   1.0432465076446533,
   1.0343693494796753,
   1.0271947383880615,
   1.0288207530975342,
   1.0035622119903564,
   1.0013607740402222,
   1.0022842884063721,
   0.99551171064376831,
   0.9925195574760437,
   0.99210613965988159,
   0.98645365238189697,
   0.9864465594291687,
   0.98798847198486328,
   0.98735600709915161,
   0.97654134035110474,
   0.98550093173980713,
   0.97968387603759766,
   1.0111943483352661,
   1.0013386011123657,
   1.0338689088821411,
   1.056236743927002,
   1.08296799659729
]
