[
   2.1067044734954834,
   2.1067109107971191,
   2.108410120010376,
   2.106766939163208,
   2.1066508293151855,
   2.1050169467926025,
   2.1086421012878418,
   2.1051437854766846,
   2.1067109107971191,
   2.1055216789245605,
   2.1029191017150879,
   2.1013433933258057,
   2.1016871929168701,
   2.099921703338623,
   2.0966696739196777,
   2.0960404872894287,
   2.0939717292785645,
   2.0927958488464355,
   2.092933177947998,
   2.0777356624603271,
   2.0641980171203613,
   2.0540471076965332,
   2.0419325828552246,
   2.0311007499694824,
   2.0196454524993896,
   2.0111713409423828,
   1.9975332021713257,
   1.9893162250518799,
   1.9014936685562134,
   1.8272234201431274,
   1.7660472393035889,
   1.7126359939575195,
   1.6652132272720337,
   1.6223430633544922,
   1.5863072872161865,
   1.5512183904647827,
   1.5229499340057373,
   1.337610125541687,
   1.2370724678039551,
   1.1810859441757202,
   1.1482434272766113,
   1.1174935102462769,
   1.1026713848114014,
   1.0949310064315796,
   1.0862236022949219,
   1.0778779983520508,
   1.0226266384124756,
   1.0050292015075684,
   1.0003924369812012,
   0.99408942461013794,
   0.983692467212677,
   0.9910203218460083,
   0.97300064563751221,
   0.98628056049346924,
   0.99399757385253906,
   0.96881353855133057,
   0.96904385089874268,
   0.97134733200073242,
   0.98728543519973755,
   1.0079213380813599,
   1.0247642993927002,
   0.98459768295288086,
   1.0558120012283325,
   1.0803238153457642
]
