[
   1.3734316825866699,
   1.3737123012542725,
   1.373673677444458,
   1.3733580112457275,
   1.3740165233612061,
   1.3738354444503784,
   1.3743107318878174,
   1.373762845993042,
   1.3734886646270752,
   1.3734387159347534,
   1.3737418651580811,
   1.373257040977478,
   1.3741055727005005,
   1.3732209205627441,
   1.3726277351379395,
   1.3729671239852905,
   1.3726288080215454,
   1.3725779056549072,
   1.3716497421264648,
   1.3697282075881958,
   1.3677774667739868,
   1.36734938621521,
   1.3651140928268433,
   1.3628029823303223,
   1.3619310855865479,
   1.360857367515564,
   1.3583172559738159,
   1.3570792675018311,
   1.3434354066848755,
   1.3308433294296265,
   1.3193069696426392,
   1.3092286586761475,
   1.2992821931838989,
   1.2910158634185791,
   1.2827008962631226,
   1.2743090391159058,
   1.2665526866912842,
   1.2080531120300293,
   1.1694598197937012,
   1.139661431312561,
   1.1269645690917969,
   1.1099792718887329,
   1.0950839519500732,
   1.0826297998428345,
   1.0725492238998413,
   1.0661513805389404,
   1.0267937183380127,
   1.0119597911834717,
   1.0054643154144287,
   1.0053386688232422,
   1.0016951560974121,
   1.0018137693405151,
   0.99529945850372314,
   0.99839150905609131,
   1.0060205459594727,
   0.99392604827880859,
   1.0093899965286255,
   1.0016380548477173,
   1.0102765560150146,
   0.97832077741622925,
   0.98046129941940308,
   0.97403872013092041,
   0.93831509351730347,
   0.9684138298034668
]
