[
   1.7392886877059937,
   1.7395036220550537,
   1.7401577234268188,
   1.7410463094711304,
   1.7411559820175171,
   1.738886833190918,
   1.7381877899169922,
   1.7391092777252197,
   1.738250732421875,
   1.7390581369400024,
   1.7372757196426392,
   1.7382396459579468,
   1.736440896987915,
   1.7356455326080322,
   1.7349224090576172,
   1.7345800399780273,
   1.7344112396240234,
   1.7360670566558838,
   1.7312370538711548,
   1.7254966497421265,
   1.7193562984466553,
   1.7153276205062866,
   1.7077586650848389,
   1.7032216787338257,
   1.6976659297943115,
   1.6924756765365601,
   1.6866458654403687,
   1.6829769611358643,
   1.6373605728149414,
   1.5990082025527954,
   1.5635627508163452,
   1.5326302051544189,
   1.5060462951660156,
   1.4807357788085938,
   1.4588550329208374,
   1.440484881401062,
   1.419919490814209,
   1.2987372875213623,
   1.230459451675415,
   1.1872943639755249,
   1.1579568386077881,
   1.1360170841217041,
   1.1172635555267334,
   1.1017897129058838,
   1.0820647478103638,
   1.0743129253387451,
   1.0344258546829224,
   1.0091654062271118,
   1.0062459707260132,
   1.0051023960113525,
   0.99949902296066284,
   0.99437236785888672,
   0.98817574977874756,
   0.98919850587844849,
   0.99576646089553833,
   0.99095571041107178,
   1.0050480365753174,
   1.0120232105255127,
   1.0001095533370972,
   0.98250472545623779,
   0.98214262723922729,
   0.99096834659576416,
   0.99131870269775391,
   1.0218193531036377
]
