[
   3.2845737934112549,
   3.2860274314880371,
   3.2897734642028809,
   3.2861645221710205,
   3.287778377532959,
   3.2833714485168457,
   3.285050630569458,
   3.2785682678222656,
   3.2747921943664551,
   3.2775135040283203,
   3.2748215198516846,
   3.2695209980010986,
   3.2627086639404297,
   3.2597377300262451,
   3.2528750896453857,
   3.2459704875946045,
   3.2397875785827637,
   3.2406406402587891,
   3.2384390830993652,
   3.1839678287506104,
   3.1408190727233887,
   3.0998806953430176,
   3.0500426292419434,
   3.0165526866912842,
   2.9738895893096924,
   2.944389820098877,
   2.9133081436157227,
   2.8755455017089844,
   2.6016972064971924,
   2.3933379650115967,
   2.2366318702697754,
   2.1031985282897949,
   1.9951677322387695,
   1.918959379196167,
   1.8408498764038086,
   1.773698091506958,
   1.7230947017669678,
   1.4205005168914795,
   1.2994115352630615,
   1.2233595848083496,
   1.1760854721069336,
   1.1407305002212524,
   1.1354690790176392,
   1.1083649396896362,
   1.0959669351577759,
   1.0753123760223389,
   1.0374891757965088,
   1.0307615995407104,
   1.0039842128753662,
   1.0084489583969116,
   0.99978220462799072,
   1.0069103240966797,
   0.98829430341720581,
   0.99078160524368286,
   0.98806083202362061,
   0.97648680210113525,
   0.98568880558013916,
   0.96457445621490479,
   0.99804610013961792,
   0.94912213087081909,
   1.0041763782501221,
   1.0003809928894043,
   1.0966498851776123,
   1.0318257808685303
]
