[
   5.5427465438842773,
   5.5457639694213867,
   5.5234804153442383,
   5.5322260856628418,
   5.5252852439880371,
   5.5170583724975586,
   5.5080795288085938,
   5.5177011489868164,
   5.5024642944335938,
   5.5156402587890625,
   5.479799747467041,
   5.4691057205200195,
   5.4401507377624512,
   5.4340276718139648,
   5.4227771759033203,
   5.3854885101318359,
   5.3850002288818359,
   5.357175350189209,
   5.3469877243041992,
   5.1930503845214844,
   5.0257482528686523,
   4.887850284576416,
   4.746544361114502,
   4.6352782249450684,
   4.5221238136291504,
   4.4230208396911621,
   4.3083372116088867,
   4.2229695320129395,
   3.5032801628112793,
   3.0373435020446777,
   2.7410130500793457,
   2.5075516700744629,
   2.3284690380096436,
   2.1996006965637207,
   2.0921642780303955,
   1.9977781772613525,
   1.9118350744247437,
   1.4883980751037598,
   1.355731725692749,
   1.2655384540557861,
   1.1868646144866943,
   1.1627767086029053,
   1.129981517791748,
   1.122988224029541,
   1.1200861930847168,
   1.0752767324447632,
   1.0188968181610107,
   0.99362623691558838,
   1.0236097574234009,
   0.99061155319213867,
   1.013530969619751,
   0.95634794235229492,
   1.0037120580673218,
   0.95564568042755127,
   1.0140488147735596,
   0.95467948913574219,
   1.0056439638137817,
   1.0317986011505127,
   0.96172654628753662,
   0.93765413761138916,
   0.92544376850128174,
   0.94044649600982666,
   0.99644088745117188,
   0.95467627048492432
]
