[
   1.8648818731307983,
   1.8628816604614258,
   1.8618682622909546,
   1.8650604486465454,
   1.8621457815170288,
   1.8643249273300171,
   1.8647391796112061,
   1.862720251083374,
   1.8609546422958374,
   1.8642677068710327,
   1.8619571924209595,
   1.8608763217926025,
   1.8583805561065674,
   1.8608062267303467,
   1.8577992916107178,
   1.8577425479888916,
   1.8550773859024048,
   1.8562198877334595,
   1.8534777164459229,
   1.8459993600845337,
   1.8389227390289307,
   1.8306249380111694,
   1.8216539621353149,
   1.8151016235351562,
   1.8059031963348389,
   1.8010895252227783,
   1.7930240631103516,
   1.7876558303833008,
   1.7263889312744141,
   1.6748895645141602,
   1.6310189962387085,
   1.5895144939422607,
   1.5552680492401123,
   1.5239549875259399,
   1.4978296756744385,
   1.471735954284668,
   1.4474555253982544,
   1.2999398708343506,
   1.2195620536804199,
   1.1728742122650146,
   1.13334059715271,
   1.1048170328140259,
   1.0851730108261108,
   1.0762169361114502,
   1.0659769773483276,
   1.0583977699279785,
   1.0258136987686157,
   1.0054314136505127,
   1.016096830368042,
   1.0022923946380615,
   0.99502772092819214,
   0.99946022033691406,
   1.0141627788543701,
   0.99858552217483521,
   0.9952925443649292,
   1.0069302320480347,
   0.99507409334182739,
   0.99631357192993164,
   0.99309194087982178,
   0.97167462110519409,
   0.98012590408325195,
   0.98189318180084229,
   0.95644330978393555,
   1.0049651861190796
]
