[
   1.4660028219223022,
   1.4662154912948608,
   1.4660155773162842,
   1.4652464389801025,
   1.4662854671478271,
   1.4658057689666748,
   1.4661681652069092,
   1.4662240743637085,
   1.4656026363372803,
   1.4663240909576416,
   1.4649360179901123,
   1.4655959606170654,
   1.4658294916152954,
   1.4648913145065308,
   1.4633257389068604,
   1.463171124458313,
   1.4639507532119751,
   1.4643082618713379,
   1.4637606143951416,
   1.4593868255615234,
   1.4566042423248291,
   1.4541352987289429,
   1.4519296884536743,
   1.4486881494522095,
   1.4464889764785767,
   1.4441395998001099,
   1.4413944482803345,
   1.4391981363296509,
   1.4183142185211182,
   1.398410439491272,
   1.382337212562561,
   1.3664796352386475,
   1.3508074283599854,
   1.3387043476104736,
   1.3253538608551025,
   1.3138731718063354,
   1.3044971227645874,
   1.2230937480926514,
   1.1746855974197388,
   1.1419190168380737,
   1.1178739070892334,
   1.1000044345855713,
   1.0851430892944336,
   1.0739963054656982,
   1.0656043291091919,
   1.0643559694290161,
   1.0127270221710205,
   1.0086063146591187,
   1.0006210803985596,
   0.99951773881912231,
   1.0013594627380371,
   1.0015633106231689,
   1.0014206171035767,
   0.99131739139556885,
   1.0006906986236572,
   1.0018384456634521,
   0.97432756423950195,
   0.97568356990814209,
   0.98275625705718994,
   1.0158542394638062,
   1.0415756702423096,
   1.0491409301757812,
   1.0256509780883789,
   0.99989211559295654
]
