[
   1.3085086345672607,
   1.3084068298339844,
   1.3077197074890137,
   1.3080179691314697,
   1.3086811304092407,
   1.308107852935791,
   1.3080570697784424,
   1.3082125186920166,
   1.30715012550354,
   1.308574914932251,
   1.3079553842544556,
   1.3074212074279785,
   1.3077788352966309,
   1.3072292804718018,
   1.3065640926361084,
   1.3069111108779907,
   1.3063390254974365,
   1.306621789932251,
   1.3064074516296387,
   1.3052761554718018,
   1.3034482002258301,
   1.3019087314605713,
   1.300736665725708,
   1.2984639406204224,
   1.2980093955993652,
   1.2961996793746948,
   1.2956051826477051,
   1.2942674160003662,
   1.2823169231414795,
   1.271500825881958,
   1.2622988224029541,
   1.2532618045806885,
   1.2454955577850342,
   1.2377011775970459,
   1.2304834127426147,
   1.2236111164093018,
   1.21690833568573,
   1.1673320531845093,
   1.133631706237793,
   1.1099923849105835,
   1.1030288934707642,
   1.0881533622741699,
   1.0759584903717041,
   1.0659788846969604,
   1.0563492774963379,
   1.0506353378295898,
   1.0146505832672119,
   1.0061823129653931,
   1.0022274255752563,
   1.005681037902832,
   1.0034594535827637,
   1.0008227825164795,
   0.99582672119140625,
   0.99907666444778442,
   1.0060386657714844,
   1.0100702047348022,
   1.0116549730300903,
   1.0014868974685669,
   1.0052553415298462,
   0.989970862865448,
   0.97707319259643555,
   0.97247332334518433,
   0.92391425371170044,
   0.95140218734741211
]
