[
   2.1453754901885986,
   2.1428918838500977,
   2.1421923637390137,
   2.1450059413909912,
   2.1440997123718262,
   2.1438033580780029,
   2.1444380283355713,
   2.142615795135498,
   2.1431784629821777,
   2.1409182548522949,
   2.1380949020385742,
   2.1374561786651611,
   2.1355776786804199,
   2.1322102546691895,
   2.1336283683776855,
   2.1288731098175049,
   2.1281754970550537,
   2.1261563301086426,
   2.1224043369293213,
   2.1030490398406982,
   2.0838799476623535,
   2.0659661293029785,
   2.0516788959503174,
   2.0414438247680664,
   2.0282087326049805,
   2.015143871307373,
   2.0027472972869873,
   1.9930025339126587,
   1.9085496664047241,
   1.8416593074798584,
   1.7818527221679688,
   1.7341737747192383,
   1.6880149841308594,
   1.6485927104949951,
   1.6103407144546509,
   1.5794059038162231,
   1.5498759746551514,
   1.3443635702133179,
   1.2268335819244385,
   1.1630969047546387,
   1.1235527992248535,
   1.1070914268493652,
   1.090453028678894,
   1.0786501169204712,
   1.0638123750686646,
   1.0473959445953369,
   0.98841321468353271,
   0.98736512660980225,
   1.0029288530349731,
   0.99465638399124146,
   0.98137122392654419,
   0.9869084358215332,
   0.98640358448028564,
   1.0072942972183228,
   0.99428665637969971,
   0.99265182018280029,
   1.0102955102920532,
   0.98044502735137939,
   0.9846348762512207,
   1.0036381483078003,
   0.98219048976898193,
   0.98265683650970459,
   0.90529191493988037,
   1.0405548810958862
]
