[
   1.6991856098175049,
   1.7004454135894775,
   1.7002401351928711,
   1.6985536813735962,
   1.6985623836517334,
   1.6997754573822021,
   1.7000629901885986,
   1.6990261077880859,
   1.7007477283477783,
   1.6994354724884033,
   1.6958986520767212,
   1.6968170404434204,
   1.6954214572906494,
   1.6943905353546143,
   1.6914945840835571,
   1.6902326345443726,
   1.6909036636352539,
   1.6884371042251587,
   1.6893453598022461,
   1.6772081851959229,
   1.6697880029678345,
   1.6601711511611938,
   1.6532535552978516,
   1.6430085897445679,
   1.6392148733139038,
   1.6319351196289062,
   1.6261603832244873,
   1.6199827194213867,
   1.5719243288040161,
   1.536184549331665,
   1.5049629211425781,
   1.4762206077575684,
   1.4531782865524292,
   1.4297850131988525,
   1.4086508750915527,
   1.3889099359512329,
   1.3726332187652588,
   1.2533690929412842,
   1.1805617809295654,
   1.136858344078064,
   1.1080734729766846,
   1.087230920791626,
   1.0709223747253418,
   1.0605738162994385,
   1.0449353456497192,
   1.0373880863189697,
   0.99854403734207153,
   0.99797308444976807,
   0.99601554870605469,
   0.98670178651809692,
   0.98721820116043091,
   1.0009696483612061,
   1.0041244029998779,
   0.99507540464401245,
   0.99255478382110596,
   0.99567890167236328,
   1.0090019702911377,
   0.9949529767036438,
   1.000407338142395,
   0.98999327421188354,
   1.0191264152526855,
   1.016251802444458,
   1.004824161529541,
   0.97591006755828857
]
