[
   1.985312819480896,
   1.9845720529556274,
   1.9826148748397827,
   1.9832369089126587,
   1.9830747842788696,
   1.9847269058227539,
   1.983572244644165,
   1.9822171926498413,
   1.9833437204360962,
   1.9837684631347656,
   1.9805997610092163,
   1.9802820682525635,
   1.975246787071228,
   1.9762512445449829,
   1.9749128818511963,
   1.9706518650054932,
   1.9692380428314209,
   1.968571662902832,
   1.9675935506820679,
   1.9499725103378296,
   1.9359617233276367,
   1.9242731332778931,
   1.9111083745956421,
   1.8985469341278076,
   1.8893419504165649,
   1.8795444965362549,
   1.8691784143447876,
   1.8616294860839844,
   1.7891753911972046,
   1.7388219833374023,
   1.6917972564697266,
   1.6538925170898438,
   1.6150060892105103,
   1.5837541818618774,
   1.5530838966369629,
   1.5234930515289307,
   1.4961832761764526,
   1.3185606002807617,
   1.2201550006866455,
   1.1672506332397461,
   1.1248539686203003,
   1.0971947908401489,
   1.0789566040039062,
   1.0652874708175659,
   1.0508077144622803,
   1.0430271625518799,
   1.0218775272369385,
   1.0016911029815674,
   0.98812496662139893,
   0.99299335479736328,
   0.99634343385696411,
   0.99762916564941406,
   1.0012969970703125,
   0.99295932054519653,
   0.97250241041183472,
   0.98974621295928955,
   0.99474352598190308,
   1.0013662576675415,
   1.0079991817474365,
   0.98255455493927002,
   1.0028232336044312,
   0.99026238918304443,
   0.99981296062469482,
   1.021043062210083
]
