[
   15.003497123718262,
   14.826637268066406,
   14.875407218933105,
   14.863548278808594,
   14.858609199523926,
   14.849977493286133,
   14.81220531463623,
   14.820045471191406,
   14.921359062194824,
   14.935521125793457,
   14.723724365234375,
   14.568008422851562,
   14.426849365234375,
   14.358148574829102,
   14.208442687988281,
   14.274724960327148,
   14.151792526245117,
   13.934600830078125,
   13.91142749786377,
   13.205012321472168,
   12.569570541381836,
   12.062769889831543,
   11.552105903625488,
   11.175164222717285,
   10.730953216552734,
   10.311264038085938,
   10.016091346740723,
   9.6888923645019531,
   7.1489858627319336,
   5.6677846908569336,
   4.785642147064209,
   4.1296415328979492,
   3.6347002983093262,
   3.3089408874511719,
   3.0262186527252197,
   2.7616040706634521,
   2.5250036716461182,
   1.6598495244979858,
   1.3869574069976807,
   1.2425628900527954,
   1.1791782379150391,
   1.1732269525527954,
   1.133700966835022,
   1.0638598203659058,
   1.1623033285140991,
   1.0745433568954468,
   0.96182805299758911,
   0.87977474927902222,
   1.0011184215545654,
   0.96980828046798706,
   0.93237859010696411,
   0.94426184892654419,
   0.9107014536857605,
   0.9864928126335144,
   0.92712992429733276,
   1.0108715295791626,
   0.99354773759841919,
   0.83853435516357422,
   0.99760216474533081,
   0.88575828075408936,
   0.86610615253448486,
   0.99687325954437256,
   0.88096076250076294,
   1.2323484420776367
]
