[
   9.0797767639160156,
   9.0580072402954102,
   9.0415992736816406,
   9.035161018371582,
   9.0550270080566406,
   9.0366153717041016,
   9.0440645217895508,
   9.0422992706298828,
   9.0051670074462891,
   9.0382099151611328,
   8.9808177947998047,
   8.951817512512207,
   8.8600826263427734,
   8.7387428283691406,
   8.7894926071166992,
   8.7483882904052734,
   8.7182245254516602,
   8.6786890029907227,
   8.6349306106567383,
   8.342045783996582,
   8.0783290863037109,
   7.8577370643615723,
   7.6331076622009277,
   7.5035881996154785,
   7.3060646057128906,
   7.0894498825073242,
   6.9518227577209473,
   6.7843589782714844,
   5.5841703414916992,
   4.7528619766235352,
   4.1441555023193359,
   3.7324187755584717,
   3.3587832450866699,
   3.0836546421051025,
   2.8540730476379395,
   2.6652076244354248,
   2.5342881679534912,
   1.783115029335022,
   1.424691915512085,
   1.3172080516815186,
   1.2140333652496338,
   1.2225161790847778,
   1.1976467370986938,
   1.0985953807830811,
   1.0900230407714844,
   1.0869301557540894,
   1.00519859790802,
   0.97493010759353638,
   1.027864933013916,
   1.0644526481628418,
   1.0613698959350586,
   0.94898098707199097,
   0.96019631624221802,
   1.0256398916244507,
   1.0231935977935791,
   1.0332090854644775,
   0.95779526233673096,
   1.0331165790557861,
   0.90869110822677612,
   0.94914025068283081,
   0.91545802354812622,
   1.1413344144821167,
   0.88780152797698975,
   1.0187879800796509
]
