[
   3.4124579429626465,
   3.420487642288208,
   3.4155082702636719,
   3.4212417602539062,
   3.416985034942627,
   3.4132785797119141,
   3.4238934516906738,
   3.4200606346130371,
   3.4167060852050781,
   3.4112651348114014,
   3.405242919921875,
   3.3992125988006592,
   3.391791820526123,
   3.3788349628448486,
   3.364199161529541,
   3.3641726970672607,
   3.3573532104492188,
   3.3562431335449219,
   3.3444762229919434,
   3.2952888011932373,
   3.2474541664123535,
   3.200981616973877,
   3.1614668369293213,
   3.1370635032653809,
   3.0946900844573975,
   3.0657663345336914,
   3.0408174991607666,
   3.0105819702148438,
   2.7871077060699463,
   2.5987725257873535,
   2.4510684013366699,
   2.3293979167938232,
   2.2242722511291504,
   2.125978946685791,
   2.0488154888153076,
   1.9781233072280884,
   1.9141190052032471,
   1.5020158290863037,
   1.3097829818725586,
   1.2145683765411377,
   1.1604030132293701,
   1.1285713911056519,
   1.1003662347793579,
   1.0858031511306763,
   1.053070068359375,
   1.0344828367233276,
   0.99671429395675659,
   1.0053865909576416,
   1.0207867622375488,
   1.0061330795288086,
   1.0021510124206543,
   1.0240235328674316,
   0.98840111494064331,
   0.98964929580688477,
   1.0151646137237549,
   0.98365247249603271,
   0.97763717174530029,
   0.96070891618728638,
   0.97834891080856323,
   1.0265998840332031,
   0.98527222871780396,
   0.93229258060455322,
   0.96854430437088013,
   0.99108445644378662
]
