[
   1.7720649242401123,
   1.7727425098419189,
   1.7712419033050537,
   1.7724825143814087,
   1.7738008499145508,
   1.7719005346298218,
   1.7729816436767578,
   1.7704254388809204,
   1.7720117568969727,
   1.7716439962387085,
   1.7708065509796143,
   1.7684869766235352,
   1.7665427923202515,
   1.7663991451263428,
   1.7643711566925049,
   1.7607223987579346,
   1.76249098777771,
   1.759505033493042,
   1.7580602169036865,
   1.7483654022216797,
   1.7345317602157593,
   1.7256309986114502,
   1.71750807762146,
   1.7095493078231812,
   1.7010011672973633,
   1.6946051120758057,
   1.6858956813812256,
   1.6810852289199829,
   1.6270545721054077,
   1.5860295295715332,
   1.5519686937332153,
   1.5201985836029053,
   1.4931067228317261,
   1.4669597148895264,
   1.4425878524780273,
   1.4208667278289795,
   1.3999496698379517,
   1.2596290111541748,
   1.1840372085571289,
   1.1378223896026611,
   1.1083810329437256,
   1.0860369205474854,
   1.0671224594116211,
   1.0615266561508179,
   1.0552209615707397,
   1.0470021963119507,
   1.0156899690628052,
   1.0185987949371338,
   0.9936598539352417,
   0.98605489730834961,
   0.98235863447189331,
   0.98695534467697144,
   0.98633766174316406,
   0.99211233854293823,
   0.99154138565063477,
   0.99532616138458252,
   0.97949820756912231,
   0.99726980924606323,
   0.98816663026809692,
   1.0054291486740112,
   1.0128719806671143,
   1.0357517004013062,
   1.065955638885498,
   1.0224376916885376
]
