[
   1.6402027606964111,
   1.638714075088501,
   1.6385949850082397,
   1.638013482093811,
   1.6386196613311768,
   1.6391317844390869,
   1.6389176845550537,
   1.6375764608383179,
   1.6382410526275635,
   1.6372503042221069,
   1.6378628015518188,
   1.6361186504364014,
   1.6335690021514893,
   1.6347249746322632,
   1.6333763599395752,
   1.6318051815032959,
   1.6308196783065796,
   1.6300628185272217,
   1.6287412643432617,
   1.6209911108016968,
   1.6135352849960327,
   1.6041568517684937,
   1.5986783504486084,
   1.5915777683258057,
   1.5870391130447388,
   1.581706166267395,
   1.5747528076171875,
   1.5693767070770264,
   1.5286595821380615,
   1.4972107410430908,
   1.4699426889419556,
   1.4461104869842529,
   1.4248090982437134,
   1.404650092124939,
   1.3872849941253662,
   1.37067711353302,
   1.3545396327972412,
   1.2462311983108521,
   1.1763393878936768,
   1.138525128364563,
   1.1050512790679932,
   1.0761020183563232,
   1.0559877157211304,
   1.0407713651657104,
   1.029476523399353,
   1.0256478786468506,
   1.001223087310791,
   0.99754536151885986,
   1.0037434101104736,
   1.0039366483688354,
   0.99376565217971802,
   1.003800630569458,
   1.0098428726196289,
   1.0060901641845703,
   1.0040911436080933,
   0.99228322505950928,
   0.97655659914016724,
   0.99217808246612549,
   0.99158269166946411,
   1.0051066875457764,
   1.019588828086853,
   1.0260611772537231,
   1.0323927402496338,
   0.98761063814163208
]
