[
   4.9013032913208008,
   4.8962340354919434,
   4.8953003883361816,
   4.8950014114379883,
   4.8915648460388184,
   4.8810429573059082,
   4.8726658821105957,
   4.8877606391906738,
   4.8937540054321289,
   4.8896303176879883,
   4.8753137588500977,
   4.8418245315551758,
   4.8327131271362305,
   4.8274188041687012,
   4.7966771125793457,
   4.7778692245483398,
   4.7695722579956055,
   4.7520742416381836,
   4.7447390556335449,
   4.6344099044799805,
   4.5354437828063965,
   4.4563465118408203,
   4.3965311050415039,
   4.328099250793457,
   4.2609028816223145,
   4.2020759582519531,
   4.1586747169494629,
   4.0832533836364746,
   3.6300086975097656,
   3.2958598136901855,
   3.0197286605834961,
   2.7964684963226318,
   2.6172645092010498,
   2.4646706581115723,
   2.3400626182556152,
   2.2207345962524414,
   2.1471667289733887,
   1.5946497917175293,
   1.3515385389328003,
   1.2084800004959106,
   1.1604654788970947,
   1.1162418127059937,
   1.1077902317047119,
   1.0896203517913818,
   1.0481691360473633,
   1.0641094446182251,
   1.0123140811920166,
   1.0100805759429932,
   1.0051536560058594,
   0.97674340009689331,
   1.0004359483718872,
   1.0145604610443115,
   0.95660960674285889,
   1.0172984600067139,
   1.0266193151473999,
   0.99038904905319214,
   1.0270488262176514,
   1.0239115953445435,
   0.96444940567016602,
   1.0473687648773193,
   0.96137034893035889,
   1.025232195854187,
   0.91897237300872803,
   0.89199399948120117
]
