[
   2.3586611747741699,
   2.3576502799987793,
   2.3618245124816895,
   2.3612432479858398,
   2.3564050197601318,
   2.3596768379211426,
   2.3580894470214844,
   2.3546586036682129,
   2.3594884872436523,
   2.3555328845977783,
   2.3516092300415039,
   2.3507952690124512,
   2.349395751953125,
   2.3420956134796143,
   2.3399631977081299,
   2.3382906913757324,
   2.3370022773742676,
   2.3296294212341309,
   2.3309617042541504,
   2.3013615608215332,
   2.2753839492797852,
   2.2569122314453125,
   2.2396998405456543,
   2.2232189178466797,
   2.2084119319915771,
   2.1902298927307129,
   2.1765036582946777,
   2.1704235076904297,
   2.055513858795166,
   1.967332124710083,
   1.8941488265991211,
   1.8277604579925537,
   1.7729727029800415,
   1.7188695669174194,
   1.6730964183807373,
   1.6311013698577881,
   1.5905789136886597,
   1.3408615589141846,
   1.2158448696136475,
   1.1499124765396118,
   1.1113519668579102,
   1.0934736728668213,
   1.0888721942901611,
   1.0598701238632202,
   1.0378648042678833,
   1.0255625247955322,
   0.99621456861495972,
   0.99533301591873169,
   1.0099470615386963,
   0.97619616985321045,
   0.99634706974029541,
   0.98238533735275269,
   1.0008704662322998,
   0.99572867155075073,
   0.99311506748199463,
   1.0081131458282471,
   0.98677551746368408,
   0.99272739887237549,
   0.9890478253364563,
   1.0307509899139404,
   1.014391303062439,
   0.97906887531280518,
   0.97497987747192383,
   0.8485870361328125
]
