wxy = 0.071 starts replicate 0
wxy = 0.132 starts replicate 0
wxy = 0.173 starts replicate 0
wxy = 0.241 starts replicate 0
wxy = 0.295 starts replicate 0
wxy = 0.34 starts replicate 0
wxy = 0.379 starts replicate 0
wxy = 0.415 starts replicate 0
wxy = 0.448 starts replicate 0
wxy = 0.479 starts replicate 0
wxy = 0.071 finished replicate 0 total counts 16829
wxy = 0.071 starts replicate 1
wxy = 0.508 starts replicate 0
wxy = 0.132 finished replicate 0 total counts 56343
wxy = 0.132 starts replicate 1
wxy = 0.535 starts replicate 0
wxy = 0.173 finished replicate 0 total counts 118863
wxy = 0.173 starts replicate 1
wxy = 0.561 starts replicate 0
wxy = 0.241 finished replicate 0 total counts 209045
wxy = 0.241 starts replicate 1
wxy = 0.586 starts replicate 0
wxy = 0.295 finished replicate 0 total counts 322585
wxy = 0.295 starts replicate 1
wxy = 0.61 starts replicate 0
wxy = 0.632 starts replicate 0
wxy = 0.34 finished replicate 0 total counts 444671
wxy = 0.34 starts replicate 1
wxy = 0.379 finished replicate 0 total counts 529065
wxy = 0.379 starts replicate 1
wxy = 0.415 finished replicate 0 total counts 627025
wxy = 0.415 starts replicate 1
wxy = 0.448 finished replicate 0 total counts 758048
wxy = 0.448 starts replicate 1
wxy = 0.479 finished replicate 0 total counts 937063
wxy = 0.479 starts replicate 1
wxy = 0.071 finished replicate 1 total counts 18300
wxy = 0.071 starts replicate 2
wxy = 0.508 finished replicate 0 total counts 979908
wxy = 0.508 starts replicate 1
wxy = 0.535 finished replicate 0 total counts 1.10765e+06
wxy = 0.535 starts replicate 1
wxy = 0.132 finished replicate 1 total counts 68075
wxy = 0.132 starts replicate 2
wxy = 0.561 finished replicate 0 total counts 1.43767e+06
wxy = 0.561 starts replicate 1
wxy = 0.173 finished replicate 1 total counts 97815
wxy = 0.173 starts replicate 2
wxy = 0.241 finished replicate 1 total counts 208038
wxy = 0.241 starts replicate 2
wxy = 0.586 finished replicate 0 total counts 1.45785e+06
wxy = 0.586 starts replicate 1
wxy = 0.295 finished replicate 1 total counts 313314
wxy = 0.295 starts replicate 2
wxy = 0.61 finished replicate 0 total counts 1.68037e+06
wxy = 0.61 starts replicate 1
wxy = 0.632 finished replicate 0 total counts 1.81247e+06
wxy = 0.632 starts replicate 1
wxy = 0.34 finished replicate 1 total counts 453240
wxy = 0.34 starts replicate 2
wxy = 0.379 finished replicate 1 total counts 555185
wxy = 0.379 starts replicate 2
wxy = 0.415 finished replicate 1 total counts 627433
wxy = 0.415 starts replicate 2
wxy = 0.448 finished replicate 1 total counts 740084
wxy = 0.448 starts replicate 2
wxy = 0.479 finished replicate 1 total counts 916799
wxy = 0.479 starts replicate 2
wxy = 0.071 finished replicate 2 total counts 14426
wxy = 0.071 starts replicate 3
wxy = 0.508 finished replicate 1 total counts 1.0257e+06
wxy = 0.508 starts replicate 2
wxy = 0.535 finished replicate 1 total counts 1.17119e+06
wxy = 0.535 starts replicate 2
wxy = 0.561 finished replicate 1 total counts 1.18805e+06
wxy = 0.561 starts replicate 2
wxy = 0.241 finished replicate 2 total counts 202428
wxy = 0.241 starts replicate 3
wxy = 0.173 finished replicate 2 total counts 96763
wxy = 0.173 starts replicate 3
wxy = 0.586 finished replicate 1 total counts 1.51528e+06
wxy = 0.586 starts replicate 2
wxy = 0.132 finished replicate 2 total counts 48898
wxy = 0.132 starts replicate 3
wxy = 0.61 finished replicate 1 total counts 1.63085e+06
wxy = 0.61 starts replicate 2
wxy = 0.295 finished replicate 2 total counts 345759
wxy = 0.295 starts replicate 3
wxy = 0.632 finished replicate 1 total counts 1.78107e+06
wxy = 0.632 starts replicate 2
wxy = 0.34 finished replicate 2 total counts 389395
wxy = 0.34 starts replicate 3
wxy = 0.379 finished replicate 2 total counts 563441
wxy = 0.379 starts replicate 3
wxy = 0.415 finished replicate 2 total counts 665899
wxy = 0.415 starts replicate 3
wxy = 0.448 finished replicate 2 total counts 826896
wxy = 0.448 starts replicate 3
wxy = 0.479 finished replicate 2 total counts 933304
wxy = 0.479 starts replicate 3
wxy = 0.071 finished replicate 3 total counts 11573
wxy = 0.071 starts replicate 4
wxy = 0.508 finished replicate 2 total counts 1.06284e+06
wxy = 0.508 starts replicate 3
wxy = 0.535 finished replicate 2 total counts 1.15152e+06
wxy = 0.535 starts replicate 3
wxy = 0.561 finished replicate 2 total counts 1.22894e+06
wxy = 0.561 starts replicate 3
wxy = 0.241 finished replicate 3 total counts 211701
wxy = 0.241 starts replicate 4
wxy = 0.586 finished replicate 2 total counts 1.48351e+06
wxy = 0.586 starts replicate 3
wxy = 0.173 finished replicate 3 total counts 96515
wxy = 0.173 starts replicate 4
wxy = 0.295 finished replicate 3 total counts 353294
wxy = 0.295 starts replicate 4
wxy = 0.61 finished replicate 2 total counts 1.4967e+06
wxy = 0.61 starts replicate 3
wxy = 0.132 finished replicate 3 total counts 60285
wxy = 0.132 starts replicate 4
wxy = 0.632 finished replicate 2 total counts 1.76128e+06
wxy = 0.632 starts replicate 3
wxy = 0.34 finished replicate 3 total counts 449738
wxy = 0.34 starts replicate 4
wxy = 0.379 finished replicate 3 total counts 444313
wxy = 0.379 starts replicate 4
wxy = 0.415 finished replicate 3 total counts 658290
wxy = 0.415 starts replicate 4
wxy = 0.448 finished replicate 3 total counts 892107
wxy = 0.448 starts replicate 4
wxy = 0.479 finished replicate 3 total counts 1.02552e+06
wxy = 0.479 starts replicate 4
wxy = 0.508 finished replicate 3 total counts 1.12761e+06
wxy = 0.508 starts replicate 4
wxy = 0.071 finished replicate 4 total counts 15510
wxy = 0.071 starts replicate 5
wxy = 0.535 finished replicate 3 total counts 1.24334e+06
wxy = 0.535 starts replicate 4
wxy = 0.561 finished replicate 3 total counts 1.29532e+06
wxy = 0.561 starts replicate 4
wxy = 0.241 finished replicate 4 total counts 170188
wxy = 0.241 starts replicate 5
wxy = 0.586 finished replicate 3 total counts 1.58496e+06
wxy = 0.586 starts replicate 4
wxy = 0.295 finished replicate 4 total counts 317313
wxy = 0.295 starts replicate 5
wxy = 0.61 finished replicate 3 total counts 1.55966e+06
wxy = 0.61 starts replicate 4
wxy = 0.173 finished replicate 4 total counts 104485
wxy = 0.173 starts replicate 5
wxy = 0.632 finished replicate 3 total counts 1.65145e+06
wxy = 0.632 starts replicate 4
wxy = 0.132 finished replicate 4 total counts 64894
wxy = 0.132 starts replicate 5
wxy = 0.34 finished replicate 4 total counts 371074
wxy = 0.34 starts replicate 5
wxy = 0.379 finished replicate 4 total counts 618070
wxy = 0.379 starts replicate 5
wxy = 0.415 finished replicate 4 total counts 687110
wxy = 0.415 starts replicate 5
wxy = 0.448 finished replicate 4 total counts 766877
wxy = 0.448 starts replicate 5
wxy = 0.479 finished replicate 4 total counts 1.00544e+06
wxy = 0.479 starts replicate 5
wxy = 0.508 finished replicate 4 total counts 1.15058e+06
wxy = 0.508 starts replicate 5
wxy = 0.071 finished replicate 5 total counts 15188
wxy = 0.071 starts replicate 6
wxy = 0.535 finished replicate 4 total counts 1.13731e+06
wxy = 0.535 starts replicate 5
wxy = 0.561 finished replicate 4 total counts 1.23976e+06
wxy = 0.561 starts replicate 5
wxy = 0.241 finished replicate 5 total counts 202465
wxy = 0.241 starts replicate 6
wxy = 0.586 finished replicate 4 total counts 1.41459e+06
wxy = 0.586 starts replicate 5
wxy = 0.295 finished replicate 5 total counts 316437
wxy = 0.295 starts replicate 6
wxy = 0.61 finished replicate 4 total counts 1.82516e+06
wxy = 0.61 starts replicate 5
wxy = 0.632 finished replicate 4 total counts 1.6998e+06
wxy = 0.632 starts replicate 5
wxy = 0.173 finished replicate 5 total counts 104008
wxy = 0.173 starts replicate 6
wxy = 0.34 finished replicate 5 total counts 388440
wxy = 0.34 starts replicate 6
wxy = 0.132 finished replicate 5 total counts 52201
wxy = 0.132 starts replicate 6
wxy = 0.379 finished replicate 5 total counts 498663
wxy = 0.379 starts replicate 6
wxy = 0.415 finished replicate 5 total counts 688520
wxy = 0.415 starts replicate 6
wxy = 0.448 finished replicate 5 total counts 763877
wxy = 0.448 starts replicate 6
wxy = 0.479 finished replicate 5 total counts 942890
wxy = 0.479 starts replicate 6
wxy = 0.508 finished replicate 5 total counts 1.05571e+06
wxy = 0.508 starts replicate 6
wxy = 0.071 finished replicate 6 total counts 17397
wxy = 0.071 starts replicate 7
wxy = 0.535 finished replicate 5 total counts 1.16098e+06
wxy = 0.535 starts replicate 6
wxy = 0.561 finished replicate 5 total counts 1.37598e+06
wxy = 0.561 starts replicate 6
wxy = 0.586 finished replicate 5 total counts 1.47175e+06
wxy = 0.586 starts replicate 6
wxy = 0.241 finished replicate 6 total counts 174357
wxy = 0.241 starts replicate 7
wxy = 0.295 finished replicate 6 total counts 392702
wxy = 0.295 starts replicate 7
wxy = 0.61 finished replicate 5 total counts 1.60863e+06
wxy = 0.61 starts replicate 6
wxy = 0.632 finished replicate 5 total counts 1.7284e+06
wxy = 0.632 starts replicate 6
wxy = 0.173 finished replicate 6 total counts 101384
wxy = 0.173 starts replicate 7
wxy = 0.34 finished replicate 6 total counts 448378
wxy = 0.34 starts replicate 7
wxy = 0.379 finished replicate 6 total counts 512305
wxy = 0.379 starts replicate 7
wxy = 0.132 finished replicate 6 total counts 57864
wxy = 0.132 starts replicate 7
wxy = 0.415 finished replicate 6 total counts 631485
wxy = 0.415 starts replicate 7
wxy = 0.448 finished replicate 6 total counts 824785
wxy = 0.448 starts replicate 7
wxy = 0.479 finished replicate 6 total counts 1.00915e+06
wxy = 0.479 starts replicate 7
wxy = 0.508 finished replicate 6 total counts 1.05823e+06
wxy = 0.508 starts replicate 7
wxy = 0.071 finished replicate 7 total counts 13458
wxy = 0.071 starts replicate 8
wxy = 0.535 finished replicate 6 total counts 1.29145e+06
wxy = 0.535 starts replicate 7
wxy = 0.561 finished replicate 6 total counts 1.34442e+06
wxy = 0.561 starts replicate 7
wxy = 0.586 finished replicate 6 total counts 1.51826e+06
wxy = 0.586 starts replicate 7
wxy = 0.241 finished replicate 7 total counts 194520
wxy = 0.241 starts replicate 8
wxy = 0.61 finished replicate 6 total counts 1.67343e+06
wxy = 0.61 starts replicate 7
wxy = 0.295 finished replicate 7 total counts 339407
wxy = 0.295 starts replicate 8
wxy = 0.632 finished replicate 6 total counts 1.73816e+06
wxy = 0.632 starts replicate 7
wxy = 0.34 finished replicate 7 total counts 371023
wxy = 0.34 starts replicate 8
wxy = 0.173 finished replicate 7 total counts 90489
wxy = 0.173 starts replicate 8
wxy = 0.379 finished replicate 7 total counts 531252
wxy = 0.379 starts replicate 8
wxy = 0.415 finished replicate 7 total counts 647699
wxy = 0.415 starts replicate 8
wxy = 0.132 finished replicate 7 total counts 44640
wxy = 0.132 starts replicate 8
wxy = 0.448 finished replicate 7 total counts 734117
wxy = 0.448 starts replicate 8
wxy = 0.479 finished replicate 7 total counts 970879
wxy = 0.479 starts replicate 8
wxy = 0.508 finished replicate 7 total counts 1.03281e+06
wxy = 0.508 starts replicate 8
wxy = 0.071 finished replicate 8 total counts 15194
wxy = 0.071 starts replicate 9
wxy = 0.535 finished replicate 7 total counts 1.18127e+06
wxy = 0.535 starts replicate 8
wxy = 0.586 finished replicate 7 total counts 1.43558e+06
wxy = 0.586 starts replicate 8
wxy = 0.561 finished replicate 7 total counts 1.25969e+06
wxy = 0.561 starts replicate 8
wxy = 0.241 finished replicate 8 total counts 203974
wxy = 0.241 starts replicate 9
wxy = 0.295 finished replicate 8 total counts 315002
wxy = 0.295 starts replicate 9
wxy = 0.61 finished replicate 7 total counts 1.57641e+06
wxy = 0.61 starts replicate 8
wxy = 0.632 finished replicate 7 total counts 1.75128e+06
wxy = 0.632 starts replicate 8
wxy = 0.34 finished replicate 8 total counts 376395
wxy = 0.34 starts replicate 9
wxy = 0.379 finished replicate 8 total counts 605120
wxy = 0.379 starts replicate 9
wxy = 0.173 finished replicate 8 total counts 81995
wxy = 0.173 starts replicate 9
wxy = 0.415 finished replicate 8 total counts 681204
wxy = 0.415 starts replicate 9
wxy = 0.448 finished replicate 8 total counts 791002
wxy = 0.448 starts replicate 9
wxy = 0.132 finished replicate 8 total counts 59224
wxy = 0.132 starts replicate 9
wxy = 0.479 finished replicate 8 total counts 958888
wxy = 0.479 starts replicate 9
wxy = 0.508 finished replicate 8 total counts 939095
wxy = 0.508 starts replicate 9
wxy = 0.071 finished replicate 9 total counts 15073
wxy = 0.071 starts replicate 10
wxy = 0.535 finished replicate 8 total counts 1.22597e+06
wxy = 0.535 starts replicate 9
wxy = 0.561 finished replicate 8 total counts 1.28978e+06
wxy = 0.561 starts replicate 9
wxy = 0.586 finished replicate 8 total counts 1.38774e+06
wxy = 0.586 starts replicate 9
wxy = 0.241 finished replicate 9 total counts 198029
wxy = 0.241 starts replicate 10
wxy = 0.295 finished replicate 9 total counts 354615
wxy = 0.295 starts replicate 10
wxy = 0.61 finished replicate 8 total counts 1.48696e+06
wxy = 0.61 starts replicate 9
wxy = 0.632 finished replicate 8 total counts 1.71123e+06
wxy = 0.632 starts replicate 9
wxy = 0.34 finished replicate 9 total counts 381892
wxy = 0.34 starts replicate 10
wxy = 0.379 finished replicate 9 total counts 530484
wxy = 0.379 starts replicate 10
wxy = 0.173 finished replicate 9 total counts 89953
wxy = 0.173 starts replicate 10
wxy = 0.415 finished replicate 9 total counts 713145
wxy = 0.415 starts replicate 10
wxy = 0.448 finished replicate 9 total counts 817337
wxy = 0.448 starts replicate 10
wxy = 0.479 finished replicate 9 total counts 959417
wxy = 0.479 starts replicate 10
wxy = 0.132 finished replicate 9 total counts 55610
wxy = 0.132 starts replicate 10
wxy = 0.508 finished replicate 9 total counts 1.10883e+06
wxy = 0.508 starts replicate 10
wxy = 0.535 finished replicate 9 total counts 1.28639e+06
wxy = 0.535 starts replicate 10
wxy = 0.071 finished replicate 10 total counts 17398
wxy = 0.071 starts replicate 11
wxy = 0.586 finished replicate 9 total counts 1.52479e+06
wxy = 0.586 starts replicate 10
wxy = 0.561 finished replicate 9 total counts 1.45638e+06
wxy = 0.561 starts replicate 10
wxy = 0.241 finished replicate 10 total counts 210348
wxy = 0.241 starts replicate 11
wxy = 0.295 finished replicate 10 total counts 322714
wxy = 0.295 starts replicate 11
wxy = 0.61 finished replicate 9 total counts 1.64828e+06
wxy = 0.61 starts replicate 10
wxy = 0.632 finished replicate 9 total counts 1.66606e+06
wxy = 0.632 starts replicate 10
wxy = 0.34 finished replicate 10 total counts 488547
wxy = 0.34 starts replicate 11
wxy = 0.379 finished replicate 10 total counts 527025
wxy = 0.379 starts replicate 11
wxy = 0.415 finished replicate 10 total counts 733763
wxy = 0.415 starts replicate 11
wxy = 0.173 finished replicate 10 total counts 100481
wxy = 0.173 starts replicate 11
wxy = 0.448 finished replicate 10 total counts 799324
wxy = 0.448 starts replicate 11
wxy = 0.479 finished replicate 10 total counts 974477
wxy = 0.479 starts replicate 11
wxy = 0.132 finished replicate 10 total counts 63055
wxy = 0.132 starts replicate 11
wxy = 0.508 finished replicate 10 total counts 1.01953e+06
wxy = 0.508 starts replicate 11
wxy = 0.535 finished replicate 10 total counts 1.19742e+06
wxy = 0.535 starts replicate 11
wxy = 0.071 finished replicate 11 total counts 17174
wxy = 0.071 starts replicate 12
wxy = 0.241 finished replicate 11 total counts 188069
wxy = 0.241 starts replicate 12
wxy = 0.561 finished replicate 10 total counts 1.40298e+06
wxy = 0.561 starts replicate 11
wxy = 0.586 finished replicate 10 total counts 1.46532e+06
wxy = 0.586 starts replicate 11
wxy = 0.295 finished replicate 11 total counts 318714
wxy = 0.295 starts replicate 12
wxy = 0.61 finished replicate 10 total counts 1.66932e+06
wxy = 0.61 starts replicate 11
wxy = 0.632 finished replicate 10 total counts 1.71804e+06
wxy = 0.632 starts replicate 11
wxy = 0.34 finished replicate 11 total counts 435152
wxy = 0.34 starts replicate 12
wxy = 0.379 finished replicate 11 total counts 576018
wxy = 0.379 starts replicate 12
wxy = 0.415 finished replicate 11 total counts 681155
wxy = 0.415 starts replicate 12
wxy = 0.173 finished replicate 11 total counts 91216
wxy = 0.173 starts replicate 12
wxy = 0.448 finished replicate 11 total counts 739439
wxy = 0.448 starts replicate 12
wxy = 0.479 finished replicate 11 total counts 976583
wxy = 0.479 starts replicate 12
wxy = 0.132 finished replicate 11 total counts 51860
wxy = 0.132 starts replicate 12
wxy = 0.508 finished replicate 11 total counts 1.01282e+06
wxy = 0.508 starts replicate 12
wxy = 0.535 finished replicate 11 total counts 1.1277e+06
wxy = 0.535 starts replicate 12
wxy = 0.071 finished replicate 12 total counts 16672
wxy = 0.071 starts replicate 13
wxy = 0.241 finished replicate 12 total counts 236939
wxy = 0.241 starts replicate 13
wxy = 0.586 finished replicate 11 total counts 1.5198e+06
wxy = 0.586 starts replicate 12
wxy = 0.561 finished replicate 11 total counts 1.31543e+06
wxy = 0.561 starts replicate 12
wxy = 0.295 finished replicate 12 total counts 331845
wxy = 0.295 starts replicate 13
wxy = 0.632 finished replicate 11 total counts 1.80552e+06
wxy = 0.632 starts replicate 12
wxy = 0.61 finished replicate 11 total counts 1.69207e+06
wxy = 0.61 starts replicate 12
wxy = 0.34 finished replicate 12 total counts 391160
wxy = 0.34 starts replicate 13
wxy = 0.379 finished replicate 12 total counts 520572
wxy = 0.379 starts replicate 13
wxy = 0.415 finished replicate 12 total counts 687650
wxy = 0.415 starts replicate 13
wxy = 0.448 finished replicate 12 total counts 715320
wxy = 0.448 starts replicate 13
wxy = 0.173 finished replicate 12 total counts 93070
wxy = 0.173 starts replicate 13
wxy = 0.479 finished replicate 12 total counts 874826
wxy = 0.479 starts replicate 13
wxy = 0.132 finished replicate 12 total counts 59477
wxy = 0.132 starts replicate 13
wxy = 0.508 finished replicate 12 total counts 1.07517e+06
wxy = 0.508 starts replicate 13
wxy = 0.535 finished replicate 12 total counts 1.12333e+06
wxy = 0.535 starts replicate 13
wxy = 0.071 finished replicate 13 total counts 18535
wxy = 0.071 starts replicate 14
wxy = 0.241 finished replicate 13 total counts 181389
wxy = 0.241 starts replicate 14
wxy = 0.586 finished replicate 12 total counts 1.44134e+06
wxy = 0.586 starts replicate 13
wxy = 0.561 finished replicate 12 total counts 1.18634e+06
wxy = 0.561 starts replicate 13
wxy = 0.295 finished replicate 13 total counts 306784
wxy = 0.295 starts replicate 14
wxy = 0.632 finished replicate 12 total counts 1.65135e+06
wxy = 0.632 starts replicate 13
wxy = 0.61 finished replicate 12 total counts 1.61766e+06
wxy = 0.61 starts replicate 13
wxy = 0.34 finished replicate 13 total counts 436712
wxy = 0.34 starts replicate 14
wxy = 0.379 finished replicate 13 total counts 564827
wxy = 0.379 starts replicate 14
wxy = 0.415 finished replicate 13 total counts 727390
wxy = 0.415 starts replicate 14
wxy = 0.448 finished replicate 13 total counts 916334
wxy = 0.448 starts replicate 14
wxy = 0.173 finished replicate 13 total counts 119754
wxy = 0.173 starts replicate 14
wxy = 0.479 finished replicate 13 total counts 861897
wxy = 0.479 starts replicate 14
wxy = 0.132 finished replicate 13 total counts 50521
wxy = 0.132 starts replicate 14
wxy = 0.508 finished replicate 13 total counts 1.0717e+06
wxy = 0.508 starts replicate 14
wxy = 0.535 finished replicate 13 total counts 1.17325e+06
wxy = 0.535 starts replicate 14
wxy = 0.241 finished replicate 14 total counts 208790
wxy = 0.241 starts replicate 15
wxy = 0.071 finished replicate 14 total counts 13569
wxy = 0.071 starts replicate 15
wxy = 0.586 finished replicate 13 total counts 1.50044e+06
wxy = 0.586 starts replicate 14
wxy = 0.561 finished replicate 13 total counts 1.33888e+06
wxy = 0.561 starts replicate 14
wxy = 0.632 finished replicate 13 total counts 1.79826e+06
wxy = 0.632 starts replicate 14
wxy = 0.295 finished replicate 14 total counts 311927
wxy = 0.295 starts replicate 15
wxy = 0.61 finished replicate 13 total counts 1.48431e+06
wxy = 0.61 starts replicate 14
wxy = 0.34 finished replicate 14 total counts 428672
wxy = 0.34 starts replicate 15
wxy = 0.379 finished replicate 14 total counts 628044
wxy = 0.379 starts replicate 15
wxy = 0.415 finished replicate 14 total counts 676805
wxy = 0.415 starts replicate 15
wxy = 0.448 finished replicate 14 total counts 765752
wxy = 0.448 starts replicate 15
wxy = 0.479 finished replicate 14 total counts 922061
wxy = 0.479 starts replicate 15
wxy = 0.173 finished replicate 14 total counts 89407
wxy = 0.173 starts replicate 15
wxy = 0.132 finished replicate 14 total counts 64355
wxy = 0.132 starts replicate 15
wxy = 0.508 finished replicate 14 total counts 1.1207e+06
wxy = 0.508 starts replicate 15
wxy = 0.535 finished replicate 14 total counts 1.13083e+06
wxy = 0.535 starts replicate 15
wxy = 0.241 finished replicate 15 total counts 210572
wxy = 0.241 starts replicate 16
wxy = 0.586 finished replicate 14 total counts 1.46608e+06
wxy = 0.586 starts replicate 15
wxy = 0.561 finished replicate 14 total counts 1.3779e+06
wxy = 0.561 starts replicate 15
wxy = 0.071 finished replicate 15 total counts 12889
wxy = 0.071 starts replicate 16
wxy = 0.632 finished replicate 14 total counts 1.62054e+06
wxy = 0.632 starts replicate 15
wxy = 0.295 finished replicate 15 total counts 328192
wxy = 0.295 starts replicate 16
wxy = 0.61 finished replicate 14 total counts 1.66489e+06
wxy = 0.61 starts replicate 15
wxy = 0.34 finished replicate 15 total counts 473730
wxy = 0.34 starts replicate 16
wxy = 0.379 finished replicate 15 total counts 597237
wxy = 0.379 starts replicate 16
wxy = 0.415 finished replicate 15 total counts 615064
wxy = 0.415 starts replicate 16
wxy = 0.448 finished replicate 15 total counts 790375
wxy = 0.448 starts replicate 16
wxy = 0.479 finished replicate 15 total counts 916455
wxy = 0.479 starts replicate 16
wxy = 0.173 finished replicate 15 total counts 115149
wxy = 0.173 starts replicate 16
wxy = 0.132 finished replicate 15 total counts 58041
wxy = 0.132 starts replicate 16
wxy = 0.508 finished replicate 15 total counts 1.14129e+06
wxy = 0.508 starts replicate 16
wxy = 0.535 finished replicate 15 total counts 1.18996e+06
wxy = 0.535 starts replicate 16
wxy = 0.241 finished replicate 16 total counts 201159
wxy = 0.241 starts replicate 17
wxy = 0.586 finished replicate 15 total counts 1.54096e+06
wxy = 0.586 starts replicate 16
wxy = 0.561 finished replicate 15 total counts 1.37305e+06
wxy = 0.561 starts replicate 16
wxy = 0.071 finished replicate 16 total counts 15689
wxy = 0.071 starts replicate 17
wxy = 0.632 finished replicate 15 total counts 1.66931e+06
wxy = 0.632 starts replicate 16
wxy = 0.61 finished replicate 15 total counts 1.78795e+06
wxy = 0.61 starts replicate 16
wxy = 0.295 finished replicate 16 total counts 297837
wxy = 0.295 starts replicate 17
wxy = 0.34 finished replicate 16 total counts 400024
wxy = 0.34 starts replicate 17
wxy = 0.379 finished replicate 16 total counts 526445
wxy = 0.379 starts replicate 17
wxy = 0.415 finished replicate 16 total counts 686676
wxy = 0.415 starts replicate 17
wxy = 0.448 finished replicate 16 total counts 748094
wxy = 0.448 starts replicate 17
wxy = 0.479 finished replicate 16 total counts 1.07303e+06
wxy = 0.479 starts replicate 17
wxy = 0.173 finished replicate 16 total counts 113990
wxy = 0.173 starts replicate 17
wxy = 0.132 finished replicate 16 total counts 51880
wxy = 0.132 starts replicate 17
wxy = 0.508 finished replicate 16 total counts 1.0431e+06
wxy = 0.508 starts replicate 17
wxy = 0.535 finished replicate 16 total counts 1.33774e+06
wxy = 0.535 starts replicate 17
wxy = 0.241 finished replicate 17 total counts 232604
wxy = 0.241 starts replicate 18
wxy = 0.561 finished replicate 16 total counts 1.15796e+06
wxy = 0.561 starts replicate 17
wxy = 0.586 finished replicate 16 total counts 1.37807e+06
wxy = 0.586 starts replicate 17
wxy = 0.071 finished replicate 17 total counts 15836
wxy = 0.071 starts replicate 18
wxy = 0.632 finished replicate 16 total counts 1.60887e+06
wxy = 0.632 starts replicate 17
wxy = 0.61 finished replicate 16 total counts 1.69308e+06
wxy = 0.61 starts replicate 17
wxy = 0.295 finished replicate 17 total counts 334770
wxy = 0.295 starts replicate 18
wxy = 0.34 finished replicate 17 total counts 464049
wxy = 0.34 starts replicate 18
wxy = 0.379 finished replicate 17 total counts 566410
wxy = 0.379 starts replicate 18
wxy = 0.415 finished replicate 17 total counts 606338
wxy = 0.415 starts replicate 18
wxy = 0.448 finished replicate 17 total counts 723976
wxy = 0.448 starts replicate 18
wxy = 0.479 finished replicate 17 total counts 938466
wxy = 0.479 starts replicate 18
wxy = 0.173 finished replicate 17 total counts 90873
wxy = 0.173 starts replicate 18
wxy = 0.132 finished replicate 17 total counts 61118
wxy = 0.132 starts replicate 18
wxy = 0.508 finished replicate 17 total counts 1.11987e+06
wxy = 0.508 starts replicate 18
wxy = 0.535 finished replicate 17 total counts 1.22934e+06
wxy = 0.535 starts replicate 18
wxy = 0.241 finished replicate 18 total counts 181112
wxy = 0.241 starts replicate 19
wxy = 0.561 finished replicate 17 total counts 1.22803e+06
wxy = 0.561 starts replicate 18
wxy = 0.586 finished replicate 17 total counts 1.44683e+06
wxy = 0.586 starts replicate 18
wxy = 0.632 finished replicate 17 total counts 1.75034e+06
wxy = 0.632 starts replicate 18
wxy = 0.071 finished replicate 18 total counts 12474
wxy = 0.071 starts replicate 19
wxy = 0.61 finished replicate 17 total counts 1.52574e+06
wxy = 0.61 starts replicate 18
wxy = 0.295 finished replicate 18 total counts 337604
wxy = 0.295 starts replicate 19
wxy = 0.34 finished replicate 18 total counts 447713
wxy = 0.34 starts replicate 19
wxy = 0.379 finished replicate 18 total counts 590425
wxy = 0.379 starts replicate 19
wxy = 0.415 finished replicate 18 total counts 634626
wxy = 0.415 starts replicate 19
wxy = 0.448 finished replicate 18 total counts 813569
wxy = 0.448 starts replicate 19
wxy = 0.479 finished replicate 18 total counts 939334
wxy = 0.479 starts replicate 19
wxy = 0.173 finished replicate 18 total counts 117713
wxy = 0.173 starts replicate 19
wxy = 0.132 finished replicate 18 total counts 52849
wxy = 0.132 starts replicate 19
wxy = 0.508 finished replicate 18 total counts 1.06366e+06
wxy = 0.508 starts replicate 19
wxy = 0.535 finished replicate 18 total counts 1.09242e+06
wxy = 0.535 starts replicate 19
wxy = 0.561 finished replicate 18 total counts 1.29304e+06
wxy = 0.561 starts replicate 19
wxy = 0.241 finished replicate 19 total counts 207528
wxy = 0.586 finished replicate 18 total counts 1.52679e+06
wxy = 0.586 starts replicate 19
wxy = 0.632 finished replicate 18 total counts 1.83339e+06
wxy = 0.632 starts replicate 19
wxy = 0.071 finished replicate 19 total counts 16652
wxy = 0.61 finished replicate 18 total counts 1.59806e+06
wxy = 0.61 starts replicate 19
wxy = 0.295 finished replicate 19 total counts 294465
wxy = 0.34 finished replicate 19 total counts 438446
wxy = 0.379 finished replicate 19 total counts 555472
wxy = 0.415 finished replicate 19 total counts 666663
wxy = 0.448 finished replicate 19 total counts 699026
wxy = 0.479 finished replicate 19 total counts 1.01861e+06
wxy = 0.173 finished replicate 19 total counts 96628
wxy = 0.132 finished replicate 19 total counts 60769
wxy = 0.508 finished replicate 19 total counts 1.08964e+06
wxy = 0.535 finished replicate 19 total counts 1.13072e+06
wxy = 0.561 finished replicate 19 total counts 1.3335e+06
wxy = 0.586 finished replicate 19 total counts 1.38631e+06
wxy = 0.632 finished replicate 19 total counts 1.7199e+06
wxy = 0.61 finished replicate 19 total counts 1.68602e+06
