[
   1.9056657552719116,
   1.9028079509735107,
   1.9023134708404541,
   1.9014511108398438,
   1.9036868810653687,
   1.9026237726211548,
   1.9031686782836914,
   1.9032125473022461,
   1.9022331237792969,
   1.9039179086685181,
   1.9025146961212158,
   1.9018118381500244,
   1.89890456199646,
   1.8989632129669189,
   1.8963673114776611,
   1.8973667621612549,
   1.8955104351043701,
   1.8955341577529907,
   1.8962075710296631,
   1.8835685253143311,
   1.876559853553772,
   1.8687044382095337,
   1.8618541955947876,
   1.8522872924804688,
   1.8488752841949463,
   1.84212327003479,
   1.8365859985351562,
   1.8305820226669312,
   1.7782509326934814,
   1.73636794090271,
   1.6980921030044556,
   1.6642484664916992,
   1.6300437450408936,
   1.6013185977935791,
   1.5750035047531128,
   1.5498559474945068,
   1.5265356302261353,
   1.3697034120559692,
   1.27518630027771,
   1.2191529273986816,
   1.1770517826080322,
   1.1465045213699341,
   1.1211512088775635,
   1.1014137268066406,
   1.083364725112915,
   1.0744209289550781,
   0.99704837799072266,
   0.99921226501464844,
   0.99324160814285278,
   0.9793400764465332,
   0.98882120847702026,
   0.99807959794998169,
   1.019730806350708,
   1.0035160779953003,
   1.0074841976165771,
   1.0052269697189331,
   1.0123221874237061,
   0.9742969274520874,
   1.0072243213653564,
   0.99359989166259766,
   1.0007362365722656,
   1.0196185111999512,
   0.95640885829925537,
   0.98434054851531982
]
