[
   1.7425886392593384,
   1.7428958415985107,
   1.7410522699356079,
   1.742293119430542,
   1.7421213388442993,
   1.7423570156097412,
   1.7432352304458618,
   1.7409722805023193,
   1.7407335042953491,
   1.740497350692749,
   1.742872953414917,
   1.7404186725616455,
   1.7387844324111938,
   1.7407619953155518,
   1.7379719018936157,
   1.7380632162094116,
   1.7360770702362061,
   1.7353881597518921,
   1.7361119985580444,
   1.7285264730453491,
   1.7233560085296631,
   1.7170922756195068,
   1.7120158672332764,
   1.7064046859741211,
   1.7014148235321045,
   1.6977494955062866,
   1.6916389465332031,
   1.6872308254241943,
   1.6504205465316772,
   1.6159398555755615,
   1.5876084566116333,
   1.5599501132965088,
   1.5375106334686279,
   1.514722466468811,
   1.4926345348358154,
   1.4745776653289795,
   1.4544663429260254,
   1.3266817331314087,
   1.2483712434768677,
   1.1968504190444946,
   1.157322883605957,
   1.1303726434707642,
   1.1093825101852417,
   1.0952177047729492,
   1.0849156379699707,
   1.0752602815628052,
   1.0161713361740112,
   1.0001704692840576,
   1.0018106698989868,
   0.98935520648956299,
   0.99503755569458008,
   0.99941807985305786,
   1.0006294250488281,
   0.98501121997833252,
   0.99469691514968872,
   0.96866828203201294,
   0.98173582553863525,
   1.0150309801101685,
   1.0027716159820557,
   1.0072503089904785,
   0.97917300462722778,
   0.99778968095779419,
   1.0457115173339844,
   0.96915608644485474
]
