[
   1.3946573734283447,
   1.3942089080810547,
   1.3940874338150024,
   1.3945941925048828,
   1.3950703144073486,
   1.3955296277999878,
   1.3934483528137207,
   1.3947770595550537,
   1.39452064037323,
   1.3949364423751831,
   1.3934851884841919,
   1.393649697303772,
   1.392653226852417,
   1.3925626277923584,
   1.3932640552520752,
   1.3924412727355957,
   1.3927854299545288,
   1.3925784826278687,
   1.3917648792266846,
   1.3889944553375244,
   1.3867477178573608,
   1.3840646743774414,
   1.3820393085479736,
   1.3798457384109497,
   1.3776674270629883,
   1.3757411241531372,
   1.373624324798584,
   1.3723981380462646,
   1.3559112548828125,
   1.3427956104278564,
   1.3312441110610962,
   1.3195518255233765,
   1.3091633319854736,
   1.3000221252441406,
   1.2922251224517822,
   1.2830549478530884,
   1.2751652002334595,
   1.2118479013442993,
   1.1687823534011841,
   1.1382297277450562,
   1.1186709403991699,
   1.100957989692688,
   1.0850056409835815,
   1.0727558135986328,
   1.0641894340515137,
   1.0611813068389893,
   1.0227470397949219,
   1.0145918130874634,
   1.014407753944397,
   1.0082778930664062,
   0.998920738697052,
   1.0010507106781006,
   1.0047032833099365,
   1.0016229152679443,
   1.0038526058197021,
   1.0042237043380737,
   1.0030072927474976,
   1.0029757022857666,
   1.0057265758514404,
   0.98791742324829102,
   0.98873674869537354,
   0.98980510234832764,
   0.97186738252639771,
   0.91020143032073975
]
