[
   1.6590499877929688,
   1.6594007015228271,
   1.659284234046936,
   1.6594698429107666,
   1.6586599349975586,
   1.6588739156723022,
   1.6586408615112305,
   1.6583417654037476,
   1.658420205116272,
   1.6588691473007202,
   1.65901780128479,
   1.656772255897522,
   1.6574344635009766,
   1.6565786600112915,
   1.6563537120819092,
   1.654008150100708,
   1.6540085077285767,
   1.6549688577651978,
   1.6525814533233643,
   1.6475584506988525,
   1.6429373025894165,
   1.6383539438247681,
   1.6329635381698608,
   1.6301593780517578,
   1.6249290704727173,
   1.6199338436126709,
   1.6169649362564087,
   1.612285852432251,
   1.5805026292800903,
   1.5526920557022095,
   1.5297067165374756,
   1.5070046186447144,
   1.4870377779006958,
   1.4665167331695557,
   1.4497815370559692,
   1.432269811630249,
   1.4174487590789795,
   1.2985713481903076,
   1.2289043664932251,
   1.185401439666748,
   1.1512966156005859,
   1.1280159950256348,
   1.107663631439209,
   1.0953686237335205,
   1.0856412649154663,
   1.0790904760360718,
   1.0309970378875732,
   1.0092155933380127,
   1.0023877620697021,
   0.98854029178619385,
   0.99203145503997803,
   0.99721622467041016,
   0.99553090333938599,
   0.98631399869918823,
   0.98956090211868286,
   0.99021899700164795,
   0.98723381757736206,
   0.96439903974533081,
   1.0001174211502075,
   1.0059641599655151,
   1.0077664852142334,
   1.0147151947021484,
   1.0024724006652832,
   1.030142068862915
]
