[
   1.4366260766983032,
   1.4360462427139282,
   1.4361245632171631,
   1.436464786529541,
   1.4365812540054321,
   1.4374006986618042,
   1.4352056980133057,
   1.4367069005966187,
   1.4365851879119873,
   1.4369882345199585,
   1.4353948831558228,
   1.4354559183120728,
   1.4342032670974731,
   1.4338895082473755,
   1.4346773624420166,
   1.4341387748718262,
   1.4339759349822998,
   1.4338889122009277,
   1.4328725337982178,
   1.4298233985900879,
   1.4272233247756958,
   1.4243314266204834,
   1.4221559762954712,
   1.4193718433380127,
   1.4168508052825928,
   1.4147012233734131,
   1.4122328758239746,
   1.4105844497680664,
   1.392115592956543,
   1.376950740814209,
   1.3637745380401611,
   1.350414514541626,
   1.3381212949752808,
   1.3284481763839722,
   1.3189632892608643,
   1.3086055517196655,
   1.2995090484619141,
   1.2277525663375854,
   1.1803233623504639,
   1.1466021537780762,
   1.1228536367416382,
   1.1037070751190186,
   1.0867158174514771,
   1.0741026401519775,
   1.0645617246627808,
   1.0624607801437378,
   1.0225309133529663,
   1.0149613618850708,
   1.0151333808898926,
   1.0078276395797729,
   0.99801647663116455,
   1.0015627145767212,
   1.0051597356796265,
   1.0014384984970093,
   1.0040642023086548,
   1.003667950630188,
   1.0022767782211304,
   1.0036402940750122,
   1.0065345764160156,
   0.98780429363250732,
   0.98912191390991211,
   0.99164116382598877,
   0.9725458025932312,
   0.90495032072067261
]
