[
   1.5071709156036377,
   1.5077207088470459,
   1.5066626071929932,
   1.5064082145690918,
   1.506142258644104,
   1.5064516067504883,
   1.5070805549621582,
   1.5068320035934448,
   1.5062862634658813,
   1.5069453716278076,
   1.506993293762207,
   1.5056884288787842,
   1.5054638385772705,
   1.50425124168396,
   1.5050098896026611,
   1.5041691064834595,
   1.5035045146942139,
   1.5036690235137939,
   1.5031383037567139,
   1.4998437166213989,
   1.4961150884628296,
   1.4934169054031372,
   1.4893667697906494,
   1.4868102073669434,
   1.4828860759735107,
   1.4808447360992432,
   1.4775840044021606,
   1.4763505458831787,
   1.4519729614257812,
   1.4341262578964233,
   1.4165117740631104,
   1.402446985244751,
   1.3880081176757812,
   1.3754603862762451,
   1.3609142303466797,
   1.3504840135574341,
   1.3399395942687988,
   1.258588433265686,
   1.2023725509643555,
   1.1656351089477539,
   1.1366572380065918,
   1.112011194229126,
   1.0954819917678833,
   1.08104407787323,
   1.0684717893600464,
   1.0648676156997681,
   1.0113269090652466,
   0.98738276958465576,
   0.98472213745117188,
   0.98804664611816406,
   0.99052077531814575,
   0.99990731477737427,
   1.0021301507949829,
   0.98735630512237549,
   0.98370468616485596,
   0.99876660108566284,
   1.0112841129302979,
   0.98616981506347656,
   1.0186852216720581,
   0.97971504926681519,
   0.984596848487854,
   0.98762351274490356,
   0.99165821075439453,
   1.0515878200531006
]
