[
   34.127388000488281,
   33.854907989501953,
   33.738365173339844,
   33.738243103027344,
   33.854251861572266,
   33.642162322998047,
   33.753280639648438,
   33.380161285400391,
   33.459201812744141,
   33.419197082519531,
   32.729591369628906,
   32.662696838378906,
   31.822254180908203,
   31.459238052368164,
   31.009893417358398,
   30.645721435546875,
   29.898818969726562,
   29.703359603881836,
   29.302478790283203,
   25.745595932006836,
   22.993518829345703,
   20.843931198120117,
   19.101280212402344,
   17.643054962158203,
   16.328214645385742,
   15.173130989074707,
   14.076924324035645,
   13.448720932006836,
   8.5341873168945312,
   6.3110537528991699,
   5.119476318359375,
   4.412083625793457,
   4.0587577819824219,
   3.4209294319152832,
   3.1032652854919434,
   2.8992781639099121,
   2.8290450572967529,
   1.6214100122451782,
   1.6199535131454468,
   1.3672134876251221,
   1.3997393846511841,
   1.0790215730667114,
   1.2457914352416992,
   1.2521957159042358,
   1.0820361375808716,
   1.1162827014923096,
   1.0140886306762695,
   1.0994641780853271,
   0.96458542346954346,
   0.83753174543380737,
   0.9882885217666626,
   0.89886444807052612,
   1.0519908666610718,
   0.95031517744064331,
   1.0715872049331665,
   0.94640922546386719,
   0.94896650314331055,
   1.2245925664901733,
   1.0862792730331421,
   0.90438240766525269,
   0.84131276607513428,
   1.1070839166641235,
   0.74497663974761963,
   1.0731432437896729
]
