[
   3.7547516822814941,
   3.7570681571960449,
   3.7553131580352783,
   3.7534689903259277,
   3.7535629272460938,
   3.7621505260467529,
   3.7608280181884766,
   3.7504992485046387,
   3.7566516399383545,
   3.7514252662658691,
   3.7488613128662109,
   3.7436680793762207,
   3.7403347492218018,
   3.7270126342773438,
   3.7187168598175049,
   3.7182877063751221,
   3.7048060894012451,
   3.7023017406463623,
   3.6946346759796143,
   3.6466059684753418,
   3.5967800617218018,
   3.5535106658935547,
   3.5068180561065674,
   3.4634144306182861,
   3.4281089305877686,
   3.3899853229522705,
   3.3642559051513672,
   3.3328919410705566,
   3.0457215309143066,
   2.8146750926971436,
   2.6310949325561523,
   2.4773077964782715,
   2.3510706424713135,
   2.2367358207702637,
   2.1436636447906494,
   2.0520989894866943,
   1.9774465560913086,
   1.5554757118225098,
   1.3722782135009766,
   1.2798665761947632,
   1.2198759317398071,
   1.184625506401062,
   1.162412166595459,
   1.1256618499755859,
   1.1052603721618652,
   1.0760074853897095,
   1.0709166526794434,
   1.0114486217498779,
   1.0274924039840698,
   1.0143154859542847,
   0.97115004062652588,
   0.98551368713378906,
   0.96005761623382568,
   1.0125718116760254,
   1.0049883127212524,
   0.98321419954299927,
   0.97398489713668823,
   0.97784221172332764,
   1.0191084146499634,
   0.95655995607376099,
   1.0058696269989014,
   0.9866710901260376,
   1.0006963014602661,
   0.99196732044219971
]
