[
   1.5458085536956787,
   1.5451894998550415,
   1.5444124937057495,
   1.5453100204467773,
   1.544851541519165,
   1.5458078384399414,
   1.5427737236022949,
   1.5455248355865479,
   1.5453784465789795,
   1.545910120010376,
   1.5439761877059937,
   1.5426304340362549,
   1.5421446561813354,
   1.5427991151809692,
   1.542585015296936,
   1.5414692163467407,
   1.5406246185302734,
   1.5410232543945312,
   1.5401735305786133,
   1.535412073135376,
   1.5325503349304199,
   1.5279788970947266,
   1.5251785516738892,
   1.5212138891220093,
   1.5177361965179443,
   1.5147634744644165,
   1.5115978717803955,
   1.5089327096939087,
   1.4840915203094482,
   1.462700366973877,
   1.443930983543396,
   1.4263911247253418,
   1.4092651605606079,
   1.3956553936004639,
   1.3830252885818481,
   1.369449257850647,
   1.3571157455444336,
   1.2642080783843994,
   1.2041361331939697,
   1.163313627243042,
   1.1351020336151123,
   1.1123893260955811,
   1.0930545330047607,
   1.078505277633667,
   1.0681705474853516,
   1.0666849613189697,
   1.0213905572891235,
   1.0159444808959961,
   1.0144966840744019,
   1.0097348690032959,
   0.99496620893478394,
   1.0022751092910767,
   1.0044928789138794,
   1.0021533966064453,
   1.0046112537384033,
   1.0020885467529297,
   1.0017765760421753,
   1.0038728713989258,
   1.0094335079193115,
   0.98782110214233398,
   0.98946964740753174,
   0.99395877122879028,
   0.97329652309417725,
   0.89225995540618896
]
