[
   1.4919102191925049,
   1.4922420978546143,
   1.4916855096817017,
   1.4914126396179199,
   1.4910422563552856,
   1.4913756847381592,
   1.4907832145690918,
   1.491715669631958,
   1.4900851249694824,
   1.492045521736145,
   1.4906179904937744,
   1.4893831014633179,
   1.4889466762542725,
   1.489856481552124,
   1.488456130027771,
   1.4881824254989624,
   1.4876686334609985,
   1.4863958358764648,
   1.485337495803833,
   1.4821071624755859,
   1.4781321287155151,
   1.47312331199646,
   1.4686300754547119,
   1.4648683071136475,
   1.461295485496521,
   1.4575364589691162,
   1.4535286426544189,
   1.4506556987762451,
   1.4199349880218506,
   1.3947890996932983,
   1.3747740983963013,
   1.3565330505371094,
   1.3387987613677979,
   1.3248345851898193,
   1.3099361658096313,
   1.2975618839263916,
   1.2861719131469727,
   1.2038452625274658,
   1.1569209098815918,
   1.1246135234832764,
   1.1010850667953491,
   1.0856152772903442,
   1.0726749897003174,
   1.065409779548645,
   1.0564464330673218,
   1.0476685762405396,
   1.0076582431793213,
   1.0026136636734009,
   1.0007113218307495,
   1.0008838176727295,
   0.99188965559005737,
   0.99105185270309448,
   0.99480170011520386,
   0.98973196744918823,
   0.98919516801834106,
   0.99184942245483398,
   0.98827219009399414,
   0.99409329891204834,
   1.005030632019043,
   0.99091339111328125,
   0.99488133192062378,
   1.0396344661712646,
   1.0023244619369507,
   0.95747625827789307
]
