[
   48.476966857910156,
   47.960891723632812,
   48.087291717529297,
   48.392005920410156,
   48.073036193847656,
   47.618095397949219,
   47.338294982910156,
   47.711311340332031,
   47.472526550292969,
   46.867530822753906,
   46.069023132324219,
   44.180809020996094,
   43.660308837890625,
   42.714805603027344,
   41.383720397949219,
   40.837566375732422,
   39.289878845214844,
   38.487308502197266,
   38.082546234130859,
   31.47674560546875,
   26.963663101196289,
   23.045421600341797,
   20.377162933349609,
   18.43272590637207,
   16.698698043823242,
   15.675039291381836,
   13.989362716674805,
   13.463226318359375,
   8.0017890930175781,
   5.7876086235046387,
   4.4063472747802734,
   3.7999336719512939,
   3.2627530097961426,
   3.0032069683074951,
   2.5908138751983643,
   2.528895378112793,
   2.4294154644012451,
   1.7083228826522827,
   1.3064541816711426,
   1.3929319381713867,
   1.182518482208252,
   1.1288439035415649,
   1.0044457912445068,
   0.9818461537361145,
   1.1515185832977295,
   1.1170892715454102,
   1.0264708995819092,
   1.002095103263855,
   1.1133359670639038,
   0.97175300121307373,
   1.0437026023864746,
   1.0951001644134521,
   0.97938090562820435,
   0.87197744846343994,
   1.0187362432479858,
   1.0887496471405029,
   1.1145200729370117,
   0.87172603607177734,
   0.88133126497268677,
   0.85940343141555786,
   0.74378955364227295,
   1.1123759746551514,
   1.0883849859237671,
   0.61567008495330811
]
