[
   2.0950169563293457,
   2.0942015647888184,
   2.0945756435394287,
   2.0933849811553955,
   2.0928874015808105,
   2.0928435325622559,
   2.0924050807952881,
   2.0936055183410645,
   2.0941164493560791,
   2.0939517021179199,
   2.094569206237793,
   2.0896773338317871,
   2.0894331932067871,
   2.0860671997070312,
   2.0849032402038574,
   2.0844483375549316,
   2.0784955024719238,
   2.0803618431091309,
   2.0757803916931152,
   2.0622372627258301,
   2.0491325855255127,
   2.0317742824554443,
   2.0196924209594727,
   2.0087223052978516,
   1.9971393346786499,
   1.9828560352325439,
   1.9717394113540649,
   1.960256814956665,
   1.8712847232818604,
   1.7988948822021484,
   1.7407243251800537,
   1.6911087036132812,
   1.6461502313613892,
   1.6051822900772095,
   1.5704989433288574,
   1.5393408536911011,
   1.5120007991790771,
   1.3320835828781128,
   1.2432947158813477,
   1.1832699775695801,
   1.1450095176696777,
   1.118098258972168,
   1.0936639308929443,
   1.0815445184707642,
   1.07448410987854,
   1.069878101348877,
   1.0070035457611084,
   1.0174005031585693,
   1.0106691122055054,
   0.99962824583053589,
   0.98153525590896606,
   0.99447375535964966,
   1.0074002742767334,
   1.005764365196228,
   1.0099426507949829,
   0.97044640779495239,
   0.96280038356781006,
   0.98446381092071533,
   0.9852137565612793,
   0.9728623628616333,
   1.0193331241607666,
   1.0820513963699341,
   1.056809663772583,
   0.92555016279220581
]
