[
   1.5417687892913818,
   1.542426586151123,
   1.5431721210479736,
   1.5428181886672974,
   1.5426018238067627,
   1.5420820713043213,
   1.5428129434585571,
   1.5432847738265991,
   1.5417240858078003,
   1.5416114330291748,
   1.5422977209091187,
   1.5413753986358643,
   1.5411194562911987,
   1.5406404733657837,
   1.5390608310699463,
   1.5383042097091675,
   1.5385186672210693,
   1.5362546443939209,
   1.5374442338943481,
   1.5313189029693604,
   1.5268703699111938,
   1.5222522020339966,
   1.5169965028762817,
   1.5115013122558594,
   1.506956934928894,
   1.5032733678817749,
   1.4997603893280029,
   1.4954879283905029,
   1.4599758386611938,
   1.4333622455596924,
   1.4071893692016602,
   1.3858835697174072,
   1.3675483465194702,
   1.3499581813812256,
   1.333510160446167,
   1.3211497068405151,
   1.3051862716674805,
   1.2125589847564697,
   1.1612865924835205,
   1.1267437934875488,
   1.1017948389053345,
   1.0871268510818481,
   1.0720407962799072,
   1.0606486797332764,
   1.0497575998306274,
   1.0475409030914307,
   1.0094504356384277,
   1.0032508373260498,
   1.0057146549224854,
   0.99491786956787109,
   0.99160194396972656,
   0.99464434385299683,
   1.0024158954620361,
   1.0035443305969238,
   1.0036004781723022,
   1.0147007703781128,
   1.0133543014526367,
   1.0009719133377075,
   1.0005297660827637,
   0.97550725936889648,
   0.98027145862579346,
   0.95104378461837769,
   0.92940616607666016,
   0.90239953994750977
]
