[
   1.4403420686721802,
   1.4396647214889526,
   1.4397954940795898,
   1.4403502941131592,
   1.4403727054595947,
   1.4392788410186768,
   1.4403388500213623,
   1.4393459558486938,
   1.4405487775802612,
   1.4403389692306519,
   1.4389884471893311,
   1.4395580291748047,
   1.4386011362075806,
   1.4381140470504761,
   1.4376318454742432,
   1.4375741481781006,
   1.4366366863250732,
   1.4369869232177734,
   1.4367085695266724,
   1.4315866231918335,
   1.4287898540496826,
   1.4251158237457275,
   1.4213831424713135,
   1.418643593788147,
   1.4150365591049194,
   1.4121493101119995,
   1.4093745946884155,
   1.4063162803649902,
   1.3804512023925781,
   1.3584467172622681,
   1.3411074876785278,
   1.3257131576538086,
   1.3114615678787231,
   1.2977519035339355,
   1.2860629558563232,
   1.2745496034622192,
   1.2644356489181519,
   1.1916815042495728,
   1.1471607685089111,
   1.1181018352508545,
   1.0970690250396729,
   1.0835063457489014,
   1.0717329978942871,
   1.0650070905685425,
   1.0576176643371582,
   1.0547271966934204,
   1.0170694589614868,
   1.0043760538101196,
   1.0017158985137939,
   1.0080603361129761,
   1.0082639455795288,
   0.99961280822753906,
   1.0123282670974731,
   0.99568301439285278,
   1.0110040903091431,
   0.98876029253005981,
   0.99989080429077148,
   1.0029330253601074,
   0.99120599031448364,
   1.0004316568374634,
   0.9851837158203125,
   0.99133586883544922,
   0.99346369504928589,
   0.89775991439819336
]
