[
   1.8852264881134033,
   1.8860698938369751,
   1.8859573602676392,
   1.8835325241088867,
   1.8861715793609619,
   1.8855812549591064,
   1.8871043920516968,
   1.8866441249847412,
   1.8853210210800171,
   1.8859838247299194,
   1.8841594457626343,
   1.8831949234008789,
   1.8821796178817749,
   1.8821306228637695,
   1.8804581165313721,
   1.8761494159698486,
   1.8779296875,
   1.8749841451644897,
   1.8740627765655518,
   1.8626810312271118,
   1.8513047695159912,
   1.8421447277069092,
   1.8299754858016968,
   1.8206666707992554,
   1.8119041919708252,
   1.8044178485870361,
   1.7955938577651978,
   1.7863572835922241,
   1.7192099094390869,
   1.6639477014541626,
   1.616463303565979,
   1.5784027576446533,
   1.5412781238555908,
   1.5120607614517212,
   1.4828733205795288,
   1.4563814401626587,
   1.4332945346832275,
   1.2841694355010986,
   1.2054301500320435,
   1.1503913402557373,
   1.10845947265625,
   1.0861622095108032,
   1.070942759513855,
   1.0623372793197632,
   1.0537788867950439,
   1.0384819507598877,
   1.0224171876907349,
   0.9944537878036499,
   1.0071868896484375,
   0.99926912784576416,
   1.0049208402633667,
   0.99632149934768677,
   1.0041334629058838,
   0.9966503381729126,
   1.0048272609710693,
   1.0118192434310913,
   1.0129110813140869,
   1.0107704401016235,
   0.99397629499435425,
   1.0102763175964355,
   0.98500329256057739,
   0.96211910247802734,
   0.92300432920455933,
   0.8997955322265625
]
