[
   3.4296875,
   3.4320378303527832,
   3.4293026924133301,
   3.4201436042785645,
   3.4205596446990967,
   3.4270825386047363,
   3.422637939453125,
   3.4228897094726562,
   3.4143345355987549,
   3.4255061149597168,
   3.4107227325439453,
   3.4037356376647949,
   3.4004874229431152,
   3.3953356742858887,
   3.3860125541687012,
   3.3774147033691406,
   3.3732726573944092,
   3.3705341815948486,
   3.3653628826141357,
   3.3068852424621582,
   3.2594814300537109,
   3.2100951671600342,
   3.1623673439025879,
   3.1262476444244385,
   3.0873656272888184,
   3.0497736930847168,
   3.0127151012420654,
   2.9817392826080322,
   2.7212433815002441,
   2.5225520133972168,
   2.3495821952819824,
   2.2206945419311523,
   2.1009671688079834,
   2.0119194984436035,
   1.9259077310562134,
   1.8540586233139038,
   1.800052285194397,
   1.4418449401855469,
   1.2882556915283203,
   1.2223546504974365,
   1.1805737018585205,
   1.1578863859176636,
   1.1127872467041016,
   1.0932044982910156,
   1.0754188299179077,
   1.0512529611587524,
   1.0037345886230469,
   1.0158336162567139,
   0.98477572202682495,
   0.96683585643768311,
   0.9940258264541626,
   0.97938346862792969,
   0.98133212327957153,
   0.98056477308273315,
   0.95548665523529053,
   0.97558081150054932,
   0.91868770122528076,
   0.99431973695755005,
   0.96902167797088623,
   0.98891246318817139,
   0.99715739488601685,
   0.99808013439178467,
   1.1521584987640381,
   1.1109695434570312
]
