[
   13.801971435546875,
   13.693931579589844,
   13.670231819152832,
   13.731721878051758,
   13.645358085632324,
   13.641819953918457,
   13.654261589050293,
   13.654287338256836,
   13.582417488098145,
   13.691612243652344,
   13.45640754699707,
   13.384060859680176,
   13.292707443237305,
   13.13897705078125,
   13.155160903930664,
   13.019235610961914,
   12.837361335754395,
   12.679808616638184,
   12.652159690856934,
   11.69469165802002,
   11.047648429870605,
   10.397113800048828,
   9.8512229919433594,
   9.4117422103881836,
   8.9335117340087891,
   8.5669689178466797,
   8.1989850997924805,
   7.8564658164978027,
   5.660921573638916,
   4.497462272644043,
   3.7820899486541748,
   3.3774967193603516,
   3.0559265613555908,
   2.7825531959533691,
   2.6111965179443359,
   2.4216437339782715,
   2.2711877822875977,
   1.5892881155014038,
   1.3503820896148682,
   1.2613435983657837,
   1.2236371040344238,
   1.1615176200866699,
   1.1860713958740234,
   1.1332277059555054,
   1.0849260091781616,
   1.0590349435806274,
   1.0797985792160034,
   1.0204365253448486,
   1.0772120952606201,
   1.0066879987716675,
   1.009258508682251,
   1.006416916847229,
   0.94337940216064453,
   1.0285085439682007,
   1.1144348382949829,
   0.97861367464065552,
   0.99676954746246338,
   0.96454066038131714,
   1.007163405418396,
   0.98633116483688354,
   1.0281877517700195,
   0.86156809329986572,
   0.79237914085388184,
   0.82168757915496826
]
