[
   1.6755297183990479,
   1.6737791299819946,
   1.6730520725250244,
   1.6740878820419312,
   1.6737378835678101,
   1.6732755899429321,
   1.673593282699585,
   1.6735103130340576,
   1.6735540628433228,
   1.6727316379547119,
   1.6711900234222412,
   1.6699590682983398,
   1.6672489643096924,
   1.6654437780380249,
   1.6647735834121704,
   1.6618280410766602,
   1.6608463525772095,
   1.6587522029876709,
   1.6577562093734741,
   1.6395847797393799,
   1.6234792470932007,
   1.6088861227035522,
   1.5950658321380615,
   1.5836082696914673,
   1.570239782333374,
   1.5577143430709839,
   1.5475003719329834,
   1.536321759223938,
   1.4512755870819092,
   1.3909308910369873,
   1.3425400257110596,
   1.3043949604034424,
   1.273789644241333,
   1.2466744184494019,
   1.2255513668060303,
   1.2095544338226318,
   1.192050576210022,
   1.1026197671890259,
   1.0638920068740845,
   1.0445725917816162,
   1.030053973197937,
   1.0250504016876221,
   1.0176599025726318,
   1.0200226306915283,
   1.0166184902191162,
   1.0130736827850342,
   0.99866724014282227,
   0.99763840436935425,
   0.99277353286743164,
   0.99362945556640625,
   0.99295443296432495,
   0.99891853332519531,
   1.0034018754959106,
   1.0024014711380005,
   0.99794560670852661,
   1.0007272958755493,
   0.9925159215927124,
   1.0026875734329224,
   1.0072922706604004,
   0.98223793506622314,
   1.0175683498382568,
   1.0055416822433472,
   0.97567927837371826,
   0.98135340213775635
]
