[
   8.9359769821166992,
   8.9583826065063477,
   8.9830856323242188,
   8.9404125213623047,
   8.9372310638427734,
   8.9142313003540039,
   8.8986845016479492,
   8.8976221084594727,
   8.9246749877929688,
   8.877598762512207,
   8.7949619293212891,
   8.7230968475341797,
   8.6532783508300781,
   8.5343770980834961,
   8.463043212890625,
   8.3936634063720703,
   8.3679065704345703,
   8.2698097229003906,
   8.1934642791748047,
   7.6045365333557129,
   7.1535744667053223,
   6.7970094680786133,
   6.4405426979064941,
   6.1451539993286133,
   5.9397993087768555,
   5.6993532180786133,
   5.4925260543823242,
   5.2830190658569336,
   3.9789919853210449,
   3.274200439453125,
   2.8142719268798828,
   2.484602689743042,
   2.2071652412414551,
   2.0497264862060547,
   1.9231926202774048,
   1.8304998874664307,
   1.7449477910995483,
   1.2686846256256104,
   1.152936577796936,
   1.0538643598556519,
   1.0490273237228394,
   1.0770219564437866,
   1.0587732791900635,
   1.0258620977401733,
   1.0030887126922607,
   0.99675148725509644,
   0.99574548006057739,
   0.99268275499343872,
   0.9887385368347168,
   1.0051505565643311,
   0.98622256517410278,
   1.0543339252471924,
   1.0484830141067505,
   1.0215413570404053,
   0.99219608306884766,
   0.94416141510009766,
   0.96167612075805664,
   1.0020385980606079,
   0.98247843980789185,
   1.0758827924728394,
   1.0032327175140381,
   0.96662014722824097,
   1.0157324075698853,
   1.0440411567687988
]
