[
   1.5597200393676758,
   1.5605663061141968,
   1.5625803470611572,
   1.5603947639465332,
   1.5592389106750488,
   1.5608783960342407,
   1.5612623691558838,
   1.5594577789306641,
   1.5594236850738525,
   1.5604959726333618,
   1.5583556890487671,
   1.5569984912872314,
   1.5563901662826538,
   1.5554431676864624,
   1.554375171661377,
   1.5517061948776245,
   1.5513185262680054,
   1.5488255023956299,
   1.5485013723373413,
   1.5362765789031982,
   1.5250545740127563,
   1.5140475034713745,
   1.5026342868804932,
   1.4947857856750488,
   1.4836642742156982,
   1.4766385555267334,
   1.4664239883422852,
   1.4585177898406982,
   1.3914809226989746,
   1.3409312963485718,
   1.3038270473480225,
   1.2717965841293335,
   1.2463632822036743,
   1.2243868112564087,
   1.2074620723724365,
   1.1928524971008301,
   1.179614782333374,
   1.1013238430023193,
   1.0645028352737427,
   1.0415942668914795,
   1.0271209478378296,
   1.0199348926544189,
   1.0110718011856079,
   1.0105379819869995,
   1.0066394805908203,
   1.0055855512619019,
   1.0002447366714478,
   0.99613696336746216,
   0.99859046936035156,
   0.99960231781005859,
   1.0027929544448853,
   0.99284756183624268,
   1.0082559585571289,
   1.0062530040740967,
   1.0022567510604858,
   0.99594926834106445,
   0.98367679119110107,
   0.99487751722335815,
   0.99921524524688721,
   1.0004690885543823,
   1.0026938915252686,
   1.0201485157012939,
   0.99931144714355469,
   0.96961879730224609
]
