[
   19.366735458374023,
   19.48588752746582,
   19.553054809570312,
   19.285587310791016,
   19.231922149658203,
   19.291412353515625,
   19.366390228271484,
   19.153202056884766,
   19.113002777099609,
   19.265972137451172,
   18.913930892944336,
   18.547780990600586,
   18.217212677001953,
   17.845546722412109,
   17.619083404541016,
   17.576221466064453,
   17.238723754882812,
   17.142795562744141,
   16.827936172485352,
   15.141110420227051,
   13.876031875610352,
   12.809286117553711,
   12.140907287597656,
   11.327049255371094,
   10.737185478210449,
   10.118064880371094,
   9.6554470062255859,
   9.1711349487304688,
   6.1243405342102051,
   4.6545758247375488,
   3.6911721229553223,
   3.0606300830841064,
   2.7412393093109131,
   2.4601190090179443,
   2.2993290424346924,
   2.1063077449798584,
   1.9848340749740601,
   1.3862326145172119,
   1.1875174045562744,
   1.0177408456802368,
   1.0882905721664429,
   1.1010820865631104,
   0.99541395902633667,
   1.1179462671279907,
   1.0411717891693115,
   1.0048867464065552,
   0.97465229034423828,
   0.91978853940963745,
   1.0411970615386963,
   1.0072494745254517,
   0.97567367553710938,
   1.0369088649749756,
   0.94650965929031372,
   0.95127308368682861,
   1.0370211601257324,
   1.0009024143218994,
   0.98891031742095947,
   1.0180776119232178,
   1.0419528484344482,
   0.93625879287719727,
   0.9425169825553894,
   0.92290294170379639,
   1.0868197679519653,
   0.7481037974357605
]
