[
   5.5883946418762207,
   5.5768494606018066,
   5.5912637710571289,
   5.5620307922363281,
   5.5630121231079102,
   5.5345230102539062,
   5.5483794212341309,
   5.5441417694091797,
   5.5498032569885254,
   5.5438036918640137,
   5.4992542266845703,
   5.482424259185791,
   5.4526834487915039,
   5.3950295448303223,
   5.3559260368347168,
   5.3356738090515137,
   5.3052535057067871,
   5.2932043075561523,
   5.2521214485168457,
   4.953061580657959,
   4.7433023452758789,
   4.5399599075317383,
   4.3984451293945312,
   4.2375893592834473,
   4.0925774574279785,
   3.9797248840332031,
   3.8647987842559814,
   3.7416243553161621,
   3.0199611186981201,
   2.5916526317596436,
   2.2836058139801025,
   2.0632824897766113,
   1.9091403484344482,
   1.7618926763534546,
   1.6851478815078735,
   1.6181621551513672,
   1.5575439929962158,
   1.2421104907989502,
   1.1235920190811157,
   1.0604425668716431,
   1.0301734209060669,
   1.0099723339080811,
   1.0140856504440308,
   1.0248562097549438,
   1.0113308429718018,
   0.99100685119628906,
   1.0243790149688721,
   0.97635161876678467,
   0.97590160369873047,
   0.98068255186080933,
   0.9621959924697876,
   0.984477698802948,
   0.98189526796340942,
   1.0120519399642944,
   1.0063332319259644,
   0.94953954219818115,
   1.04120934009552,
   1.0270185470581055,
   0.97647446393966675,
   1.013755202293396,
   0.99089032411575317,
   1.0080091953277588,
   0.92316114902496338,
   1.0289822816848755
]
