[
   2.1946086883544922,
   2.1967818737030029,
   2.1910276412963867,
   2.1931357383728027,
   2.190314769744873,
   2.1936430931091309,
   2.189690113067627,
   2.1899228096008301,
   2.1920669078826904,
   2.1927523612976074,
   2.1843883991241455,
   2.1814923286437988,
   2.1765563488006592,
   2.1754868030548096,
   2.1667020320892334,
   2.1625807285308838,
   2.1586377620697021,
   2.1545686721801758,
   2.1479201316833496,
   2.11212158203125,
   2.0794756412506104,
   2.0421826839447021,
   2.0127019882202148,
   1.9825369119644165,
   1.9523470401763916,
   1.9311221837997437,
   1.90492844581604,
   1.8828039169311523,
   1.7140781879425049,
   1.5946717262268066,
   1.5090827941894531,
   1.4449901580810547,
   1.3945395946502686,
   1.3506945371627808,
   1.313931941986084,
   1.2863039970397949,
   1.2620055675506592,
   1.125159740447998,
   1.0715051889419556,
   1.0413134098052979,
   1.0271997451782227,
   1.0227491855621338,
   1.0193578004837036,
   1.0103896856307983,
   1.0144942998886108,
   1.0059429407119751,
   1.0028321743011475,
   0.99386757612228394,
   0.98808974027633667,
   0.98322707414627075,
   1.002267599105835,
   0.99647074937820435,
   0.9939386248588562,
   0.9976954460144043,
   0.99847733974456787,
   0.99648743867874146,
   0.99907934665679932,
   1.0101841688156128,
   1.0143706798553467,
   0.99379903078079224,
   0.97921216487884521,
   0.99385946989059448,
   0.9817739725112915,
   1.0171797275543213
]
