[
   155.85018920898438,
   156.71726989746094,
   153.25685119628906,
   152.55699157714844,
   156.74569702148438,
   153.21005249023438,
   153.96293640136719,
   149.86215209960938,
   149.84527587890625,
   146.45848083496094,
   144.83491516113281,
   136.71963500976562,
   135.25697326660156,
   128.52810668945312,
   126.74324798583984,
   120.21486663818359,
   118.15370941162109,
   113.07161712646484,
   110.87258148193359,
   93.679328918457031,
   80.243309020996094,
   68.223617553710938,
   59.708412170410156,
   53.689289093017578,
   48.612113952636719,
   44.655952453613281,
   40.017707824707031,
   36.608501434326172,
   17.797122955322266,
   11.850405693054199,
   8.4967060089111328,
   6.7070016860961914,
   4.7448210716247559,
   4.5439066886901855,
   3.3642756938934326,
   2.5227289199829102,
   2.8339946269989014,
   1.2051056623458862,
   1.3989757299423218,
   1.1265542507171631,
   1.1361653804779053,
   1.0597573518753052,
   1.2047691345214844,
   1.1426678895950317,
   0.9474523663520813,
   0.9988330602645874,
   0.68853813409805298,
   1.1245949268341064,
   0.60578548908233643,
   1.3683016300201416,
   1.5271779298782349,
   0.85574686527252197,
   0.72237765789031982,
   0.65303927659988403,
   0.60881191492080688,
   1.0744510889053345,
   1.1279201507568359,
   1.3999652862548828,
   0.7568821907043457,
   1.0064144134521484,
   1.4447718858718872,
   0.41120854020118713,
   1.5925154685974121,
   0
]
