[
   2.2001957893371582,
   2.199821949005127,
   2.198314905166626,
   2.1953630447387695,
   2.1962888240814209,
   2.1946558952331543,
   2.1953036785125732,
   2.1924929618835449,
   2.1907017230987549,
   2.1971602439880371,
   2.1888880729675293,
   2.1839809417724609,
   2.1840856075286865,
   2.1809601783752441,
   2.1749329566955566,
   2.1738622188568115,
   2.1643860340118408,
   2.1598780155181885,
   2.1606497764587402,
   2.1277472972869873,
   2.092029333114624,
   2.0620019435882568,
   2.0403163433074951,
   2.0121994018554688,
   1.9908034801483154,
   1.9658157825469971,
   1.9445164203643799,
   1.9264070987701416,
   1.7686065435409546,
   1.6660588979721069,
   1.5835956335067749,
   1.5205972194671631,
   1.4638803005218506,
   1.4214153289794922,
   1.3848698139190674,
   1.3483812808990479,
   1.3243080377578735,
   1.1647483110427856,
   1.0999953746795654,
   1.0695205926895142,
   1.0526300668716431,
   1.0402181148529053,
   1.0255976915359497,
   1.0188107490539551,
   1.0163147449493408,
   1.0139809846878052,
   0.99324989318847656,
   0.99924165010452271,
   0.99227094650268555,
   0.99028503894805908,
   0.9997483491897583,
   0.99107569456100464,
   0.98507708311080933,
   0.99149453639984131,
   0.98922336101531982,
   0.98814183473587036,
   0.99092400074005127,
   0.99688088893890381,
   0.98612946271896362,
   1.0003334283828735,
   1.013795018196106,
   1.0277835130691528,
   1.02000892162323,
   1.025255560874939
]
