[
   3.3124032020568848,
   3.3074870109558105,
   3.3129501342773438,
   3.3188300132751465,
   3.3149070739746094,
   3.3074333667755127,
   3.3055965900421143,
   3.3128418922424316,
   3.3007864952087402,
   3.3007893562316895,
   3.2966628074645996,
   3.2751460075378418,
   3.2757716178894043,
   3.2530014514923096,
   3.2526328563690186,
   3.2489769458770752,
   3.2344117164611816,
   3.2260901927947998,
   3.2144966125488281,
   3.1249179840087891,
   3.0435745716094971,
   2.9701404571533203,
   2.903353214263916,
   2.8451845645904541,
   2.7940878868103027,
   2.7440259456634521,
   2.6942894458770752,
   2.655240535736084,
   2.3269262313842773,
   2.1088366508483887,
   1.9597404003143311,
   1.8430769443511963,
   1.7340463399887085,
   1.6550699472427368,
   1.5923261642456055,
   1.5414403676986694,
   1.4983409643173218,
   1.2323465347290039,
   1.1336829662322998,
   1.0885496139526367,
   1.0603170394897461,
   1.0472514629364014,
   1.0327651500701904,
   1.0371373891830444,
   1.0306918621063232,
   1.0168552398681641,
   0.99750137329101562,
   0.99472296237945557,
   0.98202145099639893,
   0.98195326328277588,
   1.0067893266677856,
   0.99910181760787964,
   1.0008758306503296,
   0.98909664154052734,
   1.0136103630065918,
   1.0215507745742798,
   0.99349957704544067,
   0.99562054872512817,
   1.0012978315353394,
   0.98450165987014771,
   0.96046876907348633,
   0.9794764518737793,
   0.97757768630981445,
   0.91818696260452271
]
