[
   5.5209131240844727,
   5.5166821479797363,
   5.5178370475769043,
   5.5159001350402832,
   5.4906163215637207,
   5.5125436782836914,
   5.5059370994567871,
   5.4821896553039551,
   5.4958095550537109,
   5.4953112602233887,
   5.4663677215576172,
   5.4316182136535645,
   5.4017457962036133,
   5.3627605438232422,
   5.3182096481323242,
   5.3092918395996094,
   5.2707171440124512,
   5.2668924331665039,
   5.2083559036254883,
   5.006993293762207,
   4.8055095672607422,
   4.6337876319885254,
   4.4673032760620117,
   4.3475799560546875,
   4.2218718528747559,
   4.1180362701416016,
   4.0343756675720215,
   3.91998291015625,
   3.2572638988494873,
   2.8255469799041748,
   2.5229506492614746,
   2.2877383232116699,
   2.1231765747070312,
   1.9885374307632446,
   1.8744804859161377,
   1.7955615520477295,
   1.7043718099594116,
   1.296451210975647,
   1.1727545261383057,
   1.1018581390380859,
   1.0511804819107056,
   1.0609782934188843,
   1.0266561508178711,
   0.99962997436523438,
   0.99079751968383789,
   1.026381254196167,
   0.99875771999359131,
   0.99539363384246826,
   0.9808160662651062,
   0.9719812273979187,
   0.97557723522186279,
   0.98774844408035278,
   0.98646146059036255,
   0.94916611909866333,
   0.98308980464935303,
   1.0176489353179932,
   0.9620625376701355,
   0.99050462245941162,
   0.9864572286605835,
   0.98211067914962769,
   0.97207129001617432,
   1.0327932834625244,
   0.95940083265304565,
   1.1741145849227905
]
