[
   2.066565990447998,
   2.0648784637451172,
   2.0622708797454834,
   2.0674426555633545,
   2.0645005702972412,
   2.0629909038543701,
   2.0636904239654541,
   2.0590558052062988,
   2.0633308887481689,
   2.063112735748291,
   2.0585589408874512,
   2.0536768436431885,
   2.0531508922576904,
   2.0480742454528809,
   2.0477874279022217,
   2.0436990261077881,
   2.0404584407806396,
   2.0388975143432617,
   2.0347366333007812,
   2.0108909606933594,
   1.9886674880981445,
   1.9654810428619385,
   1.9466736316680908,
   1.9256522655487061,
   1.9073209762573242,
   1.8938496112823486,
   1.8787330389022827,
   1.8673778772354126,
   1.7593944072723389,
   1.6837685108184814,
   1.6201000213623047,
   1.5677000284194946,
   1.5221006870269775,
   1.4830830097198486,
   1.4467223882675171,
   1.4170514345169067,
   1.3922946453094482,
   1.2222367525100708,
   1.150978684425354,
   1.102882981300354,
   1.0724875926971436,
   1.053239107131958,
   1.0409951210021973,
   1.0311415195465088,
   1.0190465450286865,
   1.0120779275894165,
   0.98808062076568604,
   0.99582231044769287,
   0.99096107482910156,
   1.0069741010665894,
   0.99138051271438599,
   1.0006172657012939,
   1.0027968883514404,
   1.0170090198516846,
   1.0027482509613037,
   0.99944669008255005,
   1.0068622827529907,
   0.9935261607170105,
   0.99029666185379028,
   1.0146702527999878,
   0.99083071947097778,
   0.96151697635650635,
   0.98738068342208862,
   0.92014896869659424
]
