[
   93.289039611816406,
   92.894767761230469,
   91.955375671386719,
   91.591331481933594,
   90.995681762695312,
   91.320663452148438,
   91.407295227050781,
   90.227760314941406,
   89.657188415527344,
   89.768203735351562,
   87.802970886230469,
   87.046577453613281,
   83.978050231933594,
   82.124847412109375,
   81.811904907226562,
   81.431106567382812,
   79.739212036132812,
   77.516143798828125,
   76.299911499023438,
   68.346176147460938,
   59.557945251464844,
   55.018241882324219,
   49.094646453857422,
   45.256282806396484,
   41.294013977050781,
   38.740627288818359,
   36.426162719726562,
   33.551475524902344,
   18.218730926513672,
   13.170707702636719,
   9.8351545333862305,
   7.563633918762207,
   5.8689403533935547,
   4.9317922592163086,
   4.381075382232666,
   3.4896438121795654,
   3.0079531669616699,
   2.3994135856628418,
   1.420243501663208,
   1.4922854900360107,
   1.0314470529556274,
   0.83049994707107544,
   0.96267157793045044,
   1.0880944728851318,
   0.85879504680633545,
   1.2002741098403931,
   1.0733811855316162,
   0.79146683216094971,
   0.65462839603424072,
   1.2250934839248657,
   1.036602258682251,
   1.0713636875152588,
   0.84062099456787109,
   1.2018347978591919,
   0.83675271272659302,
   0.80233252048492432,
   1.0458205938339233,
   0.74390715360641479,
   0.27533560991287231,
   0.73497337102890015,
   0.32556229829788208,
   1.1267015933990479,
   1.0021823644638062,
   0.72419470548629761
]
