[
   4.6102304458618164,
   4.6086821556091309,
   4.6112861633300781,
   4.6131963729858398,
   4.6175975799560547,
   4.6160402297973633,
   4.6079001426696777,
   4.6051177978515625,
   4.5994067192077637,
   4.6064233779907227,
   4.5818595886230469,
   4.5437283515930176,
   4.5326790809631348,
   4.519711971282959,
   4.49835205078125,
   4.4807329177856445,
   4.4794492721557617,
   4.452176570892334,
   4.4473190307617188,
   4.291569709777832,
   4.1850137710571289,
   4.0779438018798828,
   3.981689453125,
   3.908989429473877,
   3.8369624614715576,
   3.7858669757843018,
   3.7151546478271484,
   3.6536498069763184,
   3.2254378795623779,
   2.9103000164031982,
   2.6390864849090576,
   2.4555890560150146,
   2.2821078300476074,
   2.1621387004852295,
   2.0344634056091309,
   1.9454540014266968,
   1.8525043725967407,
   1.3745083808898926,
   1.1908688545227051,
   1.0890573263168335,
   1.0447109937667847,
   1.0502148866653442,
   1.0221104621887207,
   1.0163052082061768,
   1.0162620544433594,
   1.0271313190460205,
   0.97251111268997192,
   1.0016242265701294,
   0.99695700407028198,
   0.99952399730682373,
   1.0014818906784058,
   1.0125690698623657,
   0.99967706203460693,
   0.96334743499755859,
   1.010732889175415,
   1.0099666118621826,
   0.9630664587020874,
   0.96192950010299683,
   0.98722666501998901,
   0.99537277221679688,
   1.0309998989105225,
   1.0086555480957031,
   0.93986940383911133,
   0.89961892366409302
]
