[
   1.5586276054382324,
   1.558508038520813,
   1.5574072599411011,
   1.5578827857971191,
   1.5581456422805786,
   1.5590081214904785,
   1.5589220523834229,
   1.5588802099227905,
   1.5562880039215088,
   1.5584018230438232,
   1.5562642812728882,
   1.5547522306442261,
   1.5547455549240112,
   1.5539495944976807,
   1.5517582893371582,
   1.5512046813964844,
   1.5502822399139404,
   1.5496495962142944,
   1.5480918884277344,
   1.5378291606903076,
   1.5287413597106934,
   1.5206587314605713,
   1.5112777948379517,
   1.5036957263946533,
   1.4956880807876587,
   1.4896601438522339,
   1.4826424121856689,
   1.4747673273086548,
   1.4263366460800171,
   1.3867239952087402,
   1.3578441143035889,
   1.3324804306030273,
   1.3108524084091187,
   1.2911076545715332,
   1.2740620374679565,
   1.2600514888763428,
   1.2461992502212524,
   1.1531075239181519,
   1.1038662195205688,
   1.0754121541976929,
   1.0548416376113892,
   1.038475513458252,
   1.0275880098342896,
   1.0224530696868896,
   1.0136040449142456,
   1.0111515522003174,
   0.99974215030670166,
   0.99733275175094604,
   0.997597336769104,
   0.99815464019775391,
   0.98876887559890747,
   1.0014750957489014,
   0.99526184797286987,
   0.99924027919769287,
   0.99486237764358521,
   0.9935033917427063,
   0.98375558853149414,
   1.0057998895645142,
   0.98967915773391724,
   1.0061119794845581,
   0.99789446592330933,
   1.0142421722412109,
   1.0231964588165283,
   0.98698580265045166
]
