[
   2.9518001079559326,
   2.9456813335418701,
   2.9488749504089355,
   2.9388859272003174,
   2.9405486583709717,
   2.9392509460449219,
   2.9398722648620605,
   2.9439802169799805,
   2.9431614875793457,
   2.9456944465637207,
   2.933051586151123,
   2.932056188583374,
   2.9257895946502686,
   2.9289638996124268,
   2.9206767082214355,
   2.919367790222168,
   2.911797046661377,
   2.9116969108581543,
   2.9066424369812012,
   2.8817849159240723,
   2.8488550186157227,
   2.8254883289337158,
   2.8056876659393311,
   2.7829747200012207,
   2.7545390129089355,
   2.7395768165588379,
   2.7137560844421387,
   2.6981551647186279,
   2.5453722476959229,
   2.4152610301971436,
   2.2924370765686035,
   2.2013561725616455,
   2.1162629127502441,
   2.0446197986602783,
   1.9795627593994141,
   1.92091965675354,
   1.8635208606719971,
   1.5458810329437256,
   1.3726027011871338,
   1.2703680992126465,
   1.1856689453125,
   1.1514384746551514,
   1.1354947090148926,
   1.125005841255188,
   1.1117656230926514,
   1.0950345993041992,
   1.0420194864273071,
   1.0149002075195312,
   0.99935996532440186,
   0.99705231189727783,
   0.9676203727722168,
   1.0149296522140503,
   0.99399024248123169,
   0.99466210603713989,
   0.98652714490890503,
   0.96484994888305664,
   0.95861512422561646,
   0.94905281066894531,
   0.9923321008682251,
   1.0098211765289307,
   1.0290648937225342,
   1.0006718635559082,
   1.0547387599945068,
   1.0680960416793823
]
