[
   3.9626700878143311,
   3.9574370384216309,
   3.9605841636657715,
   3.9701800346374512,
   3.9589874744415283,
   3.9621028900146484,
   3.9526298046112061,
   3.9641883373260498,
   3.9581356048583984,
   3.9544112682342529,
   3.9511122703552246,
   3.9446418285369873,
   3.9409561157226562,
   3.928053617477417,
   3.9218299388885498,
   3.9119338989257812,
   3.9073417186737061,
   3.8935484886169434,
   3.8968932628631592,
   3.8210530281066895,
   3.7725491523742676,
   3.7271754741668701,
   3.6786017417907715,
   3.6472382545471191,
   3.5969386100769043,
   3.5720493793487549,
   3.5199546813964844,
   3.4869296550750732,
   3.1913080215454102,
   2.9404246807098389,
   2.7506179809570312,
   2.5916173458099365,
   2.445427417755127,
   2.3266885280609131,
   2.218674898147583,
   2.1309850215911865,
   2.0527377128601074,
   1.5852078199386597,
   1.3837798833847046,
   1.2728151082992554,
   1.2220075130462646,
   1.1696486473083496,
   1.1569862365722656,
   1.1252201795578003,
   1.0966976881027222,
   1.0910352468490601,
   1.0185229778289795,
   1.0423365831375122,
   0.96900641918182373,
   0.9697386622428894,
   0.98485344648361206,
   0.97630727291107178,
   1.0089671611785889,
   0.99109381437301636,
   1.0146224498748779,
   1.0155363082885742,
   0.94659757614135742,
   1.0286750793457031,
   0.99997073411941528,
   1.0572788715362549,
   1.0129425525665283,
   0.94764959812164307,
   0.97261923551559448,
   0.80267494916915894
]
