[
   36.853412628173828,
   37.412384033203125,
   37.174209594726562,
   36.981178283691406,
   36.959053039550781,
   36.514533996582031,
   36.522750854492188,
   36.948066711425781,
   36.653305053710938,
   36.547691345214844,
   36.026744842529297,
   35.362174987792969,
   34.955390930175781,
   34.53253173828125,
   33.952552795410156,
   33.315746307373047,
   32.988422393798828,
   32.569583892822266,
   32.113723754882812,
   28.109964370727539,
   25.190582275390625,
   22.699949264526367,
   21.054603576660156,
   19.190715789794922,
   17.852519989013672,
   16.743391036987305,
   15.801687240600586,
   14.675867080688477,
   9.3398332595825195,
   6.8023529052734375,
   5.3382139205932617,
   4.570098876953125,
   3.9025168418884277,
   3.5604298114776611,
   3.2181224822998047,
   3.0215437412261963,
   2.7081153392791748,
   1.8337783813476562,
   1.4825506210327148,
   1.3952032327651978,
   1.2794833183288574,
   1.2275147438049316,
   1.1788403987884521,
   1.0368406772613525,
   1.1993457078933716,
   1.0412414073944092,
   0.84605866670608521,
   1.0042884349822998,
   0.94537746906280518,
   0.90212404727935791,
   0.89423197507858276,
   1.0648219585418701,
   1.0575886964797974,
   0.85845071077346802,
   1.014761209487915,
   0.98065948486328125,
   0.78838664293289185,
   1.0849964618682861,
   1.0253446102142334,
   0.86382025480270386,
   1.0878111124038696,
   1.1759428977966309,
   0.86522758007049561,
   0.62087547779083252
]
