[
   2.1430761814117432,
   2.1422836780548096,
   2.143235445022583,
   2.1419258117675781,
   2.1419577598571777,
   2.1417570114135742,
   2.1419596672058105,
   2.1418936252593994,
   2.1404364109039307,
   2.1404685974121094,
   2.1411592960357666,
   2.1370589733123779,
   2.1370413303375244,
   2.1356511116027832,
   2.1320090293884277,
   2.1332218647003174,
   2.1280505657196045,
   2.1267144680023193,
   2.1277704238891602,
   2.1109414100646973,
   2.1028249263763428,
   2.0901212692260742,
   2.0763022899627686,
   2.0673861503601074,
   2.0589709281921387,
   2.0508737564086914,
   2.0417590141296387,
   2.0343434810638428,
   1.9611046314239502,
   1.9022035598754883,
   1.8493713140487671,
   1.800986647605896,
   1.7596671581268311,
   1.7218297719955444,
   1.6844527721405029,
   1.6533381938934326,
   1.6231811046600342,
   1.4201266765594482,
   1.30205237865448,
   1.2266634702682495,
   1.1852567195892334,
   1.1421428918838501,
   1.1142228841781616,
   1.1014182567596436,
   1.0929144620895386,
   1.0870125293731689,
   1.023816704750061,
   1.0106923580169678,
   0.9974442720413208,
   0.98610877990722656,
   1.0010048151016235,
   1.0023601055145264,
   0.9956544041633606,
   0.97481650114059448,
   0.98158615827560425,
   1.0036705732345581,
   0.99503356218338013,
   1.0231060981750488,
   0.9686427116394043,
   1.0082619190216064,
   1.0085960626602173,
   0.98493528366088867,
   0.95459383726119995,
   0.99508029222488403
]
