[
   2.3198897838592529,
   2.3234941959381104,
   2.3218295574188232,
   2.3216686248779297,
   2.319760799407959,
   2.3208596706390381,
   2.3201160430908203,
   2.3178129196166992,
   2.3177909851074219,
   2.3195772171020508,
   2.3172554969787598,
   2.3156628608703613,
   2.3140742778778076,
   2.3089578151702881,
   2.3101654052734375,
   2.3094964027404785,
   2.3066112995147705,
   2.3035323619842529,
   2.301222562789917,
   2.2828154563903809,
   2.2678365707397461,
   2.2552123069763184,
   2.2359375953674316,
   2.2252185344696045,
   2.2117063999176025,
   2.2014875411987305,
   2.1946632862091064,
   2.1781911849975586,
   2.0818746089935303,
   2.0062832832336426,
   1.9391918182373047,
   1.8821436166763306,
   1.824649453163147,
   1.7790348529815674,
   1.7337782382965088,
   1.6955324411392212,
   1.6579391956329346,
   1.4257773160934448,
   1.3191796541213989,
   1.2439839839935303,
   1.1947442293167114,
   1.1612174510955811,
   1.1351919174194336,
   1.1079883575439453,
   1.096179723739624,
   1.0804069042205811,
   1.0099146366119385,
   1.012088418006897,
   1.0240033864974976,
   1.0057313442230225,
   0.98659449815750122,
   0.99704140424728394,
   1.0110291242599487,
   0.98246049880981445,
   0.9841456413269043,
   0.99302500486373901,
   0.98765277862548828,
   1.0124363899230957,
   0.97316169738769531,
   0.99536275863647461,
   0.93748664855957031,
   0.99067860841751099,
   1.0953265428543091,
   0.98192548751831055
]
