[
   1.7716852426528931,
   1.774181604385376,
   1.7728769779205322,
   1.7721999883651733,
   1.7715190649032593,
   1.7711426019668579,
   1.7721538543701172,
   1.7705819606781006,
   1.7706655263900757,
   1.7731739282608032,
   1.7722082138061523,
   1.7701219320297241,
   1.768545389175415,
   1.7685878276824951,
   1.7671496868133545,
   1.7653799057006836,
   1.7652957439422607,
   1.7667096853256226,
   1.7648904323577881,
   1.7558482885360718,
   1.7491575479507446,
   1.742389440536499,
   1.7365570068359375,
   1.7308250665664673,
   1.7264292240142822,
   1.721146821975708,
   1.7158749103546143,
   1.7117341756820679,
   1.6686090230941772,
   1.6342313289642334,
   1.6029983758926392,
   1.5757145881652832,
   1.5514757633209229,
   1.5289710760116577,
   1.5075762271881104,
   1.487618088722229,
   1.4692773818969727,
   1.3310955762863159,
   1.2472902536392212,
   1.1964588165283203,
   1.1611270904541016,
   1.1316492557525635,
   1.1129333972930908,
   1.0966595411300659,
   1.0822234153747559,
   1.0696815252304077,
   1.0261732339859009,
   1.0135691165924072,
   0.99416673183441162,
   0.99085605144500732,
   0.97672766447067261,
   0.98302376270294189,
   0.97078591585159302,
   0.97002947330474854,
   0.96389895677566528,
   0.97455036640167236,
   0.99459683895111084,
   1.0044717788696289,
   1.0073416233062744,
   0.9853784441947937,
   0.9592738151550293,
   1.0085451602935791,
   1.0764501094818115,
   1.041452169418335
]
