[
   1.8208458423614502,
   1.8200883865356445,
   1.820412278175354,
   1.8185884952545166,
   1.8188717365264893,
   1.8210655450820923,
   1.818739652633667,
   1.8208402395248413,
   1.8198215961456299,
   1.8196073770523071,
   1.8179973363876343,
   1.8149564266204834,
   1.8133296966552734,
   1.8122848272323608,
   1.8079016208648682,
   1.8082672357559204,
   1.8063226938247681,
   1.8056089878082275,
   1.8020856380462646,
   1.7874927520751953,
   1.7671219110488892,
   1.7541850805282593,
   1.7406547069549561,
   1.725421667098999,
   1.7155225276947021,
   1.7045475244522095,
   1.6929075717926025,
   1.6800143718719482,
   1.5983383655548096,
   1.5380357503890991,
   1.4929133653640747,
   1.4518831968307495,
   1.4210195541381836,
   1.3918895721435547,
   1.368114709854126,
   1.3461112976074219,
   1.3275212049484253,
   1.1942634582519531,
   1.1337695121765137,
   1.0974092483520508,
   1.0731604099273682,
   1.0511256456375122,
   1.0372666120529175,
   1.0325161218643188,
   1.0257498025894165,
   1.0224536657333374,
   1.0095182657241821,
   1.0056836605072021,
   0.98731482028961182,
   0.994454026222229,
   0.99126225709915161,
   0.98925936222076416,
   0.99677658081054688,
   0.9983099102973938,
   1.0002020597457886,
   0.98762476444244385,
   0.97773993015289307,
   0.985451340675354,
   1.0009922981262207,
   0.98745107650756836,
   1.0139288902282715,
   1.0101418495178223,
   1.0349104404449463,
   0.97665482759475708
]
