[
   1.9113954305648804,
   1.9140207767486572,
   1.9125423431396484,
   1.9118483066558838,
   1.9117028713226318,
   1.9118404388427734,
   1.9123493432998657,
   1.91182541847229,
   1.9129860401153564,
   1.9120076894760132,
   1.9090785980224609,
   1.9081542491912842,
   1.9042518138885498,
   1.9004585742950439,
   1.900081992149353,
   1.9005565643310547,
   1.896714448928833,
   1.8931429386138916,
   1.8910611867904663,
   1.8709806203842163,
   1.8523931503295898,
   1.8342952728271484,
   1.8177194595336914,
   1.8028590679168701,
   1.7876335382461548,
   1.775668740272522,
   1.7635749578475952,
   1.7494701147079468,
   1.655429482460022,
   1.5868831872940063,
   1.5331301689147949,
   1.488724946975708,
   1.4497010707855225,
   1.4181164503097534,
   1.3903242349624634,
   1.3628113269805908,
   1.3405970335006714,
   1.2064330577850342,
   1.140021800994873,
   1.0971723794937134,
   1.0687074661254883,
   1.0556013584136963,
   1.045076847076416,
   1.0337210893630981,
   1.0265991687774658,
   1.0230507850646973,
   1.0085337162017822,
   0.99087411165237427,
   1.0077857971191406,
   0.99925649166107178,
   0.99990546703338623,
   1.0052529573440552,
   0.99923914670944214,
   1.0112559795379639,
   0.99172526597976685,
   0.9946436882019043,
   0.98500174283981323,
   0.99913156032562256,
   1.0053786039352417,
   1.0003169775009155,
   0.97425222396850586,
   1.0039188861846924,
   0.98483335971832275,
   1.0276060104370117
]
