[
   1.7106348276138306,
   1.708928108215332,
   1.7079508304595947,
   1.7082226276397705,
   1.7096588611602783,
   1.7075574398040771,
   1.7070455551147461,
   1.7075567245483398,
   1.7075862884521484,
   1.7073957920074463,
   1.7052215337753296,
   1.7052100896835327,
   1.7048259973526001,
   1.7019599676132202,
   1.6999934911727905,
   1.6989847421646118,
   1.6962951421737671,
   1.6953216791152954,
   1.694854736328125,
   1.6812341213226318,
   1.6662966012954712,
   1.6557323932647705,
   1.6427913904190063,
   1.6339517831802368,
   1.6196902990341187,
   1.6110292673110962,
   1.6018140316009521,
   1.5904413461685181,
   1.5210707187652588,
   1.4666774272918701,
   1.4239078760147095,
   1.3900275230407715,
   1.3611290454864502,
   1.335060715675354,
   1.3158628940582275,
   1.2960493564605713,
   1.2772840261459351,
   1.1653070449829102,
   1.1112575531005859,
   1.0845214128494263,
   1.0648957490921021,
   1.0543729066848755,
   1.0413532257080078,
   1.034038782119751,
   1.0342252254486084,
   1.0287457704544067,
   1.0008671283721924,
   1.0019166469573975,
   0.98809975385665894,
   0.99176502227783203,
   0.98853570222854614,
   0.98893803358078003,
   1.0000072717666626,
   1.0062267780303955,
   1.0003961324691772,
   1.0002748966217041,
   0.98704797029495239,
   1.0072438716888428,
   1.0148788690567017,
   0.99799519777297974,
   0.99770575761795044,
   1.01017165184021,
   1.0064904689788818,
   1.0222940444946289
]
