[
   2.621596097946167,
   2.6220207214355469,
   2.6197640895843506,
   2.6204409599304199,
   2.6189873218536377,
   2.6154780387878418,
   2.6159729957580566,
   2.6165230274200439,
   2.6169605255126953,
   2.6151046752929688,
   2.6070356369018555,
   2.6057517528533936,
   2.5994915962219238,
   2.5927338600158691,
   2.591526985168457,
   2.5839271545410156,
   2.5780215263366699,
   2.5751338005065918,
   2.5649828910827637,
   2.5213925838470459,
   2.4813942909240723,
   2.4356353282928467,
   2.410186767578125,
   2.3771085739135742,
   2.3452997207641602,
   2.3183274269104004,
   2.2941677570343018,
   2.2695400714874268,
   2.0837602615356445,
   1.9564402103424072,
   1.8589398860931396,
   1.781829833984375,
   1.714186429977417,
   1.6588318347930908,
   1.6071497201919556,
   1.5614736080169678,
   1.5193550586700439,
   1.2933322191238403,
   1.205755352973938,
   1.1418341398239136,
   1.1068341732025146,
   1.0760178565979004,
   1.0629786252975464,
   1.0570871829986572,
   1.0509310960769653,
   1.0542937517166138,
   0.97904932498931885,
   0.99648892879486084,
   0.99907046556472778,
   0.99207848310470581,
   0.98436868190765381,
   0.99015235900878906,
   1.0035955905914307,
   1.0157210826873779,
   1.0052140951156616,
   0.99471884965896606,
   1.0036934614181519,
   0.99578016996383667,
   1.0159165859222412,
   0.99055111408233643,
   0.98470723628997803,
   0.97254639863967896,
   0.96184051036834717,
   0.92901182174682617
]
