[
   14.767514228820801,
   14.59498119354248,
   14.596562385559082,
   14.545320510864258,
   14.621075630187988,
   14.622477531433105,
   14.622976303100586,
   14.504481315612793,
   14.579411506652832,
   14.506960868835449,
   14.383356094360352,
   14.207221984863281,
   14.115036010742188,
   13.962801933288574,
   13.882891654968262,
   13.640719413757324,
   13.690391540527344,
   13.459378242492676,
   13.443743705749512,
   12.583724021911621,
   11.822954177856445,
   11.265983581542969,
   10.772129058837891,
   10.372529983520508,
   9.9920415878295898,
   9.5748462677001953,
   9.3356180191040039,
   9.0305233001708984,
   6.8711328506469727,
   5.566166877746582,
   4.7412281036376953,
   4.092097282409668,
   3.6328761577606201,
   3.2937960624694824,
   2.9404387474060059,
   2.6924703121185303,
   2.4731836318969727,
   1.6454963684082031,
   1.4187819957733154,
   1.1882588863372803,
   1.1572363376617432,
   1.0387595891952515,
   1.0848945379257202,
   1.029452919960022,
   0.98042619228363037,
   0.9983367919921875,
   0.96432667970657349,
   1.0327231884002686,
   0.96053284406661987,
   1.0774838924407959,
   1.0868899822235107,
   0.94874382019042969,
   1.0775027275085449,
   0.9542614221572876,
   1.0170972347259521,
   1.036504864692688,
   0.9644852876663208,
   1.0132296085357666,
   1.0031569004058838,
   1.0746195316314697,
   0.88924044370651245,
   1.0477944612503052,
   1.0620766878128052,
   0.68994748592376709
]
