[
   111.15852355957031,
   110.75555419921875,
   112.21049499511719,
   111.0438232421875,
   109.23549652099609,
   108.86141204833984,
   108.35562896728516,
   108.27671813964844,
   107.08559417724609,
   107.67515563964844,
   102.30198669433594,
   99.691818237304688,
   96.693862915039062,
   95.139060974121094,
   92.363723754882812,
   90.924293518066406,
   88.750816345214844,
   85.994544982910156,
   83.269264221191406,
   70.55303955078125,
   58.945831298828125,
   53.037712097167969,
   45.9183349609375,
   41.552898406982422,
   39.072483062744141,
   35.549629211425781,
   32.236457824707031,
   29.682821273803711,
   16.213485717773438,
   10.938063621520996,
   9.1189403533935547,
   6.7394447326660156,
   5.3889951705932617,
   4.3500514030456543,
   3.4152541160583496,
   3.6507866382598877,
   3.5582308769226074,
   1.9055755138397217,
   1.0996848344802856,
   1.2416216135025024,
   1.1340482234954834,
   0.78888243436813354,
   0.93031197786331177,
   0.87450522184371948,
   1.2820291519165039,
   1.4188880920410156,
   1.2635902166366577,
   0.61127638816833496,
   0.90425622463226318,
   0.76261705160140991,
   1.0310714244842529,
   0.94008076190948486,
   1.0559524297714233,
   0.84634697437286377,
   0.96216189861297607,
   1.1936883926391602,
   0.50954937934875488,
   1.1727185249328613,
   1.3379796743392944,
   1.8215423822402954,
   0.82620495557785034,
   0.81657254695892334,
   1.1217267513275146,
   1.0961154699325562
]
