[
   1.5223457813262939,
   1.5222673416137695,
   1.5216419696807861,
   1.5215365886688232,
   1.5211806297302246,
   1.5225245952606201,
   1.5222262144088745,
   1.5200722217559814,
   1.5201981067657471,
   1.522944450378418,
   1.5213384628295898,
   1.5192310810089111,
   1.5193313360214233,
   1.5182000398635864,
   1.5167137384414673,
   1.5156883001327515,
   1.5147815942764282,
   1.5134609937667847,
   1.5133429765701294,
   1.5037211179733276,
   1.4958338737487793,
   1.4879938364028931,
   1.4814960956573486,
   1.4742405414581299,
   1.4673753976821899,
   1.4593226909637451,
   1.4532557725906372,
   1.4472199678421021,
   1.3986036777496338,
   1.3594505786895752,
   1.3300306797027588,
   1.3058769702911377,
   1.2842212915420532,
   1.2669891119003296,
   1.2513129711151123,
   1.2375423908233643,
   1.2247422933578491,
   1.1400086879730225,
   1.1004526615142822,
   1.0716453790664673,
   1.0526734590530396,
   1.0417436361312866,
   1.033275842666626,
   1.0279159545898438,
   1.0214802026748657,
   1.0196940898895264,
   1.001225471496582,
   0.99922621250152588,
   0.99269425868988037,
   1.0034010410308838,
   0.99938327074050903,
   0.99493801593780518,
   1.0001485347747803,
   1.0041121244430542,
   1.0003869533538818,
   1.0038419961929321,
   0.99600565433502197,
   0.99793797731399536,
   0.99700671434402466,
   1.0096943378448486,
   0.99531060457229614,
   0.99608993530273438,
   0.98747313022613525,
   0.96883934736251831
]
