[
   1.5480629205703735,
   1.5465599298477173,
   1.5472687482833862,
   1.5466216802597046,
   1.5470211505889893,
   1.5471266508102417,
   1.546215295791626,
   1.545865535736084,
   1.5462806224822998,
   1.5463749170303345,
   1.545911431312561,
   1.5461870431900024,
   1.5453429222106934,
   1.544411301612854,
   1.5444895029067993,
   1.5428129434585571,
   1.5431622266769409,
   1.5424994230270386,
   1.540945291519165,
   1.5378400087356567,
   1.5322036743164062,
   1.5287183523178101,
   1.5240633487701416,
   1.5211412906646729,
   1.5163296461105347,
   1.5139186382293701,
   1.5091539621353149,
   1.506037712097168,
   1.4761756658554077,
   1.4508172273635864,
   1.4283472299575806,
   1.4087979793548584,
   1.3906790018081665,
   1.3733093738555908,
   1.3581199645996094,
   1.3456618785858154,
   1.3325906991958618,
   1.2386540174484253,
   1.1850553750991821,
   1.1457827091217041,
   1.1159906387329102,
   1.0969928503036499,
   1.0840144157409668,
   1.0737762451171875,
   1.0675015449523926,
   1.0662491321563721,
   1.0217740535736084,
   0.99925661087036133,
   0.99343478679656982,
   0.98870861530303955,
   0.98211658000946045,
   0.98150032758712769,
   0.97298300266265869,
   0.97792071104049683,
   0.98659467697143555,
   0.98550713062286377,
   0.98215419054031372,
   0.98171436786651611,
   0.98581933975219727,
   0.99484968185424805,
   1.0246720314025879,
   1.0049715042114258,
   1.0645216703414917,
   1.1396911144256592
]
