[
   1.6917463541030884,
   1.6913295984268188,
   1.6910717487335205,
   1.6911264657974243,
   1.6905977725982666,
   1.6935192346572876,
   1.6913274526596069,
   1.6906442642211914,
   1.6904007196426392,
   1.6915916204452515,
   1.6897220611572266,
   1.6885799169540405,
   1.6889632940292358,
   1.6878811120986938,
   1.6870830059051514,
   1.6866823434829712,
   1.6852060556411743,
   1.6840684413909912,
   1.683424711227417,
   1.6770550012588501,
   1.6703180074691772,
   1.6650842428207397,
   1.6563774347305298,
   1.6529157161712646,
   1.6463168859481812,
   1.6400682926177979,
   1.6353247165679932,
   1.6306699514389038,
   1.5873754024505615,
   1.5513675212860107,
   1.5218333005905151,
   1.492755651473999,
   1.4674403667449951,
   1.4437539577484131,
   1.4246128797531128,
   1.4061250686645508,
   1.3887869119644165,
   1.2670129537582397,
   1.1991313695907593,
   1.1522091627120972,
   1.1230454444885254,
   1.1036310195922852,
   1.0848276615142822,
   1.0712205171585083,
   1.0557606220245361,
   1.0492945909500122,
   1.0021554231643677,
   0.99717438220977783,
   0.99424898624420166,
   0.99968338012695312,
   1.005624532699585,
   0.99771654605865479,
   0.9955371618270874,
   0.99585455656051636,
   0.9949493408203125,
   1.0027056932449341,
   0.99524575471878052,
   1.0117393732070923,
   0.97711288928985596,
   1.0026490688323975,
   1.0026862621307373,
   0.98393714427947998,
   1.0029985904693604,
   1.0274721384048462
]
