[
   2.4811651706695557,
   2.4847855567932129,
   2.4845595359802246,
   2.4829471111297607,
   2.4818136692047119,
   2.4820876121520996,
   2.4842793941497803,
   2.4811646938323975,
   2.4825716018676758,
   2.4793651103973389,
   2.4792814254760742,
   2.4754931926727295,
   2.4715783596038818,
   2.4745438098907471,
   2.4691615104675293,
   2.4654707908630371,
   2.4668905735015869,
   2.4594836235046387,
   2.457338809967041,
   2.4313445091247559,
   2.412977933883667,
   2.3889329433441162,
   2.370678186416626,
   2.3500030040740967,
   2.3324167728424072,
   2.3185112476348877,
   2.3014190196990967,
   2.2854390144348145,
   2.1521663665771484,
   2.0437545776367188,
   1.9549049139022827,
   1.8825352191925049,
   1.8181148767471313,
   1.7573540210723877,
   1.7072902917861938,
   1.663887619972229,
   1.6215499639511108,
   1.3715481758117676,
   1.2723127603530884,
   1.2043063640594482,
   1.1439452171325684,
   1.1181180477142334,
   1.0995231866836548,
   1.0772457122802734,
   1.0578365325927734,
   1.0444567203521729,
   0.99604320526123047,
   0.9966883659362793,
   0.99656409025192261,
   1.0143544673919678,
   1.0173237323760986,
   1.0013864040374756,
   1.0127303600311279,
   0.98862564563751221,
   0.99812185764312744,
   0.99847543239593506,
   1.0017073154449463,
   1.0125198364257812,
   1.0032631158828735,
   1.0089435577392578,
   0.99174225330352783,
   0.99792337417602539,
   1.0055772066116333,
   1.0122306346893311
]
