[
   1.4069827795028687,
   1.4064520597457886,
   1.4071266651153564,
   1.4075219631195068,
   1.4063255786895752,
   1.4076428413391113,
   1.4073489904403687,
   1.4066559076309204,
   1.4066708087921143,
   1.4068711996078491,
   1.406904935836792,
   1.4061768054962158,
   1.4060368537902832,
   1.4052138328552246,
   1.4051272869110107,
   1.4049018621444702,
   1.4048656225204468,
   1.4039770364761353,
   1.404200553894043,
   1.4011111259460449,
   1.3985711336135864,
   1.3962600231170654,
   1.3933045864105225,
   1.3914519548416138,
   1.387939453125,
   1.3866305351257324,
   1.384274959564209,
   1.3809683322906494,
   1.3613795042037964,
   1.3453741073608398,
   1.3311278820037842,
   1.3179543018341064,
   1.3054627180099487,
   1.2950184345245361,
   1.2840001583099365,
   1.275324821472168,
   1.2670351266860962,
   1.1996593475341797,
   1.1558269262313843,
   1.1244596242904663,
   1.1034866571426392,
   1.0884953737258911,
   1.0747992992401123,
   1.0636460781097412,
   1.0563571453094482,
   1.0534493923187256,
   1.0207993984222412,
   1.0096753835678101,
   1.0028530359268188,
   1.005455493927002,
   0.99627268314361572,
   0.99043810367584229,
   1.0011364221572876,
   0.99895870685577393,
   0.99970591068267822,
   0.99537438154220581,
   0.99278819561004639,
   1.004213809967041,
   0.98278266191482544,
   1.0028507709503174,
   0.98029506206512451,
   0.98361015319824219,
   1.0205600261688232,
   1.0391043424606323
]
