[
   1.373155951499939,
   1.372685432434082,
   1.3734892606735229,
   1.3738353252410889,
   1.3729152679443359,
   1.3741971254348755,
   1.3737634420394897,
   1.3731383085250854,
   1.3732814788818359,
   1.3734629154205322,
   1.3734846115112305,
   1.3726704120635986,
   1.3724116086959839,
   1.3720124959945679,
   1.3716795444488525,
   1.3715126514434814,
   1.3714978694915771,
   1.3708698749542236,
   1.3707648515701294,
   1.3682903051376343,
   1.3660578727722168,
   1.3637573719024658,
   1.3613208532333374,
   1.3596887588500977,
   1.356398344039917,
   1.3554275035858154,
   1.3533401489257812,
   1.3504718542098999,
   1.3330191373825073,
   1.3186018466949463,
   1.3058662414550781,
   1.2941567897796631,
   1.2829039096832275,
   1.2735257148742676,
   1.2637960910797119,
   1.2557982206344604,
   1.2481095790863037,
   1.1868479251861572,
   1.1463887691497803,
   1.1172972917556763,
   1.1008752584457397,
   1.0866895914077759,
   1.073331356048584,
   1.0628087520599365,
   1.0555356740951538,
   1.0527974367141724,
   1.0207332372665405,
   1.0092207193374634,
   1.0023127794265747,
   1.0054383277893066,
   0.99726831912994385,
   0.99067723751068115,
   1.0007315874099731,
   0.99952173233032227,
   1.0003206729888916,
   0.99627101421356201,
   0.99455451965332031,
   1.0036551952362061,
   0.9832148551940918,
   1.0031354427337646,
   0.98173379898071289,
   0.98395615816116333,
   1.0186642408370972,
   1.0378297567367554
]
