[
   11.582620620727539,
   11.639074325561523,
   11.528903007507324,
   11.573592185974121,
   11.563745498657227,
   11.539216995239258,
   11.568300247192383,
   11.56850528717041,
   11.53551197052002,
   11.491922378540039,
   11.434877395629883,
   11.374005317687988,
   11.281700134277344,
   11.140732765197754,
   11.069256782531738,
   11.053744316101074,
   10.938760757446289,
   10.86306095123291,
   10.808201789855957,
   10.185791969299316,
   9.5940570831298828,
   9.1113319396972656,
   8.7146053314208984,
   8.3321037292480469,
   7.9798746109008789,
   7.6550302505493164,
   7.4465842247009277,
   7.0821638107299805,
   5.2426004409790039,
   4.2482728958129883,
   3.5867888927459717,
   3.1713604927062988,
   2.9006245136260986,
   2.6604580879211426,
   2.4510607719421387,
   2.3048012256622314,
   2.181377649307251,
   1.6396872997283936,
   1.3547465801239014,
   1.2344347238540649,
   1.1743887662887573,
   1.1564939022064209,
   1.1416995525360107,
   1.1266361474990845,
   1.1056150197982788,
   1.0394519567489624,
   1.0577318668365479,
   1.0232776403427124,
   0.95479202270507812,
   0.98997128009796143,
   1.0306179523468018,
   0.96297723054885864,
   1.0039756298065186,
   0.9946216344833374,
   0.98436987400054932,
   1.0282876491546631,
   1.0251591205596924,
   0.95342713594436646,
   0.95941162109375,
   1.0252182483673096,
   0.98165655136108398,
   0.97866690158843994,
   0.80939990282058716,
   0.76568603515625
]
