[
   3.9878921508789062,
   3.9864315986633301,
   3.9814193248748779,
   3.984130859375,
   3.9850304126739502,
   3.993431568145752,
   3.9736225605010986,
   3.9868640899658203,
   3.9953162670135498,
   3.9794254302978516,
   3.9771041870117188,
   3.9643974304199219,
   3.9520792961120605,
   3.9466590881347656,
   3.9386711120605469,
   3.9288501739501953,
   3.9195067882537842,
   3.9115169048309326,
   3.9050345420837402,
   3.8235771656036377,
   3.7540938854217529,
   3.6866829395294189,
   3.6240622997283936,
   3.572098970413208,
   3.5269083976745605,
   3.4664585590362549,
   3.4127497673034668,
   3.3753211498260498,
   2.9801478385925293,
   2.7147173881530762,
   2.4982900619506836,
   2.3371930122375488,
   2.201826810836792,
   2.0870804786682129,
   1.9923721551895142,
   1.9196386337280273,
   1.8434998989105225,
   1.4796820878982544,
   1.3346065282821655,
   1.2507188320159912,
   1.2070895433425903,
   1.144439697265625,
   1.1278663873672485,
   1.0948963165283203,
   1.0658913850784302,
   1.0733870267868042,
   0.98170983791351318,
   1.005690336227417,
   0.96968156099319458,
   0.9860224723815918,
   1.0170071125030518,
   0.98893296718597412,
   0.99909102916717529,
   0.99508273601531982,
   0.99513357877731323,
   1.0020788908004761,
   1.0397582054138184,
   0.98769837617874146,
   0.98734200000762939,
   0.9572378396987915,
   0.96949559450149536,
   0.88817703723907471,
   0.95738399028778076,
   0.93824923038482666
]
