[
   1.6015405654907227,
   1.6020606756210327,
   1.6016403436660767,
   1.6017191410064697,
   1.6025348901748657,
   1.6018612384796143,
   1.600699782371521,
   1.6015670299530029,
   1.6023247241973877,
   1.6010420322418213,
   1.6002886295318604,
   1.5996615886688232,
   1.599727988243103,
   1.5993239879608154,
   1.5979677438735962,
   1.5977790355682373,
   1.5981395244598389,
   1.5953313112258911,
   1.5959532260894775,
   1.5904699563980103,
   1.5838949680328369,
   1.5790283679962158,
   1.5733194351196289,
   1.5681004524230957,
   1.5646102428436279,
   1.5609652996063232,
   1.5550156831741333,
   1.5516947507858276,
   1.5165994167327881,
   1.4853861331939697,
   1.4589060544967651,
   1.4355907440185547,
   1.4145268201828003,
   1.3960268497467041,
   1.3774555921554565,
   1.3602010011672974,
   1.3452522754669189,
   1.2400293350219727,
   1.1823066473007202,
   1.1458690166473389,
   1.1171233654022217,
   1.1021673679351807,
   1.0878045558929443,
   1.0744194984436035,
   1.0632143020629883,
   1.0563334226608276,
   1.0061805248260498,
   1.004088282585144,
   1.0101327896118164,
   1.0137200355529785,
   1.0086737871170044,
   1.0027010440826416,
   0.99815273284912109,
   0.99708288908004761,
   1.0035935640335083,
   0.98930871486663818,
   0.99604380130767822,
   0.98327493667602539,
   0.99283349514007568,
   0.99742287397384644,
   1.0047271251678467,
   1.0059587955474854,
   1.0265960693359375,
   1.0388343334197998
]
