[
   2.0290217399597168,
   2.0280473232269287,
   2.0274078845977783,
   2.0259928703308105,
   2.026594877243042,
   2.03017258644104,
   2.0284783840179443,
   2.0269343852996826,
   2.028439998626709,
   2.0271260738372803,
   2.0232834815979004,
   2.0252234935760498,
   2.0254004001617432,
   2.0246777534484863,
   2.0228955745697021,
   2.0212852954864502,
   2.0231082439422607,
   2.022456169128418,
   2.0184588432312012,
   2.0123357772827148,
   2.007819652557373,
   2.0026235580444336,
   1.9934250116348267,
   1.9899581670761108,
   1.9811605215072632,
   1.9772878885269165,
   1.9732601642608643,
   1.9664413928985596,
   1.9186484813690186,
   1.8744280338287354,
   1.8326456546783447,
   1.7933552265167236,
   1.7597507238388062,
   1.729325532913208,
   1.7044044733047485,
   1.6758905649185181,
   1.6527553796768188,
   1.4788221120834351,
   1.3702958822250366,
   1.2930495738983154,
   1.2426235675811768,
   1.2050256729125977,
   1.1778872013092041,
   1.1562807559967041,
   1.1339564323425293,
   1.1248562335968018,
   1.0392105579376221,
   1.0132343769073486,
   1.0062873363494873,
   1.0069094896316528,
   0.99070531129837036,
   0.96968615055084229,
   0.99241113662719727,
   0.98328733444213867,
   0.99328172206878662,
   0.9596785306930542,
   1.0274044275283813,
   1.0101829767227173,
   0.99098503589630127,
   1.0392181873321533,
   0.94978487491607666,
   0.94193428754806519,
   1.0156171321868896,
   1.0816023349761963
]
