[
   1.4251821041107178,
   1.4251577854156494,
   1.4252426624298096,
   1.4249768257141113,
   1.425396203994751,
   1.4252638816833496,
   1.4261243343353271,
   1.4252481460571289,
   1.4249486923217773,
   1.4248650074005127,
   1.4251587390899658,
   1.4245671033859253,
   1.4252167940139771,
   1.424956202507019,
   1.4252274036407471,
   1.4246467351913452,
   1.4243234395980835,
   1.4244934320449829,
   1.4241766929626465,
   1.4228470325469971,
   1.4217243194580078,
   1.4193636178970337,
   1.4192076921463013,
   1.4183176755905151,
   1.4160501956939697,
   1.4157513380050659,
   1.4140456914901733,
   1.4128330945968628,
   1.4034296274185181,
   1.3942797183990479,
   1.3860375881195068,
   1.3773106336593628,
   1.3703469038009644,
   1.3631093502044678,
   1.3563451766967773,
   1.3488540649414062,
   1.3422931432723999,
   1.2880799770355225,
   1.2478902339935303,
   1.2168200016021729,
   1.1969578266143799,
   1.1763575077056885,
   1.1589826345443726,
   1.1444149017333984,
   1.1311548948287964,
   1.1218109130859375,
   1.0582840442657471,
   1.0343657732009888,
   1.0242723226547241,
   1.0041584968566895,
   0.99532794952392578,
   0.99076622724533081,
   0.98853123188018799,
   0.99066191911697388,
   0.98595821857452393,
   0.98711091279983521,
   0.98266887664794922,
   1.0110957622528076,
   1.0196661949157715,
   0.95185625553131104,
   0.97885596752166748,
   0.97098237276077271,
   1.0076214075088501,
   1.0461177825927734
]
