[
   8.3820953369140625,
   8.3576316833496094,
   8.402125358581543,
   8.4040584564208984,
   8.3786907196044922,
   8.4015836715698242,
   8.3450183868408203,
   8.3810958862304688,
   8.3656711578369141,
   8.3385524749755859,
   8.329249382019043,
   8.3350610733032227,
   8.2766828536987305,
   8.24517822265625,
   8.2384614944458008,
   8.1597805023193359,
   8.1770725250244141,
   8.1300029754638672,
   8.1407375335693359,
   7.8841195106506348,
   7.6508088111877441,
   7.4603281021118164,
   7.2231836318969727,
   7.0816068649291992,
   6.8850007057189941,
   6.7060060501098633,
   6.5556235313415527,
   6.4303717613220215,
   5.276209831237793,
   4.546290397644043,
   4.0116662979125977,
   3.6148858070373535,
   3.2994663715362549,
   3.0361263751983643,
   2.8145456314086914,
   2.6515295505523682,
   2.5283079147338867,
   1.8198293447494507,
   1.5124008655548096,
   1.3841267824172974,
   1.3294252157211304,
   1.2891103029251099,
   1.2512586116790771,
   1.1632072925567627,
   1.1757614612579346,
   1.1438521146774292,
   1.0201351642608643,
   1.0532792806625366,
   1.0013644695281982,
   1.0227388143539429,
   1.000009298324585,
   0.94670867919921875,
   0.9656330943107605,
   0.97019970417022705,
   0.91158390045166016,
   0.95265835523605347,
   0.89742386341094971,
   1.0093157291412354,
   1.0283119678497314,
   1.0847432613372803,
   1.1958459615707397,
   0.90496110916137695,
   1.0140016078948975,
   0.83075886964797974
]
