[
   5.2416930198669434,
   5.2287311553955078,
   5.239140510559082,
   5.2450308799743652,
   5.2573790550231934,
   5.2404813766479492,
   5.232541561126709,
   5.2173285484313965,
   5.2424325942993164,
   5.2271132469177246,
   5.2287712097167969,
   5.2150893211364746,
   5.1963939666748047,
   5.1923508644104004,
   5.1802730560302734,
   5.1765761375427246,
   5.1805658340454102,
   5.1610403060913086,
   5.1393346786499023,
   5.0665349960327148,
   4.9894909858703613,
   4.9206409454345703,
   4.8337345123291016,
   4.7814164161682129,
   4.6953039169311523,
   4.6422581672668457,
   4.5770721435546875,
   4.4987425804138184,
   4.0068936347961426,
   3.6346149444580078,
   3.3533165454864502,
   3.1121923923492432,
   2.9054756164550781,
   2.7273716926574707,
   2.595841646194458,
   2.477095365524292,
   2.3803601264953613,
   1.8031677007675171,
   1.5429584980010986,
   1.4489439725875854,
   1.3968021869659424,
   1.2957280874252319,
   1.265264630317688,
   1.2275441884994507,
   1.1971596479415894,
   1.1559646129608154,
   1.107534646987915,
   1.0771002769470215,
   1.0311381816864014,
   1.0031391382217407,
   1.0203123092651367,
   0.95965087413787842,
   0.97675597667694092,
   0.97981196641921997,
   0.99987918138504028,
   0.95528650283813477,
   0.98106420040130615,
   1.0039252042770386,
   0.91519546508789062,
   1.0019094944000244,
   1.027472972869873,
   1.0001835823059082,
   1.1131268739700317,
   0.99627226591110229
]
