[
   1.8606586456298828,
   1.8606278896331787,
   1.8605417013168335,
   1.8602094650268555,
   1.8600394725799561,
   1.8598830699920654,
   1.8592367172241211,
   1.8598482608795166,
   1.8606952428817749,
   1.8596315383911133,
   1.8574451208114624,
   1.8585898876190186,
   1.8599109649658203,
   1.8585035800933838,
   1.8567063808441162,
   1.8558797836303711,
   1.856104850769043,
   1.8554741144180298,
   1.8548218011856079,
   1.8498728275299072,
   1.8462915420532227,
   1.842171311378479,
   1.8373466730117798,
   1.8326365947723389,
   1.8286235332489014,
   1.8241132497787476,
   1.8210716247558594,
   1.8180420398712158,
   1.7836202383041382,
   1.7526979446411133,
   1.7258169651031494,
   1.6969352960586548,
   1.6720073223114014,
   1.6491861343383789,
   1.6268631219863892,
   1.6073167324066162,
   1.5884064435958862,
   1.4453928470611572,
   1.3539119958877563,
   1.2905442714691162,
   1.2440407276153564,
   1.2083426713943481,
   1.1799691915512085,
   1.1557681560516357,
   1.1357319355010986,
   1.1203861236572266,
   1.0530102252960205,
   1.0213186740875244,
   1.0081479549407959,
   0.99882042407989502,
   0.99131298065185547,
   1.0143747329711914,
   1.0154547691345215,
   0.96845787763595581,
   0.97548139095306396,
   0.99554520845413208,
   0.98136693239212036,
   1.0001920461654663,
   0.9974435567855835,
   0.98098242282867432,
   0.99516773223876953,
   0.98825180530548096,
   0.98340022563934326,
   1.0727741718292236
]
