[
   1.3239864110946655,
   1.3241608142852783,
   1.3238892555236816,
   1.3243491649627686,
   1.323810338973999,
   1.3244913816452026,
   1.3237349987030029,
   1.3238979578018188,
   1.3245710134506226,
   1.3241536617279053,
   1.3241095542907715,
   1.3236415386199951,
   1.3234460353851318,
   1.3240203857421875,
   1.3230794668197632,
   1.3235964775085449,
   1.322948694229126,
   1.3229553699493408,
   1.3228082656860352,
   1.3221991062164307,
   1.3212755918502808,
   1.3202962875366211,
   1.3194704055786133,
   1.3188797235488892,
   1.3176925182342529,
   1.3174654245376587,
   1.316480278968811,
   1.3158674240112305,
   1.3093200922012329,
   1.3025786876678467,
   1.2960731983184814,
   1.2907545566558838,
   1.285153865814209,
   1.2800356149673462,
   1.275335431098938,
   1.2703551054000854,
   1.2649749517440796,
   1.2275813817977905,
   1.1967768669128418,
   1.171970009803772,
   1.1629884243011475,
   1.1470777988433838,
   1.1346526145935059,
   1.1241958141326904,
   1.1136361360549927,
   1.1070975065231323,
   1.0619481801986694,
   1.032818078994751,
   1.0291249752044678,
   1.0270944833755493,
   1.0187467336654663,
   1.0119345188140869,
   1.0100324153900146,
   1.0061616897583008,
   1.0029429197311401,
   0.9935222864151001,
   1.0127809047698975,
   1.011347770690918,
   1.0079288482666016,
   0.97145539522171021,
   0.97176468372344971,
   0.94780123233795166,
   0.98642748594284058,
   0.89478224515914917
]
