[
   1.5050177574157715,
   1.5053526163101196,
   1.5049365758895874,
   1.5047008991241455,
   1.5037379264831543,
   1.5050941705703735,
   1.5055694580078125,
   1.5052961111068726,
   1.5046206712722778,
   1.5049389600753784,
   1.5043947696685791,
   1.5032938718795776,
   1.5043519735336304,
   1.5040013790130615,
   1.5039902925491333,
   1.5028541088104248,
   1.5040215253829956,
   1.5030364990234375,
   1.5029542446136475,
   1.5009448528289795,
   1.4992434978485107,
   1.4967025518417358,
   1.4950258731842041,
   1.4942140579223633,
   1.4919695854187012,
   1.4900791645050049,
   1.4882822036743164,
   1.4870309829711914,
   1.4735115766525269,
   1.460395336151123,
   1.4478156566619873,
   1.4358501434326172,
   1.425357460975647,
   1.4142005443572998,
   1.4044549465179443,
   1.3954366445541382,
   1.3851848840713501,
   1.3126480579376221,
   1.2623062133789062,
   1.2230923175811768,
   1.1981923580169678,
   1.1746352910995483,
   1.1564304828643799,
   1.1422055959701538,
   1.1289275884628296,
   1.1196538209915161,
   1.0480227470397949,
   1.0240280628204346,
   1.014801025390625,
   1.0123012065887451,
   0.99888354539871216,
   1.0011622905731201,
   0.9997488260269165,
   0.9880186915397644,
   0.98131781816482544,
   0.98207581043243408,
   0.99924075603485107,
   0.97756463289260864,
   0.96218568086624146,
   1.023284912109375,
   0.97982442378997803,
   0.99386626482009888,
   1.0306721925735474,
   1.1298673152923584
]
