wxy = 0.071 starts replicate 0
wxy = 0.132 starts replicate 0
wxy = 0.173 starts replicate 0
wxy = 0.241 starts replicate 0
wxy = 0.295 starts replicate 0
wxy = 0.34 starts replicate 0
wxy = 0.379 starts replicate 0
wxy = 0.415 starts replicate 0
wxy = 0.448 starts replicate 0
wxy = 0.479 starts replicate 0
wxy = 0.508 starts replicate 0
wxy = 0.535 starts replicate 0
wxy = 0.561 starts replicate 0
wxy = 0.586 starts replicate 0
wxy = 0.61 starts replicate 0
wxy = 0.632 starts replicate 0
wxy = 0.071 finished replicate 0 total counts 29928
wxy = 0.071 starts replicate 1
wxy = 0.241 finished replicate 0 total counts 384473
wxy = 0.241 starts replicate 1
wxy = 0.132 finished replicate 0 total counts 123197
wxy = 0.132 starts replicate 1
wxy = 0.295 finished replicate 0 total counts 527575
wxy = 0.295 starts replicate 1
wxy = 0.173 finished replicate 0 total counts 170563
wxy = 0.173 starts replicate 1
wxy = 0.34 finished replicate 0 total counts 605287
wxy = 0.34 starts replicate 1
wxy = 0.379 finished replicate 0 total counts 1.01811e+06
wxy = 0.379 starts replicate 1
wxy = 0.415 finished replicate 0 total counts 1.22176e+06
wxy = 0.415 starts replicate 1
wxy = 0.448 finished replicate 0 total counts 1.42537e+06
wxy = 0.448 starts replicate 1
wxy = 0.479 finished replicate 0 total counts 1.80116e+06
wxy = 0.479 starts replicate 1
wxy = 0.508 finished replicate 0 total counts 1.73576e+06
wxy = 0.508 starts replicate 1
wxy = 0.535 finished replicate 0 total counts 1.65709e+06
wxy = 0.535 starts replicate 1
wxy = 0.561 finished replicate 0 total counts 2.29249e+06
wxy = 0.561 starts replicate 1
wxy = 0.586 finished replicate 0 total counts 2.36606e+06
wxy = 0.586 starts replicate 1
wxy = 0.61 finished replicate 0 total counts 2.27674e+06
wxy = 0.61 starts replicate 1
wxy = 0.632 finished replicate 0 total counts 2.67649e+06
wxy = 0.632 starts replicate 1
wxy = 0.071 finished replicate 1 total counts 25446
wxy = 0.071 starts replicate 2
wxy = 0.241 finished replicate 1 total counts 336175
wxy = 0.241 starts replicate 2
wxy = 0.295 finished replicate 1 total counts 512060
wxy = 0.295 starts replicate 2
wxy = 0.34 finished replicate 1 total counts 780711
wxy = 0.34 starts replicate 2
wxy = 0.379 finished replicate 1 total counts 1.09526e+06
wxy = 0.379 starts replicate 2
wxy = 0.173 finished replicate 1 total counts 221744
wxy = 0.173 starts replicate 2
wxy = 0.132 finished replicate 1 total counts 84113
wxy = 0.132 starts replicate 2
wxy = 0.415 finished replicate 1 total counts 1.07356e+06
wxy = 0.415 starts replicate 2
wxy = 0.448 finished replicate 1 total counts 1.2827e+06
wxy = 0.448 starts replicate 2
wxy = 0.479 finished replicate 1 total counts 1.60993e+06
wxy = 0.479 starts replicate 2
wxy = 0.508 finished replicate 1 total counts 1.70398e+06
wxy = 0.508 starts replicate 2
wxy = 0.535 finished replicate 1 total counts 2.01299e+06
wxy = 0.535 starts replicate 2
wxy = 0.561 finished replicate 1 total counts 2.30859e+06
wxy = 0.561 starts replicate 2
wxy = 0.586 finished replicate 1 total counts 2.12413e+06
wxy = 0.586 starts replicate 2
wxy = 0.61 finished replicate 1 total counts 2.0629e+06
wxy = 0.61 starts replicate 2
wxy = 0.632 finished replicate 1 total counts 2.59025e+06
wxy = 0.632 starts replicate 2
wxy = 0.071 finished replicate 2 total counts 27630
wxy = 0.071 starts replicate 3
wxy = 0.241 finished replicate 2 total counts 375323
wxy = 0.241 starts replicate 3
wxy = 0.295 finished replicate 2 total counts 584135
wxy = 0.295 starts replicate 3
wxy = 0.34 finished replicate 2 total counts 685018
wxy = 0.34 starts replicate 3
wxy = 0.379 finished replicate 2 total counts 832491
wxy = 0.379 starts replicate 3
wxy = 0.448 finished replicate 2 total counts 1.18259e+06
wxy = 0.448 starts replicate 3
wxy = 0.479 finished replicate 2 total counts 1.35927e+06
wxy = 0.479 starts replicate 3
wxy = 0.415 finished replicate 2 total counts 1.24529e+06
wxy = 0.415 starts replicate 3
wxy = 0.508 finished replicate 2 total counts 1.72525e+06
wxy = 0.508 starts replicate 3
wxy = 0.535 finished replicate 2 total counts 1.81019e+06
wxy = 0.535 starts replicate 3
wxy = 0.173 finished replicate 2 total counts 212091
wxy = 0.173 starts replicate 3
wxy = 0.561 finished replicate 2 total counts 2.1933e+06
wxy = 0.561 starts replicate 3
wxy = 0.61 finished replicate 2 total counts 2.31938e+06
wxy = 0.61 starts replicate 3
wxy = 0.586 finished replicate 2 total counts 2.62188e+06
wxy = 0.586 starts replicate 3
wxy = 0.632 finished replicate 2 total counts 2.42389e+06
wxy = 0.632 starts replicate 3
wxy = 0.132 finished replicate 2 total counts 114934
wxy = 0.132 starts replicate 3
wxy = 0.071 finished replicate 3 total counts 34018
wxy = 0.071 starts replicate 4
wxy = 0.241 finished replicate 3 total counts 365688
wxy = 0.241 starts replicate 4
wxy = 0.295 finished replicate 3 total counts 573200
wxy = 0.295 starts replicate 4
wxy = 0.34 finished replicate 3 total counts 768340
wxy = 0.34 starts replicate 4
wxy = 0.379 finished replicate 3 total counts 871815
wxy = 0.379 starts replicate 4
wxy = 0.479 finished replicate 3 total counts 1.39317e+06
wxy = 0.479 starts replicate 4
wxy = 0.448 finished replicate 3 total counts 1.50258e+06
wxy = 0.448 starts replicate 4
wxy = 0.508 finished replicate 3 total counts 1.86405e+06
wxy = 0.508 starts replicate 4
wxy = 0.535 finished replicate 3 total counts 2.04878e+06
wxy = 0.535 starts replicate 4
wxy = 0.561 finished replicate 3 total counts 2.10732e+06
wxy = 0.561 starts replicate 4
wxy = 0.61 finished replicate 3 total counts 2.29523e+06
wxy = 0.61 starts replicate 4
wxy = 0.415 finished replicate 3 total counts 954997
wxy = 0.415 starts replicate 4
wxy = 0.586 finished replicate 3 total counts 2.4274e+06
wxy = 0.586 starts replicate 4
wxy = 0.632 finished replicate 3 total counts 2.5705e+06
wxy = 0.632 starts replicate 4
wxy = 0.173 finished replicate 3 total counts 172326
wxy = 0.173 starts replicate 4
wxy = 0.132 finished replicate 3 total counts 118541
wxy = 0.132 starts replicate 4
wxy = 0.071 finished replicate 4 total counts 25943
wxy = 0.071 starts replicate 5
wxy = 0.241 finished replicate 4 total counts 308827
wxy = 0.241 starts replicate 5
wxy = 0.295 finished replicate 4 total counts 451574
wxy = 0.295 starts replicate 5
wxy = 0.34 finished replicate 4 total counts 877631
wxy = 0.34 starts replicate 5
wxy = 0.379 finished replicate 4 total counts 1.01012e+06
wxy = 0.379 starts replicate 5
wxy = 0.479 finished replicate 4 total counts 1.53431e+06
wxy = 0.479 starts replicate 5
wxy = 0.448 finished replicate 4 total counts 1.36954e+06
wxy = 0.448 starts replicate 5
wxy = 0.508 finished replicate 4 total counts 1.49442e+06
wxy = 0.508 starts replicate 5
wxy = 0.561 finished replicate 4 total counts 2.40521e+06
wxy = 0.561 starts replicate 5
wxy = 0.535 finished replicate 4 total counts 1.80804e+06
wxy = 0.535 starts replicate 5
wxy = 0.61 finished replicate 4 total counts 2.60015e+06
wxy = 0.61 starts replicate 5
wxy = 0.586 finished replicate 4 total counts 1.92769e+06
wxy = 0.586 starts replicate 5
wxy = 0.632 finished replicate 4 total counts 2.85587e+06
wxy = 0.632 starts replicate 5
wxy = 0.415 finished replicate 4 total counts 1.12436e+06
wxy = 0.415 starts replicate 5
wxy = 0.173 finished replicate 4 total counts 152964
wxy = 0.173 starts replicate 5
wxy = 0.132 finished replicate 4 total counts 130216
wxy = 0.132 starts replicate 5
wxy = 0.071 finished replicate 5 total counts 35407
wxy = 0.071 starts replicate 6
wxy = 0.241 finished replicate 5 total counts 401048
wxy = 0.241 starts replicate 6
wxy = 0.295 finished replicate 5 total counts 586467
wxy = 0.295 starts replicate 6
wxy = 0.34 finished replicate 5 total counts 845039
wxy = 0.34 starts replicate 6
wxy = 0.479 finished replicate 5 total counts 1.57215e+06
wxy = 0.479 starts replicate 6
wxy = 0.448 finished replicate 5 total counts 1.58295e+06
wxy = 0.448 starts replicate 6
wxy = 0.508 finished replicate 5 total counts 1.80251e+06
wxy = 0.508 starts replicate 6
wxy = 0.61 finished replicate 5 total counts 2.49488e+06
wxy = 0.61 starts replicate 6
wxy = 0.561 finished replicate 5 total counts 2.05291e+06
wxy = 0.561 starts replicate 6
wxy = 0.379 finished replicate 5 total counts 852480
wxy = 0.379 starts replicate 6
wxy = 0.535 finished replicate 5 total counts 1.74026e+06
wxy = 0.535 starts replicate 6
wxy = 0.586 finished replicate 5 total counts 2.34809e+06
wxy = 0.586 starts replicate 6
wxy = 0.632 finished replicate 5 total counts 3.01083e+06
wxy = 0.632 starts replicate 6
wxy = 0.415 finished replicate 5 total counts 1.1121e+06
wxy = 0.415 starts replicate 6
wxy = 0.173 finished replicate 5 total counts 236342
wxy = 0.173 starts replicate 6
wxy = 0.132 finished replicate 5 total counts 128351
wxy = 0.132 starts replicate 6
wxy = 0.071 finished replicate 6 total counts 30308
wxy = 0.071 starts replicate 7
wxy = 0.241 finished replicate 6 total counts 329696
wxy = 0.241 starts replicate 7
wxy = 0.295 finished replicate 6 total counts 604392
wxy = 0.295 starts replicate 7
wxy = 0.479 finished replicate 6 total counts 1.60073e+06
wxy = 0.479 starts replicate 7
wxy = 0.61 finished replicate 6 total counts 2.78678e+06
wxy = 0.61 starts replicate 7
wxy = 0.508 finished replicate 6 total counts 1.86866e+06
wxy = 0.508 starts replicate 7
wxy = 0.34 finished replicate 6 total counts 811436
wxy = 0.34 starts replicate 7
wxy = 0.561 finished replicate 6 total counts 2.26014e+06
wxy = 0.561 starts replicate 7
wxy = 0.448 finished replicate 6 total counts 1.67583e+06
wxy = 0.448 starts replicate 7
wxy = 0.586 finished replicate 6 total counts 2.29591e+06
wxy = 0.586 starts replicate 7
wxy = 0.632 finished replicate 6 total counts 3.17849e+06
wxy = 0.632 starts replicate 7
wxy = 0.535 finished replicate 6 total counts 2.12796e+06
wxy = 0.535 starts replicate 7
wxy = 0.379 finished replicate 6 total counts 1.05581e+06
wxy = 0.379 starts replicate 7
wxy = 0.415 finished replicate 6 total counts 1.15497e+06
wxy = 0.415 starts replicate 7
wxy = 0.173 finished replicate 6 total counts 174211
wxy = 0.173 starts replicate 7
wxy = 0.132 finished replicate 6 total counts 117044
wxy = 0.132 starts replicate 7
wxy = 0.071 finished replicate 7 total counts 33233
wxy = 0.071 starts replicate 8
wxy = 0.241 finished replicate 7 total counts 378990
wxy = 0.241 starts replicate 8
wxy = 0.295 finished replicate 7 total counts 611314
wxy = 0.295 starts replicate 8
wxy = 0.61 finished replicate 7 total counts 2.4649e+06
wxy = 0.61 starts replicate 8
wxy = 0.479 finished replicate 7 total counts 1.68104e+06
wxy = 0.479 starts replicate 8
wxy = 0.561 finished replicate 7 total counts 1.95837e+06
wxy = 0.561 starts replicate 8
wxy = 0.508 finished replicate 7 total counts 1.60978e+06
wxy = 0.508 starts replicate 8
wxy = 0.632 finished replicate 7 total counts 2.75446e+06
wxy = 0.632 starts replicate 8
wxy = 0.448 finished replicate 7 total counts 1.42976e+06
wxy = 0.448 starts replicate 8
wxy = 0.586 finished replicate 7 total counts 2.48713e+06
wxy = 0.586 starts replicate 8
wxy = 0.535 finished replicate 7 total counts 1.98476e+06
wxy = 0.535 starts replicate 8
wxy = 0.34 finished replicate 7 total counts 762862
wxy = 0.34 starts replicate 8
wxy = 0.379 finished replicate 7 total counts 1.04627e+06
wxy = 0.379 starts replicate 8
wxy = 0.415 finished replicate 7 total counts 1.3515e+06
wxy = 0.415 starts replicate 8
wxy = 0.173 finished replicate 7 total counts 186802
wxy = 0.173 starts replicate 8
wxy = 0.132 finished replicate 7 total counts 123958
wxy = 0.132 starts replicate 8
wxy = 0.071 finished replicate 8 total counts 40712
wxy = 0.071 starts replicate 9
wxy = 0.241 finished replicate 8 total counts 366254
wxy = 0.241 starts replicate 9
wxy = 0.295 finished replicate 8 total counts 568903
wxy = 0.295 starts replicate 9
wxy = 0.61 finished replicate 8 total counts 2.40256e+06
wxy = 0.61 starts replicate 9
wxy = 0.479 finished replicate 8 total counts 1.50698e+06
wxy = 0.479 starts replicate 9
wxy = 0.561 finished replicate 8 total counts 2.3605e+06
wxy = 0.561 starts replicate 9
wxy = 0.632 finished replicate 8 total counts 2.56651e+06
wxy = 0.632 starts replicate 9
wxy = 0.508 finished replicate 8 total counts 1.54339e+06
wxy = 0.508 starts replicate 9
wxy = 0.586 finished replicate 8 total counts 2.80326e+06
wxy = 0.586 starts replicate 9
wxy = 0.448 finished replicate 8 total counts 1.24739e+06
wxy = 0.448 starts replicate 9
wxy = 0.535 finished replicate 8 total counts 1.95318e+06
wxy = 0.535 starts replicate 9
wxy = 0.34 finished replicate 8 total counts 669288
wxy = 0.34 starts replicate 9
wxy = 0.379 finished replicate 8 total counts 763224
wxy = 0.379 starts replicate 9
wxy = 0.415 finished replicate 8 total counts 1.13666e+06
wxy = 0.415 starts replicate 9
wxy = 0.173 finished replicate 8 total counts 143308
wxy = 0.173 starts replicate 9
wxy = 0.132 finished replicate 8 total counts 116075
wxy = 0.132 starts replicate 9
wxy = 0.071 finished replicate 9 total counts 34053
wxy = 0.071 starts replicate 10
wxy = 0.241 finished replicate 9 total counts 514855
wxy = 0.241 starts replicate 10
wxy = 0.295 finished replicate 9 total counts 513553
wxy = 0.295 starts replicate 10
wxy = 0.61 finished replicate 9 total counts 2.63292e+06
wxy = 0.61 starts replicate 10
wxy = 0.632 finished replicate 9 total counts 2.78939e+06
wxy = 0.632 starts replicate 10
wxy = 0.561 finished replicate 9 total counts 1.98973e+06
wxy = 0.561 starts replicate 10
wxy = 0.479 finished replicate 9 total counts 1.6895e+06
wxy = 0.479 starts replicate 10
wxy = 0.508 finished replicate 9 total counts 1.54744e+06
wxy = 0.508 starts replicate 10
wxy = 0.586 finished replicate 9 total counts 2.59923e+06
wxy = 0.586 starts replicate 10
wxy = 0.535 finished replicate 9 total counts 1.93833e+06
wxy = 0.535 starts replicate 10
wxy = 0.448 finished replicate 9 total counts 1.45308e+06
wxy = 0.448 starts replicate 10
wxy = 0.34 finished replicate 9 total counts 822993
wxy = 0.34 starts replicate 10
wxy = 0.379 finished replicate 9 total counts 916651
wxy = 0.379 starts replicate 10
wxy = 0.415 finished replicate 9 total counts 1.21268e+06
wxy = 0.415 starts replicate 10
wxy = 0.173 finished replicate 9 total counts 203292
wxy = 0.173 starts replicate 10
wxy = 0.132 finished replicate 9 total counts 101348
wxy = 0.132 starts replicate 10
wxy = 0.071 finished replicate 10 total counts 31524
wxy = 0.071 starts replicate 11
wxy = 0.241 finished replicate 10 total counts 405377
wxy = 0.241 starts replicate 11
wxy = 0.295 finished replicate 10 total counts 508886
wxy = 0.295 starts replicate 11
wxy = 0.61 finished replicate 10 total counts 2.58686e+06
wxy = 0.61 starts replicate 11
wxy = 0.632 finished replicate 10 total counts 2.57447e+06
wxy = 0.632 starts replicate 11
wxy = 0.561 finished replicate 10 total counts 2.04151e+06
wxy = 0.561 starts replicate 11
wxy = 0.479 finished replicate 10 total counts 1.62211e+06
wxy = 0.479 starts replicate 11
wxy = 0.586 finished replicate 10 total counts 1.91301e+06
wxy = 0.586 starts replicate 11
wxy = 0.508 finished replicate 10 total counts 1.75174e+06
wxy = 0.508 starts replicate 11
wxy = 0.535 finished replicate 10 total counts 1.90628e+06
wxy = 0.535 starts replicate 11
wxy = 0.448 finished replicate 10 total counts 1.2496e+06
wxy = 0.448 starts replicate 11
wxy = 0.34 finished replicate 10 total counts 878805
wxy = 0.34 starts replicate 11
wxy = 0.379 finished replicate 10 total counts 922651
wxy = 0.379 starts replicate 11
wxy = 0.415 finished replicate 10 total counts 969659
wxy = 0.415 starts replicate 11
wxy = 0.173 finished replicate 10 total counts 162919
wxy = 0.173 starts replicate 11
wxy = 0.132 finished replicate 10 total counts 123058
wxy = 0.132 starts replicate 11
wxy = 0.071 finished replicate 11 total counts 44121
wxy = 0.071 starts replicate 12
wxy = 0.241 finished replicate 11 total counts 463924
wxy = 0.241 starts replicate 12
wxy = 0.61 finished replicate 11 total counts 2.54461e+06
wxy = 0.61 starts replicate 12
wxy = 0.295 finished replicate 11 total counts 527075
wxy = 0.295 starts replicate 12
wxy = 0.632 finished replicate 11 total counts 2.77893e+06
wxy = 0.632 starts replicate 12
wxy = 0.561 finished replicate 11 total counts 1.71375e+06
wxy = 0.561 starts replicate 12
wxy = 0.586 finished replicate 11 total counts 2.38921e+06
wxy = 0.586 starts replicate 12
wxy = 0.479 finished replicate 11 total counts 1.45083e+06
wxy = 0.479 starts replicate 12
wxy = 0.508 finished replicate 11 total counts 2.0204e+06
wxy = 0.508 starts replicate 12
wxy = 0.535 finished replicate 11 total counts 2.08806e+06
wxy = 0.535 starts replicate 12
wxy = 0.448 finished replicate 11 total counts 1.19717e+06
wxy = 0.448 starts replicate 12
wxy = 0.34 finished replicate 11 total counts 743492
wxy = 0.34 starts replicate 12
wxy = 0.379 finished replicate 11 total counts 942834
wxy = 0.379 starts replicate 12
wxy = 0.415 finished replicate 11 total counts 1.37273e+06
wxy = 0.415 starts replicate 12
wxy = 0.173 finished replicate 11 total counts 235303
wxy = 0.173 starts replicate 12
wxy = 0.132 finished replicate 11 total counts 100698
wxy = 0.132 starts replicate 12
wxy = 0.071 finished replicate 12 total counts 37852
wxy = 0.071 starts replicate 13
wxy = 0.241 finished replicate 12 total counts 441137
wxy = 0.241 starts replicate 13
wxy = 0.61 finished replicate 12 total counts 2.60584e+06
wxy = 0.61 starts replicate 13
wxy = 0.632 finished replicate 12 total counts 2.47135e+06
wxy = 0.632 starts replicate 13
wxy = 0.295 finished replicate 12 total counts 563725
wxy = 0.295 starts replicate 13
wxy = 0.561 finished replicate 12 total counts 2.22796e+06
wxy = 0.561 starts replicate 13
wxy = 0.586 finished replicate 12 total counts 2.56547e+06
wxy = 0.586 starts replicate 13
wxy = 0.479 finished replicate 12 total counts 1.57813e+06
wxy = 0.479 starts replicate 13
wxy = 0.508 finished replicate 12 total counts 1.9272e+06
wxy = 0.508 starts replicate 13
wxy = 0.535 finished replicate 12 total counts 2.14344e+06
wxy = 0.535 starts replicate 13
wxy = 0.448 finished replicate 12 total counts 1.41181e+06
wxy = 0.448 starts replicate 13
wxy = 0.34 finished replicate 12 total counts 815554
wxy = 0.34 starts replicate 13
wxy = 0.379 finished replicate 12 total counts 787080
wxy = 0.379 starts replicate 13
wxy = 0.415 finished replicate 12 total counts 1.10377e+06
wxy = 0.415 starts replicate 13
wxy = 0.173 finished replicate 12 total counts 220294
wxy = 0.173 starts replicate 13
wxy = 0.132 finished replicate 12 total counts 94414
wxy = 0.132 starts replicate 13
wxy = 0.071 finished replicate 13 total counts 39208
wxy = 0.071 starts replicate 14
wxy = 0.241 finished replicate 13 total counts 409827
wxy = 0.241 starts replicate 14
wxy = 0.61 finished replicate 13 total counts 2.89805e+06
wxy = 0.61 starts replicate 14
wxy = 0.632 finished replicate 13 total counts 3.16644e+06
wxy = 0.632 starts replicate 14
wxy = 0.295 finished replicate 13 total counts 588538
wxy = 0.295 starts replicate 14
wxy = 0.561 finished replicate 13 total counts 2.39781e+06
wxy = 0.561 starts replicate 14
wxy = 0.586 finished replicate 13 total counts 2.50287e+06
wxy = 0.586 starts replicate 14
wxy = 0.479 finished replicate 13 total counts 1.73958e+06
wxy = 0.479 starts replicate 14
wxy = 0.508 finished replicate 13 total counts 1.40178e+06
wxy = 0.508 starts replicate 14
wxy = 0.535 finished replicate 13 total counts 1.8522e+06
wxy = 0.535 starts replicate 14
wxy = 0.448 finished replicate 13 total counts 1.16977e+06
wxy = 0.448 starts replicate 14
wxy = 0.34 finished replicate 13 total counts 802172
wxy = 0.34 starts replicate 14
wxy = 0.379 finished replicate 13 total counts 913934
wxy = 0.379 starts replicate 14
wxy = 0.415 finished replicate 13 total counts 1.44743e+06
wxy = 0.415 starts replicate 14
wxy = 0.173 finished replicate 13 total counts 187677
wxy = 0.173 starts replicate 14
wxy = 0.071 finished replicate 14 total counts 28658
wxy = 0.071 starts replicate 15
wxy = 0.132 finished replicate 13 total counts 123260
wxy = 0.132 starts replicate 14
wxy = 0.241 finished replicate 14 total counts 401306
wxy = 0.241 starts replicate 15
wxy = 0.61 finished replicate 14 total counts 2.76534e+06
wxy = 0.61 starts replicate 15
wxy = 0.632 finished replicate 14 total counts 2.59654e+06
wxy = 0.632 starts replicate 15
wxy = 0.561 finished replicate 14 total counts 2.2398e+06
wxy = 0.561 starts replicate 15
wxy = 0.586 finished replicate 14 total counts 2.52127e+06
wxy = 0.586 starts replicate 15
wxy = 0.295 finished replicate 14 total counts 556937
wxy = 0.295 starts replicate 15
wxy = 0.479 finished replicate 14 total counts 1.64966e+06
wxy = 0.479 starts replicate 15
wxy = 0.508 finished replicate 14 total counts 1.86356e+06
wxy = 0.508 starts replicate 15
wxy = 0.535 finished replicate 14 total counts 2.0127e+06
wxy = 0.535 starts replicate 15
wxy = 0.448 finished replicate 14 total counts 1.19e+06
wxy = 0.448 starts replicate 15
wxy = 0.34 finished replicate 14 total counts 759021
wxy = 0.34 starts replicate 15
wxy = 0.379 finished replicate 14 total counts 910075
wxy = 0.379 starts replicate 15
wxy = 0.415 finished replicate 14 total counts 1.14494e+06
wxy = 0.415 starts replicate 15
wxy = 0.173 finished replicate 14 total counts 264889
wxy = 0.173 starts replicate 15
wxy = 0.071 finished replicate 15 total counts 31254
wxy = 0.071 starts replicate 16
wxy = 0.132 finished replicate 14 total counts 80352
wxy = 0.132 starts replicate 15
wxy = 0.241 finished replicate 15 total counts 316874
wxy = 0.241 starts replicate 16
wxy = 0.61 finished replicate 15 total counts 2.67856e+06
wxy = 0.61 starts replicate 16
wxy = 0.632 finished replicate 15 total counts 2.53402e+06
wxy = 0.632 starts replicate 16
wxy = 0.561 finished replicate 15 total counts 2.05072e+06
wxy = 0.561 starts replicate 16
wxy = 0.586 finished replicate 15 total counts 2.33795e+06
wxy = 0.586 starts replicate 16
wxy = 0.295 finished replicate 15 total counts 512613
wxy = 0.295 starts replicate 16
wxy = 0.479 finished replicate 15 total counts 1.59583e+06
wxy = 0.479 starts replicate 16
wxy = 0.508 finished replicate 15 total counts 1.54238e+06
wxy = 0.508 starts replicate 16
wxy = 0.535 finished replicate 15 total counts 1.9974e+06
wxy = 0.535 starts replicate 16
wxy = 0.448 finished replicate 15 total counts 1.46196e+06
wxy = 0.448 starts replicate 16
wxy = 0.34 finished replicate 15 total counts 702328
wxy = 0.34 starts replicate 16
wxy = 0.379 finished replicate 15 total counts 1.15329e+06
wxy = 0.379 starts replicate 16
wxy = 0.415 finished replicate 15 total counts 1.20898e+06
wxy = 0.415 starts replicate 16
wxy = 0.173 finished replicate 15 total counts 242834
wxy = 0.173 starts replicate 16
wxy = 0.071 finished replicate 16 total counts 36348
wxy = 0.071 starts replicate 17
wxy = 0.132 finished replicate 15 total counts 106937
wxy = 0.132 starts replicate 16
wxy = 0.61 finished replicate 16 total counts 2.23622e+06
wxy = 0.61 starts replicate 17
wxy = 0.241 finished replicate 16 total counts 401148
wxy = 0.241 starts replicate 17
wxy = 0.632 finished replicate 16 total counts 2.85515e+06
wxy = 0.632 starts replicate 17
wxy = 0.561 finished replicate 16 total counts 2.45236e+06
wxy = 0.561 starts replicate 17
wxy = 0.586 finished replicate 16 total counts 2.2215e+06
wxy = 0.586 starts replicate 17
wxy = 0.295 finished replicate 16 total counts 516436
wxy = 0.295 starts replicate 17
wxy = 0.479 finished replicate 16 total counts 1.68842e+06
wxy = 0.479 starts replicate 17
wxy = 0.508 finished replicate 16 total counts 1.70782e+06
wxy = 0.508 starts replicate 17
wxy = 0.535 finished replicate 16 total counts 2.13714e+06
wxy = 0.535 starts replicate 17
wxy = 0.448 finished replicate 16 total counts 1.2931e+06
wxy = 0.448 starts replicate 17
wxy = 0.34 finished replicate 16 total counts 837112
wxy = 0.34 starts replicate 17
wxy = 0.379 finished replicate 16 total counts 936651
wxy = 0.379 starts replicate 17
wxy = 0.415 finished replicate 16 total counts 938737
wxy = 0.415 starts replicate 17
wxy = 0.173 finished replicate 16 total counts 213635
wxy = 0.173 starts replicate 17
wxy = 0.071 finished replicate 17 total counts 31592
wxy = 0.071 starts replicate 18
wxy = 0.61 finished replicate 17 total counts 2.50625e+06
wxy = 0.61 starts replicate 18
wxy = 0.241 finished replicate 17 total counts 381007
wxy = 0.241 starts replicate 18
wxy = 0.632 finished replicate 17 total counts 2.80087e+06
wxy = 0.632 starts replicate 18
wxy = 0.561 finished replicate 17 total counts 2.07656e+06
wxy = 0.561 starts replicate 18
wxy = 0.132 finished replicate 16 total counts 112287
wxy = 0.132 starts replicate 17
wxy = 0.586 finished replicate 17 total counts 2.14455e+06
wxy = 0.586 starts replicate 18
wxy = 0.479 finished replicate 17 total counts 1.43315e+06
wxy = 0.479 starts replicate 18
wxy = 0.508 finished replicate 17 total counts 1.7773e+06
wxy = 0.508 starts replicate 18
wxy = 0.295 finished replicate 17 total counts 637031
wxy = 0.295 starts replicate 18
wxy = 0.535 finished replicate 17 total counts 2.02978e+06
wxy = 0.535 starts replicate 18
wxy = 0.448 finished replicate 17 total counts 1.28398e+06
wxy = 0.448 starts replicate 18
wxy = 0.34 finished replicate 17 total counts 741833
wxy = 0.34 starts replicate 18
wxy = 0.379 finished replicate 17 total counts 957403
wxy = 0.379 starts replicate 18
wxy = 0.415 finished replicate 17 total counts 1.04548e+06
wxy = 0.415 starts replicate 18
wxy = 0.173 finished replicate 17 total counts 177739
wxy = 0.173 starts replicate 18
wxy = 0.071 finished replicate 18 total counts 32826
wxy = 0.071 starts replicate 19
wxy = 0.61 finished replicate 18 total counts 2.44719e+06
wxy = 0.61 starts replicate 19
wxy = 0.241 finished replicate 18 total counts 389313
wxy = 0.241 starts replicate 19
wxy = 0.632 finished replicate 18 total counts 2.48091e+06
wxy = 0.632 starts replicate 19
wxy = 0.561 finished replicate 18 total counts 2.43993e+06
wxy = 0.561 starts replicate 19
wxy = 0.586 finished replicate 18 total counts 2.31699e+06
wxy = 0.586 starts replicate 19
wxy = 0.479 finished replicate 18 total counts 1.41397e+06
wxy = 0.479 starts replicate 19
wxy = 0.508 finished replicate 18 total counts 1.67472e+06
wxy = 0.508 starts replicate 19
wxy = 0.295 finished replicate 18 total counts 466215
wxy = 0.295 starts replicate 19
wxy = 0.535 finished replicate 18 total counts 1.84168e+06
wxy = 0.535 starts replicate 19
wxy = 0.132 finished replicate 17 total counts 130160
wxy = 0.132 starts replicate 18
wxy = 0.448 finished replicate 18 total counts 1.23504e+06
wxy = 0.448 starts replicate 19
wxy = 0.34 finished replicate 18 total counts 838333
wxy = 0.34 starts replicate 19
wxy = 0.379 finished replicate 18 total counts 1.00589e+06
wxy = 0.379 starts replicate 19
wxy = 0.415 finished replicate 18 total counts 1.1081e+06
wxy = 0.415 starts replicate 19
wxy = 0.071 finished replicate 19 total counts 30931
wxy = 0.173 finished replicate 18 total counts 230479
wxy = 0.173 starts replicate 19
wxy = 0.61 finished replicate 19 total counts 2.60899e+06
wxy = 0.479 finished replicate 19 total counts 1.7588e+06
wxy = 0.632 finished replicate 19 total counts 2.44821e+06
wxy = 0.241 finished replicate 19 total counts 321719
wxy = 0.561 finished replicate 19 total counts 1.89404e+06
wxy = 0.586 finished replicate 19 total counts 2.45522e+06
wxy = 0.535 finished replicate 19 total counts 1.78271e+06
wxy = 0.508 finished replicate 19 total counts 1.51416e+06
wxy = 0.295 finished replicate 19 total counts 535122
wxy = 0.448 finished replicate 19 total counts 1.46008e+06
wxy = 0.132 finished replicate 18 total counts 98167
wxy = 0.132 starts replicate 19
wxy = 0.34 finished replicate 19 total counts 740226
wxy = 0.379 finished replicate 19 total counts 944387
wxy = 0.415 finished replicate 19 total counts 1.23484e+06
wxy = 0.173 finished replicate 19 total counts 179803
wxy = 0.132 finished replicate 19 total counts 114782
