[
   2.7706472873687744,
   2.7720127105712891,
   2.7624502182006836,
   2.7713656425476074,
   2.7663664817810059,
   2.7642619609832764,
   2.7580039501190186,
   2.7583687305450439,
   2.756636381149292,
   2.7602272033691406,
   2.7508914470672607,
   2.742058277130127,
   2.7311191558837891,
   2.7291443347930908,
   2.7169361114501953,
   2.7055211067199707,
   2.698317289352417,
   2.693666934967041,
   2.6849467754364014,
   2.6107795238494873,
   2.5450520515441895,
   2.4995529651641846,
   2.4455652236938477,
   2.39263916015625,
   2.3587400913238525,
   2.3183214664459229,
   2.2776885032653809,
   2.2468905448913574,
   2.0199868679046631,
   1.8808189630508423,
   1.7771701812744141,
   1.6955305337905884,
   1.6240222454071045,
   1.5706512928009033,
   1.5180213451385498,
   1.4803833961486816,
   1.4401445388793945,
   1.2255874872207642,
   1.1273317337036133,
   1.0801819562911987,
   1.0527969598770142,
   1.0339032411575317,
   1.0285862684249878,
   1.0259116888046265,
   1.0133488178253174,
   1.0025432109832764,
   1.0102447271347046,
   1.0021541118621826,
   0.99559259414672852,
   1.008003830909729,
   1.0018107891082764,
   0.99020445346832275,
   0.98540800809860229,
   1.0057106018066406,
   1.0034036636352539,
   1.0189344882965088,
   0.99889898300170898,
   1.0184504985809326,
   1.0168242454528809,
   0.99094486236572266,
   0.96152079105377197,
   0.98558872938156128,
   0.95341384410858154,
   0.98923003673553467
]
