[
   4.1228780746459961,
   4.1182069778442383,
   4.1220674514770508,
   4.107234001159668,
   4.1049165725708008,
   4.110316276550293,
   4.107729434967041,
   4.1056761741638184,
   4.1066999435424805,
   4.1099114418029785,
   4.0821352005004883,
   4.0656857490539551,
   4.0407261848449707,
   4.0194430351257324,
   4.0018496513366699,
   3.9777960777282715,
   3.9543547630310059,
   3.9450268745422363,
   3.9213078022003174,
   3.7557189464569092,
   3.6282954216003418,
   3.5060691833496094,
   3.4040343761444092,
   3.3123550415039062,
   3.2451972961425781,
   3.1688599586486816,
   3.0963420867919922,
   3.0518298149108887,
   2.6322150230407715,
   2.3741488456726074,
   2.1804196834564209,
   2.0387353897094727,
   1.9251343011856079,
   1.8282703161239624,
   1.7531239986419678,
   1.6804593801498413,
   1.620305061340332,
   1.2803324460983276,
   1.1640001535415649,
   1.0839838981628418,
   1.0744686126708984,
   1.0344407558441162,
   1.0076961517333984,
   0.99233406782150269,
   1.011717677116394,
   0.9977453351020813,
   0.98071449995040894,
   1.0126475095748901,
   0.98012292385101318,
   0.99454516172409058,
   0.97805559635162354,
   0.97191107273101807,
   1.011955738067627,
   0.98160344362258911,
   0.97662782669067383,
   1.0245616436004639,
   1.0055716037750244,
   1.0244460105895996,
   1.0079275369644165,
   1.0110728740692139,
   1.0092424154281616,
   0.99870967864990234,
   0.92442500591278076,
   0.95677757263183594
]
