[
   2.004324197769165,
   2.0060708522796631,
   2.0060088634490967,
   2.0052342414855957,
   2.0069453716278076,
   2.0015692710876465,
   2.0048069953918457,
   2.003319263458252,
   2.0014512538909912,
   2.0003681182861328,
   1.9994455575942993,
   1.9964902400970459,
   1.9924482107162476,
   1.9904911518096924,
   1.9831529855728149,
   1.9776039123535156,
   1.9785369634628296,
   1.9712603092193604,
   1.9700996875762939,
   1.9363498687744141,
   1.9088814258575439,
   1.8823528289794922,
   1.8572870492935181,
   1.8299667835235596,
   1.8128378391265869,
   1.7908229827880859,
   1.7741525173187256,
   1.7581031322479248,
   1.6273429393768311,
   1.5492799282073975,
   1.4853219985961914,
   1.4372777938842773,
   1.3985456228256226,
   1.3657300472259521,
   1.3366219997406006,
   1.3115062713623047,
   1.2886583805084229,
   1.1549465656280518,
   1.1028335094451904,
   1.0659348964691162,
   1.0474268198013306,
   1.0395734310150146,
   1.0345275402069092,
   1.0210417509078979,
   1.0118628740310669,
   1.0178276300430298,
   0.99979305267333984,
   1.0022679567337036,
   0.9962921142578125,
   1.0026358366012573,
   1.00555419921875,
   0.99874508380889893,
   0.99751919507980347,
   0.99829548597335815,
   0.9999927282333374,
   0.991629958152771,
   0.99498254060745239,
   0.99329578876495361,
   0.99350500106811523,
   0.99107533693313599,
   0.99492853879928589,
   1.0159074068069458,
   1.0166604518890381,
   1.019614577293396
]
