[
   18.968414306640625,
   18.860912322998047,
   18.906484603881836,
   18.876890182495117,
   18.811403274536133,
   18.796863555908203,
   18.588756561279297,
   18.584911346435547,
   18.795940399169922,
   18.603191375732422,
   18.199436187744141,
   17.874654769897461,
   17.646469116210938,
   17.350175857543945,
   17.228485107421875,
   16.984148025512695,
   16.643352508544922,
   16.46021842956543,
   16.102771759033203,
   14.849260330200195,
   13.697935104370117,
   13.074864387512207,
   12.335947036743164,
   11.708623886108398,
   11.167387008666992,
   10.81300163269043,
   10.401086807250977,
   10.083269119262695,
   7.6187424659729004,
   6.0568017959594727,
   5.0459065437316895,
   4.3127446174621582,
   3.8279392719268799,
   3.3990740776062012,
   3.083961009979248,
   2.7942378520965576,
   2.5907855033874512,
   1.5404409170150757,
   1.2658991813659668,
   1.0660989284515381,
   0.98129558563232422,
   1.0304838418960571,
   0.90902072191238403,
   0.9681471586227417,
   0.91498243808746338,
   0.89147824048995972,
   1.0613291263580322,
   0.94185495376586914,
   0.95587003231048584,
   0.91433829069137573,
   0.87294596433639526,
   0.93060541152954102,
   0.90954446792602539,
   1.014176607131958,
   0.93229323625564575,
   0.95155221223831177,
   0.97421681880950928,
   1.0615811347961426,
   0.96817827224731445,
   0.96280497312545776,
   0.86978757381439209,
   0.9597436785697937,
   0.78202074766159058,
   0.89908236265182495
]
