[
   3.3215832710266113,
   3.3178565502166748,
   3.3188998699188232,
   3.3180174827575684,
   3.3171310424804688,
   3.3108029365539551,
   3.3210387229919434,
   3.3116493225097656,
   3.3122687339782715,
   3.3068938255310059,
   3.297736644744873,
   3.2877192497253418,
   3.2753787040710449,
   3.2541375160217285,
   3.2466018199920654,
   3.2322089672088623,
   3.223177433013916,
   3.2045810222625732,
   3.1954808235168457,
   3.0884451866149902,
   2.9961585998535156,
   2.9075996875762939,
   2.8417763710021973,
   2.775773286819458,
   2.7131643295288086,
   2.6728835105895996,
   2.6192784309387207,
   2.5841116905212402,
   2.2787294387817383,
   2.0840413570404053,
   1.9456249475479126,
   1.837349534034729,
   1.746490478515625,
   1.6753145456314087,
   1.6155900955200195,
   1.5571964979171753,
   1.5161932706832886,
   1.2454453706741333,
   1.1354891061782837,
   1.0872223377227783,
   1.0472034215927124,
   1.0320707559585571,
   1.0320079326629639,
   1.0058829784393311,
   0.98918426036834717,
   0.99169617891311646,
   1.0000138282775879,
   0.97620487213134766,
   1.0001269578933716,
   1.0064871311187744,
   0.98597782850265503,
   0.99629658460617065,
   0.99887287616729736,
   0.99361228942871094,
   0.99566233158111572,
   0.98360121250152588,
   0.97856521606445312,
   0.9816630482673645,
   1.0136591196060181,
   1.0394009351730347,
   1.0437997579574585,
   1.0258016586303711,
   1.0217876434326172,
   0.93982017040252686
]
