[
   1.5562525987625122,
   1.5573091506958008,
   1.556726336479187,
   1.5560954809188843,
   1.5564658641815186,
   1.5567176342010498,
   1.5575989484786987,
   1.5557707548141479,
   1.5552443265914917,
   1.5544445514678955,
   1.553235650062561,
   1.552822470664978,
   1.551072359085083,
   1.5507020950317383,
   1.5482674837112427,
   1.5465660095214844,
   1.5463882684707642,
   1.5434201955795288,
   1.5431958436965942,
   1.5302913188934326,
   1.5174044370651245,
   1.5053184032440186,
   1.4936844110488892,
   1.4832885265350342,
   1.4761323928833008,
   1.4647650718688965,
   1.4562273025512695,
   1.4482672214508057,
   1.3830281496047974,
   1.3376036882400513,
   1.303891658782959,
   1.2771580219268799,
   1.2541821002960205,
   1.2330076694488525,
   1.2172467708587646,
   1.2029039859771729,
   1.1895686388015747,
   1.1099581718444824,
   1.0739123821258545,
   1.0472171306610107,
   1.0374847650527954,
   1.0287792682647705,
   1.0203157663345337,
   1.0190773010253906,
   1.0132646560668945,
   1.0122864246368408,
   1.0052856206893921,
   0.99350965023040771,
   0.99682807922363281,
   1.0049142837524414,
   0.99524319171905518,
   1.0022661685943604,
   1.000389575958252,
   0.99885416030883789,
   0.99799394607543945,
   0.99374943971633911,
   0.99365484714508057,
   0.98952972888946533,
   1.0010128021240234,
   0.99850589036941528,
   1.0084506273269653,
   1.0117822885513306,
   1.016620397567749,
   0.96896761655807495
]
