[
   6.4068198204040527,
   6.4126701354980469,
   6.3786897659301758,
   6.3917694091796875,
   6.3671603202819824,
   6.371485710144043,
   6.3787546157836914,
   6.3599882125854492,
   6.361659049987793,
   6.3652811050415039,
   6.2893896102905273,
   6.2672262191772461,
   6.2283244132995605,
   6.1824517250061035,
   6.1431756019592285,
   6.1038827896118164,
   6.0736761093139648,
   6.030632495880127,
   5.9771361351013184,
   5.6915369033813477,
   5.4518203735351562,
   5.2305727005004883,
   5.0177402496337891,
   4.8616256713867188,
   4.7191133499145508,
   4.5773391723632812,
   4.4469985961914062,
   4.3173112869262695,
   3.4522871971130371,
   2.9065952301025391,
   2.5435972213745117,
   2.2951443195343018,
   2.1055521965026855,
   1.9590756893157959,
   1.8588660955429077,
   1.7524359226226807,
   1.6765897274017334,
   1.2587893009185791,
   1.1340811252593994,
   1.1026699542999268,
   1.0823696851730347,
   1.082371711730957,
   1.0708620548248291,
   1.0379769802093506,
   1.0408884286880493,
   1.0105692148208618,
   0.96361809968948364,
   1.0034768581390381,
   0.95946961641311646,
   0.95624101161956787,
   1.0126395225524902,
   1.0002065896987915,
   0.98671340942382812,
   1.031604528427124,
   0.98953437805175781,
   0.97472631931304932,
   0.993510901927948,
   1.0047280788421631,
   1.0046942234039307,
   0.97733086347579956,
   0.95471304655075073,
   1.0606944561004639,
   1.0925792455673218,
   0.99939584732055664
]
