[
   1.7358381748199463,
   1.7323658466339111,
   1.7358856201171875,
   1.7333692312240601,
   1.7344872951507568,
   1.7349519729614258,
   1.7354786396026611,
   1.7341842651367188,
   1.7318834066390991,
   1.7347400188446045,
   1.7308664321899414,
   1.725986123085022,
   1.7273216247558594,
   1.7251396179199219,
   1.7242084741592407,
   1.7214763164520264,
   1.7193515300750732,
   1.7192399501800537,
   1.7168424129486084,
   1.698455810546875,
   1.6831052303314209,
   1.6662095785140991,
   1.6521322727203369,
   1.63948655128479,
   1.627948522567749,
   1.6156524419784546,
   1.6048240661621094,
   1.5931656360626221,
   1.509827733039856,
   1.4505590200424194,
   1.4031031131744385,
   1.3662052154541016,
   1.3341732025146484,
   1.3042329549789429,
   1.2801518440246582,
   1.259765625,
   1.2409597635269165,
   1.1307334899902344,
   1.0799057483673096,
   1.0490654706954956,
   1.0304769277572632,
   1.0237472057342529,
   1.0153123140335083,
   1.0098767280578613,
   1.0077335834503174,
   1.004656195640564,
   1.0003652572631836,
   1.0031335353851318,
   0.9957459568977356,
   0.98939955234527588,
   1.00090491771698,
   0.99135702848434448,
   0.99267256259918213,
   0.99492710828781128,
   1.0017023086547852,
   0.99439907073974609,
   0.99612390995025635,
   0.9906611442565918,
   0.98318064212799072,
   1.0172960758209229,
   1.0153076648712158,
   1.0087486505508423,
   1.0187251567840576,
   1.0077283382415771
]
