[
   12.410000801086426,
   12.435634613037109,
   12.368978500366211,
   12.330955505371094,
   12.38517951965332,
   12.42189884185791,
   12.342555999755859,
   12.302803993225098,
   12.327520370483398,
   12.264744758605957,
   12.138051986694336,
   12.011529922485352,
   11.790549278259277,
   11.704565048217773,
   11.550172805786133,
   11.467084884643555,
   11.446989059448242,
   11.220728874206543,
   11.130796432495117,
   10.289573669433594,
   9.6012411117553711,
   9.0217599868774414,
   8.5332813262939453,
   8.0358982086181641,
   7.6876325607299805,
   7.347386360168457,
   6.9903030395507812,
   6.7882490158081055,
   4.7562241554260254,
   3.7143929004669189,
   3.1097912788391113,
   2.7287328243255615,
   2.4155559539794922,
   2.2076478004455566,
   2.1077966690063477,
   1.9107612371444702,
   1.8315025568008423,
   1.3900363445281982,
   1.1424670219421387,
   1.1324352025985718,
   1.0614327192306519,
   1.0892047882080078,
   1.0800046920776367,
   1.0496623516082764,
   1.0047440528869629,
   0.98217737674713135,
   0.99576675891876221,
   0.93625938892364502,
   0.9986756443977356,
   0.97254717350006104,
   1.0197210311889648,
   1.0062470436096191,
   0.95150375366210938,
   0.99803841114044189,
   0.99881970882415771,
   0.98497581481933594,
   0.99748629331588745,
   0.98172092437744141,
   0.98027008771896362,
   0.96016329526901245,
   0.97309321165084839,
   1.0173513889312744,
   1.0224539041519165,
   1.0097126960754395
]
