[
   23.463272094726562,
   23.291744232177734,
   23.278125762939453,
   23.029987335205078,
   23.115270614624023,
   23.114828109741211,
   22.996593475341797,
   22.849018096923828,
   22.813867568969727,
   22.662590026855469,
   22.433135986328125,
   22.09910774230957,
   21.826759338378906,
   21.254671096801758,
   21.038486480712891,
   20.746271133422852,
   20.305732727050781,
   20.045650482177734,
   20.03541374206543,
   17.586830139160156,
   15.822998046875,
   14.576972961425781,
   13.319948196411133,
   12.272486686706543,
   11.458778381347656,
   10.624420166015625,
   10.084896087646484,
   9.3695583343505859,
   6.0551438331604004,
   4.4547595977783203,
   3.6796402931213379,
   3.0239882469177246,
   2.6134943962097168,
   2.47637939453125,
   2.264162540435791,
   2.0196964740753174,
   1.9105808734893799,
   1.3176771402359009,
   1.2243472337722778,
   1.1959974765777588,
   1.0422019958496094,
   1.1522656679153442,
   1.0619258880615234,
   0.9544413685798645,
   1.006248950958252,
   1.0617396831512451,
   0.98534172773361206,
   0.98563402891159058,
   0.99819135665893555,
   0.95844203233718872,
   1.0324978828430176,
   0.96415627002716064,
   1.0103261470794678,
   1.0818115472793579,
   0.95081996917724609,
   1.010748028755188,
   0.89881879091262817,
   0.97908002138137817,
   0.99947577714920044,
   0.99094784259796143,
   0.98902785778045654,
   0.88331633806228638,
   0.92682874202728271,
   0.84990978240966797
]
