[
   1.5345437526702881,
   1.5348135232925415,
   1.5351312160491943,
   1.5339424610137939,
   1.5346418619155884,
   1.5348255634307861,
   1.5346329212188721,
   1.5341343879699707,
   1.5347107648849487,
   1.5329464673995972,
   1.5321357250213623,
   1.5315530300140381,
   1.5297430753707886,
   1.5284008979797363,
   1.5271626710891724,
   1.5271611213684082,
   1.5250425338745117,
   1.5243868827819824,
   1.5222034454345703,
   1.5138106346130371,
   1.5038888454437256,
   1.4938274621963501,
   1.4854538440704346,
   1.4765653610229492,
   1.4685804843902588,
   1.4620826244354248,
   1.4534695148468018,
   1.4470731019973755,
   1.3919752836227417,
   1.351222038269043,
   1.319535493850708,
   1.2916252613067627,
   1.2678316831588745,
   1.2483404874801636,
   1.2311261892318726,
   1.2153631448745728,
   1.2021515369415283,
   1.1171655654907227,
   1.078529953956604,
   1.0596469640731812,
   1.0395826101303101,
   1.0296653509140015,
   1.0204799175262451,
   1.0175266265869141,
   1.016707181930542,
   1.0166714191436768,
   1.0016261339187622,
   1.0015912055969238,
   0.99278783798217773,
   0.99482506513595581,
   0.99083757400512695,
   1.0020437240600586,
   0.99965226650238037,
   0.99352788925170898,
   0.98963099718093872,
   0.99868690967559814,
   0.98824864625930786,
   1.0004465579986572,
   0.9962536096572876,
   1.0201315879821777,
   0.98793047666549683,
   0.9994206428527832,
   0.98983395099639893,
   1.0452808141708374
]
