[
   4.2755041122436523,
   4.2514939308166504,
   4.2582311630249023,
   4.253455638885498,
   4.2466392517089844,
   4.2479081153869629,
   4.2491960525512695,
   4.2394590377807617,
   4.2381772994995117,
   4.2390642166137695,
   4.2277431488037109,
   4.2006044387817383,
   4.1942510604858398,
   4.165860652923584,
   4.1383605003356934,
   4.1251792907714844,
   4.0933351516723633,
   4.0815963745117188,
   4.0728673934936523,
   3.9165542125701904,
   3.7869534492492676,
   3.6823897361755371,
   3.5770378112792969,
   3.4957473278045654,
   3.4042320251464844,
   3.3422913551330566,
   3.2612729072570801,
   3.1918675899505615,
   2.7013001441955566,
   2.3891212940216064,
   2.1754336357116699,
   1.9998416900634766,
   1.8646714687347412,
   1.7586240768432617,
   1.6742153167724609,
   1.6060914993286133,
   1.5513436794281006,
   1.2550313472747803,
   1.1449933052062988,
   1.0976865291595459,
   1.0719904899597168,
   1.0292692184448242,
   1.0369840860366821,
   1.013951301574707,
   1.0217093229293823,
   0.99926567077636719,
   0.99636685848236084,
   0.98819971084594727,
   0.97504138946533203,
   0.99254190921783447,
   1.0092191696166992,
   1.0009317398071289,
   1.009042501449585,
   1.0012027025222778,
   1.0023610591888428,
   0.98896169662475586,
   1.0314317941665649,
   0.99369132518768311,
   1.0069549083709717,
   0.97729456424713135,
   0.99690884351730347,
   0.9905206561088562,
   0.98496180772781372,
   1.0292803049087524
]
