[
   1.5869777202606201,
   1.5865867137908936,
   1.5848983526229858,
   1.5843199491500854,
   1.585338830947876,
   1.5851787328720093,
   1.5861254930496216,
   1.584805965423584,
   1.5851689577102661,
   1.5849984884262085,
   1.5841672420501709,
   1.583653450012207,
   1.5802541971206665,
   1.579123854637146,
   1.5783307552337646,
   1.5762916803359985,
   1.5762726068496704,
   1.5736329555511475,
   1.5721943378448486,
   1.5608260631561279,
   1.5490729808807373,
   1.5377682447433472,
   1.5263162851333618,
   1.5183199644088745,
   1.5081520080566406,
   1.5008432865142822,
   1.4914878606796265,
   1.4844357967376709,
   1.4186165332794189,
   1.3723105192184448,
   1.3366414308547974,
   1.3061935901641846,
   1.2798317670822144,
   1.2589555978775024,
   1.237967848777771,
   1.2209964990615845,
   1.2057008743286133,
   1.116482138633728,
   1.0733221769332886,
   1.046517014503479,
   1.0308687686920166,
   1.0260674953460693,
   1.0201005935668945,
   1.0168397426605225,
   1.0098944902420044,
   1.007868766784668,
   1.0031654834747314,
   0.99717843532562256,
   1.0000519752502441,
   0.99644631147384644,
   0.9903222918510437,
   0.99601572751998901,
   0.99590504169464111,
   0.98537552356719971,
   0.98778599500656128,
   0.99349576234817505,
   0.98709070682525635,
   0.99263936281204224,
   1.0034679174423218,
   0.99831598997116089,
   1.0130982398986816,
   1.0149610042572021,
   1.0152034759521484,
   1.0413854122161865
]
