[
   16.852258682250977,
   16.842674255371094,
   16.773246765136719,
   16.798999786376953,
   16.77897834777832,
   16.593523025512695,
   16.666147232055664,
   16.598783493041992,
   16.599491119384766,
   16.427898406982422,
   16.272739410400391,
   15.91595458984375,
   15.644309997558594,
   15.498799324035645,
   15.368863105773926,
   15.051737785339355,
   14.864847183227539,
   14.566469192504883,
   14.465875625610352,
   13.033610343933105,
   11.932944297790527,
   11.114558219909668,
   10.289231300354004,
   9.8097667694091797,
   9.1967067718505859,
   8.7180995941162109,
   8.2183876037597656,
   7.885775089263916,
   5.2441720962524414,
   4.0193147659301758,
   3.1707229614257812,
   2.7061574459075928,
   2.3921842575073242,
   2.1522610187530518,
   1.939221978187561,
   1.8228832483291626,
   1.7224962711334229,
   1.3192777633666992,
   1.1082611083984375,
   1.1435987949371338,
   1.0072146654129028,
   1.0260207653045654,
   0.92610657215118408,
   1.0033222436904907,
   1.0338867902755737,
   1.0057327747344971,
   1.0190494060516357,
   0.96852827072143555,
   0.97601926326751709,
   1.0256953239440918,
   0.95205181837081909,
   1.0498478412628174,
   0.98499041795730591,
   1.0261139869689941,
   0.97615575790405273,
   0.94209718704223633,
   1.1261972188949585,
   1.0404820442199707,
   0.95618516206741333,
   1.0601755380630493,
   0.8947264552116394,
   0.89620292186737061,
   0.86934661865234375,
   0.944996178150177
]
