[
   1.852891206741333,
   1.8556575775146484,
   1.8529183864593506,
   1.8530181646347046,
   1.8510782718658447,
   1.8537788391113281,
   1.8521112203598022,
   1.8528616428375244,
   1.8527176380157471,
   1.8519618511199951,
   1.8485128879547119,
   1.8447730541229248,
   1.8391097784042358,
   1.8406264781951904,
   1.8370269536972046,
   1.8320404291152954,
   1.8335748910903931,
   1.8283920288085938,
   1.8245022296905518,
   1.7993948459625244,
   1.7736246585845947,
   1.7499545812606812,
   1.7289196252822876,
   1.7096974849700928,
   1.6933157444000244,
   1.676316499710083,
   1.6588466167449951,
   1.642369270324707,
   1.5315873622894287,
   1.4519718885421753,
   1.392012357711792,
   1.3449990749359131,
   1.3061898946762085,
   1.2773783206939697,
   1.2507383823394775,
   1.2283376455307007,
   1.2081310749053955,
   1.1055238246917725,
   1.0597915649414062,
   1.0440261363983154,
   1.0298134088516235,
   1.0233179330825806,
   1.0150389671325684,
   1.0111900568008423,
   1.0065032243728638,
   1.0100629329681396,
   0.99360072612762451,
   1.0038093328475952,
   1.0000061988830566,
   1.0048749446868896,
   1.0070672035217285,
   0.99537575244903564,
   1.0067025423049927,
   0.996895432472229,
   1.001507043838501,
   0.99959754943847656,
   1.0023535490036011,
   0.99588191509246826,
   0.99220103025436401,
   1.0037639141082764,
   1.0065168142318726,
   0.98335456848144531,
   0.99392712116241455,
   0.96496725082397461
]
