[
   1.7609241008758545,
   1.7611707448959351,
   1.7604564428329468,
   1.7579984664916992,
   1.7581189870834351,
   1.7582910060882568,
   1.7590700387954712,
   1.7599906921386719,
   1.7568533420562744,
   1.759067177772522,
   1.7562154531478882,
   1.7527341842651367,
   1.7508976459503174,
   1.7485160827636719,
   1.7447998523712158,
   1.742576003074646,
   1.7396997213363647,
   1.7387082576751709,
   1.7362226247787476,
   1.7129995822906494,
   1.6928920745849609,
   1.6732578277587891,
   1.6550995111465454,
   1.6379779577255249,
   1.6215801239013672,
   1.6089967489242554,
   1.5942155122756958,
   1.5817885398864746,
   1.4828274250030518,
   1.416113018989563,
   1.3626744747161865,
   1.3242766857147217,
   1.2893469333648682,
   1.2615023851394653,
   1.238487720489502,
   1.2181692123413086,
   1.20157790184021,
   1.0999290943145752,
   1.0660016536712646,
   1.0463287830352783,
   1.0274122953414917,
   1.0210129022598267,
   1.0141992568969727,
   1.0128644704818726,
   1.0128583908081055,
   1.0079982280731201,
   0.99704992771148682,
   0.99544060230255127,
   1.0021893978118896,
   0.99865138530731201,
   1.0038869380950928,
   0.99941873550415039,
   0.99765473604202271,
   1.0043153762817383,
   0.99073517322540283,
   0.99401456117630005,
   1.0095440149307251,
   0.99772864580154419,
   0.99851834774017334,
   1.0071917772293091,
   1.006291389465332,
   0.97429722547531128,
   1.0165349245071411,
   1.0137008428573608
]
