[
   3.868741512298584,
   3.8740646839141846,
   3.8644173145294189,
   3.8587150573730469,
   3.8671925067901611,
   3.8505771160125732,
   3.8557319641113281,
   3.8471846580505371,
   3.8549079895019531,
   3.8525786399841309,
   3.8302276134490967,
   3.8054203987121582,
   3.7872745990753174,
   3.765017032623291,
   3.7511382102966309,
   3.7315013408660889,
   3.7143726348876953,
   3.6868453025817871,
   3.6775288581848145,
   3.5194766521453857,
   3.3902637958526611,
   3.2697098255157471,
   3.1779413223266602,
   3.0863747596740723,
   2.9952547550201416,
   2.9302842617034912,
   2.8615896701812744,
   2.8056221008300781,
   2.369314432144165,
   2.0941753387451172,
   1.9154818058013916,
   1.7608686685562134,
   1.6511421203613281,
   1.5733699798583984,
   1.5028698444366455,
   1.4417116641998291,
   1.4016916751861572,
   1.1670892238616943,
   1.095616340637207,
   1.052512526512146,
   1.0412957668304443,
   1.0314887762069702,
   1.0200221538543701,
   1.0099314451217651,
   1.0086897611618042,
   0.9985162615776062,
   0.98232507705688477,
   1.015484094619751,
   1.0030434131622314,
   1.0005618333816528,
   1.0053771734237671,
   1.0147523880004883,
   0.99149531126022339,
   1.012506365776062,
   0.98069107532501221,
   0.99521684646606445,
   0.98529422283172607,
   0.97017985582351685,
   1.0048050880432129,
   1.0208158493041992,
   1.0199899673461914,
   0.99089109897613525,
   0.99383258819580078,
   0.89824759960174561
]
