[
   7.8557877540588379,
   7.8534941673278809,
   7.8477582931518555,
   7.8888626098632812,
   7.8519072532653809,
   7.839940071105957,
   7.8135972023010254,
   7.7841019630432129,
   7.7918367385864258,
   7.777554988861084,
   7.6992864608764648,
   7.628169059753418,
   7.591402530670166,
   7.5047025680541992,
   7.4095582962036133,
   7.3735933303833008,
   7.2889280319213867,
   7.2537589073181152,
   7.1647424697875977,
   6.672480583190918,
   6.3030710220336914,
   6.0050363540649414,
   5.7589349746704102,
   5.5012731552124023,
   5.3307657241821289,
   5.0972685813903809,
   4.9627418518066406,
   4.778782844543457,
   3.6351323127746582,
   3.0042915344238281,
   2.5825746059417725,
   2.2952308654785156,
   2.0676522254943848,
   1.8997808694839478,
   1.7648870944976807,
   1.6755577325820923,
   1.5868110656738281,
   1.2625055313110352,
   1.1388704776763916,
   1.0914624929428101,
   1.0557125806808472,
   1.0587027072906494,
   1.011935830116272,
   0.98538100719451904,
   0.98842459917068481,
   1.0104713439941406,
   1.0073897838592529,
   0.98312222957611084,
   0.99031877517700195,
   0.97761261463165283,
   0.95667779445648193,
   0.9665454626083374,
   0.97948199510574341,
   1.0058428049087524,
   0.99843823909759521,
   0.97953224182128906,
   0.93002021312713623,
   0.98911941051483154,
   0.94462984800338745,
   1.0332196950912476,
   0.99778938293457031,
   1.050814151763916,
   1.0221267938613892,
   1.2207843065261841
]
