[
   1.975314736366272,
   1.9736849069595337,
   1.9757726192474365,
   1.9748945236206055,
   1.974503755569458,
   1.9724372625350952,
   1.9732300043106079,
   1.9709384441375732,
   1.9719343185424805,
   1.9709923267364502,
   1.9674375057220459,
   1.9653835296630859,
   1.9599132537841797,
   1.9564695358276367,
   1.9533945322036743,
   1.9470589160919189,
   1.9468882083892822,
   1.9427502155303955,
   1.9392220973968506,
   1.903415322303772,
   1.8756662607192993,
   1.8470735549926758,
   1.8231906890869141,
   1.7965977191925049,
   1.7762947082519531,
   1.7566226720809937,
   1.7365634441375732,
   1.719499945640564,
   1.587456226348877,
   1.4982469081878662,
   1.4281861782073975,
   1.3757255077362061,
   1.3316339254379272,
   1.2939176559448242,
   1.2659209966659546,
   1.2415111064910889,
   1.2201588153839111,
   1.100283145904541,
   1.0623652935028076,
   1.0468112230300903,
   1.0275583267211914,
   1.0228046178817749,
   1.0253193378448486,
   1.0198427438735962,
   1.0178196430206299,
   1.0139181613922119,
   0.99902737140655518,
   1.0003186464309692,
   1.0001528263092041,
   0.99544680118560791,
   1.002173900604248,
   0.99872314929962158,
   1.0064971446990967,
   0.98390454053878784,
   1.0000147819519043,
   1.002113938331604,
   1.0021920204162598,
   1.0013186931610107,
   1.0053948163986206,
   0.99523544311523438,
   1.0020911693572998,
   1.0143355131149292,
   1.0236237049102783,
   1.0221656560897827
]
