[
   31.556573867797852,
   31.35479736328125,
   31.346324920654297,
   31.561199188232422,
   31.281581878662109,
   31.100452423095703,
   31.290615081787109,
   30.796239852905273,
   30.828044891357422,
   30.796884536743164,
   29.877588272094727,
   29.078756332397461,
   28.886968612670898,
   27.9249267578125,
   27.648782730102539,
   26.925786972045898,
   26.728357315063477,
   26.101955413818359,
   25.911273956298828,
   22.674491882324219,
   20.303018569946289,
   18.270015716552734,
   17.195308685302734,
   15.512323379516602,
   14.60630989074707,
   13.533001899719238,
   12.715094566345215,
   11.75438117980957,
   7.0408477783203125,
   5.1999034881591797,
   4.2110161781311035,
   3.377922534942627,
   2.9626808166503906,
   2.4496920108795166,
   2.1553947925567627,
   1.9906892776489258,
   1.8367178440093994,
   1.3243048191070557,
   1.358619213104248,
   1.1084966659545898,
   1.1486577987670898,
   1.0543574094772339,
   1.137188196182251,
   1.0018022060394287,
   1.0920226573944092,
   1.0270575284957886,
   0.91531312465667725,
   1.0072181224822998,
   1.0574731826782227,
   0.97034436464309692,
   0.97375690937042236,
   0.9537699818611145,
   0.90199315547943115,
   1.0513609647750854,
   1.0698094367980957,
   1.0802549123764038,
   0.95653438568115234,
   0.897075355052948,
   1.0980226993560791,
   1.0628455877304077,
   0.92729473114013672,
   0.96503984928131104,
   0.93191516399383545,
   0.96491754055023193
]
