[
   2.6945631504058838,
   2.7004749774932861,
   2.6914505958557129,
   2.6986606121063232,
   2.698197603225708,
   2.6909642219543457,
   2.6912212371826172,
   2.6876986026763916,
   2.6903488636016846,
   2.6829719543457031,
   2.6768076419830322,
   2.6660473346710205,
   2.6588273048400879,
   2.653156042098999,
   2.6459047794342041,
   2.6360671520233154,
   2.6342120170593262,
   2.6185247898101807,
   2.6095268726348877,
   2.5332095623016357,
   2.4697415828704834,
   2.4099197387695312,
   2.3608884811401367,
   2.3141379356384277,
   2.2740263938903809,
   2.2324831485748291,
   2.1984906196594238,
   2.1699287891387939,
   1.9219993352890015,
   1.7621663808822632,
   1.6418380737304688,
   1.5514577627182007,
   1.4811093807220459,
   1.42650306224823,
   1.3854480981826782,
   1.3437044620513916,
   1.3094089031219482,
   1.1385513544082642,
   1.0804705619812012,
   1.0467476844787598,
   1.0356612205505371,
   1.0266571044921875,
   1.0296719074249268,
   1.0112307071685791,
   1.0164763927459717,
   1.0040091276168823,
   0.99188929796218872,
   0.99727040529251099,
   0.98239153623580933,
   0.97949540615081787,
   0.99455183744430542,
   0.99385702610015869,
   0.99598675966262817,
   0.98713672161102295,
   0.98528212308883667,
   0.99317014217376709,
   0.97917872667312622,
   0.99673712253570557,
   0.99474400281906128,
   0.99387645721435547,
   0.99935257434844971,
   1.0221090316772461,
   1.0653724670410156,
   1.1006145477294922
]
