[
   1.5913076400756836,
   1.589735746383667,
   1.5904992818832397,
   1.5896443128585815,
   1.5895086526870728,
   1.5898220539093018,
   1.5897003412246704,
   1.5904638767242432,
   1.5877841711044312,
   1.5896902084350586,
   1.5867424011230469,
   1.5865929126739502,
   1.5839816331863403,
   1.5813071727752686,
   1.580970287322998,
   1.5783540010452271,
   1.5772721767425537,
   1.5767672061920166,
   1.5733597278594971,
   1.5582331418991089,
   1.5441304445266724,
   1.5290610790252686,
   1.516815185546875,
   1.5035055875778198,
   1.4922158718109131,
   1.4827923774719238,
   1.4731438159942627,
   1.4620635509490967,
   1.388677716255188,
   1.3373453617095947,
   1.2965987920761108,
   1.2654674053192139,
   1.2395657300949097,
   1.2178213596343994,
   1.1992270946502686,
   1.1817930936813354,
   1.1673837900161743,
   1.0851455926895142,
   1.0517182350158691,
   1.0312255620956421,
   1.0244476795196533,
   1.0140650272369385,
   1.0104668140411377,
   1.0061671733856201,
   1.0062510967254639,
   1.0078175067901611,
   0.99866187572479248,
   1.0055465698242188,
   1.0014272928237915,
   1.0001329183578491,
   0.99915266036987305,
   0.99980008602142334,
   1.0015863180160522,
   0.99992716312408447,
   1.0008668899536133,
   0.99145567417144775,
   1.0038206577301025,
   1.0024919509887695,
   1.0026282072067261,
   0.99924039840698242,
   0.99406641721725464,
   0.98931419849395752,
   0.99798315763473511,
   0.99136030673980713
]
