[
   2.5796267986297607,
   2.5796217918395996,
   2.5795152187347412,
   2.5801577568054199,
   2.5772416591644287,
   2.5861392021179199,
   2.5781753063201904,
   2.5791060924530029,
   2.5773847103118896,
   2.5744242668151855,
   2.5756611824035645,
   2.5627322196960449,
   2.5594792366027832,
   2.5553147792816162,
   2.552809476852417,
   2.5455412864685059,
   2.5384440422058105,
   2.5265552997589111,
   2.5240654945373535,
   2.4716289043426514,
   2.4302105903625488,
   2.386298656463623,
   2.3481161594390869,
   2.3134975433349609,
   2.2857389450073242,
   2.2484736442565918,
   2.2290616035461426,
   2.20166015625,
   2.0029444694519043,
   1.8648626804351807,
   1.7641805410385132,
   1.6763412952423096,
   1.6105045080184937,
   1.5541516542434692,
   1.5051525831222534,
   1.4618228673934937,
   1.423970103263855,
   1.2008209228515625,
   1.1238291263580322,
   1.0820243358612061,
   1.0493513345718384,
   1.030626654624939,
   1.0268975496292114,
   1.0198545455932617,
   1.0124266147613525,
   1.0008949041366577,
   1.006428599357605,
   0.98704326152801514,
   0.99303179979324341,
   0.99192988872528076,
   1.0012754201889038,
   1.0007688999176025,
   0.99594908952713013,
   0.98246306180953979,
   0.98293650150299072,
   0.9905165433883667,
   0.98674440383911133,
   0.99660700559616089,
   0.97917205095291138,
   1.004746675491333,
   1.0114187002182007,
   1.0156559944152832,
   0.98618745803833008,
   1.0825343132019043
]
