[
   3.5711238384246826,
   3.5614516735076904,
   3.5662922859191895,
   3.5575797557830811,
   3.5587506294250488,
   3.5663399696350098,
   3.5641083717346191,
   3.5545754432678223,
   3.5501060485839844,
   3.5495269298553467,
   3.5400404930114746,
   3.5243911743164062,
   3.5135822296142578,
   3.5016040802001953,
   3.4910972118377686,
   3.4761192798614502,
   3.4699382781982422,
   3.4542479515075684,
   3.4439101219177246,
   3.342926025390625,
   3.2484385967254639,
   3.1727099418640137,
   3.1092956066131592,
   3.0390973091125488,
   2.9879295825958252,
   2.9360427856445312,
   2.8830695152282715,
   2.8401234149932861,
   2.4978723526000977,
   2.2655861377716064,
   2.088740348815918,
   1.9463491439819336,
   1.8406972885131836,
   1.7444756031036377,
   1.663762092590332,
   1.6011501550674438,
   1.5358865261077881,
   1.2442715167999268,
   1.1388533115386963,
   1.0871016979217529,
   1.0563682317733765,
   1.0269405841827393,
   1.0265424251556396,
   1.0203961133956909,
   1.0196369886398315,
   1.0160576105117798,
   0.97415751218795776,
   1.0084578990936279,
   0.97758162021636963,
   0.97386962175369263,
   0.99992406368255615,
   1.0034434795379639,
   0.99927979707717896,
   1.003403902053833,
   1.001548171043396,
   1.0138556957244873,
   1.0330559015274048,
   0.97407323122024536,
   1.0338671207427979,
   0.98079651594161987,
   0.97901713848114014,
   0.95312249660491943,
   0.97640979290008545,
   0.98145425319671631
]
