[
   26.343420028686523,
   26.33453369140625,
   26.479610443115234,
   26.18231201171875,
   26.216985702514648,
   26.210260391235352,
   26.207509994506836,
   26.162090301513672,
   25.872076034545898,
   26.140548706054688,
   25.436809539794922,
   24.956516265869141,
   24.680282592773438,
   24.416614532470703,
   23.962190628051758,
   23.707283020019531,
   23.520614624023438,
   23.160640716552734,
   22.781574249267578,
   20.661569595336914,
   18.926311492919922,
   17.708089828491211,
   16.421621322631836,
   15.564741134643555,
   14.585538864135742,
   13.874844551086426,
   13.103978157043457,
   12.359502792358398,
   8.1952028274536133,
   5.993342399597168,
   4.7946758270263672,
   3.9642462730407715,
   3.3455510139465332,
   2.8541922569274902,
   2.5014479160308838,
   2.2605147361755371,
   2.1960415840148926,
   1.4330041408538818,
   1.1193759441375732,
   1.312718391418457,
   1.197607159614563,
   1.1056091785430908,
   0.99403762817382812,
   1.0259664058685303,
   0.94759738445281982,
   0.93777924776077271,
   0.89806061983108521,
   1.0221202373504639,
   1.004008412361145,
   0.95734357833862305,
   0.93971747159957886,
   0.88503968715667725,
   1.0625437498092651,
   1.0081652402877808,
   0.92634648084640503,
   0.98784369230270386,
   1.1993281841278076,
   0.77805608510971069,
   0.97440701723098755,
   0.90422165393829346,
   0.98888123035430908,
   0.94453507661819458,
   1.0622560977935791,
   0.78284037113189697
]
