[
   41.806556701660156,
   41.394145965576172,
   41.517055511474609,
   41.211723327636719,
   41.281330108642578,
   40.772651672363281,
   40.439441680908203,
   40.610416412353516,
   40.635688781738281,
   40.294326782226562,
   38.530170440673828,
   36.978317260742188,
   35.912696838378906,
   34.560161590576172,
   33.393505096435547,
   32.955337524414062,
   31.56585693359375,
   30.959680557250977,
   29.835025787353516,
   23.863513946533203,
   19.444509506225586,
   16.388853073120117,
   14.592126846313477,
   13.044044494628906,
   11.707292556762695,
   10.718847274780273,
   9.8559627532958984,
   8.9907255172729492,
   5.4660091400146484,
   4.0229940414428711,
   3.2923679351806641,
   2.8896684646606445,
   2.3855466842651367,
   2.2053637504577637,
   1.8630872964859009,
   1.7566897869110107,
   1.7386003732681274,
   1.3707941770553589,
   1.1520563364028931,
   1.1156966686248779,
   1.1426591873168945,
   1.08479905128479,
   1.052234411239624,
   1.0097835063934326,
   1.033466100692749,
   1.0274879932403564,
   1.1363046169281006,
   1.0389546155929565,
   1.041373610496521,
   0.9093317985534668,
   0.93249380588531494,
   0.99007952213287354,
   1.0688222646713257,
   1.033818244934082,
   0.95161676406860352,
   0.9875529408454895,
   1.0008795261383057,
   0.89542371034622192,
   0.973735511302948,
   0.85089617967605591,
   1.0885010957717896,
   0.90825021266937256,
   1.1942664384841919,
   0.89964514970779419
]
