[
   1.6498925685882568,
   1.648082971572876,
   1.6467905044555664,
   1.6488058567047119,
   1.6465034484863281,
   1.6484880447387695,
   1.6470807790756226,
   1.6470022201538086,
   1.6481552124023438,
   1.6469672918319702,
   1.6456489562988281,
   1.6457109451293945,
   1.6450189352035522,
   1.6440191268920898,
   1.6428302526473999,
   1.6412454843521118,
   1.6404269933700562,
   1.6405904293060303,
   1.6394481658935547,
   1.6295038461685181,
   1.6212505102157593,
   1.6130882501602173,
   1.6061584949493408,
   1.5983207225799561,
   1.590700626373291,
   1.5857366323471069,
   1.5780751705169678,
   1.5719654560089111,
   1.5180473327636719,
   1.4759526252746582,
   1.4404736757278442,
   1.4105750322341919,
   1.3833469152450562,
   1.3595659732818604,
   1.3395543098449707,
   1.3205428123474121,
   1.3035699129104614,
   1.1918485164642334,
   1.1350709199905396,
   1.0987210273742676,
   1.0782471895217896,
   1.0634472370147705,
   1.0433602333068848,
   1.034706711769104,
   1.0304155349731445,
   1.0318599939346313,
   1.0007225275039673,
   1.0012960433959961,
   1.0098533630371094,
   0.99912118911743164,
   1.0005871057510376,
   0.99206763505935669,
   0.99687880277633667,
   0.99339228868484497,
   0.98544943332672119,
   1.0009039640426636,
   0.99045878648757935,
   1.0199511051177979,
   1.0069582462310791,
   0.98670756816864014,
   0.98298424482345581,
   0.96937286853790283,
   0.95842456817626953,
   1.042955756187439
]
