[
   2.0217132568359375,
   2.0204365253448486,
   2.0202901363372803,
   2.0195872783660889,
   2.0187840461730957,
   2.0196769237518311,
   2.0216031074523926,
   2.0190939903259277,
   2.0190777778625488,
   2.0183875560760498,
   2.016108512878418,
   2.0154318809509277,
   2.0114719867706299,
   2.0106515884399414,
   2.0066518783569336,
   2.0094172954559326,
   2.0067870616912842,
   2.0028443336486816,
   2.0030303001403809,
   1.9847158193588257,
   1.964560866355896,
   1.9516327381134033,
   1.9354960918426514,
   1.9199377298355103,
   1.9047691822052002,
   1.8945308923721313,
   1.8817241191864014,
   1.8680489063262939,
   1.7701151371002197,
   1.692000150680542,
   1.6286808252334595,
   1.5756278038024902,
   1.529536247253418,
   1.4895493984222412,
   1.4557934999465942,
   1.4275845289230347,
   1.4053130149841309,
   1.2510013580322266,
   1.1743323802947998,
   1.1306281089782715,
   1.1048519611358643,
   1.08000648021698,
   1.0641487836837769,
   1.0594035387039185,
   1.0486876964569092,
   1.0321438312530518,
   0.99327361583709717,
   0.99615621566772461,
   0.9882049560546875,
   0.99436378479003906,
   0.9963536262512207,
   0.99552810192108154,
   0.99193620681762695,
   1.0212342739105225,
   0.98900669813156128,
   0.99717044830322266,
   0.98158186674118042,
   0.9972916841506958,
   0.98014527559280396,
   0.98876798152923584,
   1.0030337572097778,
   1.0202004909515381,
   1.0763211250305176,
   1.0613372325897217
]
