[
   7.8196678161621094,
   7.8297386169433594,
   7.8227715492248535,
   7.7785310745239258,
   7.7911443710327148,
   7.8050932884216309,
   7.7921028137207031,
   7.834475040435791,
   7.7812018394470215,
   7.7922272682189941,
   7.7219414710998535,
   7.6859779357910156,
   7.5911345481872559,
   7.5592794418334961,
   7.5175881385803223,
   7.479640007019043,
   7.4022073745727539,
   7.3632135391235352,
   7.3285231590270996,
   6.896754264831543,
   6.5473465919494629,
   6.228055477142334,
   5.943328857421875,
   5.7023835182189941,
   5.4716882705688477,
   5.2623987197875977,
   5.1013393402099609,
   4.8886723518371582,
   3.7647659778594971,
   3.151669979095459,
   2.7315840721130371,
   2.4243335723876953,
   2.2098467350006104,
   2.0561573505401611,
   1.9406191110610962,
   1.8290685415267944,
   1.776599645614624,
   1.3549349308013916,
   1.2411528825759888,
   1.1386809349060059,
   1.104831337928772,
   1.0723860263824463,
   1.0745511054992676,
   1.0625458955764771,
   1.0594296455383301,
   0.99059408903121948,
   0.96243178844451904,
   0.98752135038375854,
   1.014965295791626,
   1.000760555267334,
   1.0012025833129883,
   0.99485129117965698,
   0.99842435121536255,
   0.98657786846160889,
   0.98765647411346436,
   0.97335052490234375,
   1.0168306827545166,
   0.99169480800628662,
   0.98711884021759033,
   1.0068389177322388,
   0.94579440355300903,
   1.1333361864089966,
   1.1507036685943604,
   1.1175825595855713
]
