[
   1.4228842258453369,
   1.4225797653198242,
   1.4232504367828369,
   1.4233852624893188,
   1.4222617149353027,
   1.4221394062042236,
   1.4226367473602295,
   1.4222379922866821,
   1.4232412576675415,
   1.4225519895553589,
   1.4210984706878662,
   1.4219304323196411,
   1.4208060503005981,
   1.4211012125015259,
   1.4192855358123779,
   1.4195915460586548,
   1.418813943862915,
   1.418241024017334,
   1.4185669422149658,
   1.4142410755157471,
   1.4093642234802246,
   1.4051796197891235,
   1.4013804197311401,
   1.3980495929718018,
   1.393629789352417,
   1.3903937339782715,
   1.387521505355835,
   1.3836331367492676,
   1.3547518253326416,
   1.3311445713043213,
   1.3108775615692139,
   1.2941092252731323,
   1.2785408496856689,
   1.2631818056106567,
   1.252383828163147,
   1.2404407262802124,
   1.2296853065490723,
   1.1558897495269775,
   1.1162664890289307,
   1.0905731916427612,
   1.0727112293243408,
   1.0591647624969482,
   1.0475057363510132,
   1.0398974418640137,
   1.0335201025009155,
   1.0306260585784912,
   1.0091516971588135,
   1.0072526931762695,
   1.0136990547180176,
   1.0060691833496094,
   1.0038139820098877,
   1.0064989328384399,
   1.0122623443603516,
   1.0144593715667725,
   1.0087801218032837,
   1.0020163059234619,
   0.99530923366546631,
   1.0004702806472778,
   1.0042359828948975,
   0.98398339748382568,
   0.99589157104492188,
   0.99948054552078247,
   0.9779733419418335,
   0.88862389326095581
]
