[
   1.5165355205535889,
   1.516409158706665,
   1.5170742273330688,
   1.5173072814941406,
   1.5156599283218384,
   1.515789270401001,
   1.5162438154220581,
   1.5155501365661621,
   1.5170050859451294,
   1.5159221887588501,
   1.5150020122528076,
   1.5150398015975952,
   1.5141754150390625,
   1.5143610239028931,
   1.5114161968231201,
   1.5120447874069214,
   1.5115958452224731,
   1.5103247165679932,
   1.5106329917907715,
   1.5050086975097656,
   1.4978978633880615,
   1.4925116300582886,
   1.4873878955841064,
   1.4825524091720581,
   1.4763270616531372,
   1.4724366664886475,
   1.4688500165939331,
   1.463362455368042,
   1.4245233535766602,
   1.3934690952301025,
   1.3669317960739136,
   1.3450942039489746,
   1.3248288631439209,
   1.3052172660827637,
   1.2905802726745605,
   1.2766634225845337,
   1.2630404233932495,
   1.1730725765228271,
   1.1267913579940796,
   1.098235011100769,
   1.0784413814544678,
   1.0641330480575562,
   1.0513820648193359,
   1.0432206392288208,
   1.0364482402801514,
   1.0339088439941406,
   1.0083898305892944,
   1.0090638399124146,
   1.0135858058929443,
   1.00665283203125,
   1.0010613203048706,
   1.0069761276245117,
   1.0111920833587646,
   1.0148766040802002,
   1.0070316791534424,
   1.000341534614563,
   0.99390822649002075,
   1.0003073215484619,
   1.0059646368026733,
   0.98310166597366333,
   0.99584579467773438,
   1.002118706703186,
   0.97938454151153564,
   0.89076793193817139
]
