[
   4.2108640670776367,
   4.2127852439880371,
   4.2045793533325195,
   4.1986651420593262,
   4.1937203407287598,
   4.2010889053344727,
   4.1975526809692383,
   4.1896061897277832,
   4.1958365440368652,
   4.1947021484375,
   4.1771130561828613,
   4.1597833633422852,
   4.1462054252624512,
   4.1369428634643555,
   4.1215963363647461,
   4.1092953681945801,
   4.0943536758422852,
   4.071204662322998,
   4.0678715705871582,
   3.9409270286560059,
   3.8242688179016113,
   3.7194149494171143,
   3.6374092102050781,
   3.5501365661621094,
   3.4760780334472656,
   3.4037723541259766,
   3.3314082622528076,
   3.2636520862579346,
   2.7618398666381836,
   2.4601502418518066,
   2.2312121391296387,
   2.0617432594299316,
   1.9399175643920898,
   1.8414649963378906,
   1.7589213848114014,
   1.6903578042984009,
   1.628074049949646,
   1.3221666812896729,
   1.2251148223876953,
   1.1548759937286377,
   1.124906063079834,
   1.0943822860717773,
   1.0788915157318115,
   1.0660641193389893,
   1.050545334815979,
   1.0546418428421021,
   0.99795371294021606,
   1.00327467918396,
   0.98260325193405151,
   1.0083388090133667,
   1.0090519189834595,
   0.99227559566497803,
   0.9939197301864624,
   0.99350309371948242,
   0.99188357591629028,
   0.96959275007247925,
   0.98864632844924927,
   1.0149571895599365,
   1.0020586252212524,
   0.99791574478149414,
   0.98542881011962891,
   0.99707204103469849,
   1.0821845531463623,
   1.0981194972991943
]
