[
   1.7305160760879517,
   1.7288612127304077,
   1.7311359643936157,
   1.7288624048233032,
   1.7293287515640259,
   1.7301931381225586,
   1.7274249792098999,
   1.7283918857574463,
   1.7301896810531616,
   1.7292026281356812,
   1.7274940013885498,
   1.7250003814697266,
   1.7264988422393799,
   1.7235450744628906,
   1.7229325771331787,
   1.7238433361053467,
   1.7229108810424805,
   1.7202829122543335,
   1.7203429937362671,
   1.7097184658050537,
   1.6995805501937866,
   1.6897680759429932,
   1.6811870336532593,
   1.6702444553375244,
   1.6654990911483765,
   1.6546512842178345,
   1.6477458477020264,
   1.6411812305450439,
   1.5786095857620239,
   1.5287376642227173,
   1.4863578081130981,
   1.4519691467285156,
   1.4215083122253418,
   1.3956705331802368,
   1.3707919120788574,
   1.3490450382232666,
   1.3295958042144775,
   1.2125492095947266,
   1.1487109661102295,
   1.1157633066177368,
   1.0870424509048462,
   1.0646098852157593,
   1.048017144203186,
   1.0427131652832031,
   1.0359023809432983,
   1.0315375328063965,
   1.0191049575805664,
   1.0163476467132568,
   1.0154531002044678,
   1.0073671340942383,
   1.0207793712615967,
   1.0024608373641968,
   1.0080966949462891,
   1.0027754306793213,
   0.99522972106933594,
   0.99866259098052979,
   1.0098872184753418,
   1.0212148427963257,
   1.010327935218811,
   0.98005950450897217,
   0.95363694429397583,
   0.96867454051971436,
   0.9507594108581543,
   0.91969478130340576
]
