[
   4.6874990463256836,
   4.6864099502563477,
   4.674102783203125,
   4.6873331069946289,
   4.683964729309082,
   4.6710152626037598,
   4.6780200004577637,
   4.6690101623535156,
   4.6731753349304199,
   4.6655683517456055,
   4.641871452331543,
   4.6237039566040039,
   4.6046028137207031,
   4.5886588096618652,
   4.5795316696166992,
   4.5665216445922852,
   4.5492539405822754,
   4.5372424125671387,
   4.5270237922668457,
   4.4027647972106934,
   4.273310661315918,
   4.1657800674438477,
   4.0842828750610352,
   3.9913272857666016,
   3.9145152568817139,
   3.8293075561523438,
   3.7679469585418701,
   3.7017753124237061,
   3.1575512886047363,
   2.7860410213470459,
   2.5250658988952637,
   2.325855016708374,
   2.1668996810913086,
   2.0347194671630859,
   1.922982931137085,
   1.8372030258178711,
   1.7519985437393188,
   1.3628462553024292,
   1.2373284101486206,
   1.1473513841629028,
   1.0917786359786987,
   1.0584104061126709,
   1.0532703399658203,
   1.0486948490142822,
   1.0003800392150879,
   1.0032386779785156,
   1.0131493806838989,
   0.98222744464874268,
   0.99522572755813599,
   1.0030288696289062,
   0.97320955991744995,
   0.99054127931594849,
   0.98669970035552979,
   0.98357439041137695,
   0.96116828918457031,
   1.0037515163421631,
   0.99227207899093628,
   1.0096950531005859,
   1.041022777557373,
   1.0285035371780396,
   0.94411230087280273,
   0.99746596813201904,
   0.82643479108810425,
   0.90596663951873779
]
