[
   1.4547809362411499,
   1.4542744159698486,
   1.4546376466751099,
   1.4553322792053223,
   1.453624963760376,
   1.4542644023895264,
   1.4530378580093384,
   1.4536383152008057,
   1.4547051191329956,
   1.4542719125747681,
   1.4531300067901611,
   1.4542124271392822,
   1.4525961875915527,
   1.4511399269104004,
   1.4513130187988281,
   1.4503244161605835,
   1.4493507146835327,
   1.4494003057479858,
   1.4492613077163696,
   1.443317174911499,
   1.4395022392272949,
   1.4336749315261841,
   1.4311048984527588,
   1.4256410598754883,
   1.4210642576217651,
   1.4175208806991577,
   1.4141340255737305,
   1.4100128412246704,
   1.3796803951263428,
   1.3569662570953369,
   1.3354566097259521,
   1.3179994821548462,
   1.3025573492050171,
   1.288053035736084,
   1.275260329246521,
   1.2620246410369873,
   1.2506512403488159,
   1.1755719184875488,
   1.1331827640533447,
   1.1038926839828491,
   1.0841519832611084,
   1.06813645362854,
   1.05732262134552,
   1.0492990016937256,
   1.041064977645874,
   1.0366709232330322,
   1.0111720561981201,
   1.0082283020019531,
   1.0013879537582397,
   1.0056607723236084,
   1.0022352933883667,
   1.0037643909454346,
   0.99988877773284912,
   0.99335896968841553,
   1.0006377696990967,
   0.99812412261962891,
   1.0068683624267578,
   1.0097726583480835,
   0.99213063716888428,
   0.99121248722076416,
   0.98496913909912109,
   0.97739583253860474,
   1.0045679807662964,
   0.98607814311981201
]
