[
   8.8402986526489258,
   8.8768739700317383,
   8.8250303268432617,
   8.8417301177978516,
   8.826146125793457,
   8.8508434295654297,
   8.827911376953125,
   8.809697151184082,
   8.7991132736206055,
   8.7747592926025391,
   8.70928955078125,
   8.6756687164306641,
   8.5966835021972656,
   8.5551652908325195,
   8.5274953842163086,
   8.4591331481933594,
   8.4213829040527344,
   8.3995094299316406,
   8.337468147277832,
   7.9444723129272461,
   7.5427412986755371,
   7.2612991333007812,
   6.9973459243774414,
   6.7383294105529785,
   6.5303740501403809,
   6.3309965133666992,
   6.0883398056030273,
   5.9274516105651855,
   4.6577253341674805,
   3.8804588317871094,
   3.3648326396942139,
   2.9840562343597412,
   2.7204699516296387,
   2.4745669364929199,
   2.3298532962799072,
   2.1621420383453369,
   2.0401642322540283,
   1.4865468740463257,
   1.2606989145278931,
   1.2023288011550903,
   1.1562153100967407,
   1.1160295009613037,
   1.0461947917938232,
   1.0185617208480835,
   1.0336768627166748,
   1.0358890295028687,
   1.0193907022476196,
   0.99048078060150146,
   1.0714312791824341,
   0.97352123260498047,
   0.99908846616744995,
   0.94643986225128174,
   0.98480653762817383,
   0.96836405992507935,
   1.0178992748260498,
   1.0242478847503662,
   1.0093693733215332,
   0.99401396512985229,
   1.059089183807373,
   0.99289166927337646,
   0.93843907117843628,
   0.89484632015228271,
   0.86756765842437744,
   0.95530414581298828
]
