[
   1.9263026714324951,
   1.9274381399154663,
   1.9262979030609131,
   1.9255363941192627,
   1.9245408773422241,
   1.9246829748153687,
   1.9246394634246826,
   1.9253780841827393,
   1.923025369644165,
   1.9242181777954102,
   1.9225161075592041,
   1.9201250076293945,
   1.9201151132583618,
   1.9196443557739258,
   1.9163974523544312,
   1.9139989614486694,
   1.9125502109527588,
   1.9118077754974365,
   1.9098608493804932,
   1.8936283588409424,
   1.8791660070419312,
   1.8640367984771729,
   1.8532381057739258,
   1.8416759967803955,
   1.8294652700424194,
   1.820614218711853,
   1.8099365234375,
   1.7989490032196045,
   1.7213500738143921,
   1.6578468084335327,
   1.6069036722183228,
   1.5632482767105103,
   1.5213097333908081,
   1.4900705814361572,
   1.4593791961669922,
   1.4327303171157837,
   1.4074445962905884,
   1.2477383613586426,
   1.1784045696258545,
   1.1313022375106812,
   1.0984170436859131,
   1.0736337900161743,
   1.0603847503662109,
   1.0427751541137695,
   1.0353071689605713,
   1.0328433513641357,
   1.00055992603302,
   0.98900908231735229,
   0.99965918064117432,
   0.99755764007568359,
   0.99695456027984619,
   0.99131184816360474,
   1.0154379606246948,
   0.99519979953765869,
   0.99433135986328125,
   0.99006539583206177,
   1.0015565156936646,
   0.97394293546676636,
   1.016061544418335,
   0.98852694034576416,
   1.0018689632415771,
   1.0127009153366089,
   1.0021411180496216,
   0.98728859424591064
]
