[
   1.5108761787414551,
   1.5106608867645264,
   1.5108885765075684,
   1.5111849308013916,
   1.5105408430099487,
   1.5103757381439209,
   1.5111681222915649,
   1.5097811222076416,
   1.5100681781768799,
   1.5097348690032959,
   1.5104550123214722,
   1.5090758800506592,
   1.5082746744155884,
   1.5083177089691162,
   1.5068709850311279,
   1.5069081783294678,
   1.5054380893707275,
   1.505229115486145,
   1.5048303604125977,
   1.497650146484375,
   1.4928301572799683,
   1.4875879287719727,
   1.481711745262146,
   1.477137565612793,
   1.4722797870635986,
   1.467437744140625,
   1.463674783706665,
   1.4595310688018799,
   1.4237000942230225,
   1.3958784341812134,
   1.3717433214187622,
   1.3510210514068604,
   1.3325963020324707,
   1.3172862529754639,
   1.3006523847579956,
   1.2871650457382202,
   1.274385929107666,
   1.1857666969299316,
   1.1321216821670532,
   1.101349949836731,
   1.0794652700424194,
   1.0648316144943237,
   1.0569031238555908,
   1.0489461421966553,
   1.040024995803833,
   1.0373837947845459,
   1.0100654363632202,
   1.0027416944503784,
   0.99806022644042969,
   1.0015602111816406,
   1.0064377784729004,
   1.005191445350647,
   1.0033173561096191,
   0.99127930402755737,
   0.99650651216506958,
   1.0044072866439819,
   0.99843007326126099,
   0.98434960842132568,
   0.9856298565864563,
   1.0124287605285645,
   0.98930501937866211,
   0.97484368085861206,
   0.97940778732299805,
   0.97891998291015625
]
