[
   1.628475546836853,
   1.6276118755340576,
   1.6280771493911743,
   1.628063440322876,
   1.6273819208145142,
   1.6271789073944092,
   1.6279634237289429,
   1.6275545358657837,
   1.6266931295394897,
   1.6271250247955322,
   1.626995325088501,
   1.6254251003265381,
   1.6258561611175537,
   1.6232448816299438,
   1.62247633934021,
   1.6207034587860107,
   1.6194578409194946,
   1.6201368570327759,
   1.6178429126739502,
   1.6092579364776611,
   1.6002542972564697,
   1.5924276113510132,
   1.5852580070495605,
   1.5783488750457764,
   1.5708729028701782,
   1.5668566226959229,
   1.5604362487792969,
   1.5557541847229004,
   1.5060688257217407,
   1.4680931568145752,
   1.4379650354385376,
   1.410413384437561,
   1.3869037628173828,
   1.3656727075576782,
   1.3455846309661865,
   1.3296101093292236,
   1.3129584789276123,
   1.2034506797790527,
   1.1430553197860718,
   1.101707935333252,
   1.0745447874069214,
   1.0576319694519043,
   1.0456655025482178,
   1.0409559011459351,
   1.0375635623931885,
   1.03879714012146,
   1.0011167526245117,
   0.9951930046081543,
   1.0053585767745972,
   0.99533826112747192,
   0.99518269300460815,
   1.0014165639877319,
   0.99336957931518555,
   1.0040957927703857,
   1.0086772441864014,
   1.0018560886383057,
   0.99760246276855469,
   1.004919171333313,
   1.0047907829284668,
   0.98696267604827881,
   0.98597782850265503,
   1.0097721815109253,
   0.94556409120559692,
   0.92707175016403198
]
