[
   14.899545669555664,
   14.898452758789062,
   14.843157768249512,
   14.899981498718262,
   14.865859985351562,
   14.830327033996582,
   14.763689994812012,
   14.774595260620117,
   14.778470039367676,
   14.728059768676758,
   14.520317077636719,
   14.462651252746582,
   14.292329788208008,
   14.124471664428711,
   14.044113159179688,
   13.912325859069824,
   13.767953872680664,
   13.721316337585449,
   13.598915100097656,
   12.583722114562988,
   11.67399787902832,
   10.984761238098145,
   10.403667449951172,
   9.7859859466552734,
   9.3785600662231445,
   8.8982429504394531,
   8.495513916015625,
   8.1228389739990234,
   5.8694801330566406,
   4.7051525115966797,
   3.9246304035186768,
   3.3815913200378418,
   3.0664868354797363,
   2.7051622867584229,
   2.5163242816925049,
   2.3644418716430664,
   2.1991772651672363,
   1.5085058212280273,
   1.2467573881149292,
   1.2557343244552612,
   1.1788152456283569,
   1.1447252035140991,
   1.0326619148254395,
   0.98022377490997314,
   1.0145307779312134,
   1.0245729684829712,
   1.0162719488143921,
   0.99057924747467041,
   1.0870169401168823,
   0.97209912538528442,
   1.0121157169342041,
   0.92418348789215088,
   0.97738522291183472,
   0.95923441648483276,
   1.0308294296264648,
   1.0109765529632568,
   1.0038797855377197,
   1.0056973695755005,
   1.0577594041824341,
   1.009055495262146,
   0.91488325595855713,
   0.86983507871627808,
   0.75484240055084229,
   0.9510682225227356
]
