[
   1.4145181179046631,
   1.415299654006958,
   1.4139196872711182,
   1.4146126508712769,
   1.4132540225982666,
   1.414543628692627,
   1.4149024486541748,
   1.4136412143707275,
   1.4142205715179443,
   1.414886474609375,
   1.4135419130325317,
   1.4139738082885742,
   1.4130078554153442,
   1.4135063886642456,
   1.4113527536392212,
   1.4114044904708862,
   1.4108760356903076,
   1.4104213714599609,
   1.4099680185317993,
   1.4053819179534912,
   1.4004964828491211,
   1.3978157043457031,
   1.3919985294342041,
   1.3893001079559326,
   1.3854930400848389,
   1.3820626735687256,
   1.3776410818099976,
   1.3750503063201904,
   1.3482129573822021,
   1.3263213634490967,
   1.3076683282852173,
   1.2924568653106689,
   1.2782797813415527,
   1.2651337385177612,
   1.2529056072235107,
   1.2420709133148193,
   1.2317569255828857,
   1.1603102684020996,
   1.1176332235336304,
   1.0892610549926758,
   1.0715420246124268,
   1.0568902492523193,
   1.0458434820175171,
   1.0386015176773071,
   1.0310990810394287,
   1.0297921895980835,
   1.007144570350647,
   1.0083334445953369,
   1.0083410739898682,
   1.0107344388961792,
   1.005108118057251,
   1.0031991004943848,
   1.0086977481842041,
   1.003037691116333,
   1.0079953670501709,
   1.0117747783660889,
   1.0039846897125244,
   1.0058705806732178,
   1.0021951198577881,
   0.99968749284744263,
   0.98795139789581299,
   0.98008620738983154,
   0.93259918689727783,
   0.91710883378982544
]
