[
   1.5444457530975342,
   1.5446932315826416,
   1.5452853441238403,
   1.5448356866836548,
   1.5450265407562256,
   1.54502272605896,
   1.5441690683364868,
   1.544896125793457,
   1.5448030233383179,
   1.544934868812561,
   1.5438990592956543,
   1.5449285507202148,
   1.5430694818496704,
   1.5430114269256592,
   1.5425013303756714,
   1.541766881942749,
   1.5422028303146362,
   1.5423036813735962,
   1.5412063598632812,
   1.5385997295379639,
   1.5358989238739014,
   1.5325156450271606,
   1.5293726921081543,
   1.5258400440216064,
   1.5240193605422974,
   1.5213781595230103,
   1.5182030200958252,
   1.517158031463623,
   1.4954562187194824,
   1.4761348962783813,
   1.4593143463134766,
   1.4437686204910278,
   1.4299019575119019,
   1.4170393943786621,
   1.4039415121078491,
   1.393102765083313,
   1.3810198307037354,
   1.2940191030502319,
   1.2393171787261963,
   1.2006433010101318,
   1.1724691390991211,
   1.1461181640625,
   1.1276319026947021,
   1.1121196746826172,
   1.0997604131698608,
   1.09276282787323,
   1.037217378616333,
   1.0033881664276123,
   0.99146890640258789,
   0.99131613969802856,
   0.99497538805007935,
   1.0001639127731323,
   0.98477917909622192,
   0.99619561433792114,
   1.0014179944992065,
   0.99943751096725464,
   0.98854362964630127,
   1.0014206171035767,
   1.0001461505889893,
   0.98706692457199097,
   0.97437512874603271,
   0.99359673261642456,
   0.96600282192230225,
   0.92471599578857422
]
