[
   1.324465274810791,
   1.3249363899230957,
   1.3238644599914551,
   1.3243801593780518,
   1.3243330717086792,
   1.3239883184432983,
   1.3238697052001953,
   1.3246549367904663,
   1.3245480060577393,
   1.324202299118042,
   1.3240526914596558,
   1.3232799768447876,
   1.3235858678817749,
   1.3224976062774658,
   1.32314133644104,
   1.3232451677322388,
   1.3231862783432007,
   1.3228962421417236,
   1.3231323957443237,
   1.3211966753005981,
   1.3197343349456787,
   1.3197377920150757,
   1.317421555519104,
   1.3165303468704224,
   1.3153713941574097,
   1.3144265413284302,
   1.3131781816482544,
   1.3110218048095703,
   1.3011624813079834,
   1.2923240661621094,
   1.2846415042877197,
   1.277423620223999,
   1.2702887058258057,
   1.2640818357467651,
   1.257936954498291,
   1.2514727115631104,
   1.2464892864227295,
   1.2006285190582275,
   1.1683900356292725,
   1.1435465812683105,
   1.1361339092254639,
   1.1194727420806885,
   1.1055063009262085,
   1.0936932563781738,
   1.0842036008834839,
   1.0783865451812744,
   1.0315700769424438,
   1.0129325389862061,
   1.0105355978012085,
   1.0127203464508057,
   1.0126845836639404,
   0.99882900714874268,
   0.99505692720413208,
   0.99710977077484131,
   0.99511414766311646,
   1.0012995004653931,
   0.98802006244659424,
   1.0049879550933838,
   1.0044528245925903,
   0.97418606281280518,
   0.97826814651489258,
   1.0076214075088501,
   0.99391239881515503,
   0.94541072845458984
]
