[
   1.7375288009643555,
   1.7385413646697998,
   1.7388572692871094,
   1.739354133605957,
   1.7375028133392334,
   1.7382872104644775,
   1.7377316951751709,
   1.7384418249130249,
   1.7378984689712524,
   1.7382791042327881,
   1.7388490438461304,
   1.7360372543334961,
   1.7367130517959595,
   1.7365224361419678,
   1.7367416620254517,
   1.7356334924697876,
   1.7350972890853882,
   1.7336298227310181,
   1.7347829341888428,
   1.7282154560089111,
   1.7243942022323608,
   1.7202756404876709,
   1.7154529094696045,
   1.7095329761505127,
   1.7056303024291992,
   1.7030017375946045,
   1.6987558603286743,
   1.6941839456558228,
   1.6622136831283569,
   1.6329097747802734,
   1.605663537979126,
   1.582195520401001,
   1.560680627822876,
   1.5417208671569824,
   1.5198264122009277,
   1.5033252239227295,
   1.4867241382598877,
   1.3661832809448242,
   1.2973818778991699,
   1.2467344999313354,
   1.209417462348938,
   1.1791512966156006,
   1.151390552520752,
   1.1304738521575928,
   1.1131880283355713,
   1.0993187427520752,
   1.0407496690750122,
   1.0206234455108643,
   0.99296587705612183,
   0.99445474147796631,
   0.99384462833404541,
   0.99727326631546021,
   0.9879150390625,
   0.99818623065948486,
   0.98769056797027588,
   0.99225807189941406,
   0.97212761640548706,
   0.96250021457672119,
   0.98749399185180664,
   0.9866405725479126,
   1.0595054626464844,
   1.0064382553100586,
   1.0241868495941162,
   1.051888108253479
]
