[
   2.2781655788421631,
   2.2778763771057129,
   2.2796511650085449,
   2.2775919437408447,
   2.2763528823852539,
   2.2746953964233398,
   2.2773432731628418,
   2.2747302055358887,
   2.2747883796691895,
   2.2778148651123047,
   2.2741169929504395,
   2.2747623920440674,
   2.2745306491851807,
   2.2721104621887207,
   2.2679750919342041,
   2.2704470157623291,
   2.2668108940124512,
   2.2628865242004395,
   2.2646620273590088,
   2.2504839897155762,
   2.2375531196594238,
   2.2277367115020752,
   2.2156925201416016,
   2.2044484615325928,
   2.1962103843688965,
   2.1867051124572754,
   2.173201322555542,
   2.1656293869018555,
   2.0786681175231934,
   2.0120925903320312,
   1.9497820138931274,
   1.8948932886123657,
   1.8461414575576782,
   1.7981109619140625,
   1.7601101398468018,
   1.7220878601074219,
   1.6912187337875366,
   1.4635629653930664,
   1.3447927236557007,
   1.2747480869293213,
   1.2262753248214722,
   1.1942799091339111,
   1.1675789356231689,
   1.1433677673339844,
   1.1192070245742798,
   1.1050255298614502,
   1.0437711477279663,
   1.0291645526885986,
   1.0063271522521973,
   0.98859083652496338,
   0.98994433879852295,
   0.96345317363739014,
   1.0072089433670044,
   1.012781023979187,
   1.0192798376083374,
   0.98648107051849365,
   0.97273093461990356,
   0.98321521282196045,
   1.0014983415603638,
   0.96606838703155518,
   0.99498480558395386,
   1.0085160732269287,
   1.0062698125839233,
   0.87520515918731689
]
