[
   1.3961966037750244,
   1.3964993953704834,
   1.3956599235534668,
   1.3957992792129517,
   1.3951480388641357,
   1.3960858583450317,
   1.3957432508468628,
   1.3961622714996338,
   1.3957629203796387,
   1.3956637382507324,
   1.3951501846313477,
   1.3951151371002197,
   1.3951423168182373,
   1.395382285118103,
   1.3945696353912354,
   1.3941446542739868,
   1.3942711353302002,
   1.3945004940032959,
   1.3947514295578003,
   1.391620397567749,
   1.3907814025878906,
   1.3887407779693604,
   1.3868973255157471,
   1.3859348297119141,
   1.3836065530776978,
   1.3819191455841064,
   1.3809965848922729,
   1.3792037963867188,
   1.367121696472168,
   1.3546741008758545,
   1.3427082300186157,
   1.3339097499847412,
   1.3246670961380005,
   1.3152835369110107,
   1.3082114458084106,
   1.3000444173812866,
   1.2934678792953491,
   1.2363369464874268,
   1.1958776712417603,
   1.1652376651763916,
   1.1440026760101318,
   1.1222712993621826,
   1.1081360578536987,
   1.0973567962646484,
   1.086236834526062,
   1.079810619354248,
   1.0328567028045654,
   1.0179510116577148,
   1.009476900100708,
   1.0049583911895752,
   1.0039659738540649,
   1.0048071146011353,
   1.0086009502410889,
   1.0049953460693359,
   0.99886876344680786,
   1.0067797899246216,
   1.0097504854202271,
   0.99269580841064453,
   0.98192930221557617,
   0.99512004852294922,
   0.99985867738723755,
   0.95903807878494263,
   0.92361938953399658,
   0.98373430967330933
]
