[
   1.4792602062225342,
   1.4806586503982544,
   1.4795858860015869,
   1.4810954332351685,
   1.4798991680145264,
   1.479436993598938,
   1.4811255931854248,
   1.4796698093414307,
   1.4799888134002686,
   1.4802103042602539,
   1.4790587425231934,
   1.4789022207260132,
   1.4805200099945068,
   1.4780958890914917,
   1.4784265756607056,
   1.4778646230697632,
   1.4785234928131104,
   1.4776221513748169,
   1.4773738384246826,
   1.4742206335067749,
   1.4716911315917969,
   1.4697504043579102,
   1.4676191806793213,
   1.4643285274505615,
   1.4625095129013062,
   1.4604805707931519,
   1.4588391780853271,
   1.4556231498718262,
   1.4374139308929443,
   1.4210053682327271,
   1.4057718515396118,
   1.392596960067749,
   1.3794310092926025,
   1.368498682975769,
   1.3575407266616821,
   1.3470834493637085,
   1.3367654085159302,
   1.262157678604126,
   1.2092472314834595,
   1.1716980934143066,
   1.144944429397583,
   1.1239960193634033,
   1.1075010299682617,
   1.0947219133377075,
   1.0835645198822021,
   1.0779426097869873,
   1.0374976396560669,
   1.0179893970489502,
   1.0082547664642334,
   0.99981343746185303,
   0.99403238296508789,
   0.9950786828994751,
   0.9936901330947876,
   0.99055564403533936,
   0.98826920986175537,
   0.99034976959228516,
   0.99018365144729614,
   0.99778890609741211,
   0.99710482358932495,
   0.97476875782012939,
   1.002832293510437,
   1.0128061771392822,
   1.0388491153717041,
   1.1229995489120483
]
