[
   1.4381283521652222,
   1.4368901252746582,
   1.4372537136077881,
   1.4375292062759399,
   1.4374487400054932,
   1.4361996650695801,
   1.4362809658050537,
   1.4370085000991821,
   1.4370940923690796,
   1.4366974830627441,
   1.4370958805084229,
   1.4367002248764038,
   1.4363307952880859,
   1.4358134269714355,
   1.4357118606567383,
   1.436284065246582,
   1.4355581998825073,
   1.435707688331604,
   1.4351217746734619,
   1.4324195384979248,
   1.430952787399292,
   1.4292446374893188,
   1.4268981218338013,
   1.4243366718292236,
   1.4244468212127686,
   1.4207323789596558,
   1.4185106754302979,
   1.4176130294799805,
   1.4023977518081665,
   1.388049840927124,
   1.3770924806594849,
   1.3648135662078857,
   1.3542587757110596,
   1.3450603485107422,
   1.3359305858612061,
   1.3265340328216553,
   1.3181558847427368,
   1.2523671388626099,
   1.2077763080596924,
   1.1741347312927246,
   1.1498177051544189,
   1.129591703414917,
   1.1133553981781006,
   1.1002936363220215,
   1.088436484336853,
   1.0827324390411377,
   1.0421105623245239,
   1.0247229337692261,
   1.0064772367477417,
   1.01197350025177,
   1.002899169921875,
   0.99930888414382935,
   1.0009337663650513,
   1.0012626647949219,
   1.0021965503692627,
   0.99622076749801636,
   0.99897110462188721,
   0.990805983543396,
   0.99647808074951172,
   1.0024406909942627,
   0.99511796236038208,
   0.98826396465301514,
   0.97845268249511719,
   0.96892881393432617
]
