[
   1.3468564748764038,
   1.346477746963501,
   1.3470917940139771,
   1.3467062711715698,
   1.3467226028442383,
   1.346464991569519,
   1.3464928865432739,
   1.3468692302703857,
   1.3460646867752075,
   1.3466465473175049,
   1.3465886116027832,
   1.3464380502700806,
   1.3465358018875122,
   1.3461365699768066,
   1.3460811376571655,
   1.3461893796920776,
   1.3453508615493774,
   1.3455154895782471,
   1.3449382781982422,
   1.3433866500854492,
   1.3420363664627075,
   1.3402516841888428,
   1.3396391868591309,
   1.3379693031311035,
   1.3360875844955444,
   1.3350205421447754,
   1.3339848518371582,
   1.3326845169067383,
   1.32105553150177,
   1.311302661895752,
   1.3014261722564697,
   1.2934873104095459,
   1.2854950428009033,
   1.2777073383331299,
   1.2712293863296509,
   1.2641624212265015,
   1.2579281330108643,
   1.2072261571884155,
   1.1697771549224854,
   1.1399729251861572,
   1.1264848709106445,
   1.1078623533248901,
   1.0923035144805908,
   1.0817482471466064,
   1.0730279684066772,
   1.0663832426071167,
   1.0255190134048462,
   1.0102412700653076,
   0.99993836879730225,
   0.99548923969268799,
   1.003852367401123,
   0.9977034330368042,
   0.98658668994903564,
   0.98512411117553711,
   0.98329323530197144,
   0.98636257648468018,
   0.98351448774337769,
   0.98436355590820312,
   0.9882233738899231,
   1.0035998821258545,
   1.0137031078338623,
   1.021009087562561,
   1.0895248651504517,
   1.0964686870574951
]
