[
   1.3892016410827637,
   1.3887050151824951,
   1.3889749050140381,
   1.3882682323455811,
   1.3889443874359131,
   1.3888237476348877,
   1.3896647691726685,
   1.388864278793335,
   1.3885564804077148,
   1.3883824348449707,
   1.3889305591583252,
   1.3881824016571045,
   1.3885092735290527,
   1.3878488540649414,
   1.387576699256897,
   1.3881733417510986,
   1.3872450590133667,
   1.3869209289550781,
   1.3871951103210449,
   1.384987473487854,
   1.382763147354126,
   1.3809560537338257,
   1.3785498142242432,
   1.3763153553009033,
   1.3752405643463135,
   1.3727058172225952,
   1.3702647686004639,
   1.3689130544662476,
   1.3513878583908081,
   1.3357815742492676,
   1.3218176364898682,
   1.3086330890655518,
   1.2970227003097534,
   1.2856307029724121,
   1.2759355306625366,
   1.2658625841140747,
   1.256171703338623,
   1.1905100345611572,
   1.1475907564163208,
   1.1172431707382202,
   1.0989521741867065,
   1.0799975395202637,
   1.0640382766723633,
   1.0557429790496826,
   1.0485103130340576,
   1.0461461544036865,
   1.0208593606948853,
   1.0096107721328735,
   0.9993012547492981,
   0.99147605895996094,
   1.0106563568115234,
   1.008905291557312,
   1.0023540258407593,
   1.0019938945770264,
   1.0090582370758057,
   0.99799233675003052,
   1.0044187307357788,
   1.0086318254470825,
   1.0109661817550659,
   0.98205649852752686,
   0.97904860973358154,
   0.96566832065582275,
   0.9832189679145813,
   0.9500507116317749
]
