[
   1.7091223001480103,
   1.7084869146347046,
   1.7100811004638672,
   1.7088775634765625,
   1.7099905014038086,
   1.708579421043396,
   1.7097876071929932,
   1.7085199356079102,
   1.7090218067169189,
   1.7074581384658813,
   1.7077131271362305,
   1.7085233926773071,
   1.7085975408554077,
   1.7063497304916382,
   1.7062952518463135,
   1.705304741859436,
   1.7034622430801392,
   1.702960729598999,
   1.7037433385848999,
   1.6969314813613892,
   1.6887845993041992,
   1.6822608709335327,
   1.6770889759063721,
   1.6721408367156982,
   1.6662776470184326,
   1.6599404811859131,
   1.6537389755249023,
   1.6479877233505249,
   1.6001087427139282,
   1.5548856258392334,
   1.5178496837615967,
   1.4882509708404541,
   1.4586582183837891,
   1.4317746162414551,
   1.4078023433685303,
   1.3858476877212524,
   1.3681256771087646,
   1.2405210733413696,
   1.1808440685272217,
   1.1459283828735352,
   1.1234943866729736,
   1.1022707223892212,
   1.0851507186889648,
   1.0769062042236328,
   1.0688854455947876,
   1.0589388608932495,
   1.0169327259063721,
   0.99596059322357178,
   0.9989086389541626,
   0.99602538347244263,
   0.99097108840942383,
   0.99512398242950439,
   0.996315598487854,
   0.99630057811737061,
   0.99113434553146362,
   1.0039701461791992,
   0.97213709354400635,
   0.96778643131256104,
   0.99482822418212891,
   1.0029997825622559,
   1.031402587890625,
   1.0201404094696045,
   1.0229992866516113,
   0.97473031282424927
]
