[
   1.3018085956573486,
   1.3014688491821289,
   1.3015342950820923,
   1.301706075668335,
   1.3017518520355225,
   1.3016349077224731,
   1.301283597946167,
   1.301108717918396,
   1.3010059595108032,
   1.3012287616729736,
   1.3016290664672852,
   1.3010250329971313,
   1.3008143901824951,
   1.3003678321838379,
   1.3008496761322021,
   1.3003880977630615,
   1.3001499176025391,
   1.3003081083297729,
   1.300254225730896,
   1.2986782789230347,
   1.2980690002441406,
   1.2957130670547485,
   1.2947018146514893,
   1.2934596538543701,
   1.2921284437179565,
   1.2915160655975342,
   1.2902705669403076,
   1.2889450788497925,
   1.2771507501602173,
   1.2670919895172119,
   1.2570195198059082,
   1.24878990650177,
   1.2406911849975586,
   1.2326114177703857,
   1.2252084016799927,
   1.2183133363723755,
   1.2119543552398682,
   1.1628060340881348,
   1.1307672262191772,
   1.1068723201751709,
   1.1036683320999146,
   1.0893735885620117,
   1.0782124996185303,
   1.0701613426208496,
   1.0627425909042358,
   1.0574837923049927,
   1.0263352394104004,
   1.0099579095840454,
   1.000293493270874,
   1.0079581737518311,
   1.0016870498657227,
   0.99989521503448486,
   0.99921607971191406,
   1.0001800060272217,
   0.99616968631744385,
   1.0041906833648682,
   0.99688225984573364,
   0.98774683475494385,
   1.0097002983093262,
   0.98858785629272461,
   0.98401200771331787,
   1.0006524324417114,
   0.96176302433013916,
   1.0289838314056396
]
