[
   1.3458895683288574,
   1.3460097312927246,
   1.3465648889541626,
   1.345409631729126,
   1.3458034992218018,
   1.3454043865203857,
   1.3462846279144287,
   1.3462810516357422,
   1.3454583883285522,
   1.345333456993103,
   1.3453754186630249,
   1.3457297086715698,
   1.3456296920776367,
   1.3453999757766724,
   1.3456413745880127,
   1.3441325426101685,
   1.3445199728012085,
   1.3442752361297607,
   1.3440521955490112,
   1.3419895172119141,
   1.3406753540039062,
   1.337989330291748,
   1.3375375270843506,
   1.3355785608291626,
   1.3338339328765869,
   1.3322551250457764,
   1.3305518627166748,
   1.3293088674545288,
   1.3135207891464233,
   1.3006523847579956,
   1.288310170173645,
   1.277815580368042,
   1.2672988176345825,
   1.2574234008789062,
   1.2482502460479736,
   1.2400882244110107,
   1.2322027683258057,
   1.1748900413513184,
   1.1384885311126709,
   1.1133596897125244,
   1.1023526191711426,
   1.0873986482620239,
   1.0736454725265503,
   1.0650460720062256,
   1.058037281036377,
   1.0524647235870361,
   1.0203293561935425,
   1.0012017488479614,
   1.0047136545181274,
   1.0101141929626465,
   1.010064959526062,
   1.00262451171875,
   1.0012729167938232,
   1.0032460689544678,
   1.0051505565643311,
   1.0125399827957153,
   1.0060898065567017,
   1.0012810230255127,
   0.99901753664016724,
   0.97725993394851685,
   0.97110140323638916,
   0.96117717027664185,
   0.95451104640960693,
   0.96899205446243286
]
