[
   1.6157916784286499,
   1.6146163940429688,
   1.6155040264129639,
   1.6140975952148438,
   1.6143066883087158,
   1.6146166324615479,
   1.6139495372772217,
   1.6147825717926025,
   1.61370849609375,
   1.614091157913208,
   1.6130861043930054,
   1.6130555868148804,
   1.6126559972763062,
   1.6116046905517578,
   1.6117795705795288,
   1.6094623804092407,
   1.6108611822128296,
   1.6098273992538452,
   1.61055588722229,
   1.6044423580169678,
   1.5997300148010254,
   1.5958458185195923,
   1.5900756120681763,
   1.5855852365493774,
   1.5805613994598389,
   1.5763789415359497,
   1.5733981132507324,
   1.567365288734436,
   1.5304381847381592,
   1.4972323179244995,
   1.4680211544036865,
   1.442157506942749,
   1.4196474552154541,
   1.3979986906051636,
   1.378156304359436,
   1.361506462097168,
   1.3452047109603882,
   1.2367064952850342,
   1.1785348653793335,
   1.1411614418029785,
   1.1186408996582031,
   1.101743221282959,
   1.08823561668396,
   1.0809717178344727,
   1.0717353820800781,
   1.0650993585586548,
   1.0300889015197754,
   1.0076779127120972,
   1.0117275714874268,
   1.0071392059326172,
   1.001844048500061,
   0.99239730834960938,
   0.99435681104660034,
   0.99385595321655273,
   0.99451828002929688,
   0.98706454038619995,
   0.99173849821090698,
   0.98536884784698486,
   0.97472190856933594,
   1.0003198385238647,
   1.0173577070236206,
   0.98555314540863037,
   1.0047887563705444,
   0.96215283870697021
]
