[
   5.3315291404724121,
   5.3450326919555664,
   5.3351607322692871,
   5.3278427124023438,
   5.3228468894958496,
   5.3290901184082031,
   5.3183798789978027,
   5.3143496513366699,
   5.3046388626098633,
   5.3118829727172852,
   5.2745685577392578,
   5.2733635902404785,
   5.2342109680175781,
   5.227569580078125,
   5.210026741027832,
   5.1735982894897461,
   5.1633453369140625,
   5.1280755996704102,
   5.1335306167602539,
   4.9357147216796875,
   4.766697883605957,
   4.604057788848877,
   4.453887939453125,
   4.3466291427612305,
   4.2098207473754883,
   4.0892152786254883,
   3.9745476245880127,
   3.8943779468536377,
   3.1807403564453125,
   2.7475333213806152,
   2.458533763885498,
   2.2592792510986328,
   2.0917565822601318,
   1.9636375904083252,
   1.8687055110931396,
   1.7841939926147461,
   1.7234764099121094,
   1.3752577304840088,
   1.2538307905197144,
   1.1685605049133301,
   1.1316300630569458,
   1.114205002784729,
   1.0805613994598389,
   1.0532515048980713,
   1.0604619979858398,
   1.0390269756317139,
   1.0223567485809326,
   1.0180789232254028,
   1.0358468294143677,
   1.0041282176971436,
   1.0055679082870483,
   0.97580492496490479,
   0.97850066423416138,
   1.0038344860076904,
   0.97855293750762939,
   1.0092512369155884,
   1.0276801586151123,
   1.0310360193252563,
   0.99279499053955078,
   0.94946110248565674,
   0.92186975479125977,
   0.9532923698425293,
   0.95358341932296753,
   0.99920827150344849
]
