[
   2.4262266159057617,
   2.4243044853210449,
   2.4267897605895996,
   2.4221959114074707,
   2.4261541366577148,
   2.4269058704376221,
   2.4267764091491699,
   2.4262213706970215,
   2.4270055294036865,
   2.4290423393249512,
   2.4217767715454102,
   2.4241020679473877,
   2.4157028198242188,
   2.4152348041534424,
   2.4096231460571289,
   2.4101824760437012,
   2.4082741737365723,
   2.4040846824645996,
   2.4023690223693848,
   2.3742012977600098,
   2.3554942607879639,
   2.3277037143707275,
   2.3079459667205811,
   2.2843730449676514,
   2.2678604125976562,
   2.247952938079834,
   2.2282907962799072,
   2.2114367485046387,
   2.0512261390686035,
   1.9231917858123779,
   1.8277860879898071,
   1.7448800802230835,
   1.6798045635223389,
   1.6239469051361084,
   1.5752339363098145,
   1.5338919162750244,
   1.4972760677337646,
   1.298781156539917,
   1.2174232006072998,
   1.1648960113525391,
   1.1291923522949219,
   1.1135537624359131,
   1.0989793539047241,
   1.0823818445205688,
   1.0772808790206909,
   1.063444972038269,
   1.021324634552002,
   1.0101610422134399,
   0.99290496110916138,
   0.99218291044235229,
   0.97377985715866089,
   0.98080551624298096,
   0.97814083099365234,
   0.9889901876449585,
   0.97723978757858276,
   0.99037617444992065,
   0.99895823001861572,
   0.99048984050750732,
   0.96486282348632812,
   1.0132869482040405,
   1.00361168384552,
   0.97907340526580811,
   0.96500694751739502,
   1.1128150224685669
]
