[
   3.1667323112487793,
   3.1665527820587158,
   3.1715061664581299,
   3.1650311946868896,
   3.1627039909362793,
   3.1615071296691895,
   3.1654002666473389,
   3.1647536754608154,
   3.1633989810943604,
   3.1609182357788086,
   3.1577463150024414,
   3.1557576656341553,
   3.1449971199035645,
   3.143129825592041,
   3.1292417049407959,
   3.1296861171722412,
   3.128803014755249,
   3.1197619438171387,
   3.1155247688293457,
   3.0629322528839111,
   3.0071074962615967,
   2.9579377174377441,
   2.9201066493988037,
   2.8703064918518066,
   2.8239693641662598,
   2.7942543029785156,
   2.7630295753479004,
   2.7254772186279297,
   2.4376962184906006,
   2.2296891212463379,
   2.0757975578308105,
   1.9571539163589478,
   1.8583717346191406,
   1.7828905582427979,
   1.7142419815063477,
   1.6564722061157227,
   1.6101077795028687,
   1.3448646068572998,
   1.2306954860687256,
   1.1945286989212036,
   1.1540740728378296,
   1.1389235258102417,
   1.1101803779602051,
   1.0885977745056152,
   1.0778940916061401,
   1.0720998048782349,
   1.0123381614685059,
   0.99719780683517456,
   0.9813772439956665,
   1.0042836666107178,
   1.0053261518478394,
   0.99962198734283447,
   1.0018923282623291,
   0.97112387418746948,
   0.98320615291595459,
   0.99280786514282227,
   1.0120276212692261,
   1.0027947425842285,
   1.0012619495391846,
   0.98024672269821167,
   0.96368324756622314,
   1.0091894865036011,
   1.0216577053070068,
   1.0201842784881592
]
