[
   4.030512809753418,
   4.0308170318603516,
   4.0372171401977539,
   4.0293278694152832,
   4.0298576354980469,
   4.0279417037963867,
   4.0276937484741211,
   4.0183548927307129,
   4.0291814804077148,
   4.0227646827697754,
   4.0148248672485352,
   4.0028886795043945,
   3.9822497367858887,
   3.9804198741912842,
   3.9660224914550781,
   3.950772762298584,
   3.9470665454864502,
   3.9289989471435547,
   3.9146430492401123,
   3.8103954792022705,
   3.7121405601501465,
   3.6351923942565918,
   3.5475375652313232,
   3.4820575714111328,
   3.4018549919128418,
   3.3423736095428467,
   3.2812850475311279,
   3.2273609638214111,
   2.7722649574279785,
   2.4737575054168701,
   2.2405972480773926,
   2.0749545097351074,
   1.9323301315307617,
   1.8375946283340454,
   1.7652879953384399,
   1.6926257610321045,
   1.6340618133544922,
   1.3689817190170288,
   1.2607409954071045,
   1.1821422576904297,
   1.1390311717987061,
   1.1058022975921631,
   1.100926399230957,
   1.0847121477127075,
   1.055612325668335,
   1.0420429706573486,
   1.0148566961288452,
   1.0206353664398193,
   1.0025341510772705,
   0.994060218334198,
   0.99152928590774536,
   0.99411499500274658,
   0.97691804170608521,
   1.0074918270111084,
   0.9771348237991333,
   0.96796494722366333,
   1.001268744468689,
   1.0153765678405762,
   0.98026084899902344,
   0.97352063655853271,
   0.96822994947433472,
   0.98252058029174805,
   0.99397784471511841,
   0.97277373075485229
]
