[
   1.5929373502731323,
   1.593875527381897,
   1.5920546054840088,
   1.5938705205917358,
   1.5930939912796021,
   1.59346604347229,
   1.5924164056777954,
   1.5939483642578125,
   1.5923585891723633,
   1.592106819152832,
   1.5914438962936401,
   1.5917205810546875,
   1.5908833742141724,
   1.5905723571777344,
   1.5883835554122925,
   1.5886809825897217,
   1.5867774486541748,
   1.5870375633239746,
   1.585424542427063,
   1.5779379606246948,
   1.5732327699661255,
   1.5662322044372559,
   1.5601509809494019,
   1.5541893243789673,
   1.5486630201339722,
   1.5436590909957886,
   1.5374088287353516,
   1.5325801372528076,
   1.488114595413208,
   1.4529691934585571,
   1.4233939647674561,
   1.3965314626693726,
   1.3718507289886475,
   1.3520286083221436,
   1.3342770338058472,
   1.3159427642822266,
   1.300934910774231,
   1.198298454284668,
   1.1477698087692261,
   1.1086838245391846,
   1.0890272855758667,
   1.0724201202392578,
   1.0564677715301514,
   1.0438359975814819,
   1.035117506980896,
   1.0303679704666138,
   1.0052717924118042,
   0.98539960384368896,
   0.99447280168533325,
   0.99224919080734253,
   0.99344176054000854,
   0.99968111515045166,
   0.99869614839553833,
   0.99903666973114014,
   0.99677169322967529,
   0.99942445755004883,
   0.99930745363235474,
   0.98743200302124023,
   0.99198853969573975,
   0.99813759326934814,
   1.0070198774337769,
   0.99777317047119141,
   0.97731971740722656,
   0.98550069332122803
]
