[
   1.5275285243988037,
   1.5280208587646484,
   1.5262449979782104,
   1.5269531011581421,
   1.5276939868927002,
   1.5275318622589111,
   1.527970552444458,
   1.5268043279647827,
   1.5268102884292603,
   1.5271655321121216,
   1.5267413854598999,
   1.5256537199020386,
   1.5246013402938843,
   1.5249154567718506,
   1.5246177911758423,
   1.5223950147628784,
   1.5233083963394165,
   1.5216370820999146,
   1.5210423469543457,
   1.5146515369415283,
   1.5093616247177124,
   1.50348961353302,
   1.4986920356750488,
   1.4948141574859619,
   1.4898936748504639,
   1.4853361845016479,
   1.4799638986587524,
   1.4758962392807007,
   1.4391763210296631,
   1.4080066680908203,
   1.381351113319397,
   1.3592052459716797,
   1.3383846282958984,
   1.3204736709594727,
   1.3046000003814697,
   1.289757251739502,
   1.2764968872070312,
   1.1875450611114502,
   1.1377946138381958,
   1.1045405864715576,
   1.0827152729034424,
   1.0660054683685303,
   1.0572131872177124,
   1.0464870929718018,
   1.0376899242401123,
   1.0318477153778076,
   1.0046030282974243,
   1.0018446445465088,
   0.99811190366744995,
   1.0016793012619019,
   0.99953019618988037,
   0.9932745099067688,
   0.98139762878417969,
   0.98124438524246216,
   1.0058519840240479,
   0.99765282869338989,
   0.99078589677810669,
   0.99266308546066284,
   0.99859750270843506,
   1.019498348236084,
   1.0082674026489258,
   1.0201600790023804,
   1.050250768661499,
   1.0024329423904419
]
