[
   11.895211219787598,
   11.862570762634277,
   11.808917045593262,
   11.86009407043457,
   11.802569389343262,
   11.79842472076416,
   11.791985511779785,
   11.706061363220215,
   11.764577865600586,
   11.756207466125488,
   11.606938362121582,
   11.496110916137695,
   11.331851005554199,
   11.235516548156738,
   11.096264839172363,
   10.978873252868652,
   10.913874626159668,
   10.787901878356934,
   10.70250129699707,
   9.8210735321044922,
   9.1017665863037109,
   8.5038537979125977,
   7.9382119178771973,
   7.4536223411560059,
   7.050875186920166,
   6.649836540222168,
   6.3777265548706055,
   6.065546989440918,
   4.3193759918212891,
   3.4417617321014404,
   2.93174147605896,
   2.5750412940979004,
   2.3170006275177002,
   2.158921480178833,
   2.0004825592041016,
   1.8778575658798218,
   1.773961067199707,
   1.3794912099838257,
   1.2389545440673828,
   1.2157217264175415,
   1.0818895101547241,
   1.0419914722442627,
   1.0739225149154663,
   1.1188006401062012,
   1.018505334854126,
   1.0688220262527466,
   1.0072267055511475,
   0.98454463481903076,
   0.99609839916229248,
   0.99120426177978516,
   1.0202242136001587,
   1.0437657833099365,
   0.99919909238815308,
   0.98386973142623901,
   0.99121236801147461,
   0.98594629764556885,
   0.97243291139602661,
   0.976082444190979,
   0.94274204969406128,
   1.0131301879882812,
   0.99893999099731445,
   1.099084734916687,
   1.0450923442840576,
   1.2681909799575806
]
