[
   1.6742362976074219,
   1.6751315593719482,
   1.6724452972412109,
   1.6748974323272705,
   1.6725690364837646,
   1.6728540658950806,
   1.6741647720336914,
   1.6730086803436279,
   1.672748327255249,
   1.6738636493682861,
   1.6728260517120361,
   1.6715131998062134,
   1.6705243587493896,
   1.6690101623535156,
   1.6687955856323242,
   1.6678335666656494,
   1.6665678024291992,
   1.6657102108001709,
   1.6659975051879883,
   1.6570249795913696,
   1.6496164798736572,
   1.6391098499298096,
   1.6327202320098877,
   1.6261345148086548,
   1.618482232093811,
   1.6115440130233765,
   1.606101393699646,
   1.6004190444946289,
   1.5461268424987793,
   1.5033010244369507,
   1.4679338932037354,
   1.4363024234771729,
   1.4083094596862793,
   1.3851510286331177,
   1.3635332584381104,
   1.3428177833557129,
   1.3243715763092041,
   1.212893009185791,
   1.1539237499237061,
   1.1175651550292969,
   1.0895321369171143,
   1.0733983516693115,
   1.0667093992233276,
   1.0587174892425537,
   1.0544751882553101,
   1.0546805858612061,
   1.0174951553344727,
   1.0052659511566162,
   0.99377572536468506,
   1.0064935684204102,
   0.99683475494384766,
   0.99737060070037842,
   0.99937427043914795,
   0.99560850858688354,
   1.0062545537948608,
   0.99192965030670166,
   1.0020433664321899,
   0.9926987886428833,
   0.99322605133056641,
   0.9979318380355835,
   1.0016715526580811,
   0.99737244844436646,
   1.0103129148483276,
   1.023717999458313
]
