[
   40.034523010253906,
   39.823753356933594,
   39.864997863769531,
   39.691055297851562,
   39.220706939697266,
   39.509231567382812,
   39.475242614746094,
   38.881805419921875,
   38.861518859863281,
   38.389553070068359,
   37.151199340820312,
   36.229225158691406,
   35.321208953857422,
   33.980033874511719,
   32.923679351806641,
   31.568523406982422,
   30.884307861328125,
   30.330764770507812,
   29.665319442749023,
   23.973518371582031,
   19.608518600463867,
   17.090808868408203,
   14.576444625854492,
   13.287991523742676,
   12.048975944519043,
   10.980043411254883,
   10.320417404174805,
   9.4564666748046875,
   5.3671674728393555,
   3.9225525856018066,
   3.3473765850067139,
   2.8302602767944336,
   2.4883723258972168,
   2.3347461223602295,
   2.3109004497528076,
   2.1141338348388672,
   1.8782784938812256,
   1.3425141572952271,
   1.2019579410552979,
   1.3224196434020996,
   1.125131368637085,
   1.1229292154312134,
   1.1979272365570068,
   1.1054794788360596,
   1.0518827438354492,
   0.91024476289749146,
   1.0744893550872803,
   1.0877482891082764,
   1.0015964508056641,
   1.0099146366119385,
   1.004378080368042,
   0.92244768142700195,
   0.95377272367477417,
   1.0280759334564209,
   0.93895101547241211,
   1.0105422735214233,
   0.96102601289749146,
   1.0031380653381348,
   1.0117253065109253,
   1.1172651052474976,
   0.91664361953735352,
   0.83677548170089722,
   1.1744973659515381,
   1.1289509534835815
]
