[
   1.3886369466781616,
   1.3901493549346924,
   1.3885949850082397,
   1.3889482021331787,
   1.3888685703277588,
   1.3888648748397827,
   1.3891583681106567,
   1.3890078067779541,
   1.3883947134017944,
   1.3882962465286255,
   1.3881369829177856,
   1.3881403207778931,
   1.3874388933181763,
   1.3873331546783447,
   1.3873575925827026,
   1.3858063220977783,
   1.3861721754074097,
   1.3862735033035278,
   1.3861680030822754,
   1.3817412853240967,
   1.3791797161102295,
   1.375180721282959,
   1.3728427886962891,
   1.3694319725036621,
   1.3665986061096191,
   1.3637793064117432,
   1.3610899448394775,
   1.3573095798492432,
   1.3342435359954834,
   1.3151750564575195,
   1.2979917526245117,
   1.2834780216217041,
   1.2696373462677002,
   1.2572696208953857,
   1.2450793981552124,
   1.2359927892684937,
   1.2263967990875244,
   1.1575930118560791,
   1.1171534061431885,
   1.0903030633926392,
   1.0765283107757568,
   1.0634443759918213,
   1.0564788579940796,
   1.050034761428833,
   1.0435678958892822,
   1.0408774614334106,
   1.0090463161468506,
   0.99866420030593872,
   0.99257248640060425,
   0.98707771301269531,
   0.98998737335205078,
   0.98956525325775146,
   0.99952459335327148,
   0.9994434118270874,
   1.0028606653213501,
   0.99598759412765503,
   0.99748116731643677,
   0.9958149790763855,
   0.99433821439743042,
   1.0038766860961914,
   1.0151660442352295,
   0.9754871129989624,
   0.98917162418365479,
   0.98908126354217529
]
