[
   4.607694149017334,
   4.6116704940795898,
   4.6041760444641113,
   4.5936746597290039,
   4.6077313423156738,
   4.5933833122253418,
   4.6016407012939453,
   4.5993528366088867,
   4.5963411331176758,
   4.5907044410705566,
   4.5657787322998047,
   4.5619354248046875,
   4.5220751762390137,
   4.5129046440124512,
   4.4965996742248535,
   4.4896135330200195,
   4.4671316146850586,
   4.457244873046875,
   4.4284248352050781,
   4.256584644317627,
   4.142031192779541,
   4.0327014923095703,
   3.9283020496368408,
   3.8209025859832764,
   3.7337040901184082,
   3.6569828987121582,
   3.590644359588623,
   3.507530689239502,
   3.0053091049194336,
   2.6501784324645996,
   2.3933172225952148,
   2.2012569904327393,
   2.0450370311737061,
   1.9335243701934814,
   1.8252964019775391,
   1.756730318069458,
   1.6924850940704346,
   1.3553307056427002,
   1.1996574401855469,
   1.108141303062439,
   1.0787827968597412,
   1.0732051134109497,
   1.0489071607589722,
   1.0023562908172607,
   1.0203602313995361,
   1.0253264904022217,
   0.99039298295974731,
   1.020709753036499,
   1.0131304264068604,
   0.99304229021072388,
   0.99598598480224609,
   0.95930564403533936,
   0.98897856473922729,
   1.0081408023834229,
   1.010974645614624,
   0.97999840974807739,
   1.0019590854644775,
   1.0005518198013306,
   0.99327290058135986,
   1.0230456590652466,
   1.00187087059021,
   0.97085046768188477,
   1.1004624366760254,
   1.1194676160812378
]
