[
   1.5069161653518677,
   1.5077259540557861,
   1.5064684152603149,
   1.5064014196395874,
   1.5080035924911499,
   1.5051573514938354,
   1.5060768127441406,
   1.5065691471099854,
   1.5062650442123413,
   1.5070679187774658,
   1.5062259435653687,
   1.5049154758453369,
   1.504280686378479,
   1.5033332109451294,
   1.5022398233413696,
   1.5003900527954102,
   1.4989718198776245,
   1.5000370740890503,
   1.4977855682373047,
   1.4902698993682861,
   1.4829072952270508,
   1.4755557775497437,
   1.4687933921813965,
   1.460376501083374,
   1.454580545425415,
   1.4491586685180664,
   1.4422407150268555,
   1.4370249509811401,
   1.3872687816619873,
   1.3507050275802612,
   1.3199710845947266,
   1.2958256006240845,
   1.2742533683776855,
   1.2559620141983032,
   1.2402107715606689,
   1.2266323566436768,
   1.2130372524261475,
   1.1311664581298828,
   1.0910936594009399,
   1.0680192708969116,
   1.0492795705795288,
   1.0384833812713623,
   1.0279333591461182,
   1.0232411623001099,
   1.0181846618652344,
   1.0155550241470337,
   1.0017634630203247,
   1.0017759799957275,
   1.0019469261169434,
   1.0005052089691162,
   1.0009851455688477,
   0.99475985765457153,
   0.99917984008789062,
   1.002210259437561,
   1.0018018484115601,
   1.0092090368270874,
   1.0058047771453857,
   0.99481296539306641,
   0.98994147777557373,
   1.0023702383041382,
   0.99131697416305542,
   0.98704874515533447,
   0.99069565534591675,
   0.99761533737182617
]
