[
   2.8722090721130371,
   2.8691680431365967,
   2.872288703918457,
   2.8755767345428467,
   2.8710551261901855,
   2.8693110942840576,
   2.8680095672607422,
   2.8706960678100586,
   2.870229959487915,
   2.8686702251434326,
   2.8556203842163086,
   2.8526847362518311,
   2.8456215858459473,
   2.8428149223327637,
   2.8300466537475586,
   2.827643871307373,
   2.8175551891326904,
   2.8139564990997314,
   2.8065235614776611,
   2.7460970878601074,
   2.6883184909820557,
   2.6461210250854492,
   2.6000101566314697,
   2.5613279342651367,
   2.5200724601745605,
   2.4898214340209961,
   2.4545035362243652,
   2.4180474281311035,
   2.182614803314209,
   2.0173850059509277,
   1.8842637538909912,
   1.7837581634521484,
   1.7075355052947998,
   1.6247857809066772,
   1.5720001459121704,
   1.5278512239456177,
   1.4849386215209961,
   1.2600260972976685,
   1.1514036655426025,
   1.0994833707809448,
   1.0698528289794922,
   1.071501612663269,
   1.0431739091873169,
   1.0288172960281372,
   1.0097461938858032,
   1.0125129222869873,
   0.99993830919265747,
   1.0219643115997314,
   0.98812007904052734,
   0.98803073167800903,
   0.99865520000457764,
   1.0029432773590088,
   1.0025703907012939,
   0.9950597882270813,
   0.98632776737213135,
   0.9840320348739624,
   1.0032594203948975,
   0.98191642761230469,
   0.98417395353317261,
   1.0019381046295166,
   1.0242488384246826,
   1.0109298229217529,
   1.0183991193771362,
   0.92498379945755005
]
