[
   1.7879546880722046,
   1.7888227701187134,
   1.7871086597442627,
   1.7868099212646484,
   1.7889658212661743,
   1.7863439321517944,
   1.7871996164321899,
   1.7865892648696899,
   1.7867298126220703,
   1.7873251438140869,
   1.7856490612030029,
   1.7834409475326538,
   1.7822374105453491,
   1.7809257507324219,
   1.778874397277832,
   1.7752565145492554,
   1.7740761041641235,
   1.7730566263198853,
   1.771411657333374,
   1.7560434341430664,
   1.7399839162826538,
   1.727927565574646,
   1.7136270999908447,
   1.6979821920394897,
   1.6873805522918701,
   1.6771062612533569,
   1.6658103466033936,
   1.6552034616470337,
   1.569942831993103,
   1.5085198879241943,
   1.4592611789703369,
   1.4180642366409302,
   1.3840022087097168,
   1.3551675081253052,
   1.3292343616485596,
   1.3068737983703613,
   1.2885499000549316,
   1.1695024967193604,
   1.115584135055542,
   1.0834357738494873,
   1.059292197227478,
   1.0479116439819336,
   1.0339343547821045,
   1.0297343730926514,
   1.0246174335479736,
   1.0172272920608521,
   1.004137396812439,
   1.0025416612625122,
   1.0043210983276367,
   1.0006539821624756,
   1.0004192590713501,
   0.99481344223022461,
   0.99689257144927979,
   1.0034215450286865,
   1.0056526660919189,
   1.0122075080871582,
   1.0047645568847656,
   0.99068069458007812,
   0.98765295743942261,
   1.0003443956375122,
   0.99193239212036133,
   0.98750609159469604,
   0.99188631772994995,
   0.99418050050735474
]
