[
   1.6953155994415283,
   1.6960016489028931,
   1.6949211359024048,
   1.6946510076522827,
   1.6971006393432617,
   1.6940526962280273,
   1.6942713260650635,
   1.6947857141494751,
   1.6953556537628174,
   1.6957190036773682,
   1.6937944889068604,
   1.6918842792510986,
   1.6910547018051147,
   1.6893103122711182,
   1.6878427267074585,
   1.685227632522583,
   1.6835057735443115,
   1.6830288171768188,
   1.6816799640655518,
   1.6692978143692017,
   1.6558881998062134,
   1.6458412408828735,
   1.6342751979827881,
   1.6212434768676758,
   1.6114126443862915,
   1.6033185720443726,
   1.593677282333374,
   1.5849815607070923,
   1.5111480951309204,
   1.4582500457763672,
   1.4154727458953857,
   1.3797949552536011,
   1.3495444059371948,
   1.3241163492202759,
   1.301976203918457,
   1.2824701070785522,
   1.2651717662811279,
   1.1585843563079834,
   1.1083130836486816,
   1.0794969797134399,
   1.0572350025177002,
   1.0452718734741211,
   1.03206467628479,
   1.0284948348999023,
   1.0228897333145142,
   1.0167999267578125,
   1.0035110712051392,
   1.0021339654922485,
   1.0033900737762451,
   1.0008105039596558,
   1.0006942749023438,
   0.99393665790557861,
   0.99794375896453857,
   1.0028113126754761,
   1.0038018226623535,
   1.0115139484405518,
   1.0045220851898193,
   0.99218070507049561,
   0.98886501789093018,
   1.0014280080795288,
   0.99197596311569214,
   0.98603802919387817,
   0.99166738986968994,
   0.99581688642501831
]
