[
   3.5255818367004395,
   3.5266697406768799,
   3.5184071063995361,
   3.5271804332733154,
   3.5113551616668701,
   3.5186810493469238,
   3.5171699523925781,
   3.5156378746032715,
   3.5122840404510498,
   3.5125038623809814,
   3.5010406970977783,
   3.4850826263427734,
   3.4810676574707031,
   3.4710259437561035,
   3.4585502147674561,
   3.44561767578125,
   3.4320731163024902,
   3.4282951354980469,
   3.4214096069335938,
   3.3231234550476074,
   3.2506241798400879,
   3.1780827045440674,
   3.1158878803253174,
   3.0531084537506104,
   2.9969444274902344,
   2.9531419277191162,
   2.9083161354064941,
   2.8607959747314453,
   2.522568941116333,
   2.2848834991455078,
   2.1005406379699707,
   1.9697263240814209,
   1.8595774173736572,
   1.7663037776947021,
   1.6838573217391968,
   1.6230134963989258,
   1.5636793375015259,
   1.295798659324646,
   1.1887909173965454,
   1.1329410076141357,
   1.0973217487335205,
   1.0756661891937256,
   1.0490325689315796,
   1.0430675745010376,
   1.0386035442352295,
   1.0095102787017822,
   1.0035903453826904,
   1.0116466283798218,
   0.99813210964202881,
   0.99686270952224731,
   0.9849894642829895,
   1.0200220346450806,
   1.0041108131408691,
   1.0139281749725342,
   0.99094021320343018,
   0.98125278949737549,
   0.99954664707183838,
   0.97170531749725342,
   0.9883306622505188,
   1.027693510055542,
   1.0314862728118896,
   1.0430326461791992,
   1.0291647911071777,
   0.89061081409454346
]
