[
   1.5923193693161011,
   1.5919829607009888,
   1.5930690765380859,
   1.5922552347183228,
   1.5930675268173218,
   1.5915930271148682,
   1.5909953117370605,
   1.5924813747406006,
   1.5911896228790283,
   1.5913382768630981,
   1.5882205963134766,
   1.5882594585418701,
   1.587090015411377,
   1.5863008499145508,
   1.5827713012695312,
   1.583357572555542,
   1.5810415744781494,
   1.5801466703414917,
   1.5777567625045776,
   1.5680913925170898,
   1.5555238723754883,
   1.5453495979309082,
   1.5321016311645508,
   1.5227551460266113,
   1.5124285221099854,
   1.5031330585479736,
   1.4942444562911987,
   1.4867885112762451,
   1.4207906723022461,
   1.3729599714279175,
   1.3321174383163452,
   1.3033547401428223,
   1.2776253223419189,
   1.2562716007232666,
   1.236512303352356,
   1.2178484201431274,
   1.2040731906890869,
   1.1172422170639038,
   1.0769193172454834,
   1.0528206825256348,
   1.0413327217102051,
   1.0307055711746216,
   1.0255275964736938,
   1.0188208818435669,
   1.0117464065551758,
   1.0101569890975952,
   0.999156653881073,
   0.99265563488006592,
   1.0027116537094116,
   0.99572122097015381,
   0.99261778593063354,
   0.9916803240776062,
   0.98758161067962646,
   0.98772698640823364,
   0.98622483015060425,
   0.99238556623458862,
   0.9922453761100769,
   0.98816001415252686,
   0.99574410915374756,
   1.0010528564453125,
   1.0256341695785522,
   1.012345552444458,
   1.0318217277526855,
   1.0988376140594482
]
