[
   5.2669172286987305,
   5.2439022064208984,
   5.2319650650024414,
   5.2430887222290039,
   5.2500910758972168,
   5.2431154251098633,
   5.2322912216186523,
   5.2242794036865234,
   5.2317304611206055,
   5.2254314422607422,
   5.2049188613891602,
   5.1713247299194336,
   5.1390604972839355,
   5.1058201789855957,
   5.0797410011291504,
   5.0598859786987305,
   5.0300483703613281,
   5.0086150169372559,
   4.9868931770324707,
   4.7497191429138184,
   4.5814428329467773,
   4.4114766120910645,
   4.2737207412719727,
   4.1646833419799805,
   4.0610156059265137,
   3.9552757740020752,
   3.8557338714599609,
   3.7949662208557129,
   3.1896522045135498,
   2.7873299121856689,
   2.4840390682220459,
   2.2707152366638184,
   2.1050434112548828,
   1.9618476629257202,
   1.8697715997695923,
   1.7709232568740845,
   1.7029416561126709,
   1.3113124370574951,
   1.1539852619171143,
   1.1018867492675781,
   1.0646522045135498,
   1.0554344654083252,
   1.0485697984695435,
   1.0422928333282471,
   1.0233436822891235,
   1.0101895332336426,
   0.98525011539459229,
   0.99761694669723511,
   0.96888816356658936,
   0.98902785778045654,
   1.0027889013290405,
   1.0123274326324463,
   1.0040647983551025,
   0.99013197422027588,
   0.97625160217285156,
   1.0098304748535156,
   0.99733418226242065,
   0.99300020933151245,
   0.96943360567092896,
   0.99648559093475342,
   1.0074331760406494,
   0.98645055294036865,
   1.0253591537475586,
   1.0045444965362549
]
