[
   1.8519586324691772,
   1.8516620397567749,
   1.8547121286392212,
   1.8532148599624634,
   1.8524326086044312,
   1.8545688390731812,
   1.8512275218963623,
   1.8510357141494751,
   1.8513540029525757,
   1.8504035472869873,
   1.8495769500732422,
   1.8470542430877686,
   1.8426082134246826,
   1.8420085906982422,
   1.8388732671737671,
   1.8357036113739014,
   1.8328202962875366,
   1.8313939571380615,
   1.8284294605255127,
   1.8070586919784546,
   1.7858587503433228,
   1.7642974853515625,
   1.7472946643829346,
   1.7305915355682373,
   1.7161916494369507,
   1.7006601095199585,
   1.6872732639312744,
   1.6719424724578857,
   1.5688127279281616,
   1.4978533983230591,
   1.4405171871185303,
   1.3950985670089722,
   1.3558244705200195,
   1.3248794078826904,
   1.2980139255523682,
   1.2752889394760132,
   1.2544310092926025,
   1.1415946483612061,
   1.0873285531997681,
   1.0672317743301392,
   1.0496494770050049,
   1.038112998008728,
   1.0284340381622314,
   1.02120041847229,
   1.016197681427002,
   1.0074453353881836,
   0.99481695890426636,
   0.99573147296905518,
   0.98699349164962769,
   0.9922415018081665,
   0.9908478856086731,
   0.99908095598220825,
   0.99519175291061401,
   1.0052058696746826,
   0.99289047718048096,
   0.98915797472000122,
   0.99175631999969482,
   0.99804145097732544,
   1.0104261636734009,
   1.0040357112884521,
   0.99067544937133789,
   0.99106514453887939,
   1.0296430587768555,
   1.0293585062026978
]
