[
   1.5437428951263428,
   1.5424544811248779,
   1.5427324771881104,
   1.5435460805892944,
   1.5443590879440308,
   1.5438516139984131,
   1.5427273511886597,
   1.5430904626846313,
   1.5428812503814697,
   1.5431848764419556,
   1.5424537658691406,
   1.5405833721160889,
   1.5382647514343262,
   1.538027286529541,
   1.5375512838363647,
   1.5364644527435303,
   1.5349992513656616,
   1.533637523651123,
   1.532986044883728,
   1.5205091238021851,
   1.5086632966995239,
   1.5004653930664062,
   1.4906032085418701,
   1.4820606708526611,
   1.4743280410766602,
   1.4647589921951294,
   1.4571084976196289,
   1.4496641159057617,
   1.3906995058059692,
   1.3457843065261841,
   1.3118947744369507,
   1.2826337814331055,
   1.2606141567230225,
   1.2389400005340576,
   1.2205480337142944,
   1.2062017917633057,
   1.1926546096801758,
   1.1078650951385498,
   1.0695482492446899,
   1.0509167909622192,
   1.0378588438034058,
   1.0316308736801147,
   1.0225064754486084,
   1.0167480707168579,
   1.0125199556350708,
   1.0104911327362061,
   0.99816620349884033,
   1.0024011135101318,
   0.99375498294830322,
   0.9904099702835083,
   0.99511975049972534,
   1.0009715557098389,
   0.99782168865203857,
   0.99088889360427856,
   0.99430304765701294,
   0.9902227520942688,
   0.98485249280929565,
   0.99048089981079102,
   1.0005644559860229,
   0.98780918121337891,
   1.0094567537307739,
   1.0250239372253418,
   1.0330908298492432,
   1.0333811044692993
]
