[
   138.748291015625,
   139.19815063476562,
   140.26742553710938,
   135.29978942871094,
   137.16502380371094,
   133.22482299804688,
   133.95733642578125,
   134.32518005371094,
   134.79681396484375,
   133.26150512695312,
   126.87673187255859,
   119.72403717041016,
   115.39068603515625,
   115.69523620605469,
   109.48561096191406,
   109.64884185791016,
   105.093017578125,
   102.08625793457031,
   103.35300445556641,
   82.963645935058594,
   69.162109375,
   59.713489532470703,
   53.752655029296875,
   46.258003234863281,
   41.245475769042969,
   36.991996765136719,
   33.912368774414062,
   32.246665954589844,
   17.39909553527832,
   10.831133842468262,
   7.5601387023925781,
   6.552088737487793,
   5.8558392524719238,
   5.0066609382629395,
   4.0049562454223633,
   2.4903979301452637,
   2.6853680610656738,
   1.5374077558517456,
   1.4770298004150391,
   0.70518141984939575,
   1.0819509029388428,
   0.53263014554977417,
   1.1642657518386841,
   0.64870649576187134,
   1.3240296840667725,
   0.93599462509155273,
   0.60473281145095825,
   0.94707471132278442,
   0.97407692670822144,
   1.1581617593765259,
   0.95560204982757568,
   1.116818904876709,
   0.92453658580780029,
   1.4178035259246826,
   1.1582745313644409,
   0.60902690887451172,
   1.1157776117324829,
   1.1594464778900146,
   1.2993803024291992,
   1.4297497272491455,
   1.0049327611923218,
   0.95310813188552856,
   0.53336489200592041,
   0
]
