[
   4.0754542350769043,
   4.085474967956543,
   4.0784139633178711,
   4.0629358291625977,
   4.0699968338012695,
   4.0674996376037598,
   4.0641355514526367,
   4.0588188171386719,
   4.0634927749633789,
   4.0668325424194336,
   4.0616865158081055,
   4.031397819519043,
   4.0269804000854492,
   4.0205740928649902,
   4.0067844390869141,
   4.005528450012207,
   3.981276273727417,
   3.9833252429962158,
   3.9696147441864014,
   3.8738498687744141,
   3.7894179821014404,
   3.7128090858459473,
   3.6417431831359863,
   3.5806205272674561,
   3.5305855274200439,
   3.4663510322570801,
   3.4165630340576172,
   3.3618876934051514,
   2.9591796398162842,
   2.6832451820373535,
   2.4737520217895508,
   2.3075690269470215,
   2.1559610366821289,
   2.0441067218780518,
   1.9371109008789062,
   1.8467743396759033,
   1.7776197195053101,
   1.3973773717880249,
   1.2711780071258545,
   1.1697927713394165,
   1.1221293210983276,
   1.1006894111633301,
   1.0875366926193237,
   1.0811142921447754,
   1.0560977458953857,
   1.0583492517471313,
   1.0054596662521362,
   0.97649478912353516,
   0.98367565870285034,
   1.0374222993850708,
   0.98046529293060303,
   0.99562615156173706,
   0.99500638246536255,
   0.98497265577316284,
   0.99302864074707031,
   0.99230146408081055,
   0.98709076642990112,
   0.99895268678665161,
   0.98952329158782959,
   1.0369803905487061,
   1.0037925243377686,
   1.0240517854690552,
   1.0771392583847046,
   1.1609953641891479
]
