[
   5.8740200996398926,
   5.8888025283813477,
   5.8906841278076172,
   5.9097900390625,
   5.8853774070739746,
   5.8800287246704102,
   5.8738622665405273,
   5.8808751106262207,
   5.8746738433837891,
   5.870295524597168,
   5.8332819938659668,
   5.8243570327758789,
   5.7748317718505859,
   5.771031379699707,
   5.7636928558349609,
   5.7162718772888184,
   5.6997389793395996,
   5.6741971969604492,
   5.6408605575561523,
   5.4659218788146973,
   5.2935519218444824,
   5.130241870880127,
   4.9906339645385742,
   4.868072509765625,
   4.7632303237915039,
   4.6578288078308105,
   4.5638036727905273,
   4.4580016136169434,
   3.745628833770752,
   3.2619662284851074,
   2.8908004760742188,
   2.6410853862762451,
   2.4444515705108643,
   2.2754404544830322,
   2.1444194316864014,
   2.0220999717712402,
   1.9478585720062256,
   1.4414852857589722,
   1.2651494741439819,
   1.1723001003265381,
   1.1458839178085327,
   1.108879566192627,
   1.1090061664581299,
   1.0757123231887817,
   1.0637471675872803,
   1.0043275356292725,
   1.0010613203048706,
   1.0041033029556274,
   0.96056669950485229,
   1.009334921836853,
   1.0064687728881836,
   0.95276248455047607,
   0.99198448657989502,
   1.0125305652618408,
   1.0214352607727051,
   1.0269381999969482,
   1.0209403038024902,
   1.0188294649124146,
   1.0085136890411377,
   0.95409572124481201,
   0.95184099674224854,
   1.0426639318466187,
   1.0128160715103149,
   0.97699820995330811
]
