[
   2.3426902294158936,
   2.3423714637756348,
   2.3436617851257324,
   2.345139741897583,
   2.3414340019226074,
   2.3396999835968018,
   2.3390614986419678,
   2.3422307968139648,
   2.3391716480255127,
   2.3416035175323486,
   2.3349080085754395,
   2.3339440822601318,
   2.3303227424621582,
   2.3287472724914551,
   2.3225927352905273,
   2.317192554473877,
   2.3186943531036377,
   2.3151497840881348,
   2.3091251850128174,
   2.2854366302490234,
   2.2594151496887207,
   2.2397847175598145,
   2.2142703533172607,
   2.1932849884033203,
   2.1719498634338379,
   2.1575219631195068,
   2.1381628513336182,
   2.1204352378845215,
   1.985704779624939,
   1.8872867822647095,
   1.8042888641357422,
   1.7329378128051758,
   1.6721954345703125,
   1.6250463724136353,
   1.5769625902175903,
   1.5407507419586182,
   1.5046344995498657,
   1.2926425933837891,
   1.2002100944519043,
   1.143911600112915,
   1.1102548837661743,
   1.0815432071685791,
   1.0641272068023682,
   1.0561201572418213,
   1.0567545890808105,
   1.0495064258575439,
   0.99983817338943481,
   0.99659270048141479,
   0.98682010173797607,
   0.99552953243255615,
   0.98966771364212036,
   0.99536401033401489,
   0.97904318571090698,
   0.9922717809677124,
   1.0016002655029297,
   0.97696799039840698,
   0.99070656299591064,
   0.99445217847824097,
   0.98953360319137573,
   0.99512135982513428,
   1.0009704828262329,
   1.019750714302063,
   1.0271024703979492,
   1.0920917987823486
]
