[
   1.7137165069580078,
   1.7129437923431396,
   1.7113876342773438,
   1.7113230228424072,
   1.7111562490463257,
   1.7118816375732422,
   1.7120043039321899,
   1.7132221460342407,
   1.7099637985229492,
   1.7111324071884155,
   1.7093576192855835,
   1.7104374170303345,
   1.7063156366348267,
   1.7056547403335571,
   1.7064917087554932,
   1.7055206298828125,
   1.7043300867080688,
   1.7031657695770264,
   1.7022454738616943,
   1.6909258365631104,
   1.682297945022583,
   1.6723906993865967,
   1.6634002923965454,
   1.6542377471923828,
   1.6467565298080444,
   1.6380876302719116,
   1.6311280727386475,
   1.6217126846313477,
   1.5631701946258545,
   1.5159624814987183,
   1.4779274463653564,
   1.4450904130935669,
   1.4175342321395874,
   1.394273042678833,
   1.3693001270294189,
   1.3499104976654053,
   1.3298254013061523,
   1.2101012468338013,
   1.1503579616546631,
   1.1103975772857666,
   1.0855957269668579,
   1.0695464611053467,
   1.054025411605835,
   1.0442301034927368,
   1.039637565612793,
   1.0369486808776855,
   1.0086671113967896,
   0.99138319492340088,
   0.99948322772979736,
   1.0035440921783447,
   1.0038958787918091,
   0.98398953676223755,
   1.0025582313537598,
   0.99993735551834106,
   1.0007443428039551,
   0.983603835105896,
   0.9917597770690918,
   0.96942341327667236,
   0.98100483417510986,
   1.0159881114959717,
   1.0370075702667236,
   1.0270715951919556,
   1.0708658695220947,
   1.0127638578414917
]
