[
   1.6338357925415039,
   1.6332073211669922,
   1.6314910650253296,
   1.6324971914291382,
   1.6315422058105469,
   1.6317306756973267,
   1.6317497491836548,
   1.6332330703735352,
   1.6303867101669312,
   1.6314090490341187,
   1.6303268671035767,
   1.6307443380355835,
   1.6275491714477539,
   1.627346396446228,
   1.6276448965072632,
   1.6276028156280518,
   1.6255925893783569,
   1.6244935989379883,
   1.6244142055511475,
   1.6150228977203369,
   1.6072361469268799,
   1.5987229347229004,
   1.591904878616333,
   1.5839622020721436,
   1.5776174068450928,
   1.570757269859314,
   1.5640571117401123,
   1.5564988851547241,
   1.5057532787322998,
   1.4650712013244629,
   1.4319560527801514,
   1.4040340185165405,
   1.3795790672302246,
   1.359902024269104,
   1.3371046781539917,
   1.320338249206543,
   1.3024436235427856,
   1.1958534717559814,
   1.1412835121154785,
   1.1042450666427612,
   1.0806839466094971,
   1.0659037828445435,
   1.0507878065109253,
   1.0414285659790039,
   1.0371885299682617,
   1.0357873439788818,
   1.0074405670166016,
   0.99107944965362549,
   0.9988408088684082,
   1.003572940826416,
   1.0039933919906616,
   0.98506724834442139,
   1.0029973983764648,
   1.0001018047332764,
   0.99994087219238281,
   0.98348319530487061,
   0.98980838060379028,
   0.96960276365280151,
   0.98111832141876221,
   1.0156611204147339,
   1.0366895198822021,
   1.0292904376983643,
   1.0713160037994385,
   1.0126802921295166
]
