[
   77.400650024414062,
   77.515281677246094,
   76.7930908203125,
   76.850143432617188,
   76.415512084960938,
   76.344390869140625,
   76.441253662109375,
   76.256019592285156,
   75.600357055664062,
   76.121345520019531,
   74.934013366699219,
   71.101119995117188,
   69.199264526367188,
   68.031593322753906,
   65.080703735351562,
   64.281875610351562,
   62.943946838378906,
   61.366172790527344,
   60.299568176269531,
   48.507240295410156,
   41.5108642578125,
   36.230342864990234,
   31.158695220947266,
   28.531780242919922,
   24.844875335693359,
   23.414882659912109,
   21.517295837402344,
   20.687013626098633,
   11.273317337036133,
   7.7511682510375977,
   6.735931396484375,
   4.7690114974975586,
   4.3009333610534668,
   3.6787304878234863,
   3.252748966217041,
   3.422471284866333,
   3.3349299430847168,
   1.704471230506897,
   1.634221076965332,
   1.6628080606460571,
   1.4173128604888916,
   0.79906803369522095,
   1.2709414958953857,
   1.108046293258667,
   1.1320055723190308,
   1.1023603677749634,
   1.33125901222229,
   0.76327240467071533,
   0.90878331661224365,
   1.1372687816619873,
   0.92685812711715698,
   1.199899435043335,
   1.0983834266662598,
   0.80033934116363525,
   1.0359612703323364,
   0.88802254199981689,
   1.0875158309936523,
   1.0151675939559937,
   0.98890125751495361,
   0.75851166248321533,
   0.9741816520690918,
   0.72267389297485352,
   1.3585216999053955,
   2.1118183135986328
]
