[
   1.468370795249939,
   1.4684702157974243,
   1.4671624898910522,
   1.4678857326507568,
   1.4676988124847412,
   1.4683114290237427,
   1.4680802822113037,
   1.4676194190979004,
   1.4661633968353271,
   1.4677050113677979,
   1.4661134481430054,
   1.4669709205627441,
   1.4645205736160278,
   1.4642875194549561,
   1.4652422666549683,
   1.465076208114624,
   1.4634048938751221,
   1.4627399444580078,
   1.4629518985748291,
   1.4561136960983276,
   1.4518477916717529,
   1.4472339153289795,
   1.4421312808990479,
   1.4377374649047852,
   1.4330375194549561,
   1.428321361541748,
   1.4244433641433716,
   1.4195291996002197,
   1.3850671052932739,
   1.3575949668884277,
   1.3341174125671387,
   1.3140885829925537,
   1.2968260049819946,
   1.2828395366668701,
   1.2660090923309326,
   1.2545826435089111,
   1.2419655323028564,
   1.1625906229019165,
   1.1188936233520508,
   1.0889623165130615,
   1.0695810317993164,
   1.0567626953125,
   1.0437474250793457,
   1.0355509519577026,
   1.0314271450042725,
   1.0308710336685181,
   1.006381630897522,
   0.99029254913330078,
   0.99886590242385864,
   1.002708911895752,
   1.0038039684295654,
   0.98755550384521484,
   1.0037298202514648,
   1.0003799200057983,
   0.99949198961257935,
   0.98370075225830078,
   0.98922604322433472,
   0.97116756439208984,
   0.98109513521194458,
   1.013452410697937,
   1.0351947546005249,
   1.0312392711639404,
   1.0689976215362549,
   1.0125865936279297
]
