[
   2.7220389842987061,
   2.7229666709899902,
   2.7199277877807617,
   2.7195830345153809,
   2.7191879749298096,
   2.717139720916748,
   2.7228584289550781,
   2.7150835990905762,
   2.71260666847229,
   2.7177913188934326,
   2.7124779224395752,
   2.7105116844177246,
   2.7037091255187988,
   2.6988248825073242,
   2.693631649017334,
   2.6933465003967285,
   2.6890215873718262,
   2.6860318183898926,
   2.680840015411377,
   2.6436302661895752,
   2.6060066223144531,
   2.5721890926361084,
   2.5413932800292969,
   2.5155313014984131,
   2.4871509075164795,
   2.4598581790924072,
   2.4434220790863037,
   2.4140145778656006,
   2.2368872165679932,
   2.0972194671630859,
   1.9934928417205811,
   1.9047292470932007,
   1.8263286352157593,
   1.762372612953186,
   1.708709716796875,
   1.6614875793457031,
   1.6199798583984375,
   1.3720234632492065,
   1.2439656257629395,
   1.1746680736541748,
   1.1275898218154907,
   1.0959622859954834,
   1.0880906581878662,
   1.074973464012146,
   1.0593434572219849,
   1.0447146892547607,
   0.99734574556350708,
   0.98053216934204102,
   0.9979785680770874,
   1.0000791549682617,
   1.0003986358642578,
   1.0088502168655396,
   1.0030611753463745,
   1.026684045791626,
   0.99848872423171997,
   1.0016224384307861,
   1.0366042852401733,
   0.99334037303924561,
   1.0072141885757446,
   0.99455481767654419,
   0.96122312545776367,
   0.97364890575408936,
   0.9192582368850708,
   0.86301010847091675
]
