[
   1.3710819482803345,
   1.3711798191070557,
   1.3702870607376099,
   1.369929313659668,
   1.3714250326156616,
   1.3707212209701538,
   1.3710486888885498,
   1.3709548711776733,
   1.3702833652496338,
   1.3700650930404663,
   1.3698632717132568,
   1.369596004486084,
   1.3699187040328979,
   1.3691002130508423,
   1.3694449663162231,
   1.3684014081954956,
   1.3683565855026245,
   1.3676869869232178,
   1.3678734302520752,
   1.3644373416900635,
   1.3616695404052734,
   1.3576200008392334,
   1.3550455570220947,
   1.3529725074768066,
   1.3505295515060425,
   1.3474661111831665,
   1.345055103302002,
   1.3434289693832397,
   1.3191623687744141,
   1.3014075756072998,
   1.2841722965240479,
   1.2694249153137207,
   1.2563784122467041,
   1.2445366382598877,
   1.2342551946640015,
   1.2238506078720093,
   1.2142379283905029,
   1.1506421566009521,
   1.1121008396148682,
   1.0888932943344116,
   1.076384425163269,
   1.0635273456573486,
   1.053470253944397,
   1.0452953577041626,
   1.0396254062652588,
   1.0377439260482788,
   1.0061661005020142,
   0.99081498384475708,
   0.99506682157516479,
   1.0034501552581787,
   1.0031082630157471,
   0.9930078387260437,
   0.99710285663604736,
   1.0007632970809937,
   1.001132607460022,
   1.0058497190475464,
   1.0092458724975586,
   1.0035877227783203,
   1.0027196407318115,
   0.99777805805206299,
   0.97834408283233643,
   0.98655617237091064,
   0.99192684888839722,
   0.98419588804244995
]
