[
   1.6344501972198486,
   1.635104775428772,
   1.6351959705352783,
   1.6351817846298218,
   1.634010910987854,
   1.6343225240707397,
   1.6348899602890015,
   1.6350008249282837,
   1.6332525014877319,
   1.6353130340576172,
   1.6353504657745361,
   1.6344442367553711,
   1.6337680816650391,
   1.6305278539657593,
   1.6308664083480835,
   1.6291052103042603,
   1.6298599243164062,
   1.6284554004669189,
   1.6270124912261963,
   1.6203407049179077,
   1.6130263805389404,
   1.6069567203521729,
   1.6004111766815186,
   1.5949815511703491,
   1.5876500606536865,
   1.5821893215179443,
   1.577928900718689,
   1.5711305141448975,
   1.5233932733535767,
   1.4842569828033447,
   1.4491466283798218,
   1.4203284978866577,
   1.3957774639129639,
   1.3717725276947021,
   1.3520181179046631,
   1.3348696231842041,
   1.3172887563705444,
   1.2077558040618896,
   1.1564548015594482,
   1.1193201541900635,
   1.0981254577636719,
   1.0803166627883911,
   1.0669999122619629,
   1.0610531568527222,
   1.0541344881057739,
   1.0475214719772339,
   1.0114815235137939,
   0.99419963359832764,
   0.99739408493041992,
   0.98975592851638794,
   0.98745286464691162,
   0.97934997081756592,
   0.98708391189575195,
   0.98726069927215576,
   0.99292248487472534,
   0.98188716173171997,
   0.98263663053512573,
   0.99715727567672729,
   1.0047899484634399,
   0.98977982997894287,
   1.0089753866195679,
   1.0069520473480225,
   1.0330804586410522,
   1.0983026027679443
]
