[
   7.4601073265075684,
   7.432002067565918,
   7.4360785484313965,
   7.4376707077026367,
   7.4239068031311035,
   7.4244146347045898,
   7.3862481117248535,
   7.4033560752868652,
   7.4097084999084473,
   7.3948149681091309,
   7.3453917503356934,
   7.290740966796875,
   7.2766885757446289,
   7.2042818069458008,
   7.1678895950317383,
   7.1137022972106934,
   7.0756769180297852,
   7.0250520706176758,
   7.0037698745727539,
   6.6208639144897461,
   6.2965555191040039,
   6.0019068717956543,
   5.7258100509643555,
   5.5097699165344238,
   5.3006691932678223,
   5.0742053985595703,
   4.9556126594543457,
   4.7644939422607422,
   3.6588428020477295,
   3.0709118843078613,
   2.6840720176696777,
   2.4525904655456543,
   2.2436079978942871,
   2.0983712673187256,
   1.9650068283081055,
   1.8595943450927734,
   1.8011338710784912,
   1.4417946338653564,
   1.2679882049560547,
   1.1899524927139282,
   1.139675498008728,
   1.1156909465789795,
   1.0966373682022095,
   1.049053430557251,
   1.0423171520233154,
   1.0672351121902466,
   1.0379475355148315,
   0.9838484525680542,
   0.99674910306930542,
   0.98541051149368286,
   0.99525833129882812,
   0.98463183641433716,
   0.96917831897735596,
   0.99083024263381958,
   1.0591992139816284,
   1.0105094909667969,
   0.99551117420196533,
   0.97302210330963135,
   0.99486178159713745,
   1.0009453296661377,
   1.0511858463287354,
   0.98927021026611328,
   1.0077911615371704,
   1.0384293794631958
]
