[
   1.438629150390625,
   1.438065767288208,
   1.4380862712860107,
   1.4387043714523315,
   1.4381511211395264,
   1.4381624460220337,
   1.4378076791763306,
   1.4373724460601807,
   1.4393535852432251,
   1.4390313625335693,
   1.4367208480834961,
   1.4371896982192993,
   1.4367008209228516,
   1.4370301961898804,
   1.4360169172286987,
   1.4359005689620972,
   1.4336798191070557,
   1.4347770214080811,
   1.4337760210037231,
   1.4303529262542725,
   1.4254884719848633,
   1.4207570552825928,
   1.4175584316253662,
   1.4139140844345093,
   1.4107811450958252,
   1.4071450233459473,
   1.4033185243606567,
   1.3997704982757568,
   1.370111346244812,
   1.3466942310333252,
   1.3243632316589355,
   1.3065634965896606,
   1.2892041206359863,
   1.2746092081069946,
   1.2611081600189209,
   1.2473068237304688,
   1.2371628284454346,
   1.1587846279144287,
   1.1153531074523926,
   1.084115743637085,
   1.06351637840271,
   1.0527198314666748,
   1.043832540512085,
   1.0367633104324341,
   1.0297520160675049,
   1.0259995460510254,
   1.0011966228485107,
   1.0019428730010986,
   1.0060584545135498,
   0.99100053310394287,
   0.98944789171218872,
   0.98692512512207031,
   0.99412566423416138,
   0.99073600769042969,
   0.98961341381072998,
   0.99345904588699341,
   1.0032484531402588,
   1.0006873607635498,
   1.0029670000076294,
   1.0010204315185547,
   0.98940181732177734,
   0.96017694473266602,
   0.96290987730026245,
   1.0327479839324951
]
