[
   2.5101742744445801,
   2.5095953941345215,
   2.5067863464355469,
   2.5047168731689453,
   2.503671407699585,
   2.5022153854370117,
   2.5061821937561035,
   2.5042946338653564,
   2.5094845294952393,
   2.5053806304931641,
   2.5033009052276611,
   2.4990191459655762,
   2.4909353256225586,
   2.4926557540893555,
   2.4841656684875488,
   2.4805798530578613,
   2.4760434627532959,
   2.474498987197876,
   2.4737918376922607,
   2.4382390975952148,
   2.4072544574737549,
   2.3837940692901611,
   2.3563790321350098,
   2.3296816349029541,
   2.3052682876586914,
   2.2835063934326172,
   2.2582876682281494,
   2.2375903129577637,
   2.0618553161621094,
   1.9311637878417969,
   1.8272701501846313,
   1.7435390949249268,
   1.6785957813262939,
   1.6223926544189453,
   1.5734761953353882,
   1.5292985439300537,
   1.4957007169723511,
   1.2716825008392334,
   1.1737051010131836,
   1.1364340782165527,
   1.1086609363555908,
   1.0889661312103271,
   1.0771173238754272,
   1.0546720027923584,
   1.0525448322296143,
   1.0568138360977173,
   1.0063127279281616,
   1.0005985498428345,
   0.98557358980178833,
   0.99610424041748047,
   0.98631507158279419,
   0.99383699893951416,
   0.98349905014038086,
   0.98475539684295654,
   0.97417914867401123,
   0.98861706256866455,
   0.98062592744827271,
   1.0184040069580078,
   1.0147945880889893,
   0.99378031492233276,
   0.99965924024581909,
   0.97981041669845581,
   0.94264191389083862,
   1.0022575855255127
]
