[
   2.6735737323760986,
   2.6753487586975098,
   2.6704826354980469,
   2.6699955463409424,
   2.6696953773498535,
   2.673121452331543,
   2.6695752143859863,
   2.6670103073120117,
   2.66811203956604,
   2.667919397354126,
   2.6627993583679199,
   2.6569743156433105,
   2.6526660919189453,
   2.6454718112945557,
   2.6379523277282715,
   2.6379036903381348,
   2.6355516910552979,
   2.6264467239379883,
   2.6251323223114014,
   2.5762434005737305,
   2.5299220085144043,
   2.5010080337524414,
   2.4648666381835938,
   2.4326066970825195,
   2.4059116840362549,
   2.3769392967224121,
   2.3522555828094482,
   2.3336234092712402,
   2.1414299011230469,
   2.0052447319030762,
   1.8893331289291382,
   1.802072286605835,
   1.7265046834945679,
   1.6633955240249634,
   1.6066001653671265,
   1.5556161403656006,
   1.515296459197998,
   1.2666616439819336,
   1.1744704246520996,
   1.1362812519073486,
   1.1010477542877197,
   1.0775827169418335,
   1.0669357776641846,
   1.0505459308624268,
   1.04839026927948,
   1.0398504734039307,
   1.0007808208465576,
   0.98701936006546021,
   0.99224436283111572,
   0.9795185923576355,
   0.99110478162765503,
   0.98363101482391357,
   0.991047203540802,
   1.0149352550506592,
   0.98644131422042847,
   1.0035603046417236,
   0.99432718753814697,
   0.99636870622634888,
   0.99604237079620361,
   1.0066336393356323,
   0.98957902193069458,
   0.97953337430953979,
   0.97014552354812622,
   1.0304234027862549
]
