[
   1.7132247686386108,
   1.7119228839874268,
   1.7114909887313843,
   1.7116878032684326,
   1.7104599475860596,
   1.7127100229263306,
   1.7120959758758545,
   1.7113529443740845,
   1.7120822668075562,
   1.7117588520050049,
   1.7136377096176147,
   1.707158088684082,
   1.7068741321563721,
   1.7061889171600342,
   1.7049190998077393,
   1.7032434940338135,
   1.7018331289291382,
   1.7000859975814819,
   1.6977939605712891,
   1.6850464344024658,
   1.6736376285552979,
   1.6625477075576782,
   1.650526762008667,
   1.6419585943222046,
   1.6328729391098022,
   1.6232471466064453,
   1.615835428237915,
   1.6078599691390991,
   1.5413074493408203,
   1.4917762279510498,
   1.4494210481643677,
   1.4156955480575562,
   1.3858511447906494,
   1.3598389625549316,
   1.3374722003936768,
   1.3164942264556885,
   1.2971713542938232,
   1.1862380504608154,
   1.1249744892120361,
   1.092107892036438,
   1.0726410150527954,
   1.0591936111450195,
   1.0428426265716553,
   1.0324221849441528,
   1.0262281894683838,
   1.0215204954147339,
   1.0028128623962402,
   1.0072014331817627,
   1.0078341960906982,
   0.99727839231491089,
   0.9951939582824707,
   0.99073302745819092,
   1.0044310092926025,
   1.001476526260376,
   0.99275177717208862,
   1.0040088891983032,
   1.0122463703155518,
   1.0142060518264771,
   1.0075312852859497,
   0.98228389024734497,
   0.9920886754989624,
   0.95768511295318604,
   0.98705750703811646,
   1.0109460353851318
]
