[
   3.0629329681396484,
   3.0578041076660156,
   3.0549209117889404,
   3.0584166049957275,
   3.0546813011169434,
   3.0566534996032715,
   3.055656909942627,
   3.0618057250976562,
   3.0545213222503662,
   3.0548388957977295,
   3.0459258556365967,
   3.0391316413879395,
   3.0280301570892334,
   3.02315354347229,
   3.0209829807281494,
   3.0084285736083984,
   3.0008504390716553,
   2.9963781833648682,
   2.9853579998016357,
   2.9198100566864014,
   2.8618741035461426,
   2.8084964752197266,
   2.7617859840393066,
   2.7180488109588623,
   2.6869194507598877,
   2.6457171440124512,
   2.6132915019989014,
   2.5794858932495117,
   2.3250789642333984,
   2.1418569087982178,
   1.9932994842529297,
   1.8829708099365234,
   1.7904472351074219,
   1.715518593788147,
   1.6466226577758789,
   1.5888121128082275,
   1.5416300296783447,
   1.2688499689102173,
   1.1677092313766479,
   1.117124080657959,
   1.0797021389007568,
   1.0743192434310913,
   1.0706412792205811,
   1.0523308515548706,
   1.0414577722549438,
   1.0330986976623535,
   0.9917338490486145,
   0.98995292186737061,
   1.0079405307769775,
   0.99780404567718506,
   0.99776327610015869,
   0.98002529144287109,
   1.013225793838501,
   0.98435324430465698,
   1.0010539293289185,
   0.99735134840011597,
   1.0214111804962158,
   1.0131430625915527,
   0.98114967346191406,
   1.0389748811721802,
   0.9843565821647644,
   1.0232603549957275,
   0.91665804386138916,
   0.86530429124832153
]
