[
   2.3001549243927002,
   2.3034131526947021,
   2.2979476451873779,
   2.3005561828613281,
   2.2972609996795654,
   2.2988624572753906,
   2.299264669418335,
   2.296912670135498,
   2.2995707988739014,
   2.2968902587890625,
   2.2888762950897217,
   2.2896392345428467,
   2.2850978374481201,
   2.2788081169128418,
   2.2791268825531006,
   2.2760779857635498,
   2.271751880645752,
   2.2676377296447754,
   2.2614541053771973,
   2.2304580211639404,
   2.2045207023620605,
   2.1769199371337891,
   2.1554088592529297,
   2.1301336288452148,
   2.1152665615081787,
   2.091055154800415,
   2.0745377540588379,
   2.0560927391052246,
   1.920108437538147,
   1.8132766485214233,
   1.7316055297851562,
   1.6629488468170166,
   1.6056077480316162,
   1.5580651760101318,
   1.5152878761291504,
   1.4793847799301147,
   1.446010947227478,
   1.2462186813354492,
   1.1607778072357178,
   1.1141706705093384,
   1.0778384208679199,
   1.0604704618453979,
   1.0432089567184448,
   1.0480393171310425,
   1.0359326601028442,
   1.0230326652526855,
   1.0107845067977905,
   1.0207613706588745,
   0.99315726757049561,
   1.0030405521392822,
   0.99468451738357544,
   1.0063731670379639,
   1.0141258239746094,
   0.98948049545288086,
   0.9887315034866333,
   0.99279868602752686,
   1.0004937648773193,
   1.0009661912918091,
   0.97087585926055908,
   0.98608952760696411,
   0.99899131059646606,
   0.99118340015411377,
   0.95152026414871216,
   0.98195189237594604
]
