[
   1.5117745399475098,
   1.5118935108184814,
   1.5107638835906982,
   1.5113594532012939,
   1.5107133388519287,
   1.5124590396881104,
   1.5109970569610596,
   1.5113650560379028,
   1.5118691921234131,
   1.5114865303039551,
   1.5116176605224609,
   1.5092899799346924,
   1.5087214708328247,
   1.5076372623443604,
   1.5078344345092773,
   1.5054875612258911,
   1.5055305957794189,
   1.5047914981842041,
   1.5039348602294922,
   1.4956281185150146,
   1.4876329898834229,
   1.4806885719299316,
   1.4736416339874268,
   1.4680817127227783,
   1.461796760559082,
   1.4558889865875244,
   1.4513087272644043,
   1.4462292194366455,
   1.4022426605224609,
   1.3677914142608643,
   1.3401404619216919,
   1.3165903091430664,
   1.2966310977935791,
   1.2783002853393555,
   1.2617459297180176,
   1.2480251789093018,
   1.234859824180603,
   1.1517682075500488,
   1.1042381525039673,
   1.0778851509094238,
   1.0611405372619629,
   1.0488070249557495,
   1.0360174179077148,
   1.0266883373260498,
   1.0199445486068726,
   1.0203288793563843,
   1.0011327266693115,
   1.0050709247589111,
   1.0048402547836304,
   0.99728572368621826,
   0.9965168833732605,
   0.99149692058563232,
   1.0038071870803833,
   1.0010733604431152,
   0.99208414554595947,
   1.0006991624832153,
   1.0116722583770752,
   1.0098284482955933,
   1.0056312084197998,
   0.98325568437576294,
   0.99345290660858154,
   0.96517390012741089,
   0.98542273044586182,
   1.0074977874755859
]
