[
   10.80572509765625,
   10.80732536315918,
   10.856725692749023,
   10.811710357666016,
   10.801144599914551,
   10.787505149841309,
   10.767335891723633,
   10.734375,
   10.699869155883789,
   10.756568908691406,
   10.652224540710449,
   10.536435127258301,
   10.414316177368164,
   10.347664833068848,
   10.298120498657227,
   10.263820648193359,
   10.157186508178711,
   10.071378707885742,
   10.02476978302002,
   9.4117832183837891,
   8.9033985137939453,
   8.4725513458251953,
   8.0483675003051758,
   7.7167763710021973,
   7.4069366455078125,
   7.168360710144043,
   6.8687171936035156,
   6.6256880760192871,
   4.9691605567932129,
   3.9821460247039795,
   3.423861026763916,
   3.009124755859375,
   2.6911540031433105,
   2.481666088104248,
   2.30633544921875,
   2.1075558662414551,
   2.0015184879302979,
   1.4754402637481689,
   1.2658056020736694,
   1.1037942171096802,
   1.0860980749130249,
   1.0681594610214233,
   1.0747575759887695,
   1.0198489427566528,
   1.0680865049362183,
   1.0034149885177612,
   0.97601300477981567,
   1.0466792583465576,
   0.96749627590179443,
   1.0138832330703735,
   1.0593560934066772,
   1.0101139545440674,
   0.95809042453765869,
   0.99951982498168945,
   1.0268681049346924,
   1.0733959674835205,
   0.94972723722457886,
   1.0829724073410034,
   1.0026185512542725,
   0.98165673017501831,
   0.97196400165557861,
   0.89929074048995972,
   0.78540724515914917,
   1.1363475322723389
]
