[
   1.4856212139129639,
   1.48650062084198,
   1.4858386516571045,
   1.4863210916519165,
   1.485703706741333,
   1.4857087135314941,
   1.4857815504074097,
   1.4857165813446045,
   1.4855623245239258,
   1.4851745367050171,
   1.4848382472991943,
   1.4848078489303589,
   1.4849454164505005,
   1.4832862615585327,
   1.483877420425415,
   1.4834015369415283,
   1.4833812713623047,
   1.4822309017181396,
   1.4822313785552979,
   1.4784469604492188,
   1.4737089872360229,
   1.4709993600845337,
   1.4677753448486328,
   1.4650413990020752,
   1.4604510068893433,
   1.4580837488174438,
   1.4545753002166748,
   1.4515587091445923,
   1.4250706434249878,
   1.4030611515045166,
   1.3825995922088623,
   1.3653116226196289,
   1.3490711450576782,
   1.3339098691940308,
   1.3198229074478149,
   1.3085868358612061,
   1.2964661121368408,
   1.2127881050109863,
   1.1608927249908447,
   1.1267268657684326,
   1.1044059991836548,
   1.08711838722229,
   1.0747122764587402,
   1.0641971826553345,
   1.0555036067962646,
   1.053044319152832,
   1.0136463642120361,
   1.0036519765853882,
   0.99604499340057373,
   1.0034452676773071,
   0.98935574293136597,
   0.99645298719406128,
   1.0043408870697021,
   0.99773633480072021,
   0.99784314632415771,
   1.0012065172195435,
   1.0071439743041992,
   0.99180060625076294,
   0.99428290128707886,
   0.99365365505218506,
   1.0069605112075806,
   0.99768304824829102,
   1.0019017457962036,
   1.0330653190612793
]
