[
   1.3350359201431274,
   1.3349740505218506,
   1.3353796005249023,
   1.3349781036376953,
   1.3346045017242432,
   1.3350929021835327,
   1.3350824117660522,
   1.3349063396453857,
   1.3345731496810913,
   1.3349779844284058,
   1.3346744775772095,
   1.3345938920974731,
   1.3340733051300049,
   1.3344478607177734,
   1.3340893983840942,
   1.333141565322876,
   1.3330347537994385,
   1.3336422443389893,
   1.3326356410980225,
   1.3306059837341309,
   1.3289483785629272,
   1.3275201320648193,
   1.3256419897079468,
   1.3234360218048096,
   1.3214006423950195,
   1.3201991319656372,
   1.3181869983673096,
   1.3172565698623657,
   1.3025079965591431,
   1.289461612701416,
   1.2784273624420166,
   1.2684919834136963,
   1.2591593265533447,
   1.2510210275650024,
   1.2422223091125488,
   1.235004186630249,
   1.2270214557647705,
   1.1717914342880249,
   1.1355174779891968,
   1.1101372241973877,
   1.1006705760955811,
   1.0871073007583618,
   1.0742838382720947,
   1.0642640590667725,
   1.055211067199707,
   1.0504316091537476,
   1.0144239664077759,
   1.0071290731430054,
   0.99947661161422729,
   0.99931037425994873,
   0.99977558851242065,
   1.004778265953064,
   0.99668407440185547,
   0.99910229444503784,
   1.0029776096343994,
   0.99452716112136841,
   0.99009215831756592,
   0.99479615688323975,
   0.99783074855804443,
   0.97862434387207031,
   0.99108970165252686,
   1.0247800350189209,
   1.0208466053009033,
   0.92800247669219971
]
