[
   2.0075528621673584,
   2.0027298927307129,
   2.0058395862579346,
   2.0038628578186035,
   2.0039114952087402,
   2.0046312808990479,
   2.0033516883850098,
   2.0038151741027832,
   2.0038187503814697,
   2.0022485256195068,
   2.0002856254577637,
   1.9992784261703491,
   2.0008323192596436,
   1.9990241527557373,
   1.9953209161758423,
   1.9945728778839111,
   1.9951896667480469,
   1.9924198389053345,
   1.9903068542480469,
   1.9763002395629883,
   1.9675672054290771,
   1.9547097682952881,
   1.9404764175415039,
   1.9341652393341064,
   1.9235321283340454,
   1.9143146276473999,
   1.9030307531356812,
   1.8944015502929688,
   1.8166701793670654,
   1.7501142024993896,
   1.6929750442504883,
   1.6414073705673218,
   1.5996490716934204,
   1.5629216432571411,
   1.5298001766204834,
   1.5015659332275391,
   1.4757703542709351,
   1.2996180057525635,
   1.2118376493453979,
   1.1626517772674561,
   1.1222048997879028,
   1.099394679069519,
   1.0849318504333496,
   1.0750378370285034,
   1.071285605430603,
   1.0570590496063232,
   1.0175143480300903,
   1.0046168565750122,
   1.0094599723815918,
   1.0104629993438721,
   0.99726235866546631,
   0.99656903743743896,
   0.98556041717529297,
   1.0048091411590576,
   1.0014321804046631,
   0.98476779460906982,
   1.0148462057113647,
   0.98165053129196167,
   0.99477279186248779,
   0.97233563661575317,
   1.0061841011047363,
   1.0116586685180664,
   0.95718127489089966,
   0.91796243190765381
]
