[
   2.7287359237670898,
   2.720890998840332,
   2.7243216037750244,
   2.7221481800079346,
   2.7260076999664307,
   2.7267510890960693,
   2.7243020534515381,
   2.7194380760192871,
   2.7218184471130371,
   2.7210195064544678,
   2.7147269248962402,
   2.7148404121398926,
   2.7071893215179443,
   2.7048938274383545,
   2.7035572528839111,
   2.70278000831604,
   2.6926107406616211,
   2.6890144348144531,
   2.6894288063049316,
   2.6579177379608154,
   2.6234564781188965,
   2.5960433483123779,
   2.5725436210632324,
   2.5461447238922119,
   2.5233516693115234,
   2.4998812675476074,
   2.4757962226867676,
   2.4510855674743652,
   2.2713847160339355,
   2.1320805549621582,
   2.0165793895721436,
   1.9249808788299561,
   1.8419679403305054,
   1.777775764465332,
   1.7164783477783203,
   1.6678693294525146,
   1.6204935312271118,
   1.3485040664672852,
   1.2516674995422363,
   1.1876422166824341,
   1.1594840288162231,
   1.1122848987579346,
   1.0935618877410889,
   1.0752217769622803,
   1.0517623424530029,
   1.0467513799667358,
   1.020232081413269,
   0.99762934446334839,
   1.004549503326416,
   0.99211442470550537,
   1.0069766044616699,
   1.0142565965652466,
   1.0103905200958252,
   0.98710393905639648,
   1.0070509910583496,
   1.0293667316436768,
   1.0288112163543701,
   1.0221357345581055,
   1.009641170501709,
   0.97984516620635986,
   0.9809533953666687,
   0.89647924900054932,
   0.93515950441360474,
   0.88214653730392456
]
