[
   1.4161134958267212,
   1.415921688079834,
   1.4165256023406982,
   1.4163628816604614,
   1.4162584543228149,
   1.4156817197799683,
   1.4165472984313965,
   1.4157741069793701,
   1.4165117740631104,
   1.415818452835083,
   1.4160712957382202,
   1.4156513214111328,
   1.4143788814544678,
   1.4149830341339111,
   1.414705753326416,
   1.4148976802825928,
   1.4131572246551514,
   1.4138859510421753,
   1.4126430749893188,
   1.4098507165908813,
   1.4069998264312744,
   1.4037489891052246,
   1.4012196063995361,
   1.3989841938018799,
   1.3962962627410889,
   1.3936817646026611,
   1.3916847705841064,
   1.3880541324615479,
   1.3673430681228638,
   1.3491259813308716,
   1.3335192203521729,
   1.3184745311737061,
   1.3058022260665894,
   1.2932147979736328,
   1.2814594507217407,
   1.2711741924285889,
   1.2603631019592285,
   1.1884943246841431,
   1.1447241306304932,
   1.1155198812484741,
   1.0935568809509277,
   1.0747439861297607,
   1.0635874271392822,
   1.0555059909820557,
   1.046012282371521,
   1.0408756732940674,
   1.0124310255050659,
   0.99963396787643433,
   0.99653279781341553,
   0.98443460464477539,
   0.99160099029541016,
   0.98858582973480225,
   0.98575508594512939,
   0.98975104093551636,
   0.98865813016891479,
   0.99787771701812744,
   0.98111802339553833,
   0.98911917209625244,
   0.98228389024734497,
   1.0118544101715088,
   1.0146901607513428,
   1.0379129648208618,
   1.0234749317169189,
   1.0753612518310547
]
