[
   3.5653407573699951,
   3.5673842430114746,
   3.561368465423584,
   3.5630450248718262,
   3.5680618286132812,
   3.5582573413848877,
   3.5515074729919434,
   3.5520122051239014,
   3.5650115013122559,
   3.5693244934082031,
   3.5542845726013184,
   3.5487837791442871,
   3.5424942970275879,
   3.5301556587219238,
   3.5268549919128418,
   3.5172340869903564,
   3.5108189582824707,
   3.5051288604736328,
   3.4968860149383545,
   3.4279904365539551,
   3.370711088180542,
   3.3142158985137939,
   3.2646579742431641,
   3.2093067169189453,
   3.156827449798584,
   3.1206443309783936,
   3.0778307914733887,
   3.041093111038208,
   2.7009406089782715,
   2.4595725536346436,
   2.2748579978942871,
   2.1198399066925049,
   2.0028350353240967,
   1.8917808532714844,
   1.8142526149749756,
   1.7416712045669556,
   1.6855367422103882,
   1.3836430311203003,
   1.2668170928955078,
   1.1944750547409058,
   1.1589318513870239,
   1.1186654567718506,
   1.0923354625701904,
   1.080957293510437,
   1.0648645162582397,
   1.0580649375915527,
   1.0371887683868408,
   0.98307430744171143,
   0.99194085597991943,
   0.99424266815185547,
   0.9914478063583374,
   1.0208067893981934,
   1.0130813121795654,
   0.99250590801239014,
   1.0197112560272217,
   0.97326505184173584,
   1.0104368925094604,
   0.98851251602172852,
   1.0280611515045166,
   0.9840160608291626,
   1.0362889766693115,
   0.92477333545684814,
   0.98312175273895264,
   1.0087432861328125
]
