[
   2.2862992286682129,
   2.2843775749206543,
   2.281726598739624,
   2.2823054790496826,
   2.2841863632202148,
   2.2833411693572998,
   2.2818856239318848,
   2.2813389301300049,
   2.284693717956543,
   2.2837655544281006,
   2.2812666893005371,
   2.2767789363861084,
   2.2745933532714844,
   2.2773089408874512,
   2.2697882652282715,
   2.2671592235565186,
   2.2681756019592285,
   2.2642233371734619,
   2.2638299465179443,
   2.2435505390167236,
   2.2262594699859619,
   2.2098560333251953,
   2.1922032833099365,
   2.1744246482849121,
   2.1590723991394043,
   2.1487078666687012,
   2.1303822994232178,
   2.1160693168640137,
   1.9984191656112671,
   1.9027013778686523,
   1.8209798336029053,
   1.7529468536376953,
   1.6905301809310913,
   1.6408121585845947,
   1.5976698398590088,
   1.5606670379638672,
   1.5262987613677979,
   1.3261818885803223,
   1.2278474569320679,
   1.1662564277648926,
   1.1306731700897217,
   1.0993955135345459,
   1.0661404132843018,
   1.0552252531051636,
   1.0535625219345093,
   1.0442516803741455,
   1.0268356800079346,
   0.99612218141555786,
   0.98669588565826416,
   0.99475467205047607,
   0.9952208399772644,
   0.98848545551300049,
   0.99421089887619019,
   1.007239818572998,
   1.0020942687988281,
   1.023902416229248,
   0.99605923891067505,
   0.98872935771942139,
   0.98785907030105591,
   0.96097648143768311,
   1.0275484323501587,
   1.0118460655212402,
   0.9794953465461731,
   0.93538171052932739
]
