[
   2.4559164047241211,
   2.4531791210174561,
   2.4561984539031982,
   2.4526457786560059,
   2.453709602355957,
   2.4540202617645264,
   2.4469726085662842,
   2.4537701606750488,
   2.4512002468109131,
   2.4491381645202637,
   2.4447076320648193,
   2.4381475448608398,
   2.4354958534240723,
   2.4314999580383301,
   2.4235692024230957,
   2.4222877025604248,
   2.4166421890258789,
   2.4107184410095215,
   2.4112954139709473,
   2.3691794872283936,
   2.3238191604614258,
   2.2923712730407715,
   2.2628273963928223,
   2.2364277839660645,
   2.2053494453430176,
   2.1792881488800049,
   2.1548056602478027,
   2.1338162422180176,
   1.9627609252929688,
   1.8332910537719727,
   1.7382495403289795,
   1.6627184152603149,
   1.5955148935317993,
   1.5428732633590698,
   1.4958000183105469,
   1.4569532871246338,
   1.4177960157394409,
   1.2322994470596313,
   1.1434872150421143,
   1.0963306427001953,
   1.0665304660797119,
   1.0591866970062256,
   1.0450195074081421,
   1.0328546762466431,
   1.0257798433303833,
   1.0233204364776611,
   1.0008320808410645,
   0.98199301958084106,
   0.99252116680145264,
   0.98985671997070312,
   1.0024955272674561,
   1.0040251016616821,
   0.99330013990402222,
   1.0029537677764893,
   0.99545633792877197,
   0.99651527404785156,
   0.99038249254226685,
   0.98499929904937744,
   0.99170541763305664,
   0.99890756607055664,
   1.0319311618804932,
   1.0309560298919678,
   1.0242530107498169,
   0.98474568128585815
]
