[
   1.8546251058578491,
   1.8550897836685181,
   1.85563063621521,
   1.8544851541519165,
   1.8534879684448242,
   1.8544038534164429,
   1.8534517288208008,
   1.8520901203155518,
   1.8515481948852539,
   1.8553402423858643,
   1.8489706516265869,
   1.8500982522964478,
   1.8458888530731201,
   1.8424288034439087,
   1.8428709506988525,
   1.8393815755844116,
   1.8381456136703491,
   1.8379325866699219,
   1.8340295553207397,
   1.8142063617706299,
   1.7979028224945068,
   1.7813600301742554,
   1.7654993534088135,
   1.7508792877197266,
   1.7379386425018311,
   1.723345160484314,
   1.7102272510528564,
   1.701137900352478,
   1.6087634563446045,
   1.5440671443939209,
   1.4893355369567871,
   1.44660484790802,
   1.4120622873306274,
   1.378240704536438,
   1.3493075370788574,
   1.3292744159698486,
   1.3066070079803467,
   1.1774818897247314,
   1.1190533638000488,
   1.088775634765625,
   1.0678938627243042,
   1.0587146282196045,
   1.0489070415496826,
   1.0381525754928589,
   1.0278556346893311,
   1.0211397409439087,
   1.0022923946380615,
   0.99439412355422974,
   0.99494075775146484,
   1.0051230192184448,
   1.0091081857681274,
   0.99820834398269653,
   0.99092596769332886,
   0.98226988315582275,
   0.98344123363494873,
   1.0073959827423096,
   0.98146027326583862,
   1.0088008642196655,
   1.01393723487854,
   0.98555499315261841,
   0.97955912351608276,
   1.014356255531311,
   0.97997552156448364,
   0.98910284042358398
]
