[
   1.4824683666229248,
   1.4827107191085815,
   1.4836360216140747,
   1.4831440448760986,
   1.4816336631774902,
   1.4822782278060913,
   1.4825010299682617,
   1.4825375080108643,
   1.4816416501998901,
   1.4834997653961182,
   1.4811835289001465,
   1.4815367460250854,
   1.480400562286377,
   1.4782043695449829,
   1.4789824485778809,
   1.4762753248214722,
   1.4764871597290039,
   1.4765274524688721,
   1.47538161277771,
   1.466904878616333,
   1.4591073989868164,
   1.4523627758026123,
   1.4447238445281982,
   1.4382989406585693,
   1.4333227872848511,
   1.4263222217559814,
   1.4194420576095581,
   1.4143047332763672,
   1.3688814640045166,
   1.3351591825485229,
   1.3076450824737549,
   1.2835457324981689,
   1.2649465799331665,
   1.2461527585983276,
   1.2308398485183716,
   1.2194644212722778,
   1.206365704536438,
   1.1273765563964844,
   1.0884735584259033,
   1.0655025243759155,
   1.05063796043396,
   1.0435158014297485,
   1.0356776714324951,
   1.0280053615570068,
   1.0198757648468018,
   1.0197000503540039,
   1.0005266666412354,
   0.99458348751068115,
   0.9968181848526001,
   1.0028351545333862,
   1.0067156553268433,
   1.0003225803375244,
   0.99660360813140869,
   0.99035245180130005,
   0.98910284042358398,
   1.0057100057601929,
   0.98880279064178467,
   1.00577712059021,
   1.008284330368042,
   0.98992824554443359,
   0.98408496379852295,
   1.0087306499481201,
   0.98053503036499023,
   0.97549647092819214
]
