[
   2.1967265605926514,
   2.1989569664001465,
   2.1973748207092285,
   2.197913646697998,
   2.1960904598236084,
   2.1985964775085449,
   2.197415828704834,
   2.1993279457092285,
   2.1971743106842041,
   2.197458028793335,
   2.1928036212921143,
   2.188896656036377,
   2.1822953224182129,
   2.1799836158752441,
   2.1781520843505859,
   2.1720364093780518,
   2.171363353729248,
   2.1698148250579834,
   2.1665549278259277,
   2.1348447799682617,
   2.1111211776733398,
   2.0847237110137939,
   2.0609269142150879,
   2.0358281135559082,
   2.0168337821960449,
   1.99686598777771,
   1.9790050983428955,
   1.9602632522583008,
   1.8319337368011475,
   1.7358287572860718,
   1.6595102548599243,
   1.5997344255447388,
   1.5471547842025757,
   1.501786470413208,
   1.4665778875350952,
   1.4313027858734131,
   1.4033029079437256,
   1.2214967012405396,
   1.1449463367462158,
   1.0960811376571655,
   1.0658015012741089,
   1.0443480014801025,
   1.0362938642501831,
   1.0302603244781494,
   1.0277767181396484,
   1.0321670770645142,
   1.0148464441299438,
   1.0076780319213867,
   1.0095278024673462,
   1.0193024873733521,
   0.99583351612091064,
   0.99968701601028442,
   0.99984455108642578,
   0.99813365936279297,
   1.0133662223815918,
   0.98624724149703979,
   1.0009036064147949,
   1.0026962757110596,
   1.0057001113891602,
   1.0043675899505615,
   0.99168157577514648,
   0.98109179735183716,
   0.95893442630767822,
   0.93266409635543823
]
