[
   1.5299917459487915,
   1.5303218364715576,
   1.5312772989273071,
   1.5305808782577515,
   1.5289058685302734,
   1.5293834209442139,
   1.5296422243118286,
   1.5295555591583252,
   1.5283288955688477,
   1.5305836200714111,
   1.5275883674621582,
   1.5286928415298462,
   1.5270522832870483,
   1.5245640277862549,
   1.5253381729125977,
   1.5226689577102661,
   1.5227025747299194,
   1.5226559638977051,
   1.5209990739822388,
   1.5116255283355713,
   1.5029470920562744,
   1.4947271347045898,
   1.4860337972640991,
   1.4786927700042725,
   1.4728494882583618,
   1.4655780792236328,
   1.4576535224914551,
   1.4521064758300781,
   1.4005615711212158,
   1.3630862236022949,
   1.3324146270751953,
   1.3058602809906006,
   1.2855390310287476,
   1.2645039558410645,
   1.2477281093597412,
   1.2347651720046997,
   1.2207125425338745,
   1.1346184015274048,
   1.0932857990264893,
   1.0687624216079712,
   1.0535894632339478,
   1.0458481311798096,
   1.0376300811767578,
   1.0296820402145386,
   1.021088719367981,
   1.0199861526489258,
   1.0007041692733765,
   0.99448955059051514,
   0.99636143445968628,
   1.0032410621643066,
   1.0072009563446045,
   1.0003817081451416,
   0.99573755264282227,
   0.98882406949996948,
   0.98829829692840576,
   1.0056819915771484,
   0.98777705430984497,
   1.0062395334243774,
   1.0092203617095947,
   0.9895135760307312,
   0.98275822401046753,
   1.0097522735595703,
   0.98048150539398193,
   0.97820883989334106
]
