[
   1.5884954929351807,
   1.5888519287109375,
   1.5900312662124634,
   1.5894359350204468,
   1.5878322124481201,
   1.5884162187576294,
   1.58878493309021,
   1.5883315801620483,
   1.5871188640594482,
   1.5895479917526245,
   1.5856643915176392,
   1.5870503187179565,
   1.5855333805084229,
   1.5821459293365479,
   1.5833240747451782,
   1.5802921056747437,
   1.5797969102859497,
   1.5800087451934814,
   1.5779743194580078,
   1.567180871963501,
   1.5569602251052856,
   1.5476832389831543,
   1.5377241373062134,
   1.5282666683197021,
   1.5225008726119995,
   1.5130684375762939,
   1.5050423145294189,
   1.4987646341323853,
   1.4404447078704834,
   1.3974407911300659,
   1.3621180057525635,
   1.33309006690979,
   1.3103457689285278,
   1.2865059375762939,
   1.2681411504745483,
   1.25347900390625,
   1.2377984523773193,
   1.1440707445144653,
   1.0989141464233398,
   1.072879433631897,
   1.0564467906951904,
   1.0491098165512085,
   1.0397379398345947,
   1.031720757484436,
   1.022671103477478,
   1.0198805332183838,
   1.0012654066085815,
   0.99425113201141357,
   0.99648028612136841,
   1.003882884979248,
   1.0078455209732056,
   1.0002737045288086,
   0.99533146619796753,
   0.98779976367950439,
   0.98745191097259521,
   1.0060704946517944,
   0.98625278472900391,
   1.0069197416305542,
   1.0095138549804688,
   0.98903721570968628,
   0.98236817121505737,
   1.0109484195709229,
   0.98007708787918091,
   0.98190802335739136
]
