[
   1.4118177890777588,
   1.410933256149292,
   1.4110157489776611,
   1.4112784862518311,
   1.4115607738494873,
   1.4109721183776855,
   1.4110851287841797,
   1.4106801748275757,
   1.4103759527206421,
   1.4110338687896729,
   1.4110462665557861,
   1.4107775688171387,
   1.4093034267425537,
   1.4095137119293213,
   1.4094103574752808,
   1.4081587791442871,
   1.4079835414886475,
   1.4076876640319824,
   1.4072282314300537,
   1.4029934406280518,
   1.3996412754058838,
   1.3963577747344971,
   1.392463207244873,
   1.3884881734848022,
   1.3862500190734863,
   1.38313889503479,
   1.3797692060470581,
   1.3767961263656616,
   1.3530561923980713,
   1.3342533111572266,
   1.3184616565704346,
   1.3041156530380249,
   1.290758490562439,
   1.2791159152984619,
   1.2680008411407471,
   1.2580442428588867,
   1.2484829425811768,
   1.1817755699157715,
   1.1410281658172607,
   1.1119658946990967,
   1.0902359485626221,
   1.0735563039779663,
   1.0622366666793823,
   1.0517385005950928,
   1.0410784482955933,
   1.0363690853118896,
   1.0136306285858154,
   1.0066959857940674,
   1.0063908100128174,
   0.99899214506149292,
   1.0033560991287231,
   0.99548399448394775,
   0.99937361478805542,
   1.0055056810379028,
   1.0076618194580078,
   1.00899338722229,
   0.99997824430465698,
   1.0119887590408325,
   0.99286699295043945,
   0.98943674564361572,
   0.97023934125900269,
   0.95919704437255859,
   0.93680202960968018,
   0.95298337936401367
]
