[
   41.943897247314453,
   41.803417205810547,
   41.580062866210938,
   41.650463104248047,
   41.671894073486328,
   41.502269744873047,
   41.035331726074219,
   40.800792694091797,
   41.277896881103516,
   40.722949981689453,
   39.511070251464844,
   38.873306274414062,
   38.057468414306641,
   36.573810577392578,
   36.254005432128906,
   35.660427093505859,
   34.92620849609375,
   33.851284027099609,
   32.832244873046875,
   27.958553314208984,
   23.88121223449707,
   21.188814163208008,
   18.64323616027832,
   16.687034606933594,
   15.328448295593262,
   14.149289131164551,
   13.013795852661133,
   12.360699653625488,
   7.4261183738708496,
   5.3895273208618164,
   4.3939518928527832,
   3.6157290935516357,
   3.1017622947692871,
   2.9547114372253418,
   2.6157922744750977,
   2.3690152168273926,
   2.1910052299499512,
   1.5084112882614136,
   1.327288031578064,
   1.3062592744827271,
   1.2620322704315186,
   1.1196115016937256,
   1.1415637731552124,
   0.9766918420791626,
   0.93458545207977295,
   1.0475091934204102,
   0.90655249357223511,
   0.98608386516571045,
   1.0384145975112915,
   1.0023059844970703,
   0.96022617816925049,
   0.98855602741241455,
   0.96591871976852417,
   0.94787991046905518,
   0.97599494457244873,
   0.93727177381515503,
   0.90114003419876099,
   1.108989953994751,
   0.98343628644943237,
   0.80783283710479736,
   0.77031034231185913,
   0.85923492908477783,
   0.89356505870819092,
   1.0574357509613037
]
