[
   12.657955169677734,
   12.62678050994873,
   12.64604377746582,
   12.629336357116699,
   12.585293769836426,
   12.542832374572754,
   12.569629669189453,
   12.541061401367188,
   12.478925704956055,
   12.499682426452637,
   12.428719520568848,
   12.328805923461914,
   12.186124801635742,
   12.081116676330566,
   12.075383186340332,
   11.960481643676758,
   11.848712921142578,
   11.774872779846191,
   11.724504470825195,
   10.934625625610352,
   10.36717414855957,
   9.7137317657470703,
   9.244755744934082,
   8.8608617782592773,
   8.4324474334716797,
   8.1398677825927734,
   7.8000283241271973,
   7.5205955505371094,
   5.5154333114624023,
   4.509068489074707,
   3.8327407836914062,
   3.3677318096160889,
   3.0260682106018066,
   2.7607522010803223,
   2.5805230140686035,
   2.3911945819854736,
   2.3110942840576172,
   1.5948847532272339,
   1.3713278770446777,
   1.2591798305511475,
   1.2475734949111938,
   1.1628673076629639,
   1.1549474000930786,
   1.1962802410125732,
   1.1442997455596924,
   1.1173641681671143,
   0.97021979093551636,
   0.98049944639205933,
   0.97871303558349609,
   1.0074384212493896,
   1.0963280200958252,
   1.0368467569351196,
   0.98906213045120239,
   1.0025112628936768,
   0.96644526720046997,
   1.0704853534698486,
   0.93772715330123901,
   0.97506988048553467,
   0.98533487319946289,
   0.81927406787872314,
   0.9066389799118042,
   1.041314959526062,
   0.91964185237884521,
   0.76717668771743774
]
