[
   1.376788854598999,
   1.3760535717010498,
   1.3760964870452881,
   1.3760839700698853,
   1.3769539594650269,
   1.3764221668243408,
   1.3763309717178345,
   1.3758735656738281,
   1.3758354187011719,
   1.3762555122375488,
   1.3761528730392456,
   1.3758904933929443,
   1.3748619556427002,
   1.3748868703842163,
   1.3747302293777466,
   1.3739635944366455,
   1.3735504150390625,
   1.3732210397720337,
   1.3728029727935791,
   1.369228720664978,
   1.3662389516830444,
   1.3633507490158081,
   1.3598437309265137,
   1.3560798168182373,
   1.3545525074005127,
   1.3515645265579224,
   1.3486453294754028,
   1.3459891080856323,
   1.3249187469482422,
   1.3077226877212524,
   1.2936199903488159,
   1.2806271314620972,
   1.268792986869812,
   1.2583487033843994,
   1.2482713460922241,
   1.2391235828399658,
   1.2308127880096436,
   1.1705132722854614,
   1.1327946186065674,
   1.1061973571777344,
   1.087800145149231,
   1.071845531463623,
   1.0607304573059082,
   1.050777792930603,
   1.040553092956543,
   1.0357911586761475,
   1.0139479637145996,
   1.0061438083648682,
   1.006333589553833,
   0.99954688549041748,
   1.0040717124938965,
   0.99560034275054932,
   0.99919682741165161,
   1.005332350730896,
   1.007411003112793,
   1.0089112520217896,
   1.0002448558807373,
   1.0111095905303955,
   0.99272668361663818,
   0.99080580472946167,
   0.97191369533538818,
   0.96127778291702271,
   0.93821030855178833,
   0.95570719242095947
]
