[
   2.0019209384918213,
   2.0040035247802734,
   2.0024619102478027,
   2.0048675537109375,
   2.0060765743255615,
   1.9993921518325806,
   2.0034806728363037,
   2.0023763179779053,
   2.0012037754058838,
   2.0013623237609863,
   1.9995229244232178,
   1.9996095895767212,
   1.9962450265884399,
   1.9940254688262939,
   1.9952045679092407,
   1.9904382228851318,
   1.9881232976913452,
   1.9870798587799072,
   1.9881341457366943,
   1.9701464176177979,
   1.956072211265564,
   1.9443117380142212,
   1.9315452575683594,
   1.9199634790420532,
   1.9082235097885132,
   1.8985881805419922,
   1.8881584405899048,
   1.8784633874893188,
   1.806706428527832,
   1.745403528213501,
   1.6927074193954468,
   1.6425535678863525,
   1.6001240015029907,
   1.5632771253585815,
   1.5297600030899048,
   1.500063419342041,
   1.4707527160644531,
   1.3049097061157227,
   1.2164007425308228,
   1.1557729244232178,
   1.111799955368042,
   1.0919619798660278,
   1.0766925811767578,
   1.0607753992080688,
   1.0585057735443115,
   1.0589948892593384,
   0.99223786592483521,
   1.006771445274353,
   0.99415522813796997,
   0.99578458070755005,
   0.99316519498825073,
   0.99244767427444458,
   0.98002499341964722,
   1.0006130933761597,
   0.99656277894973755,
   0.99480295181274414,
   0.98132514953613281,
   1.0063836574554443,
   0.9963499903678894,
   1.0086638927459717,
   1.0121155977249146,
   1.0323717594146729,
   1.036287784576416,
   1.0189841985702515
]
