[
   1.5042551755905151,
   1.5035312175750732,
   1.502682089805603,
   1.5030317306518555,
   1.503920316696167,
   1.5032646656036377,
   1.502838134765625,
   1.5030980110168457,
   1.5024486780166626,
   1.5032298564910889,
   1.5033912658691406,
   1.5030748844146729,
   1.5008494853973389,
   1.5012451410293579,
   1.5006959438323975,
   1.4998694658279419,
   1.4992067813873291,
   1.4981181621551514,
   1.4980964660644531,
   1.4924393892288208,
   1.4875524044036865,
   1.4832084178924561,
   1.478193998336792,
   1.4730168581008911,
   1.4699839353561401,
   1.4655745029449463,
   1.4615236520767212,
   1.4573367834091187,
   1.4263718128204346,
   1.4018032550811768,
   1.3811222314834595,
   1.362478494644165,
   1.3448054790496826,
   1.3298087120056152,
   1.31577467918396,
   1.3031179904937744,
   1.2903330326080322,
   1.2072055339813232,
   1.1578248739242554,
   1.1238760948181152,
   1.0979149341583252,
   1.0797626972198486,
   1.066847562789917,
   1.0555622577667236,
   1.0440690517425537,
   1.0385692119598389,
   1.0119642019271851,
   1.0081228017807007,
   1.0044456720352173,
   0.99894440174102783,
   1.0008903741836548,
   0.99553030729293823,
   0.9984511137008667,
   1.0075652599334717,
   1.0078608989715576,
   1.0093412399291992,
   0.99969083070755005,
   1.0121258497238159,
   0.99489021301269531,
   0.98662817478179932,
   0.96575307846069336,
   0.95496177673339844,
   0.93231505155563354,
   0.94645309448242188
]
