[
   1.7441337108612061,
   1.7444057464599609,
   1.7439489364624023,
   1.7434008121490479,
   1.7444998025894165,
   1.7438942193984985,
   1.7426021099090576,
   1.7448627948760986,
   1.7429771423339844,
   1.7437509298324585,
   1.7421127557754517,
   1.7406036853790283,
   1.7384506464004517,
   1.7404035329818726,
   1.7393944263458252,
   1.7368209362030029,
   1.7346359491348267,
   1.7356914281845093,
   1.7334600687026978,
   1.7243102788925171,
   1.7131208181381226,
   1.707042932510376,
   1.698871374130249,
   1.6912267208099365,
   1.6855309009552002,
   1.6784229278564453,
   1.66933274269104,
   1.6664634943008423,
   1.6164991855621338,
   1.5757982730865479,
   1.5419433116912842,
   1.5105123519897461,
   1.4817873239517212,
   1.4570333957672119,
   1.4348585605621338,
   1.4123585224151611,
   1.3959821462631226,
   1.2669457197189331,
   1.1955797672271729,
   1.1515121459960938,
   1.1202762126922607,
   1.0920692682266235,
   1.0766619443893433,
   1.0653769969940186,
   1.0514791011810303,
   1.0448001623153687,
   1.0103709697723389,
   0.99798059463500977,
   1.0021660327911377,
   0.99186670780181885,
   0.99662864208221436,
   0.99286925792694092,
   0.9837377667427063,
   0.98263329267501831,
   0.98885023593902588,
   0.99988639354705811,
   1.0003817081451416,
   0.99372607469558716,
   1.0083243846893311,
   0.98057353496551514,
   1.0033419132232666,
   0.99518775939941406,
   1.062204122543335,
   1.0991169214248657
]
