[
   2.7144780158996582,
   2.7110023498535156,
   2.7105185985565186,
   2.7129721641540527,
   2.7131612300872803,
   2.7095332145690918,
   2.7101337909698486,
   2.7145209312438965,
   2.7148234844207764,
   2.703575611114502,
   2.7074685096740723,
   2.6960692405700684,
   2.6944534778594971,
   2.6834135055541992,
   2.6836478710174561,
   2.6782727241516113,
   2.6707777976989746,
   2.6656160354614258,
   2.6609022617340088,
   2.6123955249786377,
   2.5642468929290771,
   2.5223922729492188,
   2.484835147857666,
   2.4468321800231934,
   2.4164044857025146,
   2.3797688484191895,
   2.3556978702545166,
   2.3231236934661865,
   2.1126184463500977,
   1.96396803855896,
   1.8564131259918213,
   1.7670431137084961,
   1.6938190460205078,
   1.6306518316268921,
   1.5820329189300537,
   1.5355359315872192,
   1.4916422367095947,
   1.2683022022247314,
   1.1547235250473022,
   1.1060397624969482,
   1.0915075540542603,
   1.0656931400299072,
   1.0517724752426147,
   1.0430673360824585,
   1.0286887884140015,
   1.0216795206069946,
   1.0129436254501343,
   1.0044667720794678,
   1.0082638263702393,
   0.98822051286697388,
   1.0021266937255859,
   0.99159592390060425,
   0.99569958448410034,
   0.99530774354934692,
   0.98915654420852661,
   0.98586845397949219,
   0.99997824430465698,
   1.0363368988037109,
   1.0108116865158081,
   0.98012399673461914,
   0.98121660947799683,
   0.99479371309280396,
   1.0395660400390625,
   1.0232387781143188
]
