[
   8.3680505752563477,
   8.3735227584838867,
   8.3357057571411133,
   8.2835865020751953,
   8.3394460678100586,
   8.315730094909668,
   8.2689723968505859,
   8.3125009536743164,
   8.3187789916992188,
   8.2766046524047852,
   8.2400264739990234,
   8.1828508377075195,
   8.1539621353149414,
   8.0555667877197266,
   7.9992051124572754,
   7.9908585548400879,
   7.937375545501709,
   7.8784151077270508,
   7.8052530288696289,
   7.4240503311157227,
   7.018193244934082,
   6.768977165222168,
   6.5352120399475098,
   6.3116655349731445,
   6.1082220077514648,
   5.9110870361328125,
   5.7428445816040039,
   5.6026725769042969,
   4.4965019226074219,
   3.7889683246612549,
   3.345609188079834,
   2.9513630867004395,
   2.6911418437957764,
   2.4923641681671143,
   2.2868609428405762,
   2.1302485466003418,
   1.9814882278442383,
   1.373436450958252,
   1.1895616054534912,
   1.1042304039001465,
   1.0461158752441406,
   1.0342854261398315,
   1.073284387588501,
   1.046549916267395,
   1.0099694728851318,
   1.0228555202484131,
   1.0433171987533569,
   0.99979943037033081,
   1.0295941829681396,
   0.97179138660430908,
   0.99088847637176514,
   1.0165069103240967,
   0.98359143733978271,
   0.98894387483596802,
   0.93086087703704834,
   1.0004303455352783,
   0.98220348358154297,
   0.96432322263717651,
   0.93310511112213135,
   1.0206191539764404,
   1.1331813335418701,
   1.053358793258667,
   0.9107024073600769,
   1.0546841621398926
]
