[
   16.970451354980469,
   17.06776237487793,
   16.974466323852539,
   16.976505279541016,
   16.997486114501953,
   16.947519302368164,
   16.838212966918945,
   16.824670791625977,
   16.843189239501953,
   16.803466796875,
   16.517827987670898,
   16.419979095458984,
   16.191677093505859,
   16.036441802978516,
   15.802297592163086,
   15.834707260131836,
   15.63182544708252,
   15.500213623046875,
   15.347897529602051,
   14.10033130645752,
   13.326273918151855,
   12.474504470825195,
   11.755749702453613,
   11.25965690612793,
   10.730161666870117,
   10.380866050720215,
   9.8755702972412109,
   9.5919399261474609,
   7.0307531356811523,
   5.5097165107727051,
   4.5614628791809082,
   3.9787993431091309,
   3.3621964454650879,
   3.0608468055725098,
   2.7986352443695068,
   2.5813555717468262,
   2.4028420448303223,
   1.5851273536682129,
   1.2714295387268066,
   1.1721006631851196,
   1.2118176221847534,
   1.0977418422698975,
   1.117882251739502,
   1.0165112018585205,
   0.96332865953445435,
   1.0403187274932861,
   1.0258318185806274,
   0.89548999071121216,
   0.9917113184928894,
   1.0125792026519775,
   1.0640497207641602,
   0.98361968994140625,
   0.97977530956268311,
   0.93553817272186279,
   1.0176107883453369,
   1.0145840644836426,
   1.0104906558990479,
   1.0063821077346802,
   0.94022434949874878,
   0.9506911039352417,
   0.97639590501785278,
   0.98314511775970459,
   1.1624188423156738,
   1.0254008769989014
]
