[
   1.664743185043335,
   1.6669044494628906,
   1.6662056446075439,
   1.6663377285003662,
   1.6662828922271729,
   1.6660547256469727,
   1.6654208898544312,
   1.6659328937530518,
   1.6656605005264282,
   1.6662498712539673,
   1.6638469696044922,
   1.6635316610336304,
   1.6607420444488525,
   1.6617342233657837,
   1.6598907709121704,
   1.6581875085830688,
   1.6558816432952881,
   1.6565173864364624,
   1.6542675495147705,
   1.640597939491272,
   1.6323980093002319,
   1.6203916072845459,
   1.609078049659729,
   1.5988167524337769,
   1.5894848108291626,
   1.5796183347702026,
   1.57145094871521,
   1.5638415813446045,
   1.4924243688583374,
   1.4399411678314209,
   1.3982534408569336,
   1.3643081188201904,
   1.3358935117721558,
   1.3118891716003418,
   1.2922033071517944,
   1.2735395431518555,
   1.256557822227478,
   1.1506501436233521,
   1.0995676517486572,
   1.0681078433990479,
   1.0507657527923584,
   1.0315361022949219,
   1.024782657623291,
   1.0208780765533447,
   1.016301155090332,
   1.0075414180755615,
   1.0046820640563965,
   0.99382477998733521,
   0.99482691287994385,
   0.99127519130706787,
   0.99565953016281128,
   0.99730026721954346,
   0.98803728818893433,
   0.98689138889312744,
   1.0033464431762695,
   0.99827975034713745,
   0.99435913562774658,
   0.99128562211990356,
   0.981761634349823,
   1.0110071897506714,
   0.99786198139190674,
   1.0185883045196533,
   1.0341408252716064,
   0.99349129199981689
]
