[
   1.7647716999053955,
   1.7644904851913452,
   1.7623460292816162,
   1.7629525661468506,
   1.7650827169418335,
   1.7639089822769165,
   1.7632118463516235,
   1.7639839649200439,
   1.7629477977752686,
   1.7633441686630249,
   1.761099100112915,
   1.7581126689910889,
   1.7606019973754883,
   1.7557281255722046,
   1.7528289556503296,
   1.7545573711395264,
   1.7496922016143799,
   1.7515443563461304,
   1.7491080760955811,
   1.7326927185058594,
   1.7190275192260742,
   1.7051852941513062,
   1.6929862499237061,
   1.6801204681396484,
   1.6710770130157471,
   1.6593043804168701,
   1.6479866504669189,
   1.6368948221206665,
   1.5559899806976318,
   1.4941937923431396,
   1.4467092752456665,
   1.4096091985702515,
   1.3752329349517822,
   1.3464510440826416,
   1.3208645582199097,
   1.3010334968566895,
   1.2818955183029175,
   1.1626667976379395,
   1.1042057275772095,
   1.0717030763626099,
   1.0488153696060181,
   1.0356768369674683,
   1.02215576171875,
   1.0141631364822388,
   1.0096703767776489,
   1.0056376457214355,
   0.9937819242477417,
   0.99741852283477783,
   0.99323499202728271,
   0.99977958202362061,
   1.0063338279724121,
   1.0051720142364502,
   1.0097429752349854,
   1.0017707347869873,
   1.0030138492584229,
   0.9916650652885437,
   0.99517405033111572,
   0.98501425981521606,
   1.0063889026641846,
   0.98492097854614258,
   1.0150364637374878,
   1.0141384601593018,
   0.99563580751419067,
   0.96639806032180786
]
