[
   1.9856598377227783,
   1.9871896505355835,
   1.9880905151367188,
   1.9825798273086548,
   1.9829591512680054,
   1.985447883605957,
   1.9839566946029663,
   1.9834578037261963,
   1.9835889339447021,
   1.9826586246490479,
   1.9799935817718506,
   1.9802573919296265,
   1.9748121500015259,
   1.9728702306747437,
   1.9728500843048096,
   1.9697929620742798,
   1.96575927734375,
   1.9656575918197632,
   1.9621412754058838,
   1.9396753311157227,
   1.9174216985702515,
   1.8984744548797607,
   1.8820219039916992,
   1.8607114553451538,
   1.8472028970718384,
   1.8302547931671143,
   1.8145366907119751,
   1.8018423318862915,
   1.6915706396102905,
   1.6075233221054077,
   1.5398622751235962,
   1.4887975454330444,
   1.4467017650604248,
   1.4086310863494873,
   1.3820047378540039,
   1.3547770977020264,
   1.3276244401931763,
   1.1913946866989136,
   1.1272270679473877,
   1.088181734085083,
   1.0689294338226318,
   1.0518314838409424,
   1.0354371070861816,
   1.0301589965820312,
   1.0282542705535889,
   1.0173947811126709,
   1.0045731067657471,
   0.99541378021240234,
   1.0010017156600952,
   1.0023007392883301,
   0.98732376098632812,
   0.99757707118988037,
   1.0053797960281372,
   0.99013340473175049,
   1.010366678237915,
   1.0039665699005127,
   1.0068800449371338,
   1.0045750141143799,
   1.0032856464385986,
   0.98354899883270264,
   0.96223127841949463,
   0.96830540895462036,
   1.0096608400344849,
   0.93999814987182617
]
