[
   2.6782643795013428,
   2.6805176734924316,
   2.6754622459411621,
   2.6686530113220215,
   2.668093204498291,
   2.6735415458679199,
   2.6691775321960449,
   2.6711957454681396,
   2.6732058525085449,
   2.6711690425872803,
   2.6644692420959473,
   2.6528441905975342,
   2.6525537967681885,
   2.649935245513916,
   2.6413683891296387,
   2.6388344764709473,
   2.6327555179595947,
   2.6272213459014893,
   2.6185317039489746,
   2.5710635185241699,
   2.5245597362518311,
   2.4763305187225342,
   2.4396040439605713,
   2.3945131301879883,
   2.3687031269073486,
   2.338517427444458,
   2.3035883903503418,
   2.2734251022338867,
   2.0563013553619385,
   1.9087222814559937,
   1.7982490062713623,
   1.7074820995330811,
   1.6378355026245117,
   1.5794068574905396,
   1.53465735912323,
   1.4928863048553467,
   1.450680136680603,
   1.2394231557846069,
   1.1562319993972778,
   1.126577615737915,
   1.0945335626602173,
   1.0747325420379639,
   1.0474541187286377,
   1.041272759437561,
   1.0259088277816772,
   1.0274918079376221,
   0.99581688642501831,
   0.99586361646652222,
   1.0034767389297485,
   0.98910397291183472,
   0.99201047420501709,
   1.0037304162979126,
   1.0023945569992065,
   1.0036095380783081,
   0.99709177017211914,
   1.0112254619598389,
   0.98821514844894409,
   0.98087817430496216,
   0.98738539218902588,
   1.000410795211792,
   0.96054011583328247,
   0.95957374572753906,
   1.0164762735366821,
   0.96657454967498779
]
