[
   2.3622002601623535,
   2.3579883575439453,
   2.3584964275360107,
   2.3583264350891113,
   2.3617894649505615,
   2.358421802520752,
   2.3568105697631836,
   2.3585624694824219,
   2.3558998107910156,
   2.3573989868164062,
   2.3535671234130859,
   2.3471739292144775,
   2.3421435356140137,
   2.3401827812194824,
   2.3393993377685547,
   2.3301372528076172,
   2.3265798091888428,
   2.326230525970459,
   2.3221194744110107,
   2.2843482494354248,
   2.2511954307556152,
   2.2207236289978027,
   2.191692590713501,
   2.1631226539611816,
   2.1353392601013184,
   2.1101887226104736,
   2.0859696865081787,
   2.0643277168273926,
   1.8981910943984985,
   1.7748959064483643,
   1.6832290887832642,
   1.6095346212387085,
   1.5517086982727051,
   1.5030646324157715,
   1.4590356349945068,
   1.4280252456665039,
   1.3957705497741699,
   1.2057992219924927,
   1.1354389190673828,
   1.0882971286773682,
   1.0608285665512085,
   1.0510299205780029,
   1.0368274450302124,
   1.0367497205734253,
   1.0278265476226807,
   1.0251657962799072,
   0.99644052982330322,
   0.98333227634429932,
   0.99466216564178467,
   1.0043808221817017,
   0.98767918348312378,
   0.99897748231887817,
   0.99986857175827026,
   0.99843472242355347,
   0.97815495729446411,
   1.0134061574935913,
   1.0020616054534912,
   0.98287379741668701,
   1.0173225402832031,
   1.0024751424789429,
   0.98677241802215576,
   1.0108646154403687,
   1.0010497570037842,
   1.0462548732757568
]
