[
   30.837427139282227,
   30.626413345336914,
   30.599212646484375,
   30.537805557250977,
   30.4835205078125,
   30.394708633422852,
   30.377391815185547,
   30.696691513061523,
   30.080404281616211,
   29.957992553710938,
   29.726129531860352,
   29.068706512451172,
   28.441137313842773,
   28.198797225952148,
   27.479650497436523,
   27.516500473022461,
   26.707187652587891,
   26.369121551513672,
   26.038562774658203,
   22.963314056396484,
   20.890546798706055,
   19.227514266967773,
   17.707279205322266,
   16.539011001586914,
   15.134336471557617,
   14.404866218566895,
   13.560521125793457,
   13.09638500213623,
   8.5280599594116211,
   6.2379908561706543,
   5.1127486228942871,
   4.2284708023071289,
   3.7238903045654297,
   3.3080887794494629,
   2.989816427230835,
   2.643801212310791,
   2.3650286197662354,
   1.5192034244537354,
   1.4014232158660889,
   1.2423609495162964,
   1.1436868906021118,
   1.0764467716217041,
   1.0000696182250977,
   1.038939356803894,
   1.0923919677734375,
   1.126076340675354,
   0.9820786714553833,
   0.95483237504959106,
   1.1138942241668701,
   0.91790211200714111,
   1.0573428869247437,
   1.0509351491928101,
   0.90663081407546997,
   0.83083009719848633,
   1.0328885316848755,
   0.9187779426574707,
   1.1571065187454224,
   0.99509239196777344,
   1.0390911102294922,
   1.0641958713531494,
   0.86185216903686523,
   1.0449433326721191,
   1.1230061054229736,
   1.1465737819671631
]
