[
   1.85658860206604,
   1.8516241312026978,
   1.8546146154403687,
   1.8558899164199829,
   1.8546329736709595,
   1.852858304977417,
   1.8549268245697021,
   1.8529914617538452,
   1.8536698818206787,
   1.8542525768280029,
   1.8514773845672607,
   1.8481571674346924,
   1.8474972248077393,
   1.8469152450561523,
   1.8450109958648682,
   1.8418624401092529,
   1.8421077728271484,
   1.8365482091903687,
   1.8344513177871704,
   1.8200536966323853,
   1.8009992837905884,
   1.785839319229126,
   1.7691652774810791,
   1.7553212642669678,
   1.7412350177764893,
   1.7277714014053345,
   1.7156816720962524,
   1.7041889429092407,
   1.6065189838409424,
   1.5381631851196289,
   1.4809986352920532,
   1.4374539852142334,
   1.3967537879943848,
   1.365797758102417,
   1.3374744653701782,
   1.3137452602386475,
   1.2933690547943115,
   1.1680049896240234,
   1.1116107702255249,
   1.0764907598495483,
   1.0598434209823608,
   1.0509752035140991,
   1.0378948450088501,
   1.0293182134628296,
   1.0245667695999146,
   1.0191237926483154,
   1.0092120170593262,
   0.99978959560394287,
   0.99964523315429688,
   0.99785387516021729,
   0.99144971370697021,
   0.9946821928024292,
   1.0013840198516846,
   0.98939591646194458,
   0.99628627300262451,
   1.0013830661773682,
   0.98259830474853516,
   1.0040380954742432,
   0.98884809017181396,
   1.0076597929000854,
   1.0183649063110352,
   1.0000879764556885,
   1.0197845697402954,
   1.0311404466629028
]
