[
   7.7616281509399414,
   7.747467041015625,
   7.7212653160095215,
   7.7427835464477539,
   7.7236719131469727,
   7.6858086585998535,
   7.7206511497497559,
   7.7230310440063477,
   7.6962041854858398,
   7.6974420547485352,
   7.6418099403381348,
   7.5977120399475098,
   7.5417037010192871,
   7.4951181411743164,
   7.4337186813354492,
   7.355196475982666,
   7.3488426208496094,
   7.3192086219787598,
   7.2252488136291504,
   6.832247257232666,
   6.5287003517150879,
   6.2343316078186035,
   5.9417862892150879,
   5.7538871765136719,
   5.5079536437988281,
   5.361112117767334,
   5.1981940269470215,
   5.035222053527832,
   3.9975936412811279,
   3.3614165782928467,
   2.9338550567626953,
   2.5951905250549316,
   2.3648052215576172,
   2.2125496864318848,
   2.0381584167480469,
   1.9346421957015991,
   1.8341186046600342,
   1.380605936050415,
   1.2051597833633423,
   1.1553246974945068,
   1.123015284538269,
   1.1041004657745361,
   1.0677902698516846,
   1.0023132562637329,
   1.0155785083770752,
   1.0213878154754639,
   1.0235220193862915,
   1.0071077346801758,
   1.0011415481567383,
   0.99294918775558472,
   1.0255187749862671,
   1.0190262794494629,
   0.94171172380447388,
   0.99467694759368896,
   0.97969800233840942,
   0.95434141159057617,
   0.95238721370697021,
   0.97152554988861084,
   1.0455319881439209,
   1.0317870378494263,
   1.0457561016082764,
   0.98996764421463013,
   1.1344630718231201,
   0.98758494853973389
]
