[
   1.655320405960083,
   1.6553624868392944,
   1.6568582057952881,
   1.6557178497314453,
   1.655398964881897,
   1.6557061672210693,
   1.6555862426757812,
   1.6557998657226562,
   1.6555678844451904,
   1.6561117172241211,
   1.6531261205673218,
   1.6523303985595703,
   1.6514246463775635,
   1.6506567001342773,
   1.6486574411392212,
   1.6482341289520264,
   1.643846869468689,
   1.6446468830108643,
   1.64310622215271,
   1.6309601068496704,
   1.6197725534439087,
   1.6079542636871338,
   1.5969942808151245,
   1.5885543823242188,
   1.5781236886978149,
   1.5684192180633545,
   1.5615860223770142,
   1.5512521266937256,
   1.4813933372497559,
   1.4269224405288696,
   1.3874423503875732,
   1.3512974977493286,
   1.3224142789840698,
   1.2979848384857178,
   1.276031494140625,
   1.2566412687301636,
   1.2406423091888428,
   1.1447608470916748,
   1.0963876247406006,
   1.0641841888427734,
   1.04323410987854,
   1.0325480699539185,
   1.0213427543640137,
   1.0221621990203857,
   1.0171867609024048,
   1.0082052946090698,
   1.0004153251647949,
   0.99392569065093994,
   0.99463808536529541,
   0.99923056364059448,
   0.990428626537323,
   0.99959009885787964,
   1.0023396015167236,
   0.99829423427581787,
   0.98957812786102295,
   1.00197434425354,
   0.99898016452789307,
   1.0032804012298584,
   1.0039917230606079,
   1.0023846626281738,
   0.98109734058380127,
   0.97583401203155518,
   1.0141048431396484,
   1.0023295879364014
]
