[
   2.8902230262756348,
   2.8883748054504395,
   2.8920509815216064,
   2.8936202526092529,
   2.8927643299102783,
   2.8912944793701172,
   2.8922772407531738,
   2.8874869346618652,
   2.8952908515930176,
   2.8912451267242432,
   2.8868753910064697,
   2.8816418647766113,
   2.8744370937347412,
   2.8666977882385254,
   2.8647222518920898,
   2.8597812652587891,
   2.8523545265197754,
   2.8505609035491943,
   2.8461630344390869,
   2.7999756336212158,
   2.7681376934051514,
   2.7326550483703613,
   2.7054479122161865,
   2.6769542694091797,
   2.6466536521911621,
   2.6262197494506836,
   2.601578950881958,
   2.5829637050628662,
   2.4144396781921387,
   2.2768242359161377,
   2.1558148860931396,
   2.0638341903686523,
   1.9778642654418945,
   1.905019998550415,
   1.8415794372558594,
   1.7839494943618774,
   1.7276887893676758,
   1.4047982692718506,
   1.26651930809021,
   1.1883494853973389,
   1.128588080406189,
   1.1079075336456299,
   1.0871055126190186,
   1.0785200595855713,
   1.0662178993225098,
   1.0454432964324951,
   1.0216495990753174,
   0.98393929004669189,
   1.0005451440811157,
   0.98918163776397705,
   1.0032722949981689,
   0.97734671831130981,
   0.9943842887878418,
   0.97991973161697388,
   0.99248045682907104,
   0.99315536022186279,
   0.9775080680847168,
   0.98882037401199341,
   1.0013536214828491,
   0.95532244443893433,
   1.0118309259414673,
   1.0696426630020142,
   1.0190768241882324,
   1.0361676216125488
]
