[
   1.8606439828872681,
   1.8617172241210938,
   1.8603379726409912,
   1.8587251901626587,
   1.8603363037109375,
   1.8570568561553955,
   1.8586766719818115,
   1.8595861196517944,
   1.8592942953109741,
   1.857740044593811,
   1.855907678604126,
   1.8531620502471924,
   1.8539711236953735,
   1.8523801565170288,
   1.8508241176605225,
   1.8503221273422241,
   1.8470913171768188,
   1.8452222347259521,
   1.8454481363296509,
   1.8335444927215576,
   1.8194997310638428,
   1.8077402114868164,
   1.7956516742706299,
   1.786068320274353,
   1.7772054672241211,
   1.765582799911499,
   1.7586510181427002,
   1.7527663707733154,
   1.6820962429046631,
   1.6349509954452515,
   1.5921155214309692,
   1.5561501979827881,
   1.521025538444519,
   1.4930590391159058,
   1.4673889875411987,
   1.4422558546066284,
   1.4213131666183472,
   1.2769505977630615,
   1.1961096525192261,
   1.1499369144439697,
   1.1203538179397583,
   1.0921273231506348,
   1.0755951404571533,
   1.0665667057037354,
   1.055797815322876,
   1.0501458644866943,
   1.0148191452026367,
   1.0017147064208984,
   1.0141916275024414,
   1.0113167762756348,
   0.99866735935211182,
   1.0099000930786133,
   0.99295824766159058,
   0.99911296367645264,
   1.0164259672164917,
   1.0090364217758179,
   1.0122759342193604,
   1.0055501461029053,
   0.98335659503936768,
   0.99914348125457764,
   0.96722185611724854,
   0.94839257001876831,
   0.93073379993438721,
   0.91209632158279419
]
