[
   1.5819058418273926,
   1.5833542346954346,
   1.5834556818008423,
   1.581508994102478,
   1.5819927453994751,
   1.5818471908569336,
   1.5826202630996704,
   1.5819841623306274,
   1.5824418067932129,
   1.5820097923278809,
   1.5803450345993042,
   1.5794956684112549,
   1.5803530216217041,
   1.5776772499084473,
   1.5779602527618408,
   1.5773695707321167,
   1.5769056081771851,
   1.5753848552703857,
   1.5744311809539795,
   1.5673449039459229,
   1.5605031251907349,
   1.5540461540222168,
   1.5467407703399658,
   1.5417772531509399,
   1.5352612733840942,
   1.5303190946578979,
   1.5253047943115234,
   1.5193004608154297,
   1.4812165498733521,
   1.4509074687957764,
   1.4249213933944702,
   1.4022064208984375,
   1.3819601535797119,
   1.3646843433380127,
   1.3475520610809326,
   1.3325703144073486,
   1.3177551031112671,
   1.2190115451812744,
   1.1584265232086182,
   1.1232500076293945,
   1.0996129512786865,
   1.08243727684021,
   1.0699741840362549,
   1.0561250448226929,
   1.0428694486618042,
   1.0362428426742554,
   1.0148048400878906,
   1.0086914300918579,
   1.0000690221786499,
   1.0041618347167969,
   0.99618607759475708,
   0.99898195266723633,
   1.0024349689483643,
   1.0006781816482544,
   1.0024560689926147,
   1.0005615949630737,
   1.0088666677474976,
   1.0072481632232666,
   0.98562526702880859,
   0.98762595653533936,
   0.99255925416946411,
   1.0054304599761963,
   0.96350955963134766,
   0.9823729395866394
]
