[
   2.186060905456543,
   2.1899666786193848,
   2.1896586418151855,
   2.1896166801452637,
   2.1862201690673828,
   2.1870410442352295,
   2.1864750385284424,
   2.1835923194885254,
   2.1868455410003662,
   2.1845476627349854,
   2.182750940322876,
   2.1815829277038574,
   2.1781482696533203,
   2.1765217781066895,
   2.1750080585479736,
   2.1713707447052002,
   2.1686749458312988,
   2.1672086715698242,
   2.1657133102416992,
   2.1428172588348389,
   2.1230425834655762,
   2.1062197685241699,
   2.0921292304992676,
   2.0735657215118408,
   2.0627212524414062,
   2.0469279289245605,
   2.0344040393829346,
   2.0218887329101562,
   1.9270031452178955,
   1.8517420291900635,
   1.7898399829864502,
   1.7346823215484619,
   1.6867488622665405,
   1.6413497924804688,
   1.6038839817047119,
   1.5698041915893555,
   1.5389057397842407,
   1.3228175640106201,
   1.2178170680999756,
   1.1625226736068726,
   1.1175172328948975,
   1.0926461219787598,
   1.0730607509613037,
   1.0550397634506226,
   1.0443392992019653,
   1.0366357564926147,
   1.0072568655014038,
   1.0033782720565796,
   0.98602217435836792,
   1.0069968700408936,
   0.99459660053253174,
   0.99100148677825928,
   0.99190080165863037,
   0.99803769588470459,
   0.99837750196456909,
   0.98327493667602539,
   0.97784221172332764,
   0.98184716701507568,
   0.99314260482788086,
   1.0281221866607666,
   1.0585438013076782,
   1.0072530508041382,
   1.0007935762405396,
   0.90334892272949219
]
