[
   16.252542495727539,
   16.229246139526367,
   16.151605606079102,
   16.115772247314453,
   16.198101043701172,
   16.178131103515625,
   16.006546020507812,
   16.149078369140625,
   16.085920333862305,
   15.938364028930664,
   15.844762802124023,
   15.594884872436523,
   15.382867813110352,
   15.269746780395508,
   15.069940567016602,
   14.832283020019531,
   14.661436080932617,
   14.608076095581055,
   14.303614616394043,
   12.97187614440918,
   12.079572677612305,
   11.216123580932617,
   10.466951370239258,
   9.732853889465332,
   9.2207508087158203,
   8.7989788055419922,
   8.4666690826416016,
   8.0300579071044922,
   5.6075692176818848,
   4.4041528701782227,
   3.6637351512908936,
   3.1527469158172607,
   2.7007124423980713,
   2.4154722690582275,
   2.2485039234161377,
   2.1122028827667236,
   1.9919065237045288,
   1.3835380077362061,
   1.278092622756958,
   1.0912013053894043,
   1.1045764684677124,
   1.0517842769622803,
   1.0491658449172974,
   1.0182160139083862,
   0.95351105928421021,
   1.0136609077453613,
   0.9613615870475769,
   0.95508277416229248,
   0.89050900936126709,
   1.0408667325973511,
   1.0912950038909912,
   1.0895353555679321,
   0.93162381649017334,
   1.0189270973205566,
   0.98081064224243164,
   1.0077871084213257,
   0.98271083831787109,
   0.88392674922943115,
   1.0486606359481812,
   0.96395331621170044,
   1.1540389060974121,
   1.0592691898345947,
   0.97087287902832031,
   0.86667728424072266
]
