[
   32.524967193603516,
   32.047416687011719,
   32.355510711669922,
   32.589405059814453,
   32.135475158691406,
   32.120609283447266,
   32.237529754638672,
   31.931667327880859,
   31.893026351928711,
   31.909627914428711,
   30.997320175170898,
   30.711940765380859,
   29.764942169189453,
   29.449453353881836,
   28.812175750732422,
   28.495529174804688,
   28.190301895141602,
   27.347463607788086,
   26.944616317749023,
   23.682743072509766,
   21.101823806762695,
   19.138687133789062,
   17.431373596191406,
   15.913185119628906,
   14.913015365600586,
   13.698797225952148,
   12.765958786010742,
   12.14764404296875,
   7.3875212669372559,
   5.5311203002929688,
   4.4360365867614746,
   3.6451961994171143,
   3.1460607051849365,
   2.7612202167510986,
   2.5321049690246582,
   2.379305362701416,
   2.2949316501617432,
   1.4443060159683228,
   1.1615784168243408,
   1.1511983871459961,
   1.1179226636886597,
   1.0363911390304565,
   0.98365795612335205,
   0.96848851442337036,
   0.88272225856781006,
   1.0646994113922119,
   1.111952543258667,
   0.97943240404129028,
   0.96428358554840088,
   1.024672269821167,
   0.94794005155563354,
   0.87494277954101562,
   0.95818746089935303,
   0.9951859712600708,
   1.1478890180587769,
   1.1726877689361572,
   0.98237621784210205,
   1.0126063823699951,
   1.1026575565338135,
   1.0655505657196045,
   0.95837193727493286,
   0.81015235185623169,
   0.75562018156051636,
   1.0212711095809937
]
