[
   1.5368779897689819,
   1.5360288619995117,
   1.5345494747161865,
   1.5357216596603394,
   1.535815954208374,
   1.5357033014297485,
   1.5363324880599976,
   1.5347681045532227,
   1.536410927772522,
   1.5356458425521851,
   1.5346890687942505,
   1.5343462228775024,
   1.5316569805145264,
   1.5311439037322998,
   1.5296485424041748,
   1.5300765037536621,
   1.5280137062072754,
   1.5280674695968628,
   1.5274425745010376,
   1.5174077749252319,
   1.5083267688751221,
   1.4999274015426636,
   1.4909915924072266,
   1.4813207387924194,
   1.4743412733078003,
   1.4680299758911133,
   1.4602954387664795,
   1.4535490274429321,
   1.3960750102996826,
   1.3518373966217041,
   1.3185093402862549,
   1.2884047031402588,
   1.2644492387771606,
   1.2441155910491943,
   1.2259354591369629,
   1.2104449272155762,
   1.1982781887054443,
   1.1188304424285889,
   1.0781476497650146,
   1.0549908876419067,
   1.0411757230758667,
   1.0295640230178833,
   1.0252112150192261,
   1.0185384750366211,
   1.0137062072753906,
   1.0124084949493408,
   0.99463117122650146,
   0.99954575300216675,
   0.99987953901290894,
   0.99811428785324097,
   0.99973791837692261,
   1.0018680095672607,
   1.0005598068237305,
   1.0039727687835693,
   1.0020822286605835,
   1.0048904418945312,
   1.0008770227432251,
   0.99883615970611572,
   1.00053870677948,
   1.0000897645950317,
   0.97816753387451172,
   0.98767054080963135,
   0.98012322187423706,
   0.98575735092163086
]
