[
   1.9754968881607056,
   1.9756046533584595,
   1.97678542137146,
   1.973160982131958,
   1.9733177423477173,
   1.9734224081039429,
   1.9777771234512329,
   1.9749397039413452,
   1.9731012582778931,
   1.9753961563110352,
   1.9699289798736572,
   1.9682096242904663,
   1.9626138210296631,
   1.9643558263778687,
   1.9607301950454712,
   1.9553953409194946,
   1.9537961483001709,
   1.9528014659881592,
   1.9504835605621338,
   1.923409104347229,
   1.9040133953094482,
   1.8800989389419556,
   1.8609094619750977,
   1.8426679372787476,
   1.8236621618270874,
   1.8057636022567749,
   1.7937450408935547,
   1.7757346630096436,
   1.6562023162841797,
   1.5709282159805298,
   1.5025471448898315,
   1.4502644538879395,
   1.4060903787612915,
   1.3670424222946167,
   1.3364322185516357,
   1.3102626800537109,
   1.2849301099777222,
   1.1610193252563477,
   1.1134607791900635,
   1.0834195613861084,
   1.060471773147583,
   1.0548297166824341,
   1.0373022556304932,
   1.0227843523025513,
   1.0230604410171509,
   1.0177959203720093,
   1.0022785663604736,
   0.99171483516693115,
   0.99716341495513916,
   0.99217206239700317,
   0.99404555559158325,
   0.98867189884185791,
   0.99742382764816284,
   0.98766076564788818,
   0.99369966983795166,
   0.99634188413619995,
   0.9928131103515625,
   0.99227488040924072,
   0.99073392152786255,
   0.99357748031616211,
   1.0263649225234985,
   1.0194705724716187,
   1.008129358291626,
   1.0143368244171143
]
