[
   1.8629347085952759,
   1.8618495464324951,
   1.8605333566665649,
   1.8619877099990845,
   1.8616605997085571,
   1.8612295389175415,
   1.8584344387054443,
   1.8623428344726562,
   1.8625425100326538,
   1.8597568273544312,
   1.8610503673553467,
   1.856266975402832,
   1.8524141311645508,
   1.853268027305603,
   1.8482997417449951,
   1.8488967418670654,
   1.8427932262420654,
   1.845346212387085,
   1.8413705825805664,
   1.8200811147689819,
   1.8025970458984375,
   1.7838360071182251,
   1.7689602375030518,
   1.7513710260391235,
   1.7364675998687744,
   1.7208582162857056,
   1.7090861797332764,
   1.6946102380752563,
   1.5906378030776978,
   1.5149880647659302,
   1.454606294631958,
   1.4097645282745361,
   1.3692638874053955,
   1.335012674331665,
   1.3064228296279907,
   1.2802746295928955,
   1.2612266540527344,
   1.1471672058105469,
   1.1016203165054321,
   1.0677071809768677,
   1.0489552021026611,
   1.0317208766937256,
   1.0283362865447998,
   1.0271717309951782,
   1.0216634273529053,
   1.0101858377456665,
   0.9905160665512085,
   1.0100116729736328,
   1.0013850927352905,
   0.99514704942703247,
   0.99901515245437622,
   0.99571883678436279,
   0.99068272113800049,
   0.99376821517944336,
   1.0099027156829834,
   0.99735069274902344,
   0.99796450138092041,
   0.99403220415115356,
   0.9992254376411438,
   0.99662554264068604,
   1.0059318542480469,
   1.0160253047943115,
   0.98994940519332886,
   0.97145354747772217
]
