[
   7.8870582580566406,
   7.8276586532592773,
   7.8342056274414062,
   7.8550310134887695,
   7.8267607688903809,
   7.8025946617126465,
   7.7696189880371094,
   7.7803802490234375,
   7.799677848815918,
   7.8048033714294434,
   7.702700138092041,
   7.6924614906311035,
   7.5920228958129883,
   7.570439338684082,
   7.5198144912719727,
   7.4614057540893555,
   7.4414138793945312,
   7.3591055870056152,
   7.3017606735229492,
   6.8538298606872559,
   6.5300583839416504,
   6.2349624633789062,
   5.9635019302368164,
   5.6876916885375977,
   5.5018725395202637,
   5.309938907623291,
   5.156592845916748,
   4.9536304473876953,
   3.847914457321167,
   3.2047832012176514,
   2.7428874969482422,
   2.4614677429199219,
   2.2395973205566406,
   2.086946964263916,
   1.9276483058929443,
   1.831298828125,
   1.7076419591903687,
   1.3106882572174072,
   1.1697472333908081,
   1.1231871843338013,
   1.0561690330505371,
   1.0639361143112183,
   1.0674730539321899,
   1.0410597324371338,
   1.0466067790985107,
   1.015704870223999,
   0.984169602394104,
   1.0048671960830688,
   1.0038483142852783,
   1.0155792236328125,
   0.93255722522735596,
   1.0195586681365967,
   0.9684605598449707,
   1.0097938776016235,
   1.0042910575866699,
   0.94174796342849731,
   0.96463906764984131,
   0.98354816436767578,
   1.0176931619644165,
   1.0587406158447266,
   1.0095956325531006,
   1.0987212657928467,
   1.0531247854232788,
   1.081412672996521
]
