[
   2.5164699554443359,
   2.5188162326812744,
   2.5189423561096191,
   2.5208513736724854,
   2.5165362358093262,
   2.5210716724395752,
   2.5195553302764893,
   2.5184237957000732,
   2.5163559913635254,
   2.5150930881500244,
   2.5125260353088379,
   2.5051517486572266,
   2.5047652721405029,
   2.4984946250915527,
   2.4996273517608643,
   2.4885432720184326,
   2.4899978637695312,
   2.4822728633880615,
   2.4806673526763916,
   2.4465785026550293,
   2.4155974388122559,
   2.3879258632659912,
   2.3639764785766602,
   2.3347206115722656,
   2.3129992485046387,
   2.2894711494445801,
   2.2702245712280273,
   2.2475466728210449,
   2.0905318260192871,
   1.9694986343383789,
   1.8704090118408203,
   1.7904427051544189,
   1.7231889963150024,
   1.6675735712051392,
   1.6151927709579468,
   1.573190450668335,
   1.5356755256652832,
   1.3078075647354126,
   1.2077947854995728,
   1.1607134342193604,
   1.131619930267334,
   1.100340723991394,
   1.0797553062438965,
   1.0637869834899902,
   1.0545723438262939,
   1.0463175773620605,
   1.0043885707855225,
   0.99085313081741333,
   0.99724406003952026,
   0.98534309864044189,
   0.95969551801681519,
   0.98316729068756104,
   0.98759335279464722,
   0.99315726757049561,
   0.99466359615325928,
   0.98935526609420776,
   0.97225695848464966,
   1.0003440380096436,
   0.97614258527755737,
   1.0166089534759521,
   0.99571418762207031,
   1.0409793853759766,
   1.0788486003875732,
   0.94545900821685791
]
