[
   1.4445213079452515,
   1.4433858394622803,
   1.4431047439575195,
   1.4429711103439331,
   1.4448037147521973,
   1.4443310499191284,
   1.443838357925415,
   1.4433624744415283,
   1.4432859420776367,
   1.4434573650360107,
   1.441774845123291,
   1.4417119026184082,
   1.4418294429779053,
   1.4410927295684814,
   1.4407792091369629,
   1.439839243888855,
   1.4388086795806885,
   1.4386970996856689,
   1.4380460977554321,
   1.432996392250061,
   1.4284737110137939,
   1.4236593246459961,
   1.4176785945892334,
   1.4151450395584106,
   1.4101779460906982,
   1.4063961505889893,
   1.4028173685073853,
   1.3991576433181763,
   1.3698674440383911,
   1.3462451696395874,
   1.3268537521362305,
   1.3089284896850586,
   1.293196439743042,
   1.2793514728546143,
   1.2673321962356567,
   1.2566006183624268,
   1.2441146373748779,
   1.1675763130187988,
   1.1238374710083008,
   1.0925694704055786,
   1.0691806077957153,
   1.0554102659225464,
   1.0468904972076416,
   1.0419565439224243,
   1.0353753566741943,
   1.0315545797348022,
   1.0068436861038208,
   0.99273043870925903,
   0.99631088972091675,
   0.99411076307296753,
   0.99808692932128906,
   0.99790304899215698,
   0.99371242523193359,
   0.99138402938842773,
   0.99009531736373901,
   0.99664431810379028,
   1.0004209280014038,
   1.010296106338501,
   0.99259984493255615,
   0.98840636014938354,
   0.99429762363433838,
   1.0134813785552979,
   0.98837500810623169,
   1.0287151336669922
]
