[
   1.6331936120986938,
   1.634168267250061,
   1.6342273950576782,
   1.6347572803497314,
   1.6335815191268921,
   1.6332591772079468,
   1.6334518194198608,
   1.6336666345596313,
   1.6332578659057617,
   1.6328407526016235,
   1.631705641746521,
   1.629860520362854,
   1.6290483474731445,
   1.6287496089935303,
   1.6284497976303101,
   1.6281242370605469,
   1.6260474920272827,
   1.6245739459991455,
   1.6256239414215088,
   1.6157333850860596,
   1.6078007221221924,
   1.6006447076797485,
   1.5949735641479492,
   1.5867893695831299,
   1.5801393985748291,
   1.5735799074172974,
   1.5686280727386475,
   1.5624682903289795,
   1.5171893835067749,
   1.4815276861190796,
   1.4501998424530029,
   1.4228236675262451,
   1.3988151550292969,
   1.3762991428375244,
   1.3567379713058472,
   1.3392881155014038,
   1.3239378929138184,
   1.2164909839630127,
   1.1619458198547363,
   1.1210778951644897,
   1.0907835960388184,
   1.0707108974456787,
   1.0548508167266846,
   1.048343300819397,
   1.0413100719451904,
   1.0359801054000854,
   1.0064101219177246,
   1.0045144557952881,
   0.98318910598754883,
   0.98976725339889526,
   0.99698173999786377,
   0.99306696653366089,
   0.99893224239349365,
   1.0096098184585571,
   0.99600112438201904,
   0.9936823844909668,
   0.99415028095245361,
   0.99109375476837158,
   1.0033551454544067,
   0.99110448360443115,
   1.0148525238037109,
   1.0197409391403198,
   1.0170159339904785,
   1.0000101327896118
]
