[
   2.1699070930480957,
   2.1687893867492676,
   2.1689915657043457,
   2.1702349185943604,
   2.1686367988586426,
   2.1679489612579346,
   2.1644196510314941,
   2.1665871143341064,
   2.165499210357666,
   2.1676526069641113,
   2.1620967388153076,
   2.1579725742340088,
   2.157280445098877,
   2.1545758247375488,
   2.1505160331726074,
   2.1497282981872559,
   2.1470673084259033,
   2.14638352394104,
   2.1426959037780762,
   2.117485523223877,
   2.0941948890686035,
   2.0744662284851074,
   2.0569097995758057,
   2.0413126945495605,
   2.0224237442016602,
   2.007901668548584,
   1.9948240518569946,
   1.9784259796142578,
   1.8649749755859375,
   1.777347207069397,
   1.7059217691421509,
   1.6436504125595093,
   1.5939583778381348,
   1.5495359897613525,
   1.5132443904876709,
   1.4779736995697021,
   1.4480201005935669,
   1.2713847160339355,
   1.1909343004226685,
   1.1436058282852173,
   1.1151832342147827,
   1.081072211265564,
   1.0657739639282227,
   1.0540382862091064,
   1.0456399917602539,
   1.0439094305038452,
   0.99137628078460693,
   0.98373472690582275,
   0.99851739406585693,
   0.99925726652145386,
   0.98968154191970825,
   0.98671615123748779,
   0.99633443355560303,
   0.99140214920043945,
   0.99790775775909424,
   0.9835432767868042,
   1.0043991804122925,
   0.9968944787979126,
   0.98741596937179565,
   1.0057793855667114,
   1.0199781656265259,
   0.99142760038375854,
   1.0050748586654663,
   1.0459065437316895
]
