[
   3.0351426601409912,
   3.0349688529968262,
   3.039475679397583,
   3.0318467617034912,
   3.0334851741790771,
   3.0316238403320312,
   3.0295586585998535,
   3.0298938751220703,
   3.0314249992370605,
   3.0309433937072754,
   3.0176126956939697,
   3.0132763385772705,
   3.0075986385345459,
   3.0082166194915771,
   2.9964346885681152,
   2.9893627166748047,
   2.9800329208374023,
   2.9759469032287598,
   2.9719948768615723,
   2.9164299964904785,
   2.8674025535583496,
   2.8221926689147949,
   2.7774641513824463,
   2.7431769371032715,
   2.7073512077331543,
   2.6683526039123535,
   2.6376194953918457,
   2.6112496852874756,
   2.3661477565765381,
   2.1834990978240967,
   2.0457272529602051,
   1.9364219903945923,
   1.851421594619751,
   1.7751328945159912,
   1.7061170339584351,
   1.6580841541290283,
   1.6072772741317749,
   1.3300410509109497,
   1.2215366363525391,
   1.1790002584457397,
   1.1498435735702515,
   1.1124413013458252,
   1.0891557931900024,
   1.0878794193267822,
   1.070172905921936,
   1.0482447147369385,
   1.0222707986831665,
   0.99492233991622925,
   1.0128357410430908,
   0.99942195415496826,
   1.0142241716384888,
   1.0031675100326538,
   1.0005714893341064,
   1.0036430358886719,
   0.99932384490966797,
   0.98434269428253174,
   0.98747473955154419,
   1.0231183767318726,
   0.99434822797775269,
   0.99216878414154053,
   0.96546828746795654,
   0.99116259813308716,
   0.97474420070648193,
   0.95002156496047974
]
