[
   1.8206980228424072,
   1.8205608129501343,
   1.8202371597290039,
   1.8207273483276367,
   1.8174082040786743,
   1.819236159324646,
   1.8183133602142334,
   1.8197896480560303,
   1.8189245462417603,
   1.8197466135025024,
   1.8181489706039429,
   1.8171850442886353,
   1.81453537940979,
   1.811969518661499,
   1.8113619089126587,
   1.8103353977203369,
   1.806915283203125,
   1.8042007684707642,
   1.804604172706604,
   1.7913169860839844,
   1.7799618244171143,
   1.7687327861785889,
   1.756397008895874,
   1.7483981847763062,
   1.7385129928588867,
   1.7294410467147827,
   1.7193100452423096,
   1.7116676568984985,
   1.643520712852478,
   1.5893105268478394,
   1.5466556549072266,
   1.5091956853866577,
   1.4752347469329834,
   1.4469430446624756,
   1.4200100898742676,
   1.3968582153320312,
   1.374119758605957,
   1.2427380084991455,
   1.1744120121002197,
   1.1349495649337769,
   1.1135890483856201,
   1.0915305614471436,
   1.0710946321487427,
   1.0544939041137695,
   1.0459343194961548,
   1.0338859558105469,
   1.0114612579345703,
   1.0080524682998657,
   0.99768954515457153,
   0.99706113338470459,
   0.9966883659362793,
   0.98587262630462646,
   0.99997919797897339,
   1.0030301809310913,
   1.0168594121932983,
   1.0005693435668945,
   1.0081949234008789,
   1.0118849277496338,
   1.003864049911499,
   0.98732662200927734,
   0.98355895280838013,
   0.98313367366790771,
   0.97664624452590942,
   0.99671280384063721
]
