[
   1.5019574165344238,
   1.5006482601165771,
   1.500485897064209,
   1.4997316598892212,
   1.5006595849990845,
   1.4999243021011353,
   1.5006787776947021,
   1.5001890659332275,
   1.5009052753448486,
   1.4996368885040283,
   1.4989757537841797,
   1.4978214502334595,
   1.4977381229400635,
   1.4977344274520874,
   1.497241735458374,
   1.4970246553421021,
   1.4953826665878296,
   1.4951990842819214,
   1.4945564270019531,
   1.4875291585922241,
   1.4837509393692017,
   1.4775779247283936,
   1.4701817035675049,
   1.467012882232666,
   1.4627306461334229,
   1.4584882259368896,
   1.4537427425384521,
   1.4501439332962036,
   1.4160047769546509,
   1.3906122446060181,
   1.366917610168457,
   1.3477202653884888,
   1.3302175998687744,
   1.3146758079528809,
   1.3007467985153198,
   1.2878973484039307,
   1.2749910354614258,
   1.1950948238372803,
   1.1486599445343018,
   1.1159460544586182,
   1.0939750671386719,
   1.0766298770904541,
   1.0629156827926636,
   1.0528385639190674,
   1.0438257455825806,
   1.0399303436279297,
   1.0118963718414307,
   1.0026785135269165,
   0.98955726623535156,
   0.98522108793258667,
   0.9927937388420105,
   0.99474632740020752,
   1.0011014938354492,
   0.99707239866256714,
   0.99996864795684814,
   0.99706125259399414,
   1.0079662799835205,
   0.99376422166824341,
   1.0035245418548584,
   0.99205654859542847,
   0.98295372724533081,
   1.0050399303436279,
   1.0206215381622314,
   1.0069534778594971
]
