[
   1.7161248922348022,
   1.7146351337432861,
   1.7149255275726318,
   1.7148647308349609,
   1.7147235870361328,
   1.7145017385482788,
   1.7140653133392334,
   1.7146785259246826,
   1.7149015665054321,
   1.7142136096954346,
   1.7128015756607056,
   1.7115051746368408,
   1.7114719152450562,
   1.7090895175933838,
   1.7104272842407227,
   1.7087719440460205,
   1.7062427997589111,
   1.7067619562149048,
   1.7039645910263062,
   1.6932365894317627,
   1.6827961206436157,
   1.6745598316192627,
   1.6661144495010376,
   1.6564127206802368,
   1.6500093936920166,
   1.6433346271514893,
   1.6358883380889893,
   1.628125786781311,
   1.5732889175415039,
   1.5298731327056885,
   1.4917967319488525,
   1.4592446088790894,
   1.4312252998352051,
   1.4062962532043457,
   1.3838539123535156,
   1.3624114990234375,
   1.3459383249282837,
   1.2275558710098267,
   1.1632339954376221,
   1.124264121055603,
   1.0950000286102295,
   1.0775183439254761,
   1.0604225397109985,
   1.0539802312850952,
   1.0425083637237549,
   1.0384471416473389,
   1.032548189163208,
   1.015362024307251,
   0.99580609798431396,
   0.9972461462020874,
   1.0024487972259521,
   0.99830472469329834,
   1.0006172657012939,
   0.98744499683380127,
   0.9885481595993042,
   0.98480546474456787,
   0.98520433902740479,
   0.99383562803268433,
   0.99835377931594849,
   0.98164045810699463,
   0.98220568895339966,
   1.0163384675979614,
   1.0484046936035156,
   1.0489524602890015
]
