[
   1.3786554336547852,
   1.3782520294189453,
   1.3772819042205811,
   1.3779171705245972,
   1.3777496814727783,
   1.3783267736434937,
   1.3786026239395142,
   1.3788630962371826,
   1.3781177997589111,
   1.3780155181884766,
   1.377556324005127,
   1.3769534826278687,
   1.376703143119812,
   1.3757302761077881,
   1.376356840133667,
   1.374798059463501,
   1.3748140335083008,
   1.3748264312744141,
   1.3741219043731689,
   1.3697264194488525,
   1.366158127784729,
   1.3632305860519409,
   1.3597041368484497,
   1.3563251495361328,
   1.352782130241394,
   1.3506171703338623,
   1.3477190732955933,
   1.3444733619689941,
   1.3221776485443115,
   1.3040544986724854,
   1.2877515554428101,
   1.2745726108551025,
   1.2619529962539673,
   1.250571608543396,
   1.2413181066513062,
   1.232146143913269,
   1.2239196300506592,
   1.1608713865280151,
   1.1242811679840088,
   1.0957120656967163,
   1.078971266746521,
   1.0641626119613647,
   1.0530078411102295,
   1.0460464954376221,
   1.040108323097229,
   1.0371829271316528,
   0.99963122606277466,
   0.99723756313323975,
   0.98958051204681396,
   0.98391598463058472,
   0.98989170789718628,
   0.99126899242401123,
   0.99367630481719971,
   0.98893719911575317,
   0.99164265394210815,
   0.99793976545333862,
   1.0064014196395874,
   1.0038795471191406,
   1.0000820159912109,
   0.99569094181060791,
   1.0045473575592041,
   0.99334204196929932,
   0.99203318357467651,
   1.0032323598861694
]
