[
   42.260009765625,
   42.189537048339844,
   42.110969543457031,
   41.242885589599609,
   41.6580810546875,
   42.057044982910156,
   41.264671325683594,
   41.445304870605469,
   41.374790191650391,
   40.605705261230469,
   39.829780578613281,
   38.271781921386719,
   37.000846862792969,
   35.921592712402344,
   34.953254699707031,
   34.412117004394531,
   33.051689147949219,
   32.340629577636719,
   31.600595474243164,
   25.256084442138672,
   21.132808685302734,
   18.129411697387695,
   15.704821586608887,
   14.306676864624023,
   12.925435066223145,
   11.880672454833984,
   10.974216461181641,
   10.102739334106445,
   5.9834413528442383,
   4.4264535903930664,
   3.5996456146240234,
   3.1192402839660645,
   2.7150921821594238,
   2.584341287612915,
   2.4432213306427002,
   2.2434566020965576,
   2.0223336219787598,
   1.5608736276626587,
   1.262879490852356,
   1.2160631418228149,
   1.3517211675643921,
   1.2311651706695557,
   1.0820128917694092,
   0.95608758926391602,
   1.0216829776763916,
   1.1758134365081787,
   0.91125887632369995,
   0.97675454616546631,
   0.88108748197555542,
   0.86224067211151123,
   0.88848716020584106,
   1.0307009220123291,
   0.96531087160110474,
   0.96498554944992065,
   1.0002926588058472,
   1.0036561489105225,
   0.98798590898513794,
   1.1271965503692627,
   1.195116400718689,
   1.0553010702133179,
   0.97223770618438721,
   0.86144369840621948,
   1.0453729629516602,
   1.1004295349121094
]
