[
   1.5567406415939331,
   1.5577465295791626,
   1.5572216510772705,
   1.5580248832702637,
   1.5576965808868408,
   1.5561622381210327,
   1.5571179389953613,
   1.5576809644699097,
   1.5566790103912354,
   1.556343674659729,
   1.5567649602890015,
   1.5557687282562256,
   1.5561027526855469,
   1.5553516149520874,
   1.5551389455795288,
   1.5534948110580444,
   1.5528151988983154,
   1.5536133050918579,
   1.5521309375762939,
   1.5484884977340698,
   1.5435775518417358,
   1.5391225814819336,
   1.5371067523956299,
   1.5332486629486084,
   1.5290573835372925,
   1.5260593891143799,
   1.5228092670440674,
   1.5185128450393677,
   1.4908815622329712,
   1.4678547382354736,
   1.445870041847229,
   1.4269179105758667,
   1.4090023040771484,
   1.3926858901977539,
   1.3774549961090088,
   1.3639556169509888,
   1.3505928516387939,
   1.2550637722015381,
   1.1959518194198608,
   1.1576869487762451,
   1.1269042491912842,
   1.1062809228897095,
   1.0886936187744141,
   1.076943039894104,
   1.0690357685089111,
   1.0633028745651245,
   1.0276621580123901,
   1.0085670948028564,
   1.0040651559829712,
   0.99308329820632935,
   0.99735581874847412,
   1.0085151195526123,
   1.0193781852722168,
   1.0135695934295654,
   1.000347375869751,
   0.99777185916900635,
   0.99529010057449341,
   1.0074203014373779,
   1.0060135126113892,
   0.97001010179519653,
   0.95877563953399658,
   0.97997170686721802,
   0.9754873514175415,
   0.89000338315963745
]
