[
   1.6163409948348999,
   1.6167176961898804,
   1.6161210536956787,
   1.6156854629516602,
   1.6169391870498657,
   1.6165443658828735,
   1.6157681941986084,
   1.6147153377532959,
   1.616651177406311,
   1.6164312362670898,
   1.6153199672698975,
   1.6158702373504639,
   1.6144462823867798,
   1.6131776571273804,
   1.6137031316757202,
   1.6129486560821533,
   1.6112474203109741,
   1.611319899559021,
   1.6115961074829102,
   1.6070592403411865,
   1.6010417938232422,
   1.5958136320114136,
   1.5926125049591064,
   1.5873086452484131,
   1.5823928117752075,
   1.5787473917007446,
   1.5740814208984375,
   1.5710721015930176,
   1.537628173828125,
   1.5098927021026611,
   1.4842283725738525,
   1.4621293544769287,
   1.4424588680267334,
   1.4233986139297485,
   1.4064810276031494,
   1.3901973962783813,
   1.3764011859893799,
   1.2710033655166626,
   1.2108697891235352,
   1.1697189807891846,
   1.1342570781707764,
   1.114081859588623,
   1.0982276201248169,
   1.0870423316955566,
   1.0737272500991821,
   1.0649909973144531,
   1.0232836008071899,
   1.0187113285064697,
   1.0003674030303955,
   0.99551725387573242,
   0.98897707462310791,
   0.97930508852005005,
   0.98417741060256958,
   0.9953683614730835,
   0.98770678043365479,
   0.97359097003936768,
   0.97267216444015503,
   0.96821880340576172,
   0.99630403518676758,
   0.99671173095703125,
   1.0233936309814453,
   1.0520393848419189,
   1.0554518699645996,
   1.0723874568939209
]
