[
   1.4341213703155518,
   1.4335706233978271,
   1.4333245754241943,
   1.4334936141967773,
   1.4340460300445557,
   1.4330350160598755,
   1.4339221715927124,
   1.4336017370223999,
   1.4324171543121338,
   1.4337793588638306,
   1.4325164556503296,
   1.4324569702148438,
   1.4325604438781738,
   1.4328937530517578,
   1.4321544170379639,
   1.4312045574188232,
   1.43141770362854,
   1.431826114654541,
   1.4307647943496704,
   1.4273530244827271,
   1.4250878095626831,
   1.4218921661376953,
   1.4196395874023438,
   1.4163548946380615,
   1.4141733646392822,
   1.4119489192962646,
   1.4093459844589233,
   1.4072020053863525,
   1.3878463506698608,
   1.370783805847168,
   1.3557631969451904,
   1.3419066667556763,
   1.3284236192703247,
   1.3174417018890381,
   1.3059254884719849,
   1.2950049638748169,
   1.2858359813690186,
   1.2125116586685181,
   1.1661694049835205,
   1.135178804397583,
   1.1163409948348999,
   1.0998572111129761,
   1.0868173837661743,
   1.0751025676727295,
   1.0658297538757324,
   1.0597563982009888,
   1.0203053951263428,
   0.9990198016166687,
   0.99495840072631836,
   0.9963613748550415,
   0.99677741527557373,
   0.99418294429779053,
   1.0001094341278076,
   0.99843013286590576,
   1.0008132457733154,
   0.9784124493598938,
   0.98583203554153442,
   0.99260741472244263,
   0.99198627471923828,
   1.004193902015686,
   0.99095326662063599,
   1.052048921585083,
   1.0544009208679199,
   1.0510150194168091
]
