[
   32.042686462402344,
   32.337642669677734,
   32.013526916503906,
   32.094654083251953,
   31.694469451904297,
   31.453084945678711,
   31.67120361328125,
   31.545864105224609,
   31.664867401123047,
   31.611963272094727,
   30.836694717407227,
   30.363636016845703,
   29.577341079711914,
   28.906778335571289,
   28.442493438720703,
   28.166271209716797,
   27.366573333740234,
   26.814764022827148,
   26.425609588623047,
   22.537141799926758,
   19.769746780395508,
   17.601835250854492,
   15.680559158325195,
   14.112011909484863,
   13.022707939147949,
   12.192324638366699,
   11.294803619384766,
   10.476901054382324,
   6.423924446105957,
   4.7622175216674805,
   3.9363861083984375,
   3.4267361164093018,
   3.0644223690032959,
   2.6969149112701416,
   2.3150720596313477,
   2.2333321571350098,
   2.0532932281494141,
   1.4338974952697754,
   1.2994072437286377,
   1.2228368520736694,
   1.2858339548110962,
   1.2035975456237793,
   1.1399502754211426,
   1.0212999582290649,
   1.0073416233062744,
   1.1078768968582153,
   1.0247679948806763,
   0.97911661863327026,
   1.0554578304290771,
   0.92298680543899536,
   0.87224102020263672,
   0.87859946489334106,
   1.0166662931442261,
   0.92554390430450439,
   1.0556567907333374,
   1.0198915004730225,
   0.93957579135894775,
   1.0145905017852783,
   1.0269057750701904,
   0.95893353223800659,
   0.86230099201202393,
   1.0175100564956665,
   0.8216327428817749,
   1.1139509677886963
]
