[
   1.7106031179428101,
   1.7098709344863892,
   1.7101352214813232,
   1.7086410522460938,
   1.7089231014251709,
   1.7093654870986938,
   1.7107833623886108,
   1.7084753513336182,
   1.7099847793579102,
   1.709453821182251,
   1.7076961994171143,
   1.7074995040893555,
   1.7073557376861572,
   1.7078351974487305,
   1.70505690574646,
   1.7045164108276367,
   1.7047017812728882,
   1.7040437459945679,
   1.7025253772735596,
   1.6963783502578735,
   1.6887649297714233,
   1.6845130920410156,
   1.6780846118927002,
   1.6734880208969116,
   1.6670767068862915,
   1.6604121923446655,
   1.6570297479629517,
   1.6523466110229492,
   1.6100387573242188,
   1.5727379322052002,
   1.5419526100158691,
   1.5125600099563599,
   1.4869174957275391,
   1.4642527103424072,
   1.4405889511108398,
   1.4205930233001709,
   1.4022279977798462,
   1.2774010896682739,
   1.2109649181365967,
   1.1701401472091675,
   1.1396265029907227,
   1.1130093336105347,
   1.0940773487091064,
   1.0825880765914917,
   1.0744988918304443,
   1.0693025588989258,
   1.0126665830612183,
   1.0030891895294189,
   0.98981857299804688,
   0.99035835266113281,
   0.98990523815155029,
   0.97830802202224731,
   0.98213803768157959,
   0.99332666397094727,
   0.99843865633010864,
   0.9736364483833313,
   0.97310769557952881,
   0.97232931852340698,
   0.98588526248931885,
   1.0123093128204346,
   1.0389691591262817,
   1.0437666177749634,
   1.0532758235931396,
   1.0544193983078003
]
