[
   1.4870338439941406,
   1.4864108562469482,
   1.4861207008361816,
   1.4863108396530151,
   1.4854128360748291,
   1.4858084917068481,
   1.486474871635437,
   1.486569881439209,
   1.4854972362518311,
   1.485774040222168,
   1.4852026700973511,
   1.4840047359466553,
   1.4843504428863525,
   1.4842039346694946,
   1.4844245910644531,
   1.483626127243042,
   1.4822428226470947,
   1.4824994802474976,
   1.4821592569351196,
   1.4790031909942627,
   1.475020170211792,
   1.4714618921279907,
   1.4692873954772949,
   1.4658520221710205,
   1.463470458984375,
   1.4606077671051025,
   1.4581111669540405,
   1.4556572437286377,
   1.4329122304916382,
   1.4138505458831787,
   1.396709680557251,
   1.380407452583313,
   1.3662033081054688,
   1.3521063327789307,
   1.3396018743515015,
   1.3276668787002563,
   1.3166520595550537,
   1.2349377870559692,
   1.18232262134552,
   1.149306058883667,
   1.1243270635604858,
   1.1029813289642334,
   1.0869014263153076,
   1.0751838684082031,
   1.0652791261672974,
   1.0595859289169312,
   1.025867223739624,
   1.003911018371582,
   1.0020500421524048,
   0.99261105060577393,
   0.98633831739425659,
   0.98445242643356323,
   0.98379671573638916,
   0.98033839464187622,
   0.99663794040679932,
   0.99957388639450073,
   0.98995000123977661,
   0.97974139451980591,
   0.99805957078933716,
   0.98318731784820557,
   1.0317661762237549,
   0.99984157085418701,
   0.98719203472137451,
   1.0173294544219971
]
