[
   6.2064809799194336,
   6.2007532119750977,
   6.1942644119262695,
   6.1819305419921875,
   6.2276787757873535,
   6.1925725936889648,
   6.2206683158874512,
   6.196019172668457,
   6.1964097023010254,
   6.1848344802856445,
   6.161491870880127,
   6.1392955780029297,
   6.1286754608154297,
   6.094815731048584,
   6.0717062950134277,
   6.0305466651916504,
   6.0538754463195801,
   6.0111722946166992,
   5.9758710861206055,
   5.7886896133422852,
   5.6195058822631836,
   5.4593639373779297,
   5.3191204071044922,
   5.1769022941589355,
   5.0518808364868164,
   4.9370527267456055,
   4.810004711151123,
   4.7080240249633789,
   3.8726856708526611,
   3.3492519855499268,
   3.0009758472442627,
   2.7214417457580566,
   2.5125937461853027,
   2.3544418811798096,
   2.2316040992736816,
   2.1191420555114746,
   2.0349338054656982,
   1.517795205116272,
   1.3571712970733643,
   1.2814013957977295,
   1.2414742708206177,
   1.2233486175537109,
   1.1726056337356567,
   1.1691416501998901,
   1.099489688873291,
   1.0957896709442139,
   0.99910271167755127,
   0.98291313648223877,
   0.98440760374069214,
   1.0331524610519409,
   1.0124830007553101,
   0.94112884998321533,
   0.99580210447311401,
   0.98158359527587891,
   0.94027727842330933,
   0.939719557762146,
   1.0212333202362061,
   1.0058363676071167,
   1.0380541086196899,
   0.99058854579925537,
   0.96018826961517334,
   1.0208455324172974,
   0.8866155743598938,
   1.0767900943756104
]
