[
   2.2459163665771484,
   2.2441031932830811,
   2.2439734935760498,
   2.2447619438171387,
   2.2462751865386963,
   2.2446918487548828,
   2.2439262866973877,
   2.2472882270812988,
   2.2434771060943604,
   2.2429342269897461,
   2.2413067817687988,
   2.2390518188476562,
   2.2389583587646484,
   2.2358739376068115,
   2.2329270839691162,
   2.2349410057067871,
   2.2309632301330566,
   2.2274651527404785,
   2.2243461608886719,
   2.2107386589050293,
   2.1929986476898193,
   2.1800591945648193,
   2.1649200916290283,
   2.153907299041748,
   2.1376399993896484,
   2.1240406036376953,
   2.1124210357666016,
   2.1030991077423096,
   2.0002386569976807,
   1.9164406061172485,
   1.8442779779434204,
   1.7853113412857056,
   1.7279107570648193,
   1.6793835163116455,
   1.6366965770721436,
   1.5987560749053955,
   1.5662604570388794,
   1.3555402755737305,
   1.2614659070968628,
   1.1951712369918823,
   1.1532646417617798,
   1.1372388601303101,
   1.1179382801055908,
   1.1032978296279907,
   1.0890862941741943,
   1.0835613012313843,
   1.0220164060592651,
   1.0018645524978638,
   0.99790370464324951,
   1.0030448436737061,
   0.98397016525268555,
   0.98769819736480713,
   1.0055768489837646,
   1.0004703998565674,
   0.99755334854125977,
   0.98292970657348633,
   0.99520969390869141,
   0.99920332431793213,
   1.0022901296615601,
   1.0122888088226318,
   1.0065089464187622,
   1.0477161407470703,
   1.0426490306854248,
   1.022530198097229
]
