[
   1.9975435733795166,
   2.0006182193756104,
   1.9990034103393555,
   1.9982030391693115,
   1.9976937770843506,
   1.9974721670150757,
   1.9956210851669312,
   1.9972050189971924,
   1.9980449676513672,
   1.9957319498062134,
   1.9966280460357666,
   1.9966251850128174,
   1.9929077625274658,
   1.9898002147674561,
   1.9904530048370361,
   1.9901602268218994,
   1.9870643615722656,
   1.9868284463882446,
   1.9855329990386963,
   1.9724413156509399,
   1.962498664855957,
   1.9509627819061279,
   1.9419841766357422,
   1.9312260150909424,
   1.9227625131607056,
   1.9113420248031616,
   1.9068963527679443,
   1.8939374685287476,
   1.822745680809021,
   1.7577168941497803,
   1.7081985473632812,
   1.659886360168457,
   1.6182613372802734,
   1.5832703113555908,
   1.5490889549255371,
   1.5226036310195923,
   1.4926726818084717,
   1.3216941356658936,
   1.2334933280944824,
   1.1793944835662842,
   1.1352455615997314,
   1.1044310331344604,
   1.0856499671936035,
   1.0753405094146729,
   1.0661275386810303,
   1.0552780628204346,
   1.0274654626846313,
   1.0186663866043091,
   1.0046586990356445,
   0.99320662021636963,
   0.99817848205566406,
   0.98655050992965698,
   0.99139976501464844,
   0.9789775013923645,
   0.98186647891998291,
   1.002196192741394,
   1.0118130445480347,
   0.97768288850784302,
   0.99521636962890625,
   1.0031251907348633,
   1.0390999317169189,
   1.0108782052993774,
   1.0071450471878052,
   1.0302501916885376
]
