[
   2.0865974426269531,
   2.0856499671936035,
   2.0856304168701172,
   2.0838191509246826,
   2.0848109722137451,
   2.0846083164215088,
   2.0821292400360107,
   2.0848398208618164,
   2.0829198360443115,
   2.0856995582580566,
   2.0804703235626221,
   2.0773887634277344,
   2.0785720348358154,
   2.0710656642913818,
   2.0707530975341797,
   2.0658237934112549,
   2.0682196617126465,
   2.0619268417358398,
   2.0619301795959473,
   2.0335471630096436,
   2.0136327743530273,
   1.9918460845947266,
   1.9749495983123779,
   1.9575878381729126,
   1.9420957565307617,
   1.9246448278427124,
   1.9095942974090576,
   1.896548867225647,
   1.7830073833465576,
   1.6998498439788818,
   1.6346193552017212,
   1.5766702890396118,
   1.5289208889007568,
   1.4845126867294312,
   1.4478174448013306,
   1.4188277721405029,
   1.3857007026672363,
   1.2194260358810425,
   1.1407222747802734,
   1.1028887033462524,
   1.0836660861968994,
   1.0658197402954102,
   1.0469183921813965,
   1.0386588573455811,
   1.0290573835372925,
   1.0203545093536377,
   1.0057370662689209,
   0.99366843700408936,
   0.98823148012161255,
   0.99332332611083984,
   1.0063680410385132,
   1.0118086338043213,
   0.99403828382492065,
   0.99438220262527466,
   0.98674362897872925,
   0.99858301877975464,
   0.97439289093017578,
   0.99158763885498047,
   0.98362016677856445,
   0.99655598402023315,
   1.0129340887069702,
   1.0304350852966309,
   0.9678422212600708,
   0.98939818143844604
]
