[
   1.4675122499465942,
   1.4680662155151367,
   1.4670315980911255,
   1.4670231342315674,
   1.4663991928100586,
   1.4681265354156494,
   1.4668734073638916,
   1.4668922424316406,
   1.4675184488296509,
   1.4672870635986328,
   1.4670675992965698,
   1.4651854038238525,
   1.4646632671356201,
   1.4639332294464111,
   1.4638457298278809,
   1.4617993831634521,
   1.4622862339019775,
   1.4614589214324951,
   1.4610730409622192,
   1.4536374807357788,
   1.4465112686157227,
   1.4403989315032959,
   1.4344220161437988,
   1.4287698268890381,
   1.4234914779663086,
   1.4185117483139038,
   1.414832592010498,
   1.4095019102096558,
   1.3705234527587891,
   1.3400031328201294,
   1.3146429061889648,
   1.2939372062683105,
   1.2755995988845825,
   1.2588126659393311,
   1.2440924644470215,
   1.2316253185272217,
   1.2196357250213623,
   1.1425378322601318,
   1.0990699529647827,
   1.0743873119354248,
   1.0584251880645752,
   1.0460758209228516,
   1.033929705619812,
   1.0250699520111084,
   1.0186787843704224,
   1.0187077522277832,
   1.0016520023345947,
   1.0048807859420776,
   1.005224347114563,
   0.99769484996795654,
   0.99752253293991089,
   0.99154675006866455,
   1.0043265819549561,
   1.0005501508712769,
   0.99239873886108398,
   1.0012547969818115,
   1.0116841793060303,
   1.0095977783203125,
   1.0050220489501953,
   0.98366975784301758,
   0.99401348829269409,
   0.9665343165397644,
   0.98650646209716797,
   1.0078637599945068
]
