[
   5.9055395126342773,
   5.8957643508911133,
   5.9007554054260254,
   5.905240535736084,
   5.91326904296875,
   5.916989803314209,
   5.8831229209899902,
   5.8838300704956055,
   5.8837804794311523,
   5.8910231590270996,
   5.8476047515869141,
   5.820002555847168,
   5.7958450317382812,
   5.7785005569458008,
   5.7347712516784668,
   5.7056913375854492,
   5.6918144226074219,
   5.6346859931945801,
   5.6315760612487793,
   5.4237489700317383,
   5.2257847785949707,
   5.0569067001342773,
   4.9582180976867676,
   4.8104414939880371,
   4.6857366561889648,
   4.5449700355529785,
   4.4551558494567871,
   4.3616204261779785,
   3.6186699867248535,
   3.1302213668823242,
   2.7743926048278809,
   2.5147638320922852,
   2.3090431690216064,
   2.1584782600402832,
   2.0596671104431152,
   1.9445059299468994,
   1.8561321496963501,
   1.395251989364624,
   1.2981164455413818,
   1.1692036390304565,
   1.134874701499939,
   1.1029273271560669,
   1.1071294546127319,
   1.099381685256958,
   1.0596340894699097,
   1.060447096824646,
   0.98815286159515381,
   0.9847790002822876,
   0.96072137355804443,
   0.99535548686981201,
   1.0053344964981079,
   0.97692537307739258,
   0.98849093914031982,
   1.0087248086929321,
   0.98910248279571533,
   1.0297937393188477,
   1.0154967308044434,
   1.0048849582672119,
   0.98817586898803711,
   1.0339353084564209,
   1.0320042371749878,
   1.0004099607467651,
   0.98674964904785156,
   0.97726184129714966
]
