[
   1.6326688528060913,
   1.6320526599884033,
   1.6315600872039795,
   1.6322193145751953,
   1.6306216716766357,
   1.6329946517944336,
   1.6315584182739258,
   1.6318800449371338,
   1.6323636770248413,
   1.6323239803314209,
   1.6329994201660156,
   1.6286458969116211,
   1.6283766031265259,
   1.6272865533828735,
   1.6262056827545166,
   1.6243553161621094,
   1.623967170715332,
   1.62249755859375,
   1.6206309795379639,
   1.6096343994140625,
   1.5995124578475952,
   1.5902161598205566,
   1.5802634954452515,
   1.5730886459350586,
   1.5652472972869873,
   1.5568077564239502,
   1.5509634017944336,
   1.543840765953064,
   1.4866878986358643,
   1.4435265064239502,
   1.4072153568267822,
   1.3773144483566284,
   1.3512684106826782,
   1.3277798891067505,
   1.3085606098175049,
   1.2900158166885376,
   1.2733447551727295,
   1.1730306148529053,
   1.117100715637207,
   1.0869815349578857,
   1.0685611963272095,
   1.0555737018585205,
   1.0407636165618896,
   1.0297913551330566,
   1.0239326953887939,
   1.021297812461853,
   1.001812219619751,
   1.0065233707427979,
   1.0062830448150635,
   0.99721795320510864,
   0.99512326717376709,
   0.99098408222198486,
   1.0040611028671265,
   1.0010591745376587,
   0.99254858493804932,
   1.0028572082519531,
   1.0114710330963135,
   1.012291431427002,
   1.0066956281661987,
   0.98300760984420776,
   0.99334299564361572,
   0.96063005924224854,
   0.98634690046310425,
   1.0095226764678955
]
