[
   4.0434503555297852,
   4.0525975227355957,
   4.0470514297485352,
   4.0486526489257812,
   4.0287446975708008,
   4.0423884391784668,
   4.0556530952453613,
   4.0408239364624023,
   4.0363478660583496,
   4.0282835960388184,
   4.0325736999511719,
   4.00518798828125,
   3.9952652454376221,
   3.9809670448303223,
   3.964951753616333,
   3.9491977691650391,
   3.9493808746337891,
   3.9371776580810547,
   3.9179370403289795,
   3.8093941211700439,
   3.7140159606933594,
   3.6323657035827637,
   3.5500760078430176,
   3.4845554828643799,
   3.4241104125976562,
   3.3591594696044922,
   3.3054420948028564,
   3.2594475746154785,
   2.8580193519592285,
   2.5759165287017822,
   2.3565018177032471,
   2.2028648853302002,
   2.0648760795593262,
   1.9710280895233154,
   1.8734804391860962,
   1.7972557544708252,
   1.7328296899795532,
   1.4047564268112183,
   1.2526853084564209,
   1.1673147678375244,
   1.1223227977752686,
   1.107244610786438,
   1.0795372724533081,
   1.0555355548858643,
   1.0370393991470337,
   1.0095537900924683,
   1.0416696071624756,
   1.0138242244720459,
   1.0149285793304443,
   0.98787814378738403,
   0.98392677307128906,
   0.9888073205947876,
   0.99756300449371338,
   1.0101914405822754,
   0.98311662673950195,
   0.99792546033859253,
   0.96791088581085205,
   1.0339577198028564,
   1.0348469018936157,
   0.93300247192382812,
   0.95022422075271606,
   1.0434176921844482,
   0.93282288312911987,
   0.96275681257247925
]
