[
   1.7163422107696533,
   1.7155148983001709,
   1.717437744140625,
   1.7173370122909546,
   1.7166564464569092,
   1.7146914005279541,
   1.7161579132080078,
   1.715501070022583,
   1.7143434286117554,
   1.7150436639785767,
   1.7141005992889404,
   1.7126041650772095,
   1.7117865085601807,
   1.7110580205917358,
   1.7096887826919556,
   1.7095575332641602,
   1.7082713842391968,
   1.7074136734008789,
   1.7054698467254639,
   1.6952062845230103,
   1.6847528219223022,
   1.6775453090667725,
   1.6679437160491943,
   1.658411979675293,
   1.6538159847259521,
   1.642385721206665,
   1.6359074115753174,
   1.6314394474029541,
   1.5693769454956055,
   1.5254935026168823,
   1.4876227378845215,
   1.4560263156890869,
   1.4278723001480103,
   1.4024193286895752,
   1.3807486295700073,
   1.3617751598358154,
   1.3437647819519043,
   1.2226884365081787,
   1.1660150289535522,
   1.1270123720169067,
   1.1017699241638184,
   1.0877549648284912,
   1.0718702077865601,
   1.0607659816741943,
   1.0538836717605591,
   1.0462292432785034,
   1.0106644630432129,
   1.0103833675384521,
   1.0069271326065063,
   0.99843323230743408,
   0.99696046113967896,
   1.0022664070129395,
   1.0090388059616089,
   1.0056216716766357,
   1.0048911571502686,
   1.0051202774047852,
   0.99725133180618286,
   1.0051842927932739,
   1.0045349597930908,
   1.0058977603912354,
   0.9419514536857605,
   0.97438013553619385,
   0.93893766403198242,
   0.89597445726394653
]
