[
   5.874760627746582,
   5.869999885559082,
   5.8788862228393555,
   5.8593540191650391,
   5.841639518737793,
   5.8653149604797363,
   5.8873891830444336,
   5.8549208641052246,
   5.8565559387207031,
   5.851740837097168,
   5.8289909362792969,
   5.8120698928833008,
   5.7821879386901855,
   5.7479896545410156,
   5.7198514938354492,
   5.7102828025817871,
   5.7047076225280762,
   5.6609830856323242,
   5.6426405906677246,
   5.459935188293457,
   5.2964749336242676,
   5.1501150131225586,
   5.009920597076416,
   4.905797004699707,
   4.8049893379211426,
   4.682528018951416,
   4.5840668678283691,
   4.4890909194946289,
   3.803621768951416,
   3.3487548828125,
   2.995786190032959,
   2.7305700778961182,
   2.5157742500305176,
   2.3327431678771973,
   2.181917667388916,
   2.0749785900115967,
   1.9756038188934326,
   1.4656234979629517,
   1.2846759557723999,
   1.2289503812789917,
   1.1657772064208984,
   1.089579701423645,
   1.0729206800460815,
   1.0405782461166382,
   1.0495223999023438,
   1.0187060832977295,
   1.015209436416626,
   0.97707080841064453,
   1.0088627338409424,
   0.99564027786254883,
   0.98935890197753906,
   1.0072816610336304,
   0.99548560380935669,
   0.98315304517745972,
   0.94440972805023193,
   0.98130512237548828,
   1.0263826847076416,
   0.97367763519287109,
   0.94690191745758057,
   0.97297608852386475,
   0.99846267700195312,
   0.98135596513748169,
   0.99450969696044922,
   1.2393437623977661
]
