[
   3.9607536792755127,
   3.9539637565612793,
   3.9631800651550293,
   3.9595904350280762,
   3.9522979259490967,
   3.9525637626647949,
   3.9433078765869141,
   3.9408214092254639,
   3.9543907642364502,
   3.943509578704834,
   3.9254581928253174,
   3.9278368949890137,
   3.9208769798278809,
   3.9051189422607422,
   3.8918557167053223,
   3.8929061889648438,
   3.880246639251709,
   3.8631904125213623,
   3.858269214630127,
   3.7625892162322998,
   3.6778569221496582,
   3.6150081157684326,
   3.545290470123291,
   3.4853782653808594,
   3.4377942085266113,
   3.3900935649871826,
   3.3370895385742188,
   3.2947735786437988,
   2.927203893661499,
   2.6648764610290527,
   2.4668107032775879,
   2.306511402130127,
   2.1767678260803223,
   2.0697798728942871,
   1.9751832485198975,
   1.8953139781951904,
   1.8268982172012329,
   1.4343656301498413,
   1.2793984413146973,
   1.1704694032669067,
   1.1352002620697021,
   1.0898445844650269,
   1.0886876583099365,
   1.062466025352478,
   1.0480350255966187,
   1.0354866981506348,
   0.99600124359130859,
   0.99079769849777222,
   0.98669040203094482,
   1.0092474222183228,
   0.97585076093673706,
   1.0129523277282715,
   0.9992135763168335,
   0.98719513416290283,
   1.0046079158782959,
   0.98734986782073975,
   0.98903721570968628,
   0.99617958068847656,
   0.96411675214767456,
   1.0233520269393921,
   0.96315228939056396,
   1.0097682476043701,
   0.9467814564704895,
   0.9471360445022583
]
