[
   1.5103433132171631,
   1.5089110136032104,
   1.5090227127075195,
   1.5086156129837036,
   1.5083835124969482,
   1.50941002368927,
   1.5090763568878174,
   1.5086590051651001,
   1.5088649988174438,
   1.5087590217590332,
   1.5079830884933472,
   1.5077793598175049,
   1.5065276622772217,
   1.5055272579193115,
   1.5047512054443359,
   1.5042012929916382,
   1.5034431219100952,
   1.5030022859573364,
   1.5038473606109619,
   1.4965841770172119,
   1.4901102781295776,
   1.4842112064361572,
   1.4806513786315918,
   1.4742827415466309,
   1.4682043790817261,
   1.4654092788696289,
   1.45850670337677,
   1.4542224407196045,
   1.4150460958480835,
   1.3864270448684692,
   1.3597935438156128,
   1.3385188579559326,
   1.3192003965377808,
   1.3019537925720215,
   1.2865830659866333,
   1.2725794315338135,
   1.2604358196258545,
   1.175555944442749,
   1.1296302080154419,
   1.0971329212188721,
   1.0772734880447388,
   1.0604898929595947,
   1.0466992855072021,
   1.0352593660354614,
   1.0337294340133667,
   1.0316774845123291,
   1.0069718360900879,
   1.0028926134109497,
   0.99375569820404053,
   0.99587535858154297,
   1.0049196481704712,
   0.99621355533599854,
   0.99278563261032104,
   0.99370557069778442,
   0.9885748028755188,
   1.006176233291626,
   0.9999161958694458,
   0.98791581392288208,
   0.98969471454620361,
   0.99898397922515869,
   1.0104057788848877,
   0.99813032150268555,
   0.9821898341178894,
   1.0135346651077271
]
