[
   1.9163862466812134,
   1.9169349670410156,
   1.9166587591171265,
   1.916089653968811,
   1.9170728921890259,
   1.9172922372817993,
   1.9157758951187134,
   1.9175411462783813,
   1.916595458984375,
   1.913784384727478,
   1.912885308265686,
   1.9138824939727783,
   1.9084364175796509,
   1.9082590341567993,
   1.9054298400878906,
   1.9058244228363037,
   1.9018442630767822,
   1.9004867076873779,
   1.9014981985092163,
   1.8859878778457642,
   1.8691360950469971,
   1.8557637929916382,
   1.8418188095092773,
   1.8317340612411499,
   1.8204904794692993,
   1.8101265430450439,
   1.7988853454589844,
   1.7869384288787842,
   1.7027099132537842,
   1.6399780511856079,
   1.58564293384552,
   1.5462187528610229,
   1.5080540180206299,
   1.473038911819458,
   1.4450616836547852,
   1.4184279441833496,
   1.3941617012023926,
   1.2443825006484985,
   1.1701681613922119,
   1.1239297389984131,
   1.0948374271392822,
   1.0690439939498901,
   1.0503370761871338,
   1.0448030233383179,
   1.0344988107681274,
   1.0304535627365112,
   1.0157803297042847,
   0.99897307157516479,
   0.9945378303527832,
   1.0000896453857422,
   1.0011981725692749,
   1.0040795803070068,
   1.0120103359222412,
   1.0028865337371826,
   1.0052235126495361,
   0.99102210998535156,
   1.0041835308074951,
   1.0163055658340454,
   1.0097572803497314,
   1.0048494338989258,
   0.96355330944061279,
   0.96225392818450928,
   0.95294266939163208,
   0.91467535495758057
]
