[
   2.1699771881103516,
   2.1646866798400879,
   2.1660876274108887,
   2.1620357036590576,
   2.164780855178833,
   2.1646113395690918,
   2.1636650562286377,
   2.1628854274749756,
   2.1605415344238281,
   2.1641478538513184,
   2.1559300422668457,
   2.1470329761505127,
   2.1437807083129883,
   2.1359412670135498,
   2.1375699043273926,
   2.1298861503601074,
   2.1241543292999268,
   2.1187005043029785,
   2.1154799461364746,
   2.0719175338745117,
   2.0337774753570557,
   1.997280478477478,
   1.9670146703720093,
   1.9341623783111572,
   1.9068409204483032,
   1.8824154138565063,
   1.8597793579101562,
   1.8390623331069946,
   1.6753730773925781,
   1.5619502067565918,
   1.4824670553207397,
   1.4198455810546875,
   1.3624504804611206,
   1.3212010860443115,
   1.2835754156112671,
   1.2574827671051025,
   1.2314525842666626,
   1.1150717735290527,
   1.0718344449996948,
   1.0527393817901611,
   1.0246185064315796,
   1.0072953701019287,
   1.0028955936431885,
   1.0085055828094482,
   1.0056464672088623,
   1.016132116317749,
   1.0132310390472412,
   0.99780827760696411,
   0.99622821807861328,
   0.9845806360244751,
   1.004635214805603,
   0.99082839488983154,
   1.0065449476242065,
   1.0023133754730225,
   1.00528883934021,
   0.99190747737884521,
   1.0043009519577026,
   1.0027376413345337,
   1.0031845569610596,
   0.99592447280883789,
   0.99575865268707275,
   0.97574061155319214,
   1.0182209014892578,
   0.96783697605133057
]
