[
   8.5988836288452148,
   8.5654430389404297,
   8.5816383361816406,
   8.5522899627685547,
   8.5263385772705078,
   8.5413684844970703,
   8.4784708023071289,
   8.5012569427490234,
   8.5453262329101562,
   8.4981870651245117,
   8.4260692596435547,
   8.2969675064086914,
   8.2038545608520508,
   8.1143331527709961,
   8.1031055450439453,
   7.9781112670898438,
   7.9040007591247559,
   7.8506102561950684,
   7.7754020690917969,
   7.2155256271362305,
   6.756472110748291,
   6.4192442893981934,
   6.1037569046020508,
   5.875211238861084,
   5.6462059020996094,
   5.4179930686950684,
   5.1981182098388672,
   5.0559329986572266,
   3.8094589710235596,
   3.0437698364257812,
   2.6084122657775879,
   2.2860710620880127,
   2.0627102851867676,
   1.9107558727264404,
   1.7711048126220703,
   1.6917269229888916,
   1.5952234268188477,
   1.2645059823989868,
   1.1255447864532471,
   1.0350533723831177,
   1.0157672166824341,
   1.0386908054351807,
   1.0178792476654053,
   0.99452000856399536,
   0.99284613132476807,
   0.97645586729049683,
   0.98447400331497192,
   0.98030340671539307,
   1.0155026912689209,
   1.0049216747283936,
   1.0296421051025391,
   1.0573747158050537,
   1.0090861320495605,
   0.98339974880218506,
   0.97993248701095581,
   1.0098786354064941,
   0.99774646759033203,
   1.0556052923202515,
   0.98493576049804688,
   1.0373556613922119,
   0.97345387935638428,
   1.0202095508575439,
   1.1095768213272095,
   0.98592346906661987
]
