[
   1.852124810218811,
   1.8495858907699585,
   1.850637674331665,
   1.8506910800933838,
   1.8498554229736328,
   1.8477227687835693,
   1.8478908538818359,
   1.8482459783554077,
   1.8489183187484741,
   1.8481471538543701,
   1.8443489074707031,
   1.8423287868499756,
   1.8387138843536377,
   1.8346878290176392,
   1.8312206268310547,
   1.8291957378387451,
   1.8241302967071533,
   1.8242371082305908,
   1.821438193321228,
   1.7906907796859741,
   1.7650489807128906,
   1.7436408996582031,
   1.7214257717132568,
   1.7011959552764893,
   1.6813344955444336,
   1.6658618450164795,
   1.6504968404769897,
   1.6333644390106201,
   1.519870400428772,
   1.4391705989837646,
   1.3801670074462891,
   1.3352197408676147,
   1.2965971231460571,
   1.2647490501403809,
   1.2407476902008057,
   1.2180655002593994,
   1.1992883682250977,
   1.0986945629119873,
   1.0576668977737427,
   1.0333576202392578,
   1.0217339992523193,
   1.0131736993789673,
   1.0134507417678833,
   1.0136222839355469,
   1.0084636211395264,
   1.0065101385116577,
   1.0086166858673096,
   0.99579811096191406,
   1.0049088001251221,
   1.0036977529525757,
   1.0047099590301514,
   0.99964457750320435,
   1.0119868516921997,
   1.010460376739502,
   0.99746960401535034,
   0.99946624040603638,
   1.0051388740539551,
   1.0151506662368774,
   1.0006060600280762,
   0.99059879779815674,
   0.98432254791259766,
   0.9745563268661499,
   0.99287509918212891,
   0.91085183620452881
]
