[
   1.6016559600830078,
   1.6019347906112671,
   1.6005531549453735,
   1.6007362604141235,
   1.6021749973297119,
   1.6014077663421631,
   1.6007213592529297,
   1.601326584815979,
   1.600394606590271,
   1.5988250970840454,
   1.5989928245544434,
   1.5963132381439209,
   1.5934165716171265,
   1.5917432308197021,
   1.5910159349441528,
   1.590226411819458,
   1.5881087779998779,
   1.5860912799835205,
   1.5845997333526611,
   1.5685156583786011,
   1.5527975559234619,
   1.5393273830413818,
   1.5253362655639648,
   1.5122642517089844,
   1.5006828308105469,
   1.490766167640686,
   1.4796584844589233,
   1.4702701568603516,
   1.3926728963851929,
   1.3386070728302002,
   1.2981929779052734,
   1.2645118236541748,
   1.2369035482406616,
   1.2154335975646973,
   1.1948224306106567,
   1.1793003082275391,
   1.1671656370162964,
   1.087538480758667,
   1.0592806339263916,
   1.0388740301132202,
   1.0280005931854248,
   1.0246450901031494,
   1.0174787044525146,
   1.0101044178009033,
   1.0084309577941895,
   1.0015257596969604,
   1.0018712282180786,
   1.0002776384353638,
   1.0023660659790039,
   1.0010770559310913,
   1.0038068294525146,
   0.99161404371261597,
   0.99444562196731567,
   0.99702751636505127,
   1.0021007061004639,
   0.99759024381637573,
   0.99382895231246948,
   0.99524325132369995,
   1.0027252435684204,
   0.9941105842590332,
   1.0143957138061523,
   1.0156424045562744,
   1.0238157510757446,
   1.0075862407684326
]
