[
   18.051061630249023,
   18.130128860473633,
   18.051082611083984,
   17.991466522216797,
   18.061235427856445,
   18.034646987915039,
   17.865390777587891,
   17.760448455810547,
   17.727228164672852,
   17.715854644775391,
   17.45789909362793,
   17.211114883422852,
   16.948017120361328,
   16.534412384033203,
   16.184803009033203,
   16.025249481201172,
   15.864642143249512,
   15.657203674316406,
   15.408892631530762,
   14.061582565307617,
   12.719011306762695,
   11.814635276794434,
   11.079619407653809,
   10.229032516479492,
   9.7049036026000977,
   9.1448249816894531,
   8.8051156997680664,
   8.3135280609130859,
   5.6824302673339844,
   4.1354150772094727,
   3.3693790435791016,
   2.9189562797546387,
   2.5669605731964111,
   2.2809615135192871,
   2.1049489974975586,
   1.8838698863983154,
   1.8313738107681274,
   1.3053960800170898,
   1.1226184368133545,
   1.0771782398223877,
   1.0699689388275146,
   1.0885546207427979,
   1.0221438407897949,
   1.0242706537246704,
   0.98290634155273438,
   1.0118118524551392,
   1.039155125617981,
   1.0270019769668579,
   0.92345142364501953,
   1.0589339733123779,
   1.031330943107605,
   1.0325088500976562,
   1.0065784454345703,
   0.97311830520629883,
   1.0623416900634766,
   0.96186220645904541,
   0.92404472827911377,
   1.1363815069198608,
   1.0082430839538574,
   0.91543006896972656,
   1.0521687269210815,
   0.80888110399246216,
   0.86205959320068359,
   1.0247700214385986
]
