[
   2.429379940032959,
   2.4280133247375488,
   2.4226808547973633,
   2.4248554706573486,
   2.4212362766265869,
   2.4217236042022705,
   2.4226670265197754,
   2.4217414855957031,
   2.4233329296112061,
   2.4178004264831543,
   2.4091851711273193,
   2.4013712406158447,
   2.3975629806518555,
   2.39327073097229,
   2.3851227760314941,
   2.3778433799743652,
   2.3713955879211426,
   2.3673427104949951,
   2.3650245666503906,
   2.301828145980835,
   2.2508723735809326,
   2.2041850090026855,
   2.1666390895843506,
   2.1269993782043457,
   2.0872540473937988,
   2.0545506477355957,
   2.0283799171447754,
   2.0040547847747803,
   1.7984740734100342,
   1.6595861911773682,
   1.5644834041595459,
   1.4861456155776978,
   1.425567626953125,
   1.3730940818786621,
   1.332324743270874,
   1.297187328338623,
   1.2707726955413818,
   1.1227035522460938,
   1.0594050884246826,
   1.0354601144790649,
   1.0220777988433838,
   1.016254186630249,
   1.0139997005462646,
   1.0145986080169678,
   1.0022068023681641,
   1.0104676485061646,
   1.0052421092987061,
   0.99576675891876221,
   0.98694449663162231,
   0.98979252576828003,
   0.99930393695831299,
   0.98575305938720703,
   1.0103471279144287,
   1.0030016899108887,
   0.99092388153076172,
   0.99864417314529419,
   0.98907124996185303,
   1.0056149959564209,
   0.98790866136550903,
   0.98918312788009644,
   0.98737603425979614,
   0.97700917720794678,
   1.0032303333282471,
   1.0304003953933716
]
