[
   1.7604916095733643,
   1.7585703134536743,
   1.7609217166900635,
   1.7595599889755249,
   1.7596372365951538,
   1.7584178447723389,
   1.7591108083724976,
   1.7590646743774414,
   1.7580324411392212,
   1.7591829299926758,
   1.7540982961654663,
   1.7527186870574951,
   1.7509593963623047,
   1.7467228174209595,
   1.7467235326766968,
   1.7405526638031006,
   1.7392063140869141,
   1.7371025085449219,
   1.7351291179656982,
   1.7121038436889648,
   1.6881965398788452,
   1.6694303750991821,
   1.6512050628662109,
   1.6337687969207764,
   1.6184730529785156,
   1.6015443801879883,
   1.5877797603607178,
   1.5740416049957275,
   1.4717128276824951,
   1.4024441242218018,
   1.3507177829742432,
   1.3092819452285767,
   1.2739664316177368,
   1.2477757930755615,
   1.2246938943862915,
   1.2053444385528564,
   1.1866054534912109,
   1.1022253036499023,
   1.0653911828994751,
   1.0435593128204346,
   1.0294992923736572,
   1.0175564289093018,
   1.0153820514678955,
   1.0156104564666748,
   1.0093256235122681,
   1.0073964595794678,
   0.99654138088226318,
   1.0022163391113281,
   1.0026899576187134,
   1.0012084245681763,
   0.99346208572387695,
   1.0039656162261963,
   0.99708306789398193,
   1.0073044300079346,
   0.99857169389724731,
   1.0083751678466797,
   1.0015131235122681,
   0.99391764402389526,
   0.99727916717529297,
   1.0029846429824829,
   0.99595606327056885,
   1.0174422264099121,
   0.98660022020339966,
   1.0025697946548462
]
