[
   1.7879765033721924,
   1.7870903015136719,
   1.7872192859649658,
   1.787711501121521,
   1.7881749868392944,
   1.7852458953857422,
   1.7859653234481812,
   1.7886298894882202,
   1.7852064371109009,
   1.7860078811645508,
   1.7852258682250977,
   1.7828851938247681,
   1.7811324596405029,
   1.7792644500732422,
   1.7782274484634399,
   1.7774350643157959,
   1.7741581201553345,
   1.7740014791488647,
   1.7711660861968994,
   1.7597978115081787,
   1.7473386526107788,
   1.7336679697036743,
   1.7237920761108398,
   1.7165336608886719,
   1.7067310810089111,
   1.6965967416763306,
   1.6900783777236938,
   1.6824836730957031,
   1.624193549156189,
   1.5813692808151245,
   1.545142650604248,
   1.5125175714492798,
   1.4876629114151001,
   1.4641096591949463,
   1.4398549795150757,
   1.4203217029571533,
   1.4026577472686768,
   1.266956090927124,
   1.1891838312149048,
   1.1409752368927002,
   1.1127660274505615,
   1.0928390026092529,
   1.0714967250823975,
   1.0564131736755371,
   1.0451656579971313,
   1.0413532257080078,
   1.0126917362213135,
   1.0078402757644653,
   1.0086394548416138,
   1.0067589282989502,
   0.99451875686645508,
   0.98923766613006592,
   0.99556237459182739,
   1.0059589147567749,
   0.99790418148040771,
   0.98971349000930786,
   0.98504650592803955,
   0.99919956922531128,
   1.0177291631698608,
   0.97321593761444092,
   0.97749215364456177,
   1.019932746887207,
   0.97399359941482544,
   0.93536204099655151
]
