[
   1.889304518699646,
   1.8870366811752319,
   1.885245680809021,
   1.8884932994842529,
   1.8859583139419556,
   1.8871219158172607,
   1.8886034488677979,
   1.8857282400131226,
   1.8863723278045654,
   1.8871803283691406,
   1.8841934204101562,
   1.8825899362564087,
   1.8804903030395508,
   1.8789961338043213,
   1.8763492107391357,
   1.8742761611938477,
   1.8720449209213257,
   1.8702131509780884,
   1.8691990375518799,
   1.8545852899551392,
   1.839369535446167,
   1.8243303298950195,
   1.8124713897705078,
   1.8015060424804688,
   1.7889608144760132,
   1.7800014019012451,
   1.7702057361602783,
   1.7618468999862671,
   1.6934118270874023,
   1.6415910720825195,
   1.5998673439025879,
   1.5628104209899902,
   1.5301001071929932,
   1.5009647607803345,
   1.4750854969024658,
   1.4499099254608154,
   1.4287222623825073,
   1.2774027585983276,
   1.1942155361175537,
   1.1394835710525513,
   1.1075949668884277,
   1.0821826457977295,
   1.0618247985839844,
   1.047430157661438,
   1.0394781827926636,
   1.0274609327316284,
   1.0023418664932251,
   1.0032480955123901,
   0.993663489818573,
   0.99606335163116455,
   1.0124504566192627,
   0.99631035327911377,
   0.99386072158813477,
   0.9935537576675415,
   0.97207862138748169,
   0.99398928880691528,
   0.99593639373779297,
   1.0108598470687866,
   1.0055612325668335,
   0.97810477018356323,
   0.99211388826370239,
   1.0042669773101807,
   0.987113356590271,
   1.0244314670562744
]
