[
   1.4858390092849731,
   1.4868737459182739,
   1.4857622385025024,
   1.4870879650115967,
   1.4854128360748291,
   1.4849573373794556,
   1.48586106300354,
   1.4851465225219727,
   1.4855415821075439,
   1.4852287769317627,
   1.4848204851150513,
   1.4848983287811279,
   1.4835091829299927,
   1.4812588691711426,
   1.4820787906646729,
   1.4811402559280396,
   1.480075478553772,
   1.4794327020645142,
   1.4789423942565918,
   1.4724705219268799,
   1.4642372131347656,
   1.4597060680389404,
   1.4534308910369873,
   1.4487544298171997,
   1.4423627853393555,
   1.4377599954605103,
   1.4341778755187988,
   1.4296293258666992,
   1.3948895931243896,
   1.3679602146148682,
   1.3472754955291748,
   1.3303338289260864,
   1.3145542144775391,
   1.2993659973144531,
   1.2869600057601929,
   1.2752379179000854,
   1.2633143663406372,
   1.1848964691162109,
   1.1391150951385498,
   1.1041469573974609,
   1.0778151750564575,
   1.0579499006271362,
   1.0432169437408447,
   1.0319521427154541,
   1.0233949422836304,
   1.0204474925994873,
   0.9950408935546875,
   0.99221742153167725,
   0.99454867839813232,
   1.0031263828277588,
   0.99495923519134521,
   0.98770570755004883,
   0.99346065521240234,
   1.0036706924438477,
   0.99715977907180786,
   0.98666542768478394,
   1.0130946636199951,
   1.0014603137969971,
   0.99778366088867188,
   0.9858783483505249,
   0.97696936130523682,
   0.98412483930587769,
   1.0074610710144043,
   0.94458866119384766
]
