[
   3.7812530994415283,
   3.7938187122344971,
   3.7806980609893799,
   3.7728176116943359,
   3.7713990211486816,
   3.7791309356689453,
   3.7837212085723877,
   3.7733108997344971,
   3.7736554145812988,
   3.7829070091247559,
   3.7620487213134766,
   3.7537026405334473,
   3.7416737079620361,
   3.7348473072052002,
   3.7291495800018311,
   3.7074189186096191,
   3.7056343555450439,
   3.6866798400878906,
   3.6886699199676514,
   3.6165840625762939,
   3.5441627502441406,
   3.4859790802001953,
   3.4324703216552734,
   3.3950302600860596,
   3.356766939163208,
   3.321983814239502,
   3.2824485301971436,
   3.2450871467590332,
   2.9803309440612793,
   2.7760725021362305,
   2.6148514747619629,
   2.4711639881134033,
   2.3530478477478027,
   2.2378489971160889,
   2.1591629981994629,
   2.0770845413208008,
   2.0196366310119629,
   1.5963064432144165,
   1.3835544586181641,
   1.2493264675140381,
   1.1737326383590698,
   1.1491820812225342,
   1.1276946067810059,
   1.0854264497756958,
   1.0735442638397217,
   1.070256233215332,
   1.0149694681167603,
   0.98921424150466919,
   0.96647989749908447,
   1.0119297504425049,
   0.98441827297210693,
   1.007388710975647,
   1.0089133977890015,
   1.0040321350097656,
   0.9570087194442749,
   0.97404986619949341,
   0.98721945285797119,
   0.95988559722900391,
   1.023360013961792,
   0.92514437437057495,
   1.0164111852645874,
   1.0179591178894043,
   1.0145905017852783,
   1.0912771224975586
]
