[
   10.614214897155762,
   10.668326377868652,
   10.661437034606934,
   10.58246898651123,
   10.643793106079102,
   10.58366870880127,
   10.598928451538086,
   10.674670219421387,
   10.617849349975586,
   10.617525100708008,
   10.495989799499512,
   10.429172515869141,
   10.40467643737793,
   10.34516716003418,
   10.269243240356445,
   10.283772468566895,
   10.201175689697266,
   10.115086555480957,
   10.075358390808105,
   9.6601095199584961,
   9.2704296112060547,
   9.0887241363525391,
   8.779423713684082,
   8.498265266418457,
   8.3303203582763672,
   8.0821781158447266,
   7.9678893089294434,
   7.7830986976623535,
   6.3763737678527832,
   5.4717545509338379,
   4.7769646644592285,
   4.232086181640625,
   3.7966513633728027,
   3.4915199279785156,
   3.2203726768493652,
   3.0051016807556152,
   2.781379222869873,
   1.8568656444549561,
   1.4713349342346191,
   1.4028598070144653,
   1.234715461730957,
   1.2684434652328491,
   1.1445813179016113,
   1.1314836740493774,
   1.0694459676742554,
   1.0880511999130249,
   0.91863840818405151,
   0.99323815107345581,
   1.0342044830322266,
   1.0525705814361572,
   1.0053732395172119,
   1.0631949901580811,
   0.94478243589401245,
   0.93186008930206299,
   0.93834733963012695,
   1.0084530115127563,
   0.89479124546051025,
   0.93480366468429565,
   1.0022183656692505,
   1.0364997386932373,
   1.026258111000061,
   1.0858573913574219,
   0.84563368558883667,
   0.96137791872024536
]
