[
   18.186384201049805,
   18.145671844482422,
   18.278942108154297,
   18.096765518188477,
   18.152654647827148,
   18.104570388793945,
   18.09959602355957,
   18.118434906005859,
   18.145904541015625,
   18.01011848449707,
   17.861024856567383,
   17.620277404785156,
   17.561763763427734,
   17.454269409179688,
   17.196510314941406,
   17.149074554443359,
   17.030708312988281,
   16.951772689819336,
   16.753826141357422,
   15.940591812133789,
   15.048233032226562,
   14.360575675964355,
   13.89152717590332,
   13.363565444946289,
   12.841360092163086,
   12.399594306945801,
   11.92277717590332,
   11.623388290405273,
   8.8341236114501953,
   7.2317261695861816,
   5.9535403251647949,
   5.1112627983093262,
   4.4533991813659668,
   3.986238956451416,
   3.5780396461486816,
   3.2589702606201172,
   3.0435779094696045,
   2.0015451908111572,
   1.5707495212554932,
   1.3626205921173096,
   1.1875892877578735,
   1.0945876836776733,
   1.0041676759719849,
   1.055159330368042,
   1.0658913850784302,
   1.0575985908508301,
   0.94253873825073242,
   0.98594188690185547,
   1.0124166011810303,
   0.94387739896774292,
   0.897574782371521,
   1.0548840761184692,
   1.0595377683639526,
   0.89473092555999756,
   0.93564927577972412,
   1.025248646736145,
   0.92391502857208252,
   1.1027573347091675,
   0.95495975017547607,
   0.87149506807327271,
   0.97910165786743164,
   0.76695054769515991,
   1.2450485229492188,
   1.2435674667358398
]
