[
   1.6123542785644531,
   1.6131792068481445,
   1.6126205921173096,
   1.6132593154907227,
   1.6119016408920288,
   1.6123005151748657,
   1.6129639148712158,
   1.6126911640167236,
   1.6136443614959717,
   1.6124060153961182,
   1.6108884811401367,
   1.6102523803710938,
   1.6079666614532471,
   1.6074588298797607,
   1.606917142868042,
   1.6061605215072632,
   1.6045776605606079,
   1.6039483547210693,
   1.6046059131622314,
   1.5943741798400879,
   1.5850914716720581,
   1.5769484043121338,
   1.5698294639587402,
   1.5629967451095581,
   1.5556919574737549,
   1.5495380163192749,
   1.5433592796325684,
   1.5379865169525146,
   1.4947876930236816,
   1.4621556997299194,
   1.4355905055999756,
   1.4129403829574585,
   1.3930073976516724,
   1.3753082752227783,
   1.3590562343597412,
   1.3431154489517212,
   1.3293483257293701,
   1.2233073711395264,
   1.1601579189300537,
   1.1148891448974609,
   1.0845088958740234,
   1.0636565685272217,
   1.0490074157714844,
   1.0422691106796265,
   1.0314241647720337,
   1.0284860134124756,
   1.0011576414108276,
   1.0025230646133423,
   1.0113873481750488,
   1.0059213638305664,
   1.0019867420196533,
   1.0025227069854736,
   0.99462002515792847,
   0.99328708648681641,
   0.99976444244384766,
   0.99900323152542114,
   1.0037394762039185,
   0.9946441650390625,
   0.99607360363006592,
   0.98977744579315186,
   0.99350225925445557,
   1.0017222166061401,
   1.0001007318496704,
   0.94703149795532227
]
