[
   4.3429603576660156,
   4.3477587699890137,
   4.3514065742492676,
   4.338465690612793,
   4.3440866470336914,
   4.3363571166992188,
   4.3332614898681641,
   4.3474183082580566,
   4.3252615928649902,
   4.335174560546875,
   4.3171186447143555,
   4.295196533203125,
   4.2793660163879395,
   4.2522616386413574,
   4.2350301742553711,
   4.2164096832275391,
   4.2097806930541992,
   4.193570613861084,
   4.1756067276000977,
   4.0204730033874512,
   3.8977513313293457,
   3.7959609031677246,
   3.7071487903594971,
   3.6204800605773926,
   3.5308177471160889,
   3.4671592712402344,
   3.4045729637145996,
   3.3406729698181152,
   2.8895695209503174,
   2.5850048065185547,
   2.3631424903869629,
   2.1935420036315918,
   2.0501770973205566,
   1.9444643259048462,
   1.8426277637481689,
   1.7657066583633423,
   1.7129333019256592,
   1.3308045864105225,
   1.1987413167953491,
   1.1613907814025879,
   1.1392889022827148,
   1.1232273578643799,
   1.0963274240493774,
   1.0569183826446533,
   1.0415847301483154,
   1.0335037708282471,
   0.97826129198074341,
   1.0096118450164795,
   1.0058243274688721,
   1.0067696571350098,
   0.99383747577667236,
   1.0076596736907959,
   1.0215106010437012,
   0.9984976053237915,
   0.97943657636642456,
   0.98701083660125732,
   1.0005142688751221,
   0.9890630841255188,
   0.98467665910720825,
   1.0337017774581909,
   0.9811553955078125,
   1.0066046714782715,
   0.9209321141242981,
   0.8434673547744751
]
