[
   1.8573951721191406,
   1.8592274188995361,
   1.8579387664794922,
   1.8562253713607788,
   1.8574695587158203,
   1.8584760427474976,
   1.857068657875061,
   1.8572843074798584,
   1.8567707538604736,
   1.8560135364532471,
   1.854344367980957,
   1.8516960144042969,
   1.8491036891937256,
   1.8463010787963867,
   1.8448667526245117,
   1.8426253795623779,
   1.840031623840332,
   1.8381582498550415,
   1.8343069553375244,
   1.8161548376083374,
   1.7982432842254639,
   1.7808640003204346,
   1.7654435634613037,
   1.7492139339447021,
   1.736738920211792,
   1.7221390008926392,
   1.7119004726409912,
   1.6996055841445923,
   1.6073499917984009,
   1.541720986366272,
   1.4901812076568604,
   1.449735164642334,
   1.4139344692230225,
   1.386137843132019,
   1.3576827049255371,
   1.3306547403335571,
   1.3092091083526611,
   1.1795220375061035,
   1.118033766746521,
   1.0843403339385986,
   1.0612258911132812,
   1.0484658479690552,
   1.0365620851516724,
   1.0294258594512939,
   1.0231434106826782,
   1.0140243768692017,
   1.0059617757797241,
   1.0106068849563599,
   1.0071544647216797,
   1.0066900253295898,
   0.98825323581695557,
   0.99302816390991211,
   0.99175041913986206,
   0.98482102155685425,
   1.0084184408187866,
   0.99650347232818604,
   1.0002517700195312,
   0.9914281964302063,
   0.99537718296051025,
   1.0071460008621216,
   0.97394466400146484,
   0.98160725831985474,
   0.96883410215377808,
   0.99710273742675781
]
