[
   1.5363802909851074,
   1.5358889102935791,
   1.5373809337615967,
   1.5365655422210693,
   1.5348160266876221,
   1.5350263118743896,
   1.5357035398483276,
   1.5349494218826294,
   1.5351008176803589,
   1.5341827869415283,
   1.5333669185638428,
   1.5335094928741455,
   1.5315377712249756,
   1.5319859981536865,
   1.5287854671478271,
   1.5282012224197388,
   1.5277493000030518,
   1.5269848108291626,
   1.5257285833358765,
   1.5162333250045776,
   1.5076806545257568,
   1.4982906579971313,
   1.4899486303329468,
   1.4823538064956665,
   1.4743919372558594,
   1.4672348499298096,
   1.4602749347686768,
   1.4543702602386475,
   1.4035943746566772,
   1.3641836643218994,
   1.3333265781402588,
   1.3087997436523438,
   1.2881314754486084,
   1.2691560983657837,
   1.2524936199188232,
   1.2381449937820435,
   1.2252403497695923,
   1.1396640539169312,
   1.0888998508453369,
   1.05983567237854,
   1.0446438789367676,
   1.0313745737075806,
   1.0218151807785034,
   1.0184998512268066,
   1.0148999691009521,
   1.0131074190139771,
   0.99803769588470459,
   0.99400871992111206,
   1.0012096166610718,
   0.98759758472442627,
   0.98774927854537964,
   0.99585455656051636,
   1.0005125999450684,
   0.9937666654586792,
   0.99319136142730713,
   0.99253571033477783,
   1.0017369985580444,
   0.9877324104309082,
   0.99020206928253174,
   1.0097702741622925,
   0.99890643358230591,
   0.99669301509857178,
   1.0357921123504639,
   1.0325016975402832
]
