[
   1.6755192279815674,
   1.6780827045440674,
   1.6763595342636108,
   1.6759672164916992,
   1.6755235195159912,
   1.6737964153289795,
   1.6739839315414429,
   1.6749951839447021,
   1.6759014129638672,
   1.6740968227386475,
   1.6738283634185791,
   1.6707465648651123,
   1.6699638366699219,
   1.6708137989044189,
   1.6685498952865601,
   1.6666991710662842,
   1.664720892906189,
   1.6609668731689453,
   1.6598899364471436,
   1.6481939554214478,
   1.6353975534439087,
   1.6215009689331055,
   1.6110146045684814,
   1.6005566120147705,
   1.5910670757293701,
   1.581840991973877,
   1.5720283985137939,
   1.5635794401168823,
   1.4950958490371704,
   1.4439916610717773,
   1.4044749736785889,
   1.3748300075531006,
   1.3470959663391113,
   1.321561336517334,
   1.3015973567962646,
   1.2808679342269897,
   1.2638394832611084,
   1.1606322526931763,
   1.1068198680877686,
   1.0785379409790039,
   1.0651118755340576,
   1.0473133325576782,
   1.0342643260955811,
   1.0300034284591675,
   1.0218385457992554,
   1.0157996416091919,
   1.0016281604766846,
   0.99637699127197266,
   1.0017325878143311,
   1.0012552738189697,
   1.0018011331558228,
   0.99377906322479248,
   1.0034420490264893,
   1.005898118019104,
   0.9945710301399231,
   1.0206936597824097,
   0.99056112766265869,
   1.0135133266448975,
   0.99764788150787354,
   0.99758213758468628,
   0.98255699872970581,
   0.97798442840576172,
   0.94277429580688477,
   0.98383027315139771
]
