[
   2.4087269306182861,
   2.4094796180725098,
   2.4086165428161621,
   2.4120407104492188,
   2.4086813926696777,
   2.4067807197570801,
   2.4065706729888916,
   2.4100508689880371,
   2.4075407981872559,
   2.4054145812988281,
   2.4023642539978027,
   2.3971428871154785,
   2.391660213470459,
   2.3892455101013184,
   2.378936767578125,
   2.3780272006988525,
   2.3702301979064941,
   2.3699402809143066,
   2.3623707294464111,
   2.3232252597808838,
   2.2878446578979492,
   2.2521443367004395,
   2.2222316265106201,
   2.1926901340484619,
   2.1676731109619141,
   2.1419694423675537,
   2.121387243270874,
   2.0997097492218018,
   1.9348287582397461,
   1.8218231201171875,
   1.7338567972183228,
   1.6569626331329346,
   1.5968855619430542,
   1.5446544885635376,
   1.4981503486633301,
   1.4579178094863892,
   1.4257097244262695,
   1.2228126525878906,
   1.1349828243255615,
   1.087522029876709,
   1.0593994855880737,
   1.0500330924987793,
   1.0353500843048096,
   1.0172779560089111,
   1.0169501304626465,
   1.0031721591949463,
   0.98914957046508789,
   0.99590903520584106,
   1.0041252374649048,
   0.98510295152664185,
   0.97521144151687622,
   0.98581629991531372,
   0.99478483200073242,
   0.99810934066772461,
   0.99892294406890869,
   0.9923517107963562,
   0.98909455537796021,
   0.99076664447784424,
   1.0099450349807739,
   1.0015027523040771,
   0.98746949434280396,
   0.9919775128364563,
   1.0360784530639648,
   1.1099107265472412
]
