[
   3.3948073387145996,
   3.3940556049346924,
   3.4003632068634033,
   3.3947854042053223,
   3.3926215171813965,
   3.3886418342590332,
   3.3890411853790283,
   3.391136646270752,
   3.3872146606445312,
   3.3870072364807129,
   3.3761768341064453,
   3.3650996685028076,
   3.3505699634552002,
   3.3398890495300293,
   3.3336777687072754,
   3.314225435256958,
   3.3082611560821533,
   3.2998166084289551,
   3.2930092811584473,
   3.2015213966369629,
   3.1195764541625977,
   3.0492994785308838,
   2.9959194660186768,
   2.937279224395752,
   2.8774545192718506,
   2.8386375904083252,
   2.7992322444915771,
   2.7502837181091309,
   2.4319307804107666,
   2.2325325012207031,
   2.0703339576721191,
   1.9413919448852539,
   1.8297526836395264,
   1.7488899230957031,
   1.6715030670166016,
   1.6149038076400757,
   1.5706440210342407,
   1.2769031524658203,
   1.1637464761734009,
   1.0997146368026733,
   1.0868279933929443,
   1.0465402603149414,
   1.0245954990386963,
   1.0230562686920166,
   1.0107657909393311,
   1.0069299936294556,
   1.0153871774673462,
   0.98922604322433472,
   1.0160266160964966,
   0.98971116542816162,
   0.98457843065261841,
   0.98559200763702393,
   0.97620344161987305,
   0.99768763780593872,
   0.98438185453414917,
   1.0005688667297363,
   0.9930729866027832,
   0.99667197465896606,
   1.0164504051208496,
   0.96126747131347656,
   0.97272109985351562,
   0.97527647018432617,
   0.89925277233123779,
   0.97555196285247803
]
