[
   1.7572920322418213,
   1.7579193115234375,
   1.7585947513580322,
   1.7582921981811523,
   1.7574352025985718,
   1.7570869922637939,
   1.7541126012802124,
   1.7563769817352295,
   1.7564992904663086,
   1.7570425271987915,
   1.7569319009780884,
   1.7541646957397461,
   1.7540395259857178,
   1.749214768409729,
   1.7467591762542725,
   1.7459062337875366,
   1.7455956935882568,
   1.7423417568206787,
   1.7414493560791016,
   1.7239952087402344,
   1.7079347372055054,
   1.6945263147354126,
   1.6812433004379272,
   1.6683248281478882,
   1.6568262577056885,
   1.6478033065795898,
   1.6363525390625,
   1.6259937286376953,
   1.5478110313415527,
   1.4918402433395386,
   1.4476321935653687,
   1.41093909740448,
   1.3810285329818726,
   1.3503751754760742,
   1.3281855583190918,
   1.3073947429656982,
   1.2886528968811035,
   1.1718969345092773,
   1.1099679470062256,
   1.0798718929290771,
   1.0613695383071899,
   1.0455580949783325,
   1.0363609790802002,
   1.0342686176300049,
   1.0302689075469971,
   1.0204038619995117,
   0.9846271276473999,
   0.99667435884475708,
   1.0071203708648682,
   0.99655020236968994,
   0.99952203035354614,
   0.99824219942092896,
   1.0010316371917725,
   0.99974501132965088,
   1.0016003847122192,
   0.99928677082061768,
   1.002094030380249,
   0.99097347259521484,
   0.99878597259521484,
   0.98929452896118164,
   0.99757260084152222,
   0.99363076686859131,
   0.97735702991485596,
   0.98157155513763428
]
