[
   2.175318717956543,
   2.173844575881958,
   2.1733503341674805,
   2.1771197319030762,
   2.1738817691802979,
   2.1727690696716309,
   2.1732640266418457,
   2.1763536930084229,
   2.1726477146148682,
   2.1747264862060547,
   2.17085862159729,
   2.1672625541687012,
   2.1695961952209473,
   2.1663143634796143,
   2.1623234748840332,
   2.1626715660095215,
   2.1591382026672363,
   2.1568222045898438,
   2.1559257507324219,
   2.1349570751190186,
   2.1175022125244141,
   2.1015961170196533,
   2.0847477912902832,
   2.0702567100524902,
   2.0555644035339355,
   2.0389790534973145,
   2.0248696804046631,
   2.0107669830322266,
   1.9014730453491211,
   1.8127349615097046,
   1.7407662868499756,
   1.6806621551513672,
   1.629250168800354,
   1.586625337600708,
   1.545112133026123,
   1.5093194246292114,
   1.4777801036834717,
   1.2900347709655762,
   1.21079421043396,
   1.148895263671875,
   1.111274242401123,
   1.0861630439758301,
   1.0681496858596802,
   1.0592578649520874,
   1.0543495416641235,
   1.0527065992355347,
   1.0171382427215576,
   1.0091814994812012,
   1.0080422163009644,
   1.0002899169921875,
   0.99197179079055786,
   0.99152630567550659,
   1.0092655420303345,
   0.99466264247894287,
   0.990012526512146,
   0.98715579509735107,
   0.98656100034713745,
   0.98897236585617065,
   0.97910881042480469,
   0.99561852216720581,
   1.0148646831512451,
   1.0684808492660522,
   1.0789227485656738,
   1.0722123384475708
]
