[
   1.5506893396377563,
   1.5506408214569092,
   1.5512282848358154,
   1.5501116514205933,
   1.5504951477050781,
   1.5506221055984497,
   1.5492116212844849,
   1.5511152744293213,
   1.5488159656524658,
   1.550584077835083,
   1.5493590831756592,
   1.5502008199691772,
   1.5480436086654663,
   1.5479956865310669,
   1.5475475788116455,
   1.5474895238876343,
   1.5457768440246582,
   1.5458227396011353,
   1.5445677042007446,
   1.5411038398742676,
   1.53458571434021,
   1.5297235250473022,
   1.5248981714248657,
   1.5195701122283936,
   1.5157625675201416,
   1.5107876062393188,
   1.5060480833053589,
   1.5030949115753174,
   1.4666038751602173,
   1.4360342025756836,
   1.4090640544891357,
   1.3872866630554199,
   1.3659077882766724,
   1.3483800888061523,
   1.3301669359207153,
   1.3156572580337524,
   1.3028872013092041,
   1.2092082500457764,
   1.1588995456695557,
   1.1254521608352661,
   1.1002705097198486,
   1.0830211639404297,
   1.0674054622650146,
   1.0569827556610107,
   1.0517678260803223,
   1.0493600368499756,
   1.0180337429046631,
   1.0121705532073975,
   1.0020662546157837,
   0.99955099821090698,
   0.9974898099899292,
   0.99766528606414795,
   0.99386900663375854,
   0.99851655960083008,
   0.99459248781204224,
   0.98163443803787231,
   0.98131674528121948,
   0.99075543880462646,
   1.0070714950561523,
   1.0020982027053833,
   0.99259871244430542,
   1.0046596527099609,
   1.0249564647674561,
   0.96025049686431885
]
