[
   3.0623729228973389,
   3.0566248893737793,
   3.0550885200500488,
   3.0537018775939941,
   3.0586376190185547,
   3.0578465461730957,
   3.0539858341217041,
   3.0550408363342285,
   3.0606675148010254,
   3.0525031089782715,
   3.0486912727355957,
   3.0409178733825684,
   3.0324006080627441,
   3.028867244720459,
   3.0189113616943359,
   3.0203802585601807,
   3.0196948051452637,
   3.0152416229248047,
   3.0073318481445312,
   2.9593970775604248,
   2.9167578220367432,
   2.8683257102966309,
   2.8314976692199707,
   2.7930190563201904,
   2.7558696269989014,
   2.717097282409668,
   2.6880850791931152,
   2.6615586280822754,
   2.403872013092041,
   2.2204887866973877,
   2.0794072151184082,
   1.9603147506713867,
   1.8714853525161743,
   1.7891947031021118,
   1.7169815301895142,
   1.6643832921981812,
   1.6166912317276001,
   1.3315427303314209,
   1.2207921743392944,
   1.1637798547744751,
   1.1229698657989502,
   1.08690345287323,
   1.0720354318618774,
   1.0665334463119507,
   1.0548970699310303,
   1.058691143989563,
   1.0231314897537231,
   1.0112048387527466,
   1.0180615186691284,
   0.9910857081413269,
   1.023228645324707,
   1.0113623142242432,
   1.0129575729370117,
   1.0325753688812256,
   1.0002191066741943,
   1.0240901708602905,
   1.0192157030105591,
   0.98273599147796631,
   1.0034507513046265,
   0.99282866716384888,
   0.99152487516403198,
   0.95686101913452148,
   0.87421643733978271,
   0.84353715181350708
]
