[
   12.33152961730957,
   12.268008232116699,
   12.329100608825684,
   12.305512428283691,
   12.250364303588867,
   12.218785285949707,
   12.295232772827148,
   12.209490776062012,
   12.228061676025391,
   12.131532669067383,
   12.101975440979004,
   11.986834526062012,
   11.84076976776123,
   11.793771743774414,
   11.646258354187012,
   11.48582649230957,
   11.388650894165039,
   11.311960220336914,
   11.279811859130859,
   10.352285385131836,
   9.6915149688720703,
   9.0511407852172852,
   8.5512552261352539,
   8.0511760711669922,
   7.6170411109924316,
   7.2891817092895508,
   6.945284366607666,
   6.6483864784240723,
   4.7897567749023438,
   3.7958188056945801,
   3.1766133308410645,
   2.8107171058654785,
   2.5103592872619629,
   2.3094325065612793,
   2.1015241146087646,
   2.0090916156768799,
   1.9062488079071045,
   1.4714474678039551,
   1.3406507968902588,
   1.2276957035064697,
   1.109514594078064,
   1.1006746292114258,
   1.0954767465591431,
   1.1216576099395752,
   1.0761526823043823,
   1.0384880304336548,
   1.0089305639266968,
   1.0080393552780151,
   0.99962615966796875,
   0.96557486057281494,
   0.93549025058746338,
   1.0108135938644409,
   1.0106767416000366,
   0.98910123109817505,
   1.0254775285720825,
   1.015639066696167,
   1.0072996616363525,
   0.98060083389282227,
   0.98030281066894531,
   0.97800362110137939,
   0.96372491121292114,
   0.8721548318862915,
   0.78640633821487427,
   0.92910194396972656
]
