[
   1.9543024301528931,
   1.9559208154678345,
   1.9548571109771729,
   1.9541972875595093,
   1.9551655054092407,
   1.9540029764175415,
   1.9546387195587158,
   1.9540592432022095,
   1.9552977085113525,
   1.9537270069122314,
   1.9515206813812256,
   1.9526478052139282,
   1.9500507116317749,
   1.948439359664917,
   1.9485318660736084,
   1.9456634521484375,
   1.9435310363769531,
   1.9442266225814819,
   1.9410533905029297,
   1.9272279739379883,
   1.9155702590942383,
   1.9037164449691772,
   1.8899881839752197,
   1.8779007196426392,
   1.8686845302581787,
   1.8558101654052734,
   1.8464622497558594,
   1.8360010385513306,
   1.752946138381958,
   1.6838153600692749,
   1.628854513168335,
   1.5808818340301514,
   1.5401945114135742,
   1.5065978765487671,
   1.4756269454956055,
   1.4473942518234253,
   1.423275351524353,
   1.2613174915313721,
   1.1858761310577393,
   1.1442372798919678,
   1.1140910387039185,
   1.0959985256195068,
   1.0820653438568115,
   1.0747039318084717,
   1.0658094882965088,
   1.0570962429046631,
   1.0084542036056519,
   0.98960798978805542,
   0.99421656131744385,
   0.98950350284576416,
   0.99043351411819458,
   0.99569970369338989,
   1.0063940286636353,
   1.0144460201263428,
   1.000862717628479,
   0.99926137924194336,
   1.0025451183319092,
   1.0195595026016235,
   1.0190472602844238,
   0.971446692943573,
   0.95045804977416992,
   0.95742768049240112,
   0.89977931976318359,
   0.93303364515304565
]
