[
   1.3975373506546021,
   1.3967844247817993,
   1.3975117206573486,
   1.3970898389816284,
   1.3972752094268799,
   1.3966747522354126,
   1.3972972631454468,
   1.3968220949172974,
   1.3964660167694092,
   1.3964955806732178,
   1.3966860771179199,
   1.3964278697967529,
   1.3965705633163452,
   1.3951743841171265,
   1.395077109336853,
   1.3946434259414673,
   1.3941792249679565,
   1.3951485157012939,
   1.3930108547210693,
   1.3908065557479858,
   1.3879293203353882,
   1.3843353986740112,
   1.3815305233001709,
   1.3790380954742432,
   1.3761674165725708,
   1.3732973337173462,
   1.3706905841827393,
   1.3679348230361938,
   1.3455055952072144,
   1.324466347694397,
   1.3088423013687134,
   1.2926192283630371,
   1.2800449132919312,
   1.2674640417098999,
   1.2560597658157349,
   1.2454661130905151,
   1.2359716892242432,
   1.166010856628418,
   1.1220841407775879,
   1.0950568914413452,
   1.0767505168914795,
   1.0612887144088745,
   1.0505411624908447,
   1.0425156354904175,
   1.0351641178131104,
   1.0329737663269043,
   1.0161062479019165,
   1.0044559240341187,
   1.0132995843887329,
   1.0088058710098267,
   1.0012131929397583,
   1.0041511058807373,
   1.0089397430419922,
   0.99645775556564331,
   1.0045801401138306,
   0.99894201755523682,
   0.97486674785614014,
   0.99088257551193237,
   1.0003279447555542,
   0.99289780855178833,
   1.0128663778305054,
   0.99907380342483521,
   0.97865992784500122,
   0.96728718280792236
]
