[
   1.7041854858398438,
   1.705963134765625,
   1.7044515609741211,
   1.7035423517227173,
   1.7028102874755859,
   1.7036052942276001,
   1.7046139240264893,
   1.7029060125350952,
   1.7031291723251343,
   1.7034504413604736,
   1.7025274038314819,
   1.7016767263412476,
   1.7018686532974243,
   1.6993162631988525,
   1.6996876001358032,
   1.6980558633804321,
   1.6973695755004883,
   1.6977936029434204,
   1.6959877014160156,
   1.6876289844512939,
   1.6806285381317139,
   1.6715309619903564,
   1.6654485464096069,
   1.6591148376464844,
   1.6521056890487671,
   1.6445639133453369,
   1.6396980285644531,
   1.6345440149307251,
   1.5819228887557983,
   1.5369997024536133,
   1.5008101463317871,
   1.4692008495330811,
   1.4415661096572876,
   1.4181126356124878,
   1.3952914476394653,
   1.3748060464859009,
   1.3555772304534912,
   1.2408585548400879,
   1.1791322231292725,
   1.1359400749206543,
   1.1086248159408569,
   1.0966691970825195,
   1.0794957876205444,
   1.0706778764724731,
   1.0610910654067993,
   1.0537927150726318,
   1.0096642971038818,
   1.000740647315979,
   0.99527788162231445,
   1.0056298971176147,
   1.0002477169036865,
   1.0037920475006104,
   1.0054115056991577,
   1.0064858198165894,
   1.0006585121154785,
   0.99774330854415894,
   0.9968942403793335,
   1.0081608295440674,
   1.0012660026550293,
   0.99944478273391724,
   0.97177821397781372,
   0.94736576080322266,
   0.92391157150268555,
   0.91505593061447144
]
