[
   1.6073815822601318,
   1.6072067022323608,
   1.607874870300293,
   1.6067955493927002,
   1.6070045232772827,
   1.604827880859375,
   1.6065336465835571,
   1.6066462993621826,
   1.6070562601089478,
   1.607073187828064,
   1.6042829751968384,
   1.6044986248016357,
   1.6050126552581787,
   1.6027822494506836,
   1.6032689809799194,
   1.6024736166000366,
   1.6020218133926392,
   1.6011638641357422,
   1.5991224050521851,
   1.5956132411956787,
   1.5890201330184937,
   1.5822323560714722,
   1.5764684677124023,
   1.5715429782867432,
   1.5658924579620361,
   1.5603306293487549,
   1.5544178485870361,
   1.5507760047912598,
   1.508718729019165,
   1.4735229015350342,
   1.4444113969802856,
   1.4173295497894287,
   1.3949638605117798,
   1.3729026317596436,
   1.3555879592895508,
   1.3381282091140747,
   1.3216583728790283,
   1.2210537195205688,
   1.166258692741394,
   1.1336350440979004,
   1.1119122505187988,
   1.0976461172103882,
   1.0834589004516602,
   1.0738253593444824,
   1.0620176792144775,
   1.0594629049301147,
   1.020824670791626,
   1.018258810043335,
   1.0049806833267212,
   1.0106797218322754,
   0.99377375841140747,
   0.99108058214187622,
   1.0064010620117188,
   0.99850833415985107,
   1.00130295753479,
   1.0023596286773682,
   0.99998682737350464,
   1.0229603052139282,
   1.0105167627334595,
   0.97516328096389771,
   0.98247623443603516,
   1.0114650726318359,
   0.95671069622039795,
   0.9126819372177124
]
