[
   1.3680775165557861,
   1.3678985834121704,
   1.3676688671112061,
   1.3680212497711182,
   1.36745285987854,
   1.3687580823898315,
   1.3685625791549683,
   1.3683459758758545,
   1.3681778907775879,
   1.3679505586624146,
   1.3667914867401123,
   1.3672456741333008,
   1.3667292594909668,
   1.3668198585510254,
   1.3660657405853271,
   1.3659659624099731,
   1.3659706115722656,
   1.3653919696807861,
   1.3648756742477417,
   1.3628242015838623,
   1.3595269918441772,
   1.3568562269210815,
   1.3550571203231812,
   1.3521604537963867,
   1.348994255065918,
   1.3471583127975464,
   1.3447473049163818,
   1.3425519466400146,
   1.3220860958099365,
   1.3043410778045654,
   1.2894430160522461,
   1.2762980461120605,
   1.2636629343032837,
   1.2537996768951416,
   1.2431180477142334,
   1.2349187135696411,
   1.2253096103668213,
   1.1622111797332764,
   1.1222680807113647,
   1.0982725620269775,
   1.0859098434448242,
   1.0729851722717285,
   1.0612614154815674,
   1.0529358386993408,
   1.0459777116775513,
   1.0420920848846436,
   1.0132200717926025,
   1.0052281618118286,
   0.99242478609085083,
   0.99034368991851807,
   0.99205636978149414,
   0.98904120922088623,
   0.99541962146759033,
   0.99846136569976807,
   1.0006983280181885,
   0.98772907257080078,
   0.98424309492111206,
   0.98344862461090088,
   0.99488353729248047,
   0.99929678440093994,
   1.0077974796295166,
   1.0470807552337646,
   1.0378329753875732,
   1.0647293329238892
]
