[
   42.435447692871094,
   42.136875152587891,
   41.481433868408203,
   41.874794006347656,
   41.420753479003906,
   41.72998046875,
   41.211570739746094,
   40.997509002685547,
   40.693439483642578,
   40.719936370849609,
   39.446559906005859,
   38.155097961425781,
   37.132106781005859,
   36.142478942871094,
   35.102260589599609,
   34.0537109375,
   33.414756774902344,
   32.440761566162109,
   31.487422943115234,
   25.658763885498047,
   21.707300186157227,
   18.375328063964844,
   16.22962760925293,
   14.445741653442383,
   13.116630554199219,
   12.377241134643555,
   11.184211730957031,
   10.290352821350098,
   6.5884642601013184,
   4.5654497146606445,
   3.7349464893341064,
   3.1599502563476562,
   2.8514292240142822,
   2.6281402111053467,
   2.5789141654968262,
   2.320457935333252,
   2.2245035171508789,
   1.5870506763458252,
   1.2005267143249512,
   1.1635391712188721,
   1.2075124979019165,
   1.1837832927703857,
   1.260422945022583,
   1.1378819942474365,
   1.099544882774353,
   1.100253701210022,
   1.004557728767395,
   0.8512808084487915,
   1.069835901260376,
   0.92939901351928711,
   0.95403271913528442,
   0.86197853088378906,
   1.0741163492202759,
   0.95170795917510986,
   1.0590035915374756,
   0.92381888628005981,
   1.0123810768127441,
   1.0230245590209961,
   1.2466466426849365,
   0.81859892606735229,
   0.87437093257904053,
   0.76790183782577515,
   0.98664730787277222,
   0.94565331935882568
]
