[
   1.4430696964263916,
   1.4425559043884277,
   1.4433887004852295,
   1.4426677227020264,
   1.442818284034729,
   1.4416624307632446,
   1.4419858455657959,
   1.4422690868377686,
   1.4414653778076172,
   1.4426467418670654,
   1.4425303936004639,
   1.441112756729126,
   1.4410369396209717,
   1.4410346746444702,
   1.4407768249511719,
   1.4401057958602905,
   1.4392931461334229,
   1.4396032094955444,
   1.4384353160858154,
   1.4352009296417236,
   1.4314695596694946,
   1.4279729127883911,
   1.4254955053329468,
   1.4204803705215454,
   1.4185358285903931,
   1.4154692888259888,
   1.4118843078613281,
   1.4090204238891602,
   1.3828613758087158,
   1.3610303401947021,
   1.3413054943084717,
   1.3236219882965088,
   1.3086249828338623,
   1.2948522567749023,
   1.2809890508651733,
   1.269366979598999,
   1.2584251165390015,
   1.1808373928070068,
   1.1326732635498047,
   1.1043757200241089,
   1.0856029987335205,
   1.0724058151245117,
   1.0578601360321045,
   1.0490022897720337,
   1.0426778793334961,
   1.041858434677124,
   1.0134320259094238,
   1.0042685270309448,
   1.0035405158996582,
   0.99506360292434692,
   0.9981725811958313,
   0.99928140640258789,
   0.99931508302688599,
   0.99253255128860474,
   0.98687809705734253,
   0.99521148204803467,
   1.0064681768417358,
   1.0145156383514404,
   1.0072788000106812,
   0.98250377178192139,
   0.97787207365036011,
   0.99483728408813477,
   1.0003249645233154,
   1.0304940938949585
]
