[
   2.4696719646453857,
   2.4703245162963867,
   2.4734537601470947,
   2.4701516628265381,
   2.4695167541503906,
   2.4710440635681152,
   2.4722356796264648,
   2.4715738296508789,
   2.4745800495147705,
   2.469541072845459,
   2.4642946720123291,
   2.4579119682312012,
   2.4569575786590576,
   2.4504477977752686,
   2.4490487575531006,
   2.4455227851867676,
   2.438575267791748,
   2.4295570850372314,
   2.430396556854248,
   2.3921232223510742,
   2.3612387180328369,
   2.3211026191711426,
   2.2943105697631836,
   2.2634010314941406,
   2.2434594631195068,
   2.2179467678070068,
   2.1921172142028809,
   2.1755607128143311,
   2.0069968700408936,
   1.8927793502807617,
   1.8059465885162354,
   1.7249612808227539,
   1.6586825847625732,
   1.6074459552764893,
   1.5573983192443848,
   1.5181847810745239,
   1.4792417287826538,
   1.275141716003418,
   1.1838119029998779,
   1.1304007768630981,
   1.0988246202468872,
   1.0718395709991455,
   1.0590678453445435,
   1.0464818477630615,
   1.048588752746582,
   1.0339120626449585,
   1.0212022066116333,
   0.99565351009368896,
   1.0036618709564209,
   1.01719069480896,
   0.99233520030975342,
   0.99492108821868896,
   0.99272412061691284,
   0.99334830045700073,
   0.98619747161865234,
   0.99533587694168091,
   0.98303735256195068,
   0.98053896427154541,
   0.98890459537506104,
   0.99440681934356689,
   1.0419535636901855,
   1.0180022716522217,
   1.0368750095367432,
   1.0429866313934326
]
