[
   2.0089609622955322,
   2.0094926357269287,
   2.010927677154541,
   2.0077528953552246,
   2.0090179443359375,
   2.009812593460083,
   2.007598876953125,
   2.0089569091796875,
   2.0058853626251221,
   2.0082218647003174,
   2.0036876201629639,
   2.0020709037780762,
   2.0004348754882812,
   1.9979978799819946,
   1.9953991174697876,
   1.992077112197876,
   1.9939378499984741,
   1.9897758960723877,
   1.9862209558486938,
   1.9667911529541016,
   1.9448921680450439,
   1.9264709949493408,
   1.9107202291488647,
   1.8957736492156982,
   1.8763624429702759,
   1.8662078380584717,
   1.8515297174453735,
   1.839655876159668,
   1.7418934106826782,
   1.6686112880706787,
   1.6128120422363281,
   1.562163233757019,
   1.5239533185958862,
   1.4870448112487793,
   1.455121636390686,
   1.428041934967041,
   1.401707649230957,
   1.2422554492950439,
   1.1604808568954468,
   1.1133530139923096,
   1.0810763835906982,
   1.0671770572662354,
   1.0537494421005249,
   1.0438411235809326,
   1.0359277725219727,
   1.0295916795730591,
   1.0117660760879517,
   1.004734992980957,
   0.98663580417633057,
   0.99277526140213013,
   0.99330580234527588,
   0.99916285276412964,
   0.99935150146484375,
   0.98899489641189575,
   0.979900062084198,
   1.00290846824646,
   1.0082416534423828,
   0.99575948715209961,
   0.97054803371429443,
   0.99693411588668823,
   0.99779766798019409,
   0.99051845073699951,
   0.9716564416885376,
   1.0540779829025269
]
