[
   1.8585993051528931,
   1.8614507913589478,
   1.8606817722320557,
   1.8572044372558594,
   1.858115553855896,
   1.857590913772583,
   1.8589063882827759,
   1.860457181930542,
   1.8589713573455811,
   1.8591991662979126,
   1.8564798831939697,
   1.8555999994277954,
   1.8550519943237305,
   1.8510739803314209,
   1.8504030704498291,
   1.8505210876464844,
   1.8455661535263062,
   1.8434215784072876,
   1.8434679508209229,
   1.8243701457977295,
   1.8093560934066772,
   1.7962782382965088,
   1.7813479900360107,
   1.7685807943344116,
   1.7594842910766602,
   1.7471320629119873,
   1.736528754234314,
   1.7242692708969116,
   1.6474065780639648,
   1.5867512226104736,
   1.5369455814361572,
   1.4990181922912598,
   1.4648315906524658,
   1.4335224628448486,
   1.4060454368591309,
   1.3822916746139526,
   1.3603003025054932,
   1.2258751392364502,
   1.1560584306716919,
   1.1128932237625122,
   1.0846958160400391,
   1.0665051937103271,
   1.0526648759841919,
   1.0391407012939453,
   1.0339494943618774,
   1.0280014276504517,
   1.0047924518585205,
   0.97781640291213989,
   0.99873363971710205,
   0.99772149324417114,
   0.98365086317062378,
   0.98704016208648682,
   0.98391199111938477,
   0.98052579164505005,
   0.99350833892822266,
   0.98844653367996216,
   0.99578827619552612,
   0.99398595094680786,
   0.99967622756958008,
   1.0071464776992798,
   0.98336315155029297,
   1.0172049999237061,
   1.0199539661407471,
   1.0544706583023071
]
