[
   61.363700866699219,
   61.030200958251953,
   60.131675720214844,
   60.386077880859375,
   60.616771697998047,
   59.640644073486328,
   59.103973388671875,
   59.222587585449219,
   58.768341064453125,
   58.968894958496094,
   56.400016784667969,
   54.476554870605469,
   52.4512939453125,
   50.158351898193359,
   49.581722259521484,
   47.306228637695312,
   46.455410003662109,
   45.499607086181641,
   44.027164459228516,
   35.459674835205078,
   28.623825073242188,
   24.628328323364258,
   21.746685028076172,
   19.426908493041992,
   17.252557754516602,
   15.531977653503418,
   14.10724925994873,
   12.931097030639648,
   7.796137809753418,
   5.1645874977111816,
   4.5823326110839844,
   4.0525503158569336,
   3.1632306575775146,
   2.9981179237365723,
   2.6145377159118652,
   2.5979344844818115,
   2.6661486625671387,
   1.7837932109832764,
   1.3760483264923096,
   1.3652701377868652,
   1.2453442811965942,
   1.0433105230331421,
   0.85123586654663086,
   1.0561944246292114,
   1.1829161643981934,
   0.91191178560256958,
   0.83870804309844971,
   0.94508492946624756,
   1.0541679859161377,
   0.95047265291213989,
   0.94717836380004883,
   1.1599447727203369,
   0.950736403465271,
   1.0414222478866577,
   1.1205981969833374,
   0.92962455749511719,
   0.78717082738876343,
   0.79574930667877197,
   1.0049149990081787,
   1.0474264621734619,
   0.9371722936630249,
   0.9511486291885376,
   0.94532585144042969,
   1.0818632841110229
]
