[
   1.4486820697784424,
   1.4482841491699219,
   1.4488637447357178,
   1.4476883411407471,
   1.4472610950469971,
   1.4479184150695801,
   1.4483122825622559,
   1.4481375217437744,
   1.447868824005127,
   1.448576807975769,
   1.4483826160430908,
   1.4480202198028564,
   1.4454348087310791,
   1.4461904764175415,
   1.4455606937408447,
   1.4459326267242432,
   1.4450752735137939,
   1.4450225830078125,
   1.4450799226760864,
   1.4413690567016602,
   1.4368988275527954,
   1.4336739778518677,
   1.429767370223999,
   1.4272005558013916,
   1.423541784286499,
   1.4198013544082642,
   1.4166351556777954,
   1.4135735034942627,
   1.3854280710220337,
   1.3611255884170532,
   1.3408912420272827,
   1.3203192949295044,
   1.3048626184463501,
   1.2890621423721313,
   1.2747423648834229,
   1.2627062797546387,
   1.2507537603378296,
   1.1730831861495972,
   1.1297998428344727,
   1.1029016971588135,
   1.0835287570953369,
   1.0684664249420166,
   1.0587825775146484,
   1.0524455308914185,
   1.0469990968704224,
   1.044338583946228,
   1.0195498466491699,
   1.0052202939987183,
   1.0083236694335938,
   1.0071548223495483,
   1.0051624774932861,
   1.0044255256652832,
   1.0081570148468018,
   1.0008906126022339,
   1.0120232105255127,
   0.99905014038085938,
   1.0037941932678223,
   0.9980158805847168,
   0.99076014757156372,
   1.0016162395477295,
   0.99231386184692383,
   0.95081251859664917,
   0.96614611148834229,
   0.93575114011764526
]
