[
   3.4164512157440186,
   3.4274802207946777,
   3.4151883125305176,
   3.4137618541717529,
   3.4245972633361816,
   3.4210762977600098,
   3.4163899421691895,
   3.4131247997283936,
   3.4179520606994629,
   3.4085178375244141,
   3.4007458686828613,
   3.3948509693145752,
   3.3854663372039795,
   3.3770534992218018,
   3.373274564743042,
   3.3664774894714355,
   3.3524055480957031,
   3.3440470695495605,
   3.3387100696563721,
   3.2569077014923096,
   3.1911826133728027,
   3.1272909641265869,
   3.066364049911499,
   3.0155398845672607,
   2.9555313587188721,
   2.892277717590332,
   2.8530569076538086,
   2.8085916042327881,
   2.4496588706970215,
   2.2017879486083984,
   2.036252498626709,
   1.8976227045059204,
   1.7953422069549561,
   1.7108745574951172,
   1.6456819772720337,
   1.5878125429153442,
   1.5433975458145142,
   1.2873773574829102,
   1.1831841468811035,
   1.1198660135269165,
   1.0812721252441406,
   1.0646162033081055,
   1.0697243213653564,
   1.0649387836456299,
   1.0510748624801636,
   1.0494349002838135,
   1.0291941165924072,
   1.0143327713012695,
   0.99633854627609253,
   1.0103493928909302,
   0.99085932970046997,
   0.98409128189086914,
   0.99135076999664307,
   1.0054051876068115,
   0.99838179349899292,
   0.99588239192962646,
   1.0076881647109985,
   0.98577892780303955,
   1.0182725191116333,
   0.96215182542800903,
   0.96118992567062378,
   1.0206773281097412,
   0.95332753658294678,
   0.92630374431610107
]
