[
   1.3162518739700317,
   1.31569504737854,
   1.3161771297454834,
   1.3156349658966064,
   1.3158876895904541,
   1.3158882856369019,
   1.3163690567016602,
   1.3159505128860474,
   1.3163334131240845,
   1.3154809474945068,
   1.3156746625900269,
   1.3153005838394165,
   1.315066933631897,
   1.3151237964630127,
   1.3149734735488892,
   1.3148645162582397,
   1.3140015602111816,
   1.3144066333770752,
   1.3137655258178711,
   1.3116965293884277,
   1.3105149269104004,
   1.3083757162094116,
   1.3060437440872192,
   1.3042246103286743,
   1.3022488355636597,
   1.3002673387527466,
   1.2994818687438965,
   1.2975654602050781,
   1.2815824747085571,
   1.2676985263824463,
   1.2553197145462036,
   1.2438573837280273,
   1.2337100505828857,
   1.2242147922515869,
   1.2153804302215576,
   1.2072931528091431,
   1.1999033689498901,
   1.1432363986968994,
   1.1093705892562866,
   1.0863106250762939,
   1.0796992778778076,
   1.0670956373214722,
   1.0573405027389526,
   1.0511879920959473,
   1.0453108549118042,
   1.0408450365066528,
   1.0161902904510498,
   0.99548196792602539,
   0.99744331836700439,
   0.99338757991790771,
   0.99682772159576416,
   0.99255067110061646,
   1.0002706050872803,
   1.0060547590255737,
   1.0044281482696533,
   1.0009307861328125,
   1.0012483596801758,
   0.9854399561882019,
   1.0011537075042725,
   1.0108749866485596,
   1.0007151365280151,
   0.99600058794021606,
   1.0242714881896973,
   0.97269570827484131
]
