[
   9.1959819793701172,
   9.2038364410400391,
   9.1812191009521484,
   9.1783390045166016,
   9.1720476150512695,
   9.1711740493774414,
   9.146331787109375,
   9.0981569290161133,
   9.114466667175293,
   9.0955228805541992,
   9.0116872787475586,
   8.9253320693969727,
   8.8378925323486328,
   8.7720575332641602,
   8.6675548553466797,
   8.5952539443969727,
   8.5056877136230469,
   8.4667606353759766,
   8.3317499160766602,
   7.6776337623596191,
   7.1367340087890625,
   6.6724929809570312,
   6.2686600685119629,
   5.9840574264526367,
   5.634648323059082,
   5.3751144409179688,
   5.090853214263916,
   4.9188385009765625,
   3.5589244365692139,
   2.910773754119873,
   2.5176491737365723,
   2.2346196174621582,
   2.0477941036224365,
   1.9025852680206299,
   1.8023418188095093,
   1.7263796329498291,
   1.6214444637298584,
   1.3135342597961426,
   1.2172200679779053,
   1.1507954597473145,
   1.1144776344299316,
   1.0412302017211914,
   1.0413939952850342,
   1.053452730178833,
   1.0455889701843262,
   1.0285844802856445,
   0.98452979326248169,
   1.014387845993042,
   0.97023200988769531,
   0.99504822492599487,
   1.0231075286865234,
   0.96359986066818237,
   1.0250475406646729,
   0.98405134677886963,
   0.96505612134933472,
   1.0007508993148804,
   1.0415891408920288,
   1.0003902912139893,
   1.0198153257369995,
   0.94590950012207031,
   1.0353014469146729,
   0.99821650981903076,
   0.96009635925292969,
   0.89905118942260742
]
