[
   1.4073212146759033,
   1.4074218273162842,
   1.4074119329452515,
   1.4070085287094116,
   1.4072326421737671,
   1.4065345525741577,
   1.4063419103622437,
   1.4075769186019897,
   1.407120943069458,
   1.407096266746521,
   1.4069664478302002,
   1.4051676988601685,
   1.4060882329940796,
   1.4058314561843872,
   1.4053876399993896,
   1.4046949148178101,
   1.4047883749008179,
   1.403735876083374,
   1.4039410352706909,
   1.4013397693634033,
   1.3986169099807739,
   1.3947291374206543,
   1.3913465738296509,
   1.3885598182678223,
   1.3861081600189209,
   1.3827884197235107,
   1.3800737857818604,
   1.3777272701263428,
   1.3537966012954712,
   1.3338730335235596,
   1.3146054744720459,
   1.2985286712646484,
   1.2836105823516846,
   1.270334005355835,
   1.2593146562576294,
   1.2469673156738281,
   1.2372950315475464,
   1.1623977422714233,
   1.1187813282012939,
   1.0908396244049072,
   1.0717772245407104,
   1.0557236671447754,
   1.0431175231933594,
   1.034382700920105,
   1.0292367935180664,
   1.0265519618988037,
   1.0104115009307861,
   1.001362681388855,
   1.0055537223815918,
   1.0035675764083862,
   1.0068809986114502,
   0.99832630157470703,
   1.0014104843139648,
   0.99951809644699097,
   1.0107167959213257,
   1.0025253295898438,
   0.99493426084518433,
   0.99797266721725464,
   0.98857897520065308,
   0.99572861194610596,
   0.98941051959991455,
   0.98986274003982544,
   0.98502367734909058,
   0.95677673816680908
]
