[
   1.8253656625747681,
   1.8274879455566406,
   1.8244915008544922,
   1.8248794078826904,
   1.823836088180542,
   1.825177788734436,
   1.8230594396591187,
   1.8249822854995728,
   1.8253332376480103,
   1.8228263854980469,
   1.8222652673721313,
   1.8223752975463867,
   1.8206285238265991,
   1.8213748931884766,
   1.8180862665176392,
   1.8180160522460938,
   1.8166490793228149,
   1.8151118755340576,
   1.8146257400512695,
   1.8037235736846924,
   1.796248197555542,
   1.7824966907501221,
   1.775102972984314,
   1.766674280166626,
   1.7587474584579468,
   1.7501981258392334,
   1.742544412612915,
   1.7349708080291748,
   1.6641252040863037,
   1.605507493019104,
   1.5596364736557007,
   1.5165801048278809,
   1.4829343557357788,
   1.4526805877685547,
   1.4254028797149658,
   1.4031431674957275,
   1.3802477121353149,
   1.2438437938690186,
   1.1756397485733032,
   1.1327857971191406,
   1.100641131401062,
   1.0799583196640015,
   1.0615127086639404,
   1.0561339855194092,
   1.050564169883728,
   1.0432405471801758,
   1.0296288728713989,
   1.025108814239502,
   1.0071654319763184,
   0.98006236553192139,
   0.98701584339141846,
   0.99988144636154175,
   0.99284631013870239,
   0.99963808059692383,
   1.0098354816436768,
   0.98918741941452026,
   0.99756449460983276,
   1.0002261400222778,
   0.97718381881713867,
   1.0023685693740845,
   0.99170446395874023,
   0.97407948970794678,
   1.0347678661346436,
   1.0162920951843262
]
