[
   5.8490056991577148,
   5.8543910980224609,
   5.8403587341308594,
   5.8212804794311523,
   5.8025503158569336,
   5.8362407684326172,
   5.8278837203979492,
   5.8334188461303711,
   5.810338020324707,
   5.8133888244628906,
   5.7849817276000977,
   5.7463397979736328,
   5.7079868316650391,
   5.671473503112793,
   5.6499519348144531,
   5.632634162902832,
   5.582179069519043,
   5.5643010139465332,
   5.5407438278198242,
   5.283574104309082,
   5.0499114990234375,
   4.8517560958862305,
   4.6611566543579102,
   4.4994440078735352,
   4.3262772560119629,
   4.1913447380065918,
   4.0585126876831055,
   3.9565646648406982,
   3.1202216148376465,
   2.6469807624816895,
   2.3655209541320801,
   2.1524767875671387,
   2.0027422904968262,
   1.8825018405914307,
   1.7839056253433228,
   1.7048673629760742,
   1.6474899053573608,
   1.3593525886535645,
   1.2193596363067627,
   1.1549983024597168,
   1.117196798324585,
   1.0611861944198608,
   1.0769731998443604,
   1.0824278593063354,
   1.0479505062103271,
   1.0371900796890259,
   1.0283902883529663,
   1.0482544898986816,
   1.0077531337738037,
   1.0265507698059082,
   1.0108815431594849,
   1.0207717418670654,
   0.98321235179901123,
   0.97901809215545654,
   0.98408794403076172,
   0.99673730134963989,
   0.98215615749359131,
   1.0077383518218994,
   0.97404563426971436,
   1.0321172475814819,
   1.0106461048126221,
   1.1104336977005005,
   0.95965844392776489,
   1.0031279325485229
]
