[
   2.5562825202941895,
   2.5572419166564941,
   2.5560207366943359,
   2.5551896095275879,
   2.5564625263214111,
   2.5492968559265137,
   2.5532996654510498,
   2.5550665855407715,
   2.5575118064880371,
   2.556729793548584,
   2.5558276176452637,
   2.5427594184875488,
   2.5412881374359131,
   2.5370640754699707,
   2.5307180881500244,
   2.5299830436706543,
   2.5252504348754883,
   2.5238053798675537,
   2.5218913555145264,
   2.4824583530426025,
   2.4506406784057617,
   2.4230988025665283,
   2.3902878761291504,
   2.361884593963623,
   2.3351855278015137,
   2.3087387084960938,
   2.2830410003662109,
   2.262645959854126,
   2.068558931350708,
   1.9233802556991577,
   1.8169910907745361,
   1.7294952869415283,
   1.6565115451812744,
   1.5910266637802124,
   1.5397046804428101,
   1.4972131252288818,
   1.4638645648956299,
   1.2661278247833252,
   1.1757324934005737,
   1.1416847705841064,
   1.1049398183822632,
   1.0852280855178833,
   1.077014684677124,
   1.0675556659698486,
   1.0738712549209595,
   1.0727202892303467,
   1.0155962705612183,
   1.0041406154632568,
   0.99754798412322998,
   1.0079619884490967,
   0.99852645397186279,
   0.99499350786209106,
   1.0087547302246094,
   1.0058789253234863,
   1.0021407604217529,
   1.0004785060882568,
   0.98601353168487549,
   0.98737460374832153,
   0.99569714069366455,
   1.0166972875595093,
   0.98786258697509766,
   0.99195492267608643,
   0.954731285572052,
   0.93075895309448242
]
