[
   1.9515701532363892,
   1.9527286291122437,
   1.9516137838363647,
   1.9538542032241821,
   1.95444655418396,
   1.9525207281112671,
   1.952980637550354,
   1.9514515399932861,
   1.9513404369354248,
   1.9510736465454102,
   1.9511181116104126,
   1.949235200881958,
   1.9483802318572998,
   1.9463632106781006,
   1.9446523189544678,
   1.9426450729370117,
   1.9419591426849365,
   1.938915491104126,
   1.9381870031356812,
   1.9237312078475952,
   1.9114449024200439,
   1.8995826244354248,
   1.8850110769271851,
   1.8737173080444336,
   1.8629324436187744,
   1.8512382507324219,
   1.8398113250732422,
   1.8319908380508423,
   1.7396118640899658,
   1.6667988300323486,
   1.6061499118804932,
   1.5583209991455078,
   1.515460729598999,
   1.4797093868255615,
   1.4447243213653564,
   1.4186404943466187,
   1.3927375078201294,
   1.2406899929046631,
   1.1786863803863525,
   1.1319311857223511,
   1.1043825149536133,
   1.0912168025970459,
   1.0808327198028564,
   1.0724217891693115,
   1.0616534948348999,
   1.0487263202667236,
   1.0137753486633301,
   1.007462739944458,
   1.0104556083679199,
   0.98997992277145386,
   0.98986947536468506,
   0.99807775020599365,
   1.0010476112365723,
   1.0005871057510376,
   0.99906140565872192,
   1.0096385478973389,
   1.0135834217071533,
   1.0103871822357178,
   0.99881762266159058,
   0.96908110380172729,
   0.96906328201293945,
   0.98046082258224487,
   0.93926715850830078,
   0.95765239000320435
]
