[
   2.7381150722503662,
   2.7401547431945801,
   2.7400929927825928,
   2.7405087947845459,
   2.7395734786987305,
   2.7423596382141113,
   2.7357172966003418,
   2.7385773658752441,
   2.7339074611663818,
   2.7285676002502441,
   2.7244663238525391,
   2.7176628112792969,
   2.7052052021026611,
   2.7029204368591309,
   2.6924920082092285,
   2.6824600696563721,
   2.6770005226135254,
   2.667168140411377,
   2.6650090217590332,
   2.5957221984863281,
   2.5359408855438232,
   2.4752490520477295,
   2.4298837184906006,
   2.3899989128112793,
   2.3458268642425537,
   2.3081541061401367,
   2.2700183391571045,
   2.2471194267272949,
   2.0047624111175537,
   1.8437198400497437,
   1.7261041402816772,
   1.6364164352416992,
   1.5642808675765991,
   1.5040731430053711,
   1.4511593580245972,
   1.4033931493759155,
   1.3627617359161377,
   1.1617730855941772,
   1.0934154987335205,
   1.0633635520935059,
   1.0357798337936401,
   1.0193259716033936,
   1.0187592506408691,
   1.0169270038604736,
   1.017686128616333,
   1.0091286897659302,
   0.99672144651412964,
   0.99474745988845825,
   1.0032538175582886,
   1.0131272077560425,
   0.99628335237503052,
   1.0047314167022705,
   1.0031081438064575,
   0.99626815319061279,
   0.99152648448944092,
   1.0062474012374878,
   0.99528491497039795,
   1.0001959800720215,
   0.97400248050689697,
   1.0082786083221436,
   1.0088146924972534,
   0.99820601940155029,
   0.96881484985351562,
   1.0195207595825195
]
