[
   1.7536270618438721,
   1.754490852355957,
   1.7513843774795532,
   1.7546449899673462,
   1.7538045644760132,
   1.7529159784317017,
   1.751962423324585,
   1.7529853582382202,
   1.7525020837783813,
   1.7516992092132568,
   1.7507517337799072,
   1.7484977245330811,
   1.7449643611907959,
   1.7424719333648682,
   1.7404210567474365,
   1.7385597229003906,
   1.7384217977523804,
   1.734161376953125,
   1.7322351932525635,
   1.712826132774353,
   1.6938741207122803,
   1.676560640335083,
   1.6624273061752319,
   1.6457662582397461,
   1.6321041584014893,
   1.6197439432144165,
   1.607013463973999,
   1.5950030088424683,
   1.5012276172637939,
   1.4370945692062378,
   1.3887560367584229,
   1.3475115299224854,
   1.315424919128418,
   1.2872955799102783,
   1.2632176876068115,
   1.2429397106170654,
   1.2222679853439331,
   1.1174943447113037,
   1.0705924034118652,
   1.0501445531845093,
   1.0295951366424561,
   1.0160458087921143,
   1.0204036235809326,
   1.0156111717224121,
   1.0101344585418701,
   1.0003621578216553,
   0.99846678972244263,
   1.0006569623947144,
   0.99280375242233276,
   0.99757373332977295,
   1.0010554790496826,
   0.99714267253875732,
   0.99911463260650635,
   0.99550420045852661,
   0.99531781673431396,
   0.99931687116622925,
   0.99652367830276489,
   0.99328452348709106,
   1.0049355030059814,
   0.9916759729385376,
   1.0053994655609131,
   1.0083901882171631,
   0.99447834491729736,
   1.0101631879806519
]
