[
   1.5950491428375244,
   1.5932754278182983,
   1.5950677394866943,
   1.5932266712188721,
   1.5935631990432739,
   1.5943447351455688,
   1.594133734703064,
   1.5950250625610352,
   1.5948957204818726,
   1.5938770771026611,
   1.5896151065826416,
   1.5918164253234863,
   1.5913383960723877,
   1.5868620872497559,
   1.5877780914306641,
   1.5834115743637085,
   1.5824267864227295,
   1.5818662643432617,
   1.5804485082626343,
   1.5663598775863647,
   1.5518903732299805,
   1.542300820350647,
   1.5276367664337158,
   1.5176081657409668,
   1.5075819492340088,
   1.4981178045272827,
   1.4874796867370605,
   1.4778686761856079,
   1.4088039398193359,
   1.3584334850311279,
   1.3183157444000244,
   1.288254976272583,
   1.2622010707855225,
   1.2392480373382568,
   1.2205550670623779,
   1.2035039663314819,
   1.1877862215042114,
   1.0979300737380981,
   1.0588592290878296,
   1.0367110967636108,
   1.022896409034729,
   1.0152806043624878,
   1.0140948295593262,
   1.0073187351226807,
   1.0117212533950806,
   1.0074632167816162,
   0.99401742219924927,
   0.99906957149505615,
   0.99519145488739014,
   1.0039685964584351,
   1.0011482238769531,
   1.001957893371582,
   1.0043137073516846,
   1.0004665851593018,
   1.0074093341827393,
   0.99881917238235474,
   1.0041267871856689,
   1.0074924230575562,
   1.0028284788131714,
   1.0099179744720459,
   0.98390805721282959,
   0.98265504837036133,
   0.99621325731277466,
   0.93739527463912964
]
