[
   1.9964231252670288,
   1.9954465627670288,
   1.9977712631225586,
   1.9950240850448608,
   1.9935430288314819,
   1.9947841167449951,
   1.9964973926544189,
   1.9927860498428345,
   1.9924004077911377,
   1.9928185939788818,
   1.9897234439849854,
   1.9884204864501953,
   1.9834568500518799,
   1.980438232421875,
   1.9744939804077148,
   1.9726276397705078,
   1.9702901840209961,
   1.9668306112289429,
   1.9613685607910156,
   1.9321639537811279,
   1.9083341360092163,
   1.8810145854949951,
   1.8590120077133179,
   1.8366119861602783,
   1.8174396753311157,
   1.7998892068862915,
   1.7831156253814697,
   1.7637341022491455,
   1.6333849430084229,
   1.5486836433410645,
   1.4823174476623535,
   1.4316686391830444,
   1.3864216804504395,
   1.3480814695358276,
   1.3180282115936279,
   1.2925009727478027,
   1.2701433897018433,
   1.1355891227722168,
   1.0814802646636963,
   1.0584161281585693,
   1.0483160018920898,
   1.0329715013504028,
   1.020451545715332,
   1.0157439708709717,
   1.0178898572921753,
   1.0122655630111694,
   0.99776202440261841,
   0.98378264904022217,
   1.0044320821762085,
   0.99623042345046997,
   1.0029828548431396,
   1.0032236576080322,
   0.99815589189529419,
   1.0056533813476562,
   1.0004161596298218,
   0.98501855134963989,
   0.99049884080886841,
   0.99385297298431396,
   1.0017490386962891,
   1.0095263719558716,
   1.0067226886749268,
   1.0289247035980225,
   0.98878127336502075,
   1.0078322887420654
]
