[
   1.6676152944564819,
   1.6693763732910156,
   1.6699378490447998,
   1.668582558631897,
   1.6706726551055908,
   1.6666414737701416,
   1.6694167852401733,
   1.66817307472229,
   1.6701914072036743,
   1.6675693988800049,
   1.6644649505615234,
   1.6642551422119141,
   1.6629018783569336,
   1.6610628366470337,
   1.6583540439605713,
   1.6543986797332764,
   1.6547626256942749,
   1.6534723043441772,
   1.6500005722045898,
   1.635628342628479,
   1.6206926107406616,
   1.6058317422866821,
   1.5924184322357178,
   1.578194260597229,
   1.5658868551254272,
   1.5523755550384521,
   1.544014573097229,
   1.5321613550186157,
   1.4521471261978149,
   1.391369104385376,
   1.3454151153564453,
   1.3113819360733032,
   1.2820307016372681,
   1.2564046382904053,
   1.235825777053833,
   1.2157291173934937,
   1.2009108066558838,
   1.1055495738983154,
   1.0701959133148193,
   1.0387426614761353,
   1.0287158489227295,
   1.0170764923095703,
   1.0123345851898193,
   1.0049543380737305,
   1.0020751953125,
   0.99874764680862427,
   0.99868834018707275,
   0.99544954299926758,
   1.0013229846954346,
   1.0046201944351196,
   1.0062347650527954,
   0.99724102020263672,
   1.0088907480239868,
   1.0039659738540649,
   1.0066970586776733,
   1.0012203454971313,
   0.98796063661575317,
   1.0096757411956787,
   0.99571675062179565,
   1.0094486474990845,
   0.97438228130340576,
   1.0104159116744995,
   0.98166787624359131,
   0.92826908826828003
]
