[
   1.5396882295608521,
   1.5404878854751587,
   1.5411754846572876,
   1.5382452011108398,
   1.5397036075592041,
   1.5387259721755981,
   1.5399845838546753,
   1.5401760339736938,
   1.5401962995529175,
   1.5382475852966309,
   1.5376632213592529,
   1.5362927913665771,
   1.5341858863830566,
   1.5346159934997559,
   1.5328065156936646,
   1.5319696664810181,
   1.5300133228302002,
   1.5284088850021362,
   1.5270739793777466,
   1.5148990154266357,
   1.5030229091644287,
   1.4932100772857666,
   1.4839286804199219,
   1.4747470617294312,
   1.4644953012466431,
   1.4563285112380981,
   1.4484078884124756,
   1.4394705295562744,
   1.3781013488769531,
   1.3325607776641846,
   1.2961039543151855,
   1.2691981792449951,
   1.2465981245040894,
   1.2265312671661377,
   1.2087720632553101,
   1.1930546760559082,
   1.1802831888198853,
   1.1050009727478027,
   1.0680413246154785,
   1.0497955083847046,
   1.0357792377471924,
   1.0269962549209595,
   1.0147278308868408,
   1.0109415054321289,
   1.0061925649642944,
   1.0069296360015869,
   1.002869725227356,
   1.0036537647247314,
   1.0034887790679932,
   1.0003190040588379,
   1.0024343729019165,
   1.0062226057052612,
   1.0048511028289795,
   1.0063250064849854,
   1.0063817501068115,
   1.01807701587677,
   1.0157277584075928,
   1.0111790895462036,
   1.0011188983917236,
   0.99546945095062256,
   0.97878110408782959,
   0.96394234895706177,
   0.92695742845535278,
   0.91608542203903198
]
