[
   8.3841390609741211,
   8.3857851028442383,
   8.3882598876953125,
   8.3955764770507812,
   8.374699592590332,
   8.3744468688964844,
   8.3927154541015625,
   8.3514528274536133,
   8.3743991851806641,
   8.3718671798706055,
   8.2781429290771484,
   8.1928539276123047,
   8.1413335800170898,
   8.0513210296630859,
   7.985748291015625,
   7.9354958534240723,
   7.8455595970153809,
   7.834566593170166,
   7.714663028717041,
   7.2270364761352539,
   6.8785157203674316,
   6.5609345436096191,
   6.2921857833862305,
   6.0947179794311523,
   5.8772659301757812,
   5.7049379348754883,
   5.4729175567626953,
   5.3469429016113281,
   4.2300405502319336,
   3.5194339752197266,
   3.0126118659973145,
   2.6541428565979004,
   2.3989720344543457,
   2.1702446937561035,
   2.0348565578460693,
   1.8872230052947998,
   1.7944866418838501,
   1.3205302953720093,
   1.128822922706604,
   1.0864534378051758,
   1.0429211854934692,
   1.0393180847167969,
   1.0365397930145264,
   1.0331887006759644,
   1.0103559494018555,
   1.0150078535079956,
   0.95459425449371338,
   1.0229355096817017,
   1.0023878812789917,
   0.97191494703292847,
   0.97083300352096558,
   0.9684368371963501,
   0.98663491010665894,
   0.95968258380889893,
   0.9891473650932312,
   1.0118348598480225,
   1.0274484157562256,
   0.94993191957473755,
   1.0191495418548584,
   0.9835352897644043,
   1.0324952602386475,
   1.0953178405761719,
   1.2001829147338867,
   0.95710086822509766
]
