[
   5.4219322204589844,
   5.4295663833618164,
   5.4186568260192871,
   5.4008955955505371,
   5.4189200401306152,
   5.4242391586303711,
   5.3901987075805664,
   5.4084377288818359,
   5.4141149520874023,
   5.3926229476928711,
   5.3734674453735352,
   5.3375682830810547,
   5.3034148216247559,
   5.2558393478393555,
   5.2455887794494629,
   5.2068042755126953,
   5.1764192581176758,
   5.1512284278869629,
   5.1117315292358398,
   4.8794150352478027,
   4.6657261848449707,
   4.5094060897827148,
   4.3507628440856934,
   4.2278861999511719,
   4.1116485595703125,
   4.0103368759155273,
   3.8999824523925781,
   3.8080017566680908,
   3.1571981906890869,
   2.7288355827331543,
   2.4160444736480713,
   2.2036054134368896,
   2.0137407779693604,
   1.8728687763214111,
   1.7483680248260498,
   1.6622769832611084,
   1.5959697961807251,
   1.2424049377441406,
   1.1320532560348511,
   1.0846608877182007,
   1.0674210786819458,
   1.0325080156326294,
   1.0221033096313477,
   1.0245836973190308,
   1.0271968841552734,
   1.0170594453811646,
   0.97113502025604248,
   1.000319242477417,
   0.98441153764724731,
   0.98484498262405396,
   1.0051153898239136,
   1.017087459564209,
   1.039641261100769,
   0.98390066623687744,
   0.97791415452957153,
   1.0088150501251221,
   0.98414742946624756,
   0.98760777711868286,
   0.99990302324295044,
   1.0099481344223022,
   1.0425713062286377,
   1.0264534950256348,
   0.95837366580963135,
   0.9812774658203125
]
