[
   1.8960247039794922,
   1.8949854373931885,
   1.8929812908172607,
   1.89109206199646,
   1.8943096399307251,
   1.8959388732910156,
   1.8924955129623413,
   1.8917604684829712,
   1.8935225009918213,
   1.8933475017547607,
   1.8903379440307617,
   1.8868976831436157,
   1.8817062377929688,
   1.8825145959854126,
   1.8796688318252563,
   1.8777370452880859,
   1.8736969232559204,
   1.8694835901260376,
   1.8674800395965576,
   1.8446241617202759,
   1.8202545642852783,
   1.7992238998413086,
   1.779598593711853,
   1.7619339227676392,
   1.7430429458618164,
   1.7275642156600952,
   1.7123260498046875,
   1.6998167037963867,
   1.5887694358825684,
   1.510995626449585,
   1.4505500793457031,
   1.4037878513336182,
   1.3665416240692139,
   1.333308219909668,
   1.3035582304000854,
   1.2789887189865112,
   1.2567539215087891,
   1.1378047466278076,
   1.0758448839187622,
   1.0503747463226318,
   1.0382212400436401,
   1.0266367197036743,
   1.0153664350509644,
   1.0141085386276245,
   1.0133548974990845,
   1.0068753957748413,
   0.99777829647064209,
   0.98967200517654419,
   0.99247837066650391,
   1.0017411708831787,
   0.9996522068977356,
   1.0092494487762451,
   0.99894493818283081,
   0.99465960264205933,
   1.0053635835647583,
   1.007089376449585,
   0.99629366397857666,
   0.98858177661895752,
   0.99321490526199341,
   0.99780082702636719,
   1.0028955936431885,
   0.9906541109085083,
   1.0096445083618164,
   0.99048882722854614
]
