[
   1.5059000253677368,
   1.5054658651351929,
   1.5055361986160278,
   1.5051748752593994,
   1.5048609972000122,
   1.5041577816009521,
   1.5050250291824341,
   1.504968523979187,
   1.5043686628341675,
   1.5024027824401855,
   1.5027625560760498,
   1.5019662380218506,
   1.5018007755279541,
   1.5008776187896729,
   1.4997725486755371,
   1.4974205493927002,
   1.4973273277282715,
   1.4961196184158325,
   1.4956896305084229,
   1.484487771987915,
   1.4765667915344238,
   1.46626877784729,
   1.4583276510238647,
   1.4516923427581787,
   1.4446766376495361,
   1.436514139175415,
   1.4298770427703857,
   1.4244139194488525,
   1.3714187145233154,
   1.3328042030334473,
   1.3030190467834473,
   1.2789610624313354,
   1.2588841915130615,
   1.2402435541152954,
   1.2258541584014893,
   1.2125499248504639,
   1.1992586851119995,
   1.1228604316711426,
   1.0796467065811157,
   1.0507442951202393,
   1.036501407623291,
   1.0264546871185303,
   1.0211271047592163,
   1.0175220966339111,
   1.0154253244400024,
   1.016396164894104,
   1.0020654201507568,
   0.9952770471572876,
   1.0046284198760986,
   1.0022995471954346,
   0.99898922443389893,
   0.99713945388793945,
   1.0013762712478638,
   1.0003129243850708,
   1.0000501871109009,
   0.9953424334526062,
   0.98354053497314453,
   0.99432832002639771,
   0.98874551057815552,
   1.0015664100646973,
   1.0178217887878418,
   1.0252922773361206,
   1.0101563930511475,
   0.96241629123687744
]
