[
   3.5524907112121582,
   3.5487771034240723,
   3.5465061664581299,
   3.5440878868103027,
   3.5475406646728516,
   3.5427620410919189,
   3.5333919525146484,
   3.5412907600402832,
   3.5458667278289795,
   3.5500998497009277,
   3.5241725444793701,
   3.5108261108398438,
   3.5053896903991699,
   3.4781184196472168,
   3.4676322937011719,
   3.4640159606933594,
   3.4465937614440918,
   3.4318363666534424,
   3.4226276874542236,
   3.3232262134552002,
   3.2309422492980957,
   3.1557028293609619,
   3.0864319801330566,
   3.0095067024230957,
   2.9568195343017578,
   2.916895866394043,
   2.86423659324646,
   2.826474666595459,
   2.4730057716369629,
   2.257965087890625,
   2.0911026000976562,
   1.9651434421539307,
   1.8570133447647095,
   1.7804250717163086,
   1.7092974185943604,
   1.6468875408172607,
   1.5934299230575562,
   1.3013319969177246,
   1.1774818897247314,
   1.1153146028518677,
   1.0928702354431152,
   1.0657966136932373,
   1.0314810276031494,
   1.0526541471481323,
   1.0504335165023804,
   1.0511476993560791,
   0.99758559465408325,
   1.0180236101150513,
   0.98181420564651489,
   0.99672901630401611,
   0.99183595180511475,
   0.98608130216598511,
   1.0059436559677124,
   0.99150830507278442,
   0.9737364649772644,
   0.97526419162750244,
   1.0127866268157959,
   0.98052519559860229,
   0.99797534942626953,
   1.0071465969085693,
   0.92489516735076904,
   0.98164397478103638,
   1.0156309604644775,
   1.0216556787490845
]
