[
   2.9970541000366211,
   2.9923217296600342,
   2.9916872978210449,
   2.9926002025604248,
   2.9869003295898438,
   2.9902770519256592,
   2.9858536720275879,
   2.9821860790252686,
   2.9857981204986572,
   2.9863450527191162,
   2.9739642143249512,
   2.9673302173614502,
   2.9570565223693848,
   2.9533729553222656,
   2.9416193962097168,
   2.9290604591369629,
   2.9209001064300537,
   2.9198939800262451,
   2.9064834117889404,
   2.828458309173584,
   2.7642350196838379,
   2.7077679634094238,
   2.6522111892700195,
   2.5983824729919434,
   2.560321569442749,
   2.5235629081726074,
   2.4762825965881348,
   2.4448785781860352,
   2.1827702522277832,
   2.0133111476898193,
   1.8914388418197632,
   1.7862927913665771,
   1.7018616199493408,
   1.6406816244125366,
   1.5865260362625122,
   1.5342304706573486,
   1.4962964057922363,
   1.2390890121459961,
   1.1355855464935303,
   1.0746448040008545,
   1.0647857189178467,
   1.065422534942627,
   1.0523488521575928,
   1.0328438282012939,
   1.0311805009841919,
   1.0255119800567627,
   0.98493349552154541,
   0.99375408887863159,
   0.99965745210647583,
   0.99889850616455078,
   1.0049630403518677,
   0.99612140655517578,
   1.0112049579620361,
   0.99346619844436646,
   1.0002624988555908,
   1.0102468729019165,
   0.97259598970413208,
   0.96937960386276245,
   1.0115727186203003,
   1.0076509714126587,
   0.99772757291793823,
   1.0341227054595947,
   1.0117523670196533,
   0.92009192705154419
]
