[
   1.8096015453338623,
   1.8087297677993774,
   1.810072660446167,
   1.8097683191299438,
   1.8097705841064453,
   1.8105287551879883,
   1.809901237487793,
   1.8091323375701904,
   1.8084046840667725,
   1.8095051050186157,
   1.804851770401001,
   1.8033355474472046,
   1.8029628992080688,
   1.7992578744888306,
   1.7977758646011353,
   1.7959731817245483,
   1.7922807931900024,
   1.7919908761978149,
   1.7906589508056641,
   1.7693469524383545,
   1.7513427734375,
   1.7359241247177124,
   1.7212839126586914,
   1.7074909210205078,
   1.6902786493301392,
   1.6786149740219116,
   1.6661208868026733,
   1.6548423767089844,
   1.5651284456253052,
   1.5023676156997681,
   1.4528772830963135,
   1.4135183095932007,
   1.3802303075790405,
   1.3516738414764404,
   1.3282042741775513,
   1.3043839931488037,
   1.2850139141082764,
   1.1644580364227295,
   1.1105663776397705,
   1.074932336807251,
   1.0536906719207764,
   1.0398037433624268,
   1.0291260480880737,
   1.0205940008163452,
   1.0146372318267822,
   1.0097980499267578,
   0.992087721824646,
   0.98985403776168823,
   1.0082533359527588,
   0.99667584896087646,
   0.99449986219406128,
   0.99935275316238403,
   0.995685875415802,
   0.99672365188598633,
   0.98885619640350342,
   0.99609678983688354,
   0.98032987117767334,
   0.99369966983795166,
   0.9992140531539917,
   1.0135462284088135,
   1.0043983459472656,
   0.99063187837600708,
   1.0295714139938354,
   0.99712610244750977
]
