[
   103.02337646484375,
   100.71253967285156,
   99.645401000976562,
   99.448921203613281,
   97.204879760742188,
   98.834976196289062,
   98.307968139648438,
   97.508445739746094,
   95.477241516113281,
   97.031936645507812,
   92.404754638671875,
   87.093215942382812,
   85.19342041015625,
   82.399131774902344,
   79.786064147949219,
   76.097183227539062,
   74.826431274414062,
   72.646011352539062,
   72.189201354980469,
   56.308368682861328,
   45.141460418701172,
   38.934703826904297,
   33.969535827636719,
   30.223133087158203,
   27.5582275390625,
   25.464542388916016,
   23.565454483032227,
   20.932895660400391,
   12.151602745056152,
   7.7835898399353027,
   5.3467473983764648,
   5.1402192115783691,
   4.6139106750488281,
   3.7669205665588379,
   3.5396027565002441,
   3.14532470703125,
   2.8261165618896484,
   1.9487453699111938,
   1.5987169742584229,
   1.1858245134353638,
   1.1472141742706299,
   0.87588489055633545,
   0.96861124038696289,
   1.1731064319610596,
   0.91787606477737427,
   0.76374924182891846,
   0.93067848682403564,
   0.93812066316604614,
   0.85269749164581299,
   0.95428264141082764,
   0.99665749073028564,
   1.1546773910522461,
   0.97461146116256714,
   0.76888132095336914,
   1.0725736618041992,
   0.64852988719940186,
   0.93161392211914062,
   1.0484014749526978,
   0.983470618724823,
   0.63311284780502319,
   0.94064962863922119,
   0.49402898550033569,
   0.49621099233627319,
   0.3554878830909729
]
