[
   2.566713809967041,
   2.5663762092590332,
   2.5654821395874023,
   2.56722092628479,
   2.5599761009216309,
   2.5588440895080566,
   2.5630030632019043,
   2.5588834285736084,
   2.5590472221374512,
   2.5580551624298096,
   2.5516908168792725,
   2.5472269058227539,
   2.5426473617553711,
   2.5362870693206787,
   2.5283255577087402,
   2.5210556983947754,
   2.5158908367156982,
   2.5090920925140381,
   2.5057628154754639,
   2.449026346206665,
   2.4001765251159668,
   2.3592243194580078,
   2.3237729072570801,
   2.28499436378479,
   2.2524411678314209,
   2.2332854270935059,
   2.1977729797363281,
   2.171745777130127,
   1.9813220500946045,
   1.8503564596176147,
   1.7476921081542969,
   1.6732810735702515,
   1.6054916381835938,
   1.5484855175018311,
   1.5025439262390137,
   1.4589458703994751,
   1.4175546169281006,
   1.2170144319534302,
   1.1384488344192505,
   1.091083288192749,
   1.0557707548141479,
   1.0328327417373657,
   1.0271971225738525,
   1.0203502178192139,
   1.0265228748321533,
   1.0180388689041138,
   0.99119454622268677,
   0.98023760318756104,
   0.9923940896987915,
   1.0073139667510986,
   0.99232959747314453,
   0.98850095272064209,
   0.99150228500366211,
   0.98968201875686646,
   1.0072252750396729,
   0.99984151124954224,
   1.0197823047637939,
   0.99310779571533203,
   0.97697794437408447,
   0.99026811122894287,
   0.96840274333953857,
   0.93758392333984375,
   0.97988879680633545,
   1.0628788471221924
]
