[
   1.5789597034454346,
   1.5791670083999634,
   1.580082893371582,
   1.5796692371368408,
   1.5797570943832397,
   1.5776369571685791,
   1.5779567956924438,
   1.5795925855636597,
   1.5775763988494873,
   1.5776331424713135,
   1.5775997638702393,
   1.5779731273651123,
   1.5771763324737549,
   1.5747677087783813,
   1.5754404067993164,
   1.5745861530303955,
   1.5730600357055664,
   1.5730241537094116,
   1.570417046546936,
   1.5639803409576416,
   1.55661940574646,
   1.5502054691314697,
   1.5439876317977905,
   1.5374301671981812,
   1.5312672853469849,
   1.5253450870513916,
   1.5196355581283569,
   1.5145576000213623,
   1.4714217185974121,
   1.437278151512146,
   1.4097185134887695,
   1.38478684425354,
   1.3657042980194092,
   1.3477281332015991,
   1.32979416847229,
   1.3145656585693359,
   1.3014069795608521,
   1.1988046169281006,
   1.1396481990814209,
   1.1017172336578369,
   1.0778272151947021,
   1.0605175495147705,
   1.0469366312026978,
   1.0380675792694092,
   1.0324598550796509,
   1.0279726982116699,
   0.99932610988616943,
   0.99368125200271606,
   0.99446642398834229,
   1.0001580715179443,
   1.0110714435577393,
   0.99979305267333984,
   1.0072405338287354,
   1.001288890838623,
   0.99658739566802979,
   1.0005838871002197,
   0.99237000942230225,
   0.98499011993408203,
   1.0033646821975708,
   1.0003399848937988,
   0.99916470050811768,
   0.99039584398269653,
   0.97570782899856567,
   0.96830558776855469
]
