[
   1.8400201797485352,
   1.8412587642669678,
   1.8402807712554932,
   1.8407872915267944,
   1.8406362533569336,
   1.8407865762710571,
   1.8416296243667603,
   1.8407700061798096,
   1.8404436111450195,
   1.8392422199249268,
   1.8371108770370483,
   1.8368202447891235,
   1.8369731903076172,
   1.8350813388824463,
   1.8342275619506836,
   1.8312040567398071,
   1.8302170038223267,
   1.8289773464202881,
   1.8258087635040283,
   1.8156744241714478,
   1.8035154342651367,
   1.7899376153945923,
   1.7793436050415039,
   1.7709019184112549,
   1.7594470977783203,
   1.7520183324813843,
   1.7423639297485352,
   1.7354332208633423,
   1.6672708988189697,
   1.612293004989624,
   1.5715948343276978,
   1.5352326631546021,
   1.5038408041000366,
   1.4764108657836914,
   1.4506510496139526,
   1.4271543025970459,
   1.4066958427429199,
   1.2667386531829834,
   1.1867659091949463,
   1.1375620365142822,
   1.1028550863265991,
   1.0782167911529541,
   1.0578073263168335,
   1.0449837446212769,
   1.033015251159668,
   1.0239378213882446,
   0.99583417177200317,
   0.99498283863067627,
   1.0016905069351196,
   0.98942601680755615,
   0.99043828248977661,
   0.99608486890792847,
   1.0036925077438354,
   0.9984365701675415,
   0.99284058809280396,
   1.0149085521697998,
   1.0108143091201782,
   1.0045708417892456,
   1.0315755605697632,
   0.96883088350296021,
   0.96893560886383057,
   0.97387868165969849,
   0.92639493942260742,
   1.0187939405441284
]
