[
   1.5275689363479614,
   1.5299431085586548,
   1.5279624462127686,
   1.5288269519805908,
   1.5289933681488037,
   1.5282893180847168,
   1.5263456106185913,
   1.526795506477356,
   1.5266009569168091,
   1.5281765460968018,
   1.5274617671966553,
   1.5248472690582275,
   1.525834321975708,
   1.5244506597518921,
   1.5240427255630493,
   1.5230667591094971,
   1.5209980010986328,
   1.5220968723297119,
   1.5216784477233887,
   1.5141125917434692,
   1.5077031850814819,
   1.5016241073608398,
   1.4960448741912842,
   1.4910404682159424,
   1.4853279590606689,
   1.4795604944229126,
   1.4759454727172852,
   1.4702677726745605,
   1.4304722547531128,
   1.4004385471343994,
   1.3738782405853271,
   1.3522367477416992,
   1.3328031301498413,
   1.3160312175750732,
   1.3015745878219604,
   1.2871781587600708,
   1.2741101980209351,
   1.1880214214324951,
   1.13563072681427,
   1.1003155708312988,
   1.0792158842086792,
   1.0633671283721924,
   1.0512692928314209,
   1.04233717918396,
   1.0325424671173096,
   1.0266799926757812,
   1.0076428651809692,
   1.0006287097930908,
   0.99509239196777344,
   0.99860954284667969,
   0.99377238750457764,
   0.99225842952728271,
   0.99252909421920776,
   0.99279654026031494,
   0.99720031023025513,
   0.99869453907012939,
   1.0027610063552856,
   1.0071110725402832,
   0.99746817350387573,
   0.99025022983551025,
   0.99502408504486084,
   0.99091988801956177,
   0.98446828126907349,
   1.0207971334457397
]
