[
   1.6496896743774414,
   1.6494762897491455,
   1.6477358341217041,
   1.6489877700805664,
   1.6481723785400391,
   1.6506061553955078,
   1.6486272811889648,
   1.6489124298095703,
   1.6487152576446533,
   1.6494569778442383,
   1.6477298736572266,
   1.6485054492950439,
   1.6472387313842773,
   1.6451008319854736,
   1.6453319787979126,
   1.643123984336853,
   1.6420743465423584,
   1.6401306390762329,
   1.6409714221954346,
   1.6319973468780518,
   1.6233764886856079,
   1.614540696144104,
   1.6055816411972046,
   1.6005430221557617,
   1.5935534238815308,
   1.5865309238433838,
   1.580182671546936,
   1.5741112232208252,
   1.5242974758148193,
   1.4833252429962158,
   1.4550060033798218,
   1.4263869524002075,
   1.4033898115158081,
   1.3810412883758545,
   1.3628209829330444,
   1.3471567630767822,
   1.3324123620986938,
   1.2217193841934204,
   1.1632919311523438,
   1.1244986057281494,
   1.0979247093200684,
   1.0777782201766968,
   1.0590653419494629,
   1.0507991313934326,
   1.0418645143508911,
   1.0374870300292969,
   0.99488288164138794,
   0.99205529689788818,
   0.99219334125518799,
   0.98867893218994141,
   0.98881977796554565,
   0.99776297807693481,
   0.99525177478790283,
   0.99186164140701294,
   0.98989105224609375,
   1.002604603767395,
   1.0235171318054199,
   1.0206785202026367,
   1.0118368864059448,
   0.96674937009811401,
   0.98141509294509888,
   0.92777460813522339,
   0.94422799348831177,
   1.034282922744751
]
