[
   2.3930537700653076,
   2.3907065391540527,
   2.3914785385131836,
   2.3945763111114502,
   2.3937101364135742,
   2.3943803310394287,
   2.3906340599060059,
   2.3907804489135742,
   2.3875679969787598,
   2.3890328407287598,
   2.3871550559997559,
   2.3831374645233154,
   2.3789849281311035,
   2.3737924098968506,
   2.3716206550598145,
   2.3719944953918457,
   2.3653879165649414,
   2.3669366836547852,
   2.3605666160583496,
   2.3351197242736816,
   2.3048055171966553,
   2.2818148136138916,
   2.2608177661895752,
   2.2435393333435059,
   2.223900318145752,
   2.2034440040588379,
   2.1887533664703369,
   2.1743464469909668,
   2.0528066158294678,
   1.9515374898910522,
   1.8798567056655884,
   1.8086998462677002,
   1.7545278072357178,
   1.7047315835952759,
   1.6593908071517944,
   1.6214078664779663,
   1.5836918354034424,
   1.3599584102630615,
   1.2490103244781494,
   1.1744385957717896,
   1.1318151950836182,
   1.1086256504058838,
   1.0906429290771484,
   1.0653038024902344,
   1.0564618110656738,
   1.0450111627578735,
   1.0245401859283447,
   1.0135517120361328,
   1.0127575397491455,
   0.99485796689987183,
   1.0135421752929688,
   1.0079662799835205,
   1.0025724172592163,
   1.0197607278823853,
   0.98910629749298096,
   0.99438953399658203,
   0.97704869508743286,
   0.97943973541259766,
   0.97342240810394287,
   1.0113656520843506,
   0.9956740140914917,
   1.03284752368927,
   0.99882888793945312,
   0.98382472991943359
]
