[
   6.1087584495544434,
   6.1197023391723633,
   6.1179823875427246,
   6.0995821952819824,
   6.0760083198547363,
   6.1193513870239258,
   6.1105561256408691,
   6.090235710144043,
   6.117304801940918,
   6.1175394058227539,
   6.074744701385498,
   6.0277681350708008,
   6.0121927261352539,
   6.0092577934265137,
   5.9637651443481445,
   5.942784309387207,
   5.9310784339904785,
   5.899111270904541,
   5.8775091171264648,
   5.7001638412475586,
   5.5690145492553711,
   5.423497200012207,
   5.3108892440795898,
   5.2020082473754883,
   5.1219072341918945,
   5.0239667892456055,
   4.9341306686401367,
   4.8649740219116211,
   4.2133259773254395,
   3.7532284259796143,
   3.4324657917022705,
   3.1171236038208008,
   2.9110355377197266,
   2.7043707370758057,
   2.5326628684997559,
   2.3745434284210205,
   2.252744197845459,
   1.6058700084686279,
   1.3667538166046143,
   1.2628381252288818,
   1.1875103712081909,
   1.1813089847564697,
   1.1217715740203857,
   1.0886526107788086,
   1.0598075389862061,
   1.0802617073059082,
   1.0227515697479248,
   1.0070946216583252,
   0.98662364482879639,
   0.9972764253616333,
   0.9652174711227417,
   0.9864649772644043,
   0.96879279613494873,
   1.014828085899353,
   0.95497190952301025,
   1.0469291210174561,
   0.94250470399856567,
   1.0019786357879639,
   0.93732881546020508,
   1.0183645486831665,
   1.0601391792297363,
   1.1200302839279175,
   1.0759246349334717,
   0.93784207105636597
]
