[
   12.106037139892578,
   12.076136589050293,
   12.04552173614502,
   12.075355529785156,
   12.021722793579102,
   12.053667068481445,
   11.987192153930664,
   12.05638313293457,
   12.043206214904785,
   11.95154857635498,
   11.952154159545898,
   11.813737869262695,
   11.748465538024902,
   11.73496150970459,
   11.634973526000977,
   11.548147201538086,
   11.426019668579102,
   11.414456367492676,
   11.385522842407227,
   10.909661293029785,
   10.406390190124512,
   10.104812622070312,
   9.7318048477172852,
   9.44561767578125,
   9.1988363265991211,
   8.9340381622314453,
   8.7923622131347656,
   8.5127706527709961,
   6.8616385459899902,
   5.7378830909729004,
   4.9026122093200684,
   4.3125762939453125,
   3.7750556468963623,
   3.4459285736083984,
   3.1551051139831543,
   2.8852496147155762,
   2.7045102119445801,
   1.7829122543334961,
   1.5565469264984131,
   1.3129886388778687,
   1.2557607889175415,
   1.1441135406494141,
   1.1036412715911865,
   1.0547847747802734,
   1.0803012847900391,
   1.0668371915817261,
   1.0525449514389038,
   0.99928653240203857,
   0.98102295398712158,
   0.97255069017410278,
   1.1555459499359131,
   0.99633550643920898,
   0.99005401134490967,
   0.9793013334274292,
   0.92544907331466675,
   1.0234766006469727,
   0.96033495664596558,
   1.0029056072235107,
   1.044897198677063,
   1.045534610748291,
   0.93150538206100464,
   0.98361939191818237,
   0.91797667741775513,
   1.0905582904815674
]
