[
   3.2863800525665283,
   3.2842288017272949,
   3.2748579978942871,
   3.2845344543457031,
   3.2817435264587402,
   3.2765693664550781,
   3.2773120403289795,
   3.2746517658233643,
   3.2755379676818848,
   3.2814762592315674,
   3.2748897075653076,
   3.2602393627166748,
   3.2616634368896484,
   3.2422497272491455,
   3.2384064197540283,
   3.2356803417205811,
   3.2295260429382324,
   3.2258307933807373,
   3.2169392108917236,
   3.1626448631286621,
   3.1102280616760254,
   3.0637667179107666,
   3.0264849662780762,
   2.992358922958374,
   2.9548354148864746,
   2.9278934001922607,
   2.8945450782775879,
   2.86470627784729,
   2.6433944702148438,
   2.4679038524627686,
   2.3410487174987793,
   2.2267196178436279,
   2.1248838901519775,
   2.0365884304046631,
   1.9607751369476318,
   1.8935079574584961,
   1.8328840732574463,
   1.4628914594650269,
   1.3134557008743286,
   1.2143557071685791,
   1.1473244428634644,
   1.1078344583511353,
   1.07834792137146,
   1.0658385753631592,
   1.0480425357818604,
   1.0420887470245361,
   1.016310453414917,
   0.99778681993484497,
   0.97212058305740356,
   0.98271876573562622,
   0.97483712434768677,
   0.98018091917037964,
   1.024253249168396,
   0.96676433086395264,
   0.9745820164680481,
   0.97406214475631714,
   0.9745599627494812,
   0.99136459827423096,
   1.0065412521362305,
   1.0178529024124146,
   0.98780715465545654,
   1.0268672704696655,
   1.0721049308776855,
   1.2510768175125122
]
