[
   1.749009370803833,
   1.7480611801147461,
   1.7476494312286377,
   1.7491077184677124,
   1.7475063800811768,
   1.747439980506897,
   1.7476174831390381,
   1.7467525005340576,
   1.7477678060531616,
   1.7469692230224609,
   1.747847318649292,
   1.7470366954803467,
   1.7433954477310181,
   1.7447264194488525,
   1.7426540851593018,
   1.7413918972015381,
   1.7389390468597412,
   1.7391326427459717,
   1.7366011142730713,
   1.7260280847549438,
   1.7153823375701904,
   1.7059793472290039,
   1.6956173181533813,
   1.68855881690979,
   1.6785469055175781,
   1.6712744235992432,
   1.6651350259780884,
   1.659645676612854,
   1.5997236967086792,
   1.5538167953491211,
   1.5183179378509521,
   1.4860043525695801,
   1.45876145362854,
   1.4343618154525757,
   1.4133474826812744,
   1.3921928405761719,
   1.3728678226470947,
   1.2448523044586182,
   1.1778362989425659,
   1.1393030881881714,
   1.1080540418624878,
   1.0907961130142212,
   1.0754683017730713,
   1.0620133876800537,
   1.0493731498718262,
   1.03458571434021,
   1.0168558359146118,
   1.0084353685379028,
   1.0018454790115356,
   0.99943912029266357,
   0.98560011386871338,
   0.98953044414520264,
   1.0179377794265747,
   0.9979211688041687,
   0.99896001815795898,
   0.99745875597000122,
   0.99209630489349365,
   0.99575221538543701,
   0.99235522747039795,
   1.0002983808517456,
   0.98206871747970581,
   0.99916189908981323,
   0.98981964588165283,
   1.0215215682983398
]
