[
   1.4695680141448975,
   1.4699952602386475,
   1.470320463180542,
   1.4692009687423706,
   1.4698193073272705,
   1.4703173637390137,
   1.4695966243743896,
   1.469469428062439,
   1.4691152572631836,
   1.470721960067749,
   1.4689304828643799,
   1.4676989316940308,
   1.4680860042572021,
   1.4681322574615479,
   1.4670045375823975,
   1.4671623706817627,
   1.465625524520874,
   1.4652317762374878,
   1.4648705720901489,
   1.4583163261413574,
   1.4536465406417847,
   1.448847770690918,
   1.4444123506546021,
   1.4382865428924561,
   1.4343671798706055,
   1.4299106597900391,
   1.4266104698181152,
   1.4215357303619385,
   1.3878536224365234,
   1.3607285022735596,
   1.3387868404388428,
   1.32106614112854,
   1.3039835691452026,
   1.2893592119216919,
   1.2756316661834717,
   1.2626711130142212,
   1.2509464025497437,
   1.1730865240097046,
   1.1266728639602661,
   1.0971819162368774,
   1.0760878324508667,
   1.0619405508041382,
   1.0463650226593018,
   1.0370666980743408,
   1.028461217880249,
   1.0284225940704346,
   1.0089070796966553,
   0.99669903516769409,
   0.99519538879394531,
   0.99582278728485107,
   0.99579763412475586,
   0.9953988790512085,
   0.99207115173339844,
   0.9887923002243042,
   0.99602490663528442,
   0.98804444074630737,
   0.97894942760467529,
   0.98424720764160156,
   1.0098899602890015,
   1.0025279521942139,
   1.023533821105957,
   1.0238112211227417,
   1.0129662752151489,
   0.98007392883300781
]
