[
   22.075139999389648,
   22.054531097412109,
   22.243911743164062,
   22.054378509521484,
   21.987548828125,
   21.988378524780273,
   21.846420288085938,
   21.932662963867188,
   21.828353881835938,
   21.867168426513672,
   21.509353637695312,
   21.475690841674805,
   21.164350509643555,
   21.151590347290039,
   21.032936096191406,
   20.699167251586914,
   20.53611946105957,
   20.282449722290039,
   20.297946929931641,
   19.066770553588867,
   18.086669921875,
   17.141658782958984,
   16.416244506835938,
   15.837016105651855,
   15.170639038085938,
   14.767263412475586,
   14.132028579711914,
   13.611398696899414,
   10.003181457519531,
   8.0189990997314453,
   6.5119619369506836,
   5.4407758712768555,
   4.8100595474243164,
   4.2748727798461914,
   3.8462543487548828,
   3.4581465721130371,
   3.2090878486633301,
   1.8800992965698242,
   1.6090186834335327,
   1.5157591104507446,
   1.0824897289276123,
   1.0134587287902832,
   1.0856964588165283,
   0.98665589094161987,
   0.94902485609054565,
   0.95714551210403442,
   0.96126377582550049,
   0.97598868608474731,
   0.9553106427192688,
   0.78480279445648193,
   0.9747089147567749,
   0.89143180847167969,
   1.0563313961029053,
   1.0179727077484131,
   1.0031822919845581,
   0.822562575340271,
   0.87161463499069214,
   1.025240421295166,
   1.0228379964828491,
   0.95689964294433594,
   1.189792275428772,
   0.76991140842437744,
   1.1546307802200317,
   0.74302792549133301
]
