[
   40.229267120361328,
   39.982986450195312,
   39.523029327392578,
   39.217643737792969,
   39.372413635253906,
   39.40478515625,
   39.297607421875,
   39.570049285888672,
   38.810009002685547,
   39.138961791992188,
   37.923381805419922,
   38.112693786621094,
   37.095680236816406,
   36.356208801269531,
   36.253208160400391,
   35.937816619873047,
   35.020591735839844,
   34.498989105224609,
   34.194564819335938,
   30.316864013671875,
   27.257528305053711,
   25.067102432250977,
   22.661754608154297,
   20.82432746887207,
   19.517494201660156,
   18.138698577880859,
   16.94334602355957,
   15.81554126739502,
   10.640750885009766,
   7.6141304969787598,
   6.1160593032836914,
   4.8538579940795898,
   4.1881589889526367,
   3.8244469165802002,
   3.4474377632141113,
   3.2493045330047607,
   2.94329833984375,
   1.9145618677139282,
   1.6442959308624268,
   1.484256386756897,
   1.2101298570632935,
   1.1526103019714355,
   1.0036530494689941,
   1.1224651336669922,
   1.1525349617004395,
   1.2208037376403809,
   1.0554949045181274,
   0.98789012432098389,
   0.97149908542633057,
   0.86647546291351318,
   0.97330892086029053,
   0.96399307250976562,
   0.98395955562591553,
   1.0146515369415283,
   1.1479674577713013,
   0.93079626560211182,
   0.79514211416244507,
   1.0500688552856445,
   0.78711646795272827,
   0.82304942607879639,
   0.97873389720916748,
   1.0527632236480713,
   1.2574760913848877,
   0.86998212337493896
]
