[
   4.1233739852905273,
   4.1220788955688477,
   4.1231236457824707,
   4.1151514053344727,
   4.120603084564209,
   4.123375415802002,
   4.117424488067627,
   4.1126227378845215,
   4.1143984794616699,
   4.1026220321655273,
   4.1006026268005371,
   4.0987071990966797,
   4.0969753265380859,
   4.0793628692626953,
   4.0750875473022461,
   4.0622329711914062,
   4.0512003898620605,
   4.0554795265197754,
   4.0443806648254395,
   3.9703414440155029,
   3.9220669269561768,
   3.871462345123291,
   3.8263087272644043,
   3.7832977771759033,
   3.7471096515655518,
   3.6974349021911621,
   3.6585307121276855,
   3.6396934986114502,
   3.3368561267852783,
   3.1050975322723389,
   2.9087204933166504,
   2.74977707862854,
   2.6103255748748779,
   2.4862709045410156,
   2.3794183731079102,
   2.3045763969421387,
   2.2172188758850098,
   1.7339426279067993,
   1.4853370189666748,
   1.3626308441162109,
   1.2718038558959961,
   1.2210755348205566,
   1.1891558170318604,
   1.15378737449646,
   1.1231590509414673,
   1.1214879751205444,
   1.0311625003814697,
   1.0089695453643799,
   1.0020236968994141,
   1.0360525846481323,
   0.98514795303344727,
   0.99924325942993164,
   0.96499979496002197,
   0.97750520706176758,
   0.99444121122360229,
   0.98452126979827881,
   1.0494022369384766,
   0.96127843856811523,
   1.0256698131561279,
   1.050458550453186,
   0.96951371431350708,
   0.95992010831832886,
   0.96540671586990356,
   0.92380887269973755
]
