[
   1.4135391712188721,
   1.4143317937850952,
   1.4141570329666138,
   1.4137507677078247,
   1.4147303104400635,
   1.4141749143600464,
   1.4148519039154053,
   1.4141817092895508,
   1.4143764972686768,
   1.4143830537796021,
   1.4135811328887939,
   1.4127858877182007,
   1.4120571613311768,
   1.4120101928710938,
   1.4120867252349854,
   1.4117937088012695,
   1.4108870029449463,
   1.4105533361434937,
   1.4107487201690674,
   1.406998872756958,
   1.4045751094818115,
   1.4013340473175049,
   1.3973383903503418,
   1.3950250148773193,
   1.3929808139801025,
   1.3902361392974854,
   1.3880114555358887,
   1.3860455751419067,
   1.3682763576507568,
   1.3526482582092285,
   1.3422397375106812,
   1.3318078517913818,
   1.3223352432250977,
   1.3136742115020752,
   1.3045941591262817,
   1.2958825826644897,
   1.2890069484710693,
   1.2292602062225342,
   1.1866487264633179,
   1.1536247730255127,
   1.1282724142074585,
   1.1101988554000854,
   1.0935336351394653,
   1.0806334018707275,
   1.0687967538833618,
   1.060834527015686,
   1.0184366703033447,
   1.0082488059997559,
   1.0060431957244873,
   0.99183928966522217,
   0.98855876922607422,
   0.98694765567779541,
   0.99077284336090088,
   0.99279755353927612,
   0.99490278959274292,
   0.97896814346313477,
   0.98247796297073364,
   1.0110260248184204,
   1.0008631944656372,
   0.97832280397415161,
   0.97321337461471558,
   1.0273977518081665,
   1.0541901588439941,
   0.99464625120162964
]
