[
   1.4815852642059326,
   1.4819999933242798,
   1.4808270931243896,
   1.4809322357177734,
   1.4819233417510986,
   1.4813390970230103,
   1.4811618328094482,
   1.4808579683303833,
   1.4814420938491821,
   1.480398416519165,
   1.4810302257537842,
   1.480607271194458,
   1.4811055660247803,
   1.4795254468917847,
   1.4799442291259766,
   1.4781062602996826,
   1.4781601428985596,
   1.4780837297439575,
   1.4768370389938354,
   1.471973180770874,
   1.4686472415924072,
   1.4650864601135254,
   1.461858868598938,
   1.4589935541152954,
   1.4560337066650391,
   1.4523142576217651,
   1.4497624635696411,
   1.448298454284668,
   1.426239013671875,
   1.4078459739685059,
   1.3931362628936768,
   1.3805731534957886,
   1.3666830062866211,
   1.3565646409988403,
   1.3458250761032104,
   1.3360329866409302,
   1.3265540599822998,
   1.2531249523162842,
   1.2031291723251343,
   1.1642167568206787,
   1.1338765621185303,
   1.1098588705062866,
   1.0951275825500488,
   1.0834947824478149,
   1.0733498334884644,
   1.0694401264190674,
   1.0172214508056641,
   1.0038537979125977,
   0.99863415956497192,
   0.98750627040863037,
   0.99671906232833862,
   0.99503594636917114,
   0.99795264005661011,
   0.97902089357376099,
   0.97245389223098755,
   1.0109360218048096,
   0.98319113254547119,
   0.99048107862472534,
   1.0112453699111938,
   0.98453319072723389,
   1.0061752796173096,
   1.0340365171432495,
   0.97397345304489136,
   1.0202692747116089
]
