[
   1.3592989444732666,
   1.3585052490234375,
   1.3592853546142578,
   1.3597836494445801,
   1.3590583801269531,
   1.3591327667236328,
   1.3590630292892456,
   1.3589646816253662,
   1.3586961030960083,
   1.3590339422225952,
   1.3586412668228149,
   1.3592051267623901,
   1.3581670522689819,
   1.3580816984176636,
   1.3581407070159912,
   1.3570019006729126,
   1.3573966026306152,
   1.3562109470367432,
   1.3564221858978271,
   1.3528525829315186,
   1.3506100177764893,
   1.3485434055328369,
   1.3460330963134766,
   1.3435871601104736,
   1.3416364192962646,
   1.3391348123550415,
   1.3375639915466309,
   1.3355063199996948,
   1.3206909894943237,
   1.3079724311828613,
   1.2976243495941162,
   1.2883270978927612,
   1.280217170715332,
   1.2723914384841919,
   1.2655243873596191,
   1.2587267160415649,
   1.2525711059570312,
   1.2019219398498535,
   1.1646431684494019,
   1.1366541385650635,
   1.1211135387420654,
   1.1030961275100708,
   1.088288426399231,
   1.0743002891540527,
   1.0633970499038696,
   1.0577147006988525,
   1.0117819309234619,
   1.0018236637115479,
   0.99771296977996826,
   1.0002179145812988,
   1.0082430839538574,
   0.99733668565750122,
   0.99906790256500244,
   0.99425399303436279,
   0.99589663743972778,
   1.0117741823196411,
   1.0045526027679443,
   0.99419689178466797,
   0.99821233749389648,
   0.99416482448577881,
   1.0109950304031372,
   0.97408211231231689,
   0.96247178316116333,
   0.94289159774780273
]
