[
   2.5031299591064453,
   2.5002996921539307,
   2.5041263103485107,
   2.502291202545166,
   2.5036196708679199,
   2.5023465156555176,
   2.5015606880187988,
   2.5003254413604736,
   2.5076947212219238,
   2.5022377967834473,
   2.5002989768981934,
   2.4972023963928223,
   2.4967660903930664,
   2.4919114112854004,
   2.4895491600036621,
   2.4882733821868896,
   2.4856486320495605,
   2.4774413108825684,
   2.4809579849243164,
   2.4546070098876953,
   2.4349970817565918,
   2.4161858558654785,
   2.3982224464416504,
   2.3814883232116699,
   2.3666098117828369,
   2.3566794395446777,
   2.3402702808380127,
   2.3323264122009277,
   2.2261176109313965,
   2.143909215927124,
   2.0707395076751709,
   2.0064105987548828,
   1.9492824077606201,
   1.8939816951751709,
   1.8466081619262695,
   1.8090524673461914,
   1.7706502676010132,
   1.5102081298828125,
   1.3776503801345825,
   1.2934820652008057,
   1.2375813722610474,
   1.191119909286499,
   1.1587498188018799,
   1.1386669874191284,
   1.1196348667144775,
   1.1107057332992554,
   1.026692271232605,
   1.0180337429046631,
   1.0127576589584351,
   1.0024664402008057,
   0.99900591373443604,
   1.006061315536499,
   1.0216727256774902,
   1.0095922946929932,
   1.0393636226654053,
   1.0039169788360596,
   1.0269547700881958,
   1.0043413639068604,
   0.98006665706634521,
   0.97387969493865967,
   0.9395025372505188,
   0.92460840940475464,
   0.91441500186920166,
   0.89517104625701904
]
