[
   1.513401985168457,
   1.5140151977539062,
   1.5143833160400391,
   1.5140368938446045,
   1.5143057107925415,
   1.5136640071868896,
   1.513507604598999,
   1.5134302377700806,
   1.5135213136672974,
   1.5144050121307373,
   1.5125080347061157,
   1.5121166706085205,
   1.5120952129364014,
   1.512089729309082,
   1.5104497671127319,
   1.5106287002563477,
   1.5106576681137085,
   1.5094692707061768,
   1.5076568126678467,
   1.5037662982940674,
   1.4994783401489258,
   1.4954204559326172,
   1.491459846496582,
   1.488181471824646,
   1.4843332767486572,
   1.4808382987976074,
   1.4772398471832275,
   1.475281834602356,
   1.4508414268493652,
   1.4303858280181885,
   1.4136092662811279,
   1.3984850645065308,
   1.3863885402679443,
   1.3723180294036865,
   1.3615444898605347,
   1.3502507209777832,
   1.3394440412521362,
   1.2606539726257324,
   1.2072001695632935,
   1.1698588132858276,
   1.1386644840240479,
   1.1146296262741089,
   1.0952426195144653,
   1.0804581642150879,
   1.0667130947113037,
   1.0571001768112183,
   1.0135215520858765,
   0.99642342329025269,
   0.99297130107879639,
   0.99264562129974365,
   0.98709976673126221,
   0.9920995831489563,
   0.99475610256195068,
   0.99089592695236206,
   0.98394238948822021,
   1.0062706470489502,
   0.99007081985473633,
   0.9862130880355835,
   0.99165821075439453,
   0.98364955186843872,
   1.0007859468460083,
   1.0046823024749756,
   0.98681497573852539,
   1.0563864707946777
]
