[
   3.0723471641540527,
   3.073366641998291,
   3.0648379325866699,
   3.0688533782958984,
   3.0713472366333008,
   3.0709519386291504,
   3.0613491535186768,
   3.0662639141082764,
   3.0655443668365479,
   3.0730769634246826,
   3.0629448890686035,
   3.055534839630127,
   3.0520186424255371,
   3.0458426475524902,
   3.0416924953460693,
   3.0449411869049072,
   3.0367238521575928,
   3.0249712467193604,
   3.0256924629211426,
   2.9846093654632568,
   2.94917893409729,
   2.9286503791809082,
   2.8991527557373047,
   2.8789458274841309,
   2.8493514060974121,
   2.83150315284729,
   2.816767692565918,
   2.7923398017883301,
   2.6353607177734375,
   2.4951388835906982,
   2.3841180801391602,
   2.2873501777648926,
   2.2009708881378174,
   2.120079517364502,
   2.0589489936828613,
   1.9934066534042358,
   1.9360986948013306,
   1.5728739500045776,
   1.4103848934173584,
   1.3050479888916016,
   1.2337241172790527,
   1.1830087900161743,
   1.1502584218978882,
   1.1221405267715454,
   1.1010493040084839,
   1.0878574848175049,
   0.99447107315063477,
   1.0027779340744019,
   1.0121054649353027,
   0.96999341249465942,
   0.99023896455764771,
   0.98114442825317383,
   0.99046087265014648,
   0.97010642290115356,
   0.93895417451858521,
   0.98783862590789795,
   0.9355311393737793,
   1.0110170841217041,
   1.0378519296646118,
   0.96279752254486084,
   1.0530726909637451,
   1.0201334953308105,
   1.0787218809127808,
   1.2019083499908447
]
