[
   25.503429412841797,
   25.52678108215332,
   25.654575347900391,
   25.558120727539062,
   25.411964416503906,
   25.570402145385742,
   25.123178482055664,
   25.446231842041016,
   25.2154541015625,
   25.146055221557617,
   24.729953765869141,
   24.453775405883789,
   24.069452285766602,
   23.780412673950195,
   23.392440795898438,
   23.300876617431641,
   22.883823394775391,
   22.765649795532227,
   22.675228118896484,
   20.913124084472656,
   19.247783660888672,
   18.272869110107422,
   17.202640533447266,
   16.349313735961914,
   15.707133293151855,
   14.810155868530273,
   14.272188186645508,
   13.630006790161133,
   9.5515422821044922,
   7.008997917175293,
   5.5949816703796387,
   4.698185920715332,
   3.9325656890869141,
   3.4038100242614746,
   3.206122875213623,
   2.8613810539245605,
   2.5700473785400391,
   1.4864203929901123,
   1.1713473796844482,
   1.0755432844161987,
   1.0732135772705078,
   1.0671426057815552,
   1.0190821886062622,
   1.1292498111724854,
   0.9802781343460083,
   1.0922801494598389,
   0.9690057635307312,
   0.98518002033233643,
   0.93241101503372192,
   0.87989127635955811,
   0.9723440408706665,
   0.92603933811187744,
   1.0657306909561157,
   0.92385023832321167,
   0.85126590728759766,
   0.83834755420684814,
   0.87097960710525513,
   0.95674926042556763,
   0.92373418807983398,
   1.0171822309494019,
   1.2753411531448364,
   0.96741008758544922,
   1.0232552289962769,
   1.419979453086853
]
