[
   1.703036904335022,
   1.7027587890625,
   1.7016737461090088,
   1.7024103403091431,
   1.7026981115341187,
   1.7023038864135742,
   1.7012979984283447,
   1.7013766765594482,
   1.7016977071762085,
   1.6988136768341064,
   1.6996076107025146,
   1.6964565515518188,
   1.6940160989761353,
   1.6952426433563232,
   1.6917097568511963,
   1.6891056299209595,
   1.688545823097229,
   1.6851346492767334,
   1.6843268871307373,
   1.6660581827163696,
   1.6528377532958984,
   1.6368587017059326,
   1.6252892017364502,
   1.6115776300430298,
   1.601432204246521,
   1.5920059680938721,
   1.5823476314544678,
   1.5711774826049805,
   1.4983974695205688,
   1.4441846609115601,
   1.4025337696075439,
   1.3677082061767578,
   1.3379056453704834,
   1.3134262561798096,
   1.2912580966949463,
   1.2676934003829956,
   1.2508180141448975,
   1.1383316516876221,
   1.0834530591964722,
   1.0514898300170898,
   1.0348156690597534,
   1.0249251127243042,
   1.019763708114624,
   1.0106834173202515,
   1.0105162858963013,
   1.0098140239715576,
   0.99461662769317627,
   0.99456006288528442,
   0.99003660678863525,
   0.99766290187835693,
   0.99664914608001709,
   0.99867427349090576,
   0.98846340179443359,
   0.99254941940307617,
   0.99671685695648193,
   0.99177628755569458,
   0.99841517210006714,
   0.98616999387741089,
   0.988567054271698,
   0.99478423595428467,
   1.0162502527236938,
   1.0398123264312744,
   1.0301722288131714,
   1.0187304019927979
]
