[
   1.5091408491134644,
   1.5078014135360718,
   1.5066908597946167,
   1.5074408054351807,
   1.5071815252304077,
   1.5073115825653076,
   1.5064781904220581,
   1.5055364370346069,
   1.5066282749176025,
   1.5056939125061035,
   1.505094051361084,
   1.5035253763198853,
   1.50480055809021,
   1.5020792484283447,
   1.499711275100708,
   1.5005916357040405,
   1.498127818107605,
   1.4989053010940552,
   1.4958778619766235,
   1.4875930547714233,
   1.4759985208511353,
   1.4665958881378174,
   1.4598734378814697,
   1.4527270793914795,
   1.4454391002655029,
   1.4381541013717651,
   1.4313926696777344,
   1.4245846271514893,
   1.3737401962280273,
   1.3368687629699707,
   1.3087217807769775,
   1.2835745811462402,
   1.2620329856872559,
   1.2466516494750977,
   1.2296831607818604,
   1.2166332006454468,
   1.2044788599014282,
   1.1271352767944336,
   1.0841783285140991,
   1.0568568706512451,
   1.0415966510772705,
   1.0319628715515137,
   1.02049720287323,
   1.0124906301498413,
   1.0035717487335205,
   1.004075288772583,
   0.99253749847412109,
   0.99608486890792847,
   0.99422788619995117,
   1.01064133644104,
   0.99752092361450195,
   1.0002729892730713,
   1.0030251741409302,
   1.0053308010101318,
   1.0040972232818604,
   1.0040587186813354,
   0.99675285816192627,
   0.9977753758430481,
   0.99514132738113403,
   0.99287956953048706,
   0.98916548490524292,
   0.99422848224639893,
   0.97862434387207031,
   0.91377592086791992
]
