[
   2.2411744594573975,
   2.2461581230163574,
   2.2471230030059814,
   2.2414014339447021,
   2.2463459968566895,
   2.2442910671234131,
   2.2415719032287598,
   2.2453711032867432,
   2.2407538890838623,
   2.2409946918487549,
   2.2352480888366699,
   2.2300691604614258,
   2.2239720821380615,
   2.2241430282592773,
   2.2209432125091553,
   2.2159924507141113,
   2.2097866535186768,
   2.2090206146240234,
   2.2007522583007812,
   2.1647779941558838,
   2.1300539970397949,
   2.1036033630371094,
   2.0737063884735107,
   2.0493855476379395,
   2.0279083251953125,
   2.0052995681762695,
   1.9870443344116211,
   1.9682544469833374,
   1.8327066898345947,
   1.7371597290039062,
   1.6636579036712646,
   1.5995014905929565,
   1.549771785736084,
   1.4971967935562134,
   1.4607386589050293,
   1.4274876117706299,
   1.3957254886627197,
   1.2108253240585327,
   1.1317931413650513,
   1.0843026638031006,
   1.057603120803833,
   1.0381932258605957,
   1.0220533609390259,
   1.0206820964813232,
   1.0151251554489136,
   1.0046029090881348,
   0.99083125591278076,
   0.98316305875778198,
   0.99225330352783203,
   0.99767029285430908,
   0.99433243274688721,
   0.99097049236297607,
   0.99360388517379761,
   0.99258488416671753,
   0.99030131101608276,
   1.0024950504302979,
   0.99129009246826172,
   0.98484694957733154,
   0.99911230802536011,
   1.0043889284133911,
   1.0005499124526978,
   1.0146929025650024,
   0.99078530073165894,
   0.93499422073364258
]
