[
   4.6559205055236816,
   4.6524195671081543,
   4.6549625396728516,
   4.6577095985412598,
   4.6483054161071777,
   4.6511492729187012,
   4.6531648635864258,
   4.6428470611572266,
   4.6473274230957031,
   4.6474690437316895,
   4.6220331192016602,
   4.6051473617553711,
   4.5627403259277344,
   4.5411176681518555,
   4.5342416763305664,
   4.516787052154541,
   4.497401237487793,
   4.4759106636047363,
   4.4521470069885254,
   4.3009047508239746,
   4.1504373550415039,
   4.0454301834106445,
   3.9550411701202393,
   3.8775074481964111,
   3.8049778938293457,
   3.7375702857971191,
   3.6623053550720215,
   3.6022830009460449,
   3.1608407497406006,
   2.8369107246398926,
   2.5934724807739258,
   2.389625072479248,
   2.2181487083435059,
   2.0921013355255127,
   1.9680569171905518,
   1.8725303411483765,
   1.7992813587188721,
   1.3822004795074463,
   1.2371389865875244,
   1.1362870931625366,
   1.0737862586975098,
   1.0158927440643311,
   1.0090514421463013,
   1.0134469270706177,
   1.0245347023010254,
   1.0291440486907959,
   0.99310958385467529,
   1.0015337467193604,
   0.96917903423309326,
   0.96045053005218506,
   0.97313833236694336,
   0.98720133304595947,
   1.0079710483551025,
   1.0141563415527344,
   0.96691215038299561,
   0.99752986431121826,
   1.0362244844436646,
   1.0017344951629639,
   1.0029791593551636,
   0.99255102872848511,
   0.95373189449310303,
   0.92102336883544922,
   0.94627648591995239,
   0.88490945100784302
]
