[
   1.9060169458389282,
   1.9033273458480835,
   1.9048235416412354,
   1.9045768976211548,
   1.904282808303833,
   1.905917763710022,
   1.9026597738265991,
   1.9048871994018555,
   1.9024889469146729,
   1.9002106189727783,
   1.9004837274551392,
   1.8977882862091064,
   1.8930870294570923,
   1.8922744989395142,
   1.8899828195571899,
   1.8856805562973022,
   1.8836647272109985,
   1.8820981979370117,
   1.8781173229217529,
   1.8544890880584717,
   1.8341890573501587,
   1.8129749298095703,
   1.7940757274627686,
   1.7785619497299194,
   1.7637277841567993,
   1.7474842071533203,
   1.7355659008026123,
   1.7244672775268555,
   1.6216809749603271,
   1.5571327209472656,
   1.5014071464538574,
   1.4576098918914795,
   1.4199340343475342,
   1.3864401578903198,
   1.3580100536346436,
   1.3335878849029541,
   1.3090337514877319,
   1.1705406904220581,
   1.1062374114990234,
   1.0690027475357056,
   1.0455749034881592,
   1.0350151062011719,
   1.0249564647674561,
   1.0167837142944336,
   1.0097553730010986,
   1.0109041929244995,
   0.99825286865234375,
   1.0021941661834717,
   0.99899035692214966,
   1.0007666349411011,
   1.0051901340484619,
   1.0050661563873291,
   0.98672115802764893,
   0.9946136474609375,
   0.991466224193573,
   0.99826526641845703,
   0.99105101823806763,
   0.98644697666168213,
   0.99919414520263672,
   0.99821442365646362,
   0.98889142274856567,
   1.0415973663330078,
   0.97499501705169678,
   0.93886488676071167
]
