[
   7.0777406692504883,
   7.0822982788085938,
   7.0673789978027344,
   7.0574593544006348,
   7.0561037063598633,
   7.0473341941833496,
   7.0489211082458496,
   7.0330557823181152,
   7.0344781875610352,
   7.0387144088745117,
   6.9746007919311523,
   6.9329466819763184,
   6.8968443870544434,
   6.8416109085083008,
   6.8179535865783691,
   6.7688779830932617,
   6.725855827331543,
   6.6917915344238281,
   6.6299958229064941,
   6.3273591995239258,
   6.0869684219360352,
   5.9071297645568848,
   5.7419576644897461,
   5.5930576324462891,
   5.4242968559265137,
   5.3069424629211426,
   5.1975522041320801,
   5.0669775009155273,
   4.2638092041015625,
   3.6794521808624268,
   3.2167994976043701,
   2.885883092880249,
   2.6172280311584473,
   2.4119484424591064,
   2.2497677803039551,
   2.0950565338134766,
   1.9811050891876221,
   1.424907922744751,
   1.1840037107467651,
   1.1028729677200317,
   1.0728724002838135,
   1.0714972019195557,
   1.0571233034133911,
   1.0291175842285156,
   1.0203232765197754,
   1.0223046541213989,
   0.96942156553268433,
   1.0069175958633423,
   1.0266458988189697,
   0.99306029081344604,
   0.96952188014984131,
   1.0148335695266724,
   1.0083190202713013,
   0.9312250018119812,
   0.97787940502166748,
   1.0038986206054688,
   1.0493924617767334,
   0.99760234355926514,
   0.96193599700927734,
   0.99494087696075439,
   1.0018037557601929,
   0.98827517032623291,
   0.93892508745193481,
   0.991432785987854
]
