[
   3.6076133251190186,
   3.6118698120117188,
   3.5970726013183594,
   3.6037802696228027,
   3.6003062725067139,
   3.5961005687713623,
   3.6000010967254639,
   3.5904948711395264,
   3.5929608345031738,
   3.5928797721862793,
   3.5769374370574951,
   3.5622239112854004,
   3.5655601024627686,
   3.5421109199523926,
   3.5246784687042236,
   3.507880687713623,
   3.5121035575866699,
   3.5002262592315674,
   3.4777846336364746,
   3.3844249248504639,
   3.293287992477417,
   3.2248663902282715,
   3.1606135368347168,
   3.1092445850372314,
   3.0554392337799072,
   3.011472225189209,
   2.9697918891906738,
   2.9268598556518555,
   2.6338374614715576,
   2.4096770286560059,
   2.2431848049163818,
   2.1075043678283691,
   1.9984419345855713,
   1.9072418212890625,
   1.8159822225570679,
   1.7471847534179688,
   1.6919801235198975,
   1.3405177593231201,
   1.2032468318939209,
   1.1249754428863525,
   1.0755223035812378,
   1.0564790964126587,
   1.0361292362213135,
   1.0299898386001587,
   1.0288511514663696,
   1.0114209651947021,
   0.96503144502639771,
   1.0013382434844971,
   0.99621057510375977,
   0.97007179260253906,
   0.990447998046875,
   0.99057447910308838,
   1.008543848991394,
   0.98022365570068359,
   1.0062322616577148,
   1.0202549695968628,
   0.96874713897705078,
   0.99461859464645386,
   1.0211470127105713,
   0.97515106201171875,
   0.98804271221160889,
   0.93364936113357544,
   0.97636115550994873,
   0.91945153474807739
]
