[
   1.4578989744186401,
   1.4588568210601807,
   1.458240270614624,
   1.457895040512085,
   1.4577771425247192,
   1.4586149454116821,
   1.4588496685028076,
   1.4575554132461548,
   1.4583406448364258,
   1.4575903415679932,
   1.45772385597229,
   1.4575731754302979,
   1.4566107988357544,
   1.4572402238845825,
   1.4576930999755859,
   1.4558886289596558,
   1.4553248882293701,
   1.4554057121276855,
   1.4554253816604614,
   1.4518028497695923,
   1.44822096824646,
   1.4455926418304443,
   1.4430229663848877,
   1.4398210048675537,
   1.4376717805862427,
   1.4343751668930054,
   1.4327985048294067,
   1.4294220209121704,
   1.406693696975708,
   1.3878339529037476,
   1.3712207078933716,
   1.3576059341430664,
   1.3435795307159424,
   1.331263542175293,
   1.3199169635772705,
   1.3096010684967041,
   1.2999789714813232,
   1.2274290323257446,
   1.176129937171936,
   1.1424005031585693,
   1.1176362037658691,
   1.0986301898956299,
   1.0834875106811523,
   1.0716615915298462,
   1.0616638660430908,
   1.0553437471389771,
   1.030855655670166,
   1.0151122808456421,
   1.0076305866241455,
   1.0142977237701416,
   1.0131409168243408,
   1.0128263235092163,
   1.0056271553039551,
   0.99671351909637451,
   0.99589884281158447,
   1.0039964914321899,
   0.98769581317901611,
   0.98446524143218994,
   0.97859400510787964,
   0.9883655309677124,
   0.98600947856903076,
   1.010985255241394,
   1.0137844085693359,
   0.94644594192504883
]
