[
   1.8258508443832397,
   1.8261449337005615,
   1.8263530731201172,
   1.8255224227905273,
   1.8266379833221436,
   1.8274959325790405,
   1.8252298831939697,
   1.8267484903335571,
   1.8276748657226562,
   1.8254026174545288,
   1.8265602588653564,
   1.8244600296020508,
   1.8242775201797485,
   1.8204023838043213,
   1.8224918842315674,
   1.8217830657958984,
   1.8207197189331055,
   1.8186652660369873,
   1.8179931640625,
   1.807903528213501,
   1.8018360137939453,
   1.7949507236480713,
   1.7852990627288818,
   1.779558539390564,
   1.7723379135131836,
   1.7666122913360596,
   1.7598711252212524,
   1.7535727024078369,
   1.7025610208511353,
   1.660043478012085,
   1.6222356557846069,
   1.5891983509063721,
   1.5594894886016846,
   1.5324497222900391,
   1.5068565607070923,
   1.4844048023223877,
   1.4631626605987549,
   1.3129494190216064,
   1.2311848402023315,
   1.1759575605392456,
   1.1375304460525513,
   1.110866904258728,
   1.0889476537704468,
   1.0760343074798584,
   1.0641154050827026,
   1.0585809946060181,
   1.0117232799530029,
   1.0035600662231445,
   0.99262714385986328,
   0.99232161045074463,
   0.99297845363616943,
   0.99261015653610229,
   0.99396389722824097,
   0.98316538333892822,
   1.0012238025665283,
   0.99147224426269531,
   0.97950839996337891,
   1.0020928382873535,
   0.99103593826293945,
   0.98499119281768799,
   0.99886023998260498,
   1.0364763736724854,
   1.0434501171112061,
   1.0744559764862061
]
