[
   1.4933605194091797,
   1.4930870532989502,
   1.4921432733535767,
   1.4937180280685425,
   1.4927570819854736,
   1.4933739900588989,
   1.4942960739135742,
   1.4922913312911987,
   1.4927616119384766,
   1.492906928062439,
   1.4931886196136475,
   1.4927445650100708,
   1.4917353391647339,
   1.4909751415252686,
   1.4913358688354492,
   1.4904825687408447,
   1.490439772605896,
   1.4900964498519897,
   1.4887763261795044,
   1.4861131906509399,
   1.4822888374328613,
   1.4787675142288208,
   1.4751924276351929,
   1.4719935655593872,
   1.4685232639312744,
   1.4652668237686157,
   1.4619331359863281,
   1.4594095945358276,
   1.4335587024688721,
   1.4121085405349731,
   1.3925398588180542,
   1.3770749568939209,
   1.360864520072937,
   1.3465330600738525,
   1.3343992233276367,
   1.3223826885223389,
   1.3097718954086304,
   1.2289450168609619,
   1.1778528690338135,
   1.1418443918228149,
   1.1165796518325806,
   1.0989322662353516,
   1.079648494720459,
   1.0674991607666016,
   1.0595057010650635,
   1.0544102191925049,
   1.0230824947357178,
   1.0131232738494873,
   1.0038304328918457,
   0.99329137802124023,
   0.99566423892974854,
   1.000031590461731,
   0.99474561214447021,
   1.001766562461853,
   1.0052655935287476,
   1.019206166267395,
   1.0101392269134521,
   0.98794794082641602,
   0.98886072635650635,
   0.99970483779907227,
   1.009986400604248,
   0.98650646209716797,
   0.90801918506622314,
   0.93507784605026245
]
