[
   7.6398344039916992,
   7.6258172988891602,
   7.6044831275939941,
   7.6329522132873535,
   7.6314249038696289,
   7.6267499923706055,
   7.6278290748596191,
   7.6590509414672852,
   7.6165437698364258,
   7.6076545715332031,
   7.5739264488220215,
   7.5623197555541992,
   7.5386781692504883,
   7.502995491027832,
   7.4698448181152344,
   7.4645142555236816,
   7.4174666404724121,
   7.3662071228027344,
   7.337796688079834,
   7.1311302185058594,
   6.9002237319946289,
   6.7087888717651367,
   6.5267844200134277,
   6.3434486389160156,
   6.1721606254577637,
   6.0376067161560059,
   5.9309053421020508,
   5.7862386703491211,
   4.7367639541625977,
   4.0372405052185059,
   3.5413768291473389,
   3.1959710121154785,
   2.9385933876037598,
   2.7034945487976074,
   2.5275468826293945,
   2.360149621963501,
   2.2328050136566162,
   1.5945624113082886,
   1.3842071294784546,
   1.2666218280792236,
   1.2285290956497192,
   1.2218425273895264,
   1.2259335517883301,
   1.1463429927825928,
   1.1254408359527588,
   1.1146819591522217,
   1.0499918460845947,
   0.98958885669708252,
   0.93622457981109619,
   1.0234053134918213,
   0.99849236011505127,
   0.95664918422698975,
   0.93585622310638428,
   0.98765486478805542,
   0.93880307674407959,
   0.98139125108718872,
   0.88508701324462891,
   1.0101093053817749,
   1.0366107225418091,
   0.91541510820388794,
   1.0344467163085938,
   1.1468148231506348,
   1.1462494134902954,
   1.0517895221710205
]
