[
   1.38362717628479,
   1.3833894729614258,
   1.3834701776504517,
   1.3833292722702026,
   1.3829488754272461,
   1.3839399814605713,
   1.3836722373962402,
   1.38408362865448,
   1.3833324909210205,
   1.383757472038269,
   1.3837499618530273,
   1.3827527761459351,
   1.3830183744430542,
   1.3829600811004639,
   1.3816119432449341,
   1.3824448585510254,
   1.3820379972457886,
   1.3811131715774536,
   1.3809926509857178,
   1.3791253566741943,
   1.3760054111480713,
   1.3750588893890381,
   1.371539831161499,
   1.3698899745941162,
   1.3674135208129883,
   1.3658382892608643,
   1.3625483512878418,
   1.3621826171875,
   1.3436157703399658,
   1.3291357755661011,
   1.3163881301879883,
   1.3048465251922607,
   1.29457688331604,
   1.2848151922225952,
   1.2762854099273682,
   1.2681559324264526,
   1.2592042684555054,
   1.1986179351806641,
   1.156792163848877,
   1.1268668174743652,
   1.1077334880828857,
   1.0896162986755371,
   1.0754441022872925,
   1.0662796497344971,
   1.0569181442260742,
   1.0526726245880127,
   1.0286357402801514,
   1.0180408954620361,
   1.0087414979934692,
   1.0091354846954346,
   1.0070302486419678,
   1.0043230056762695,
   1.0018550157546997,
   0.99319636821746826,
   1.0045421123504639,
   0.99292886257171631,
   0.98214387893676758,
   1.0022509098052979,
   0.99275219440460205,
   0.99383527040481567,
   1.0050042867660522,
   1.0361897945404053,
   1.0288228988647461,
   0.98676156997680664
]
