[
   2.6059255599975586,
   2.6067936420440674,
   2.6039931774139404,
   2.6032352447509766,
   2.6069118976593018,
   2.6071655750274658,
   2.6063656806945801,
   2.604499340057373,
   2.601548433303833,
   2.602755069732666,
   2.5997593402862549,
   2.6004633903503418,
   2.596043586730957,
   2.5933041572570801,
   2.5896134376525879,
   2.5869183540344238,
   2.5856020450592041,
   2.5864126682281494,
   2.5816001892089844,
   2.5607106685638428,
   2.5337543487548828,
   2.5155317783355713,
   2.4949486255645752,
   2.4764466285705566,
   2.4576354026794434,
   2.438058614730835,
   2.4210996627807617,
   2.408372163772583,
   2.2707149982452393,
   2.1666522026062012,
   2.0742082595825195,
   1.9956890344619751,
   1.9259687662124634,
   1.8632278442382812,
   1.8130195140838623,
   1.7651056051254272,
   1.719407320022583,
   1.4473105669021606,
   1.3152592182159424,
   1.2456881999969482,
   1.1953639984130859,
   1.1665278673171997,
   1.1491103172302246,
   1.1368978023529053,
   1.1230756044387817,
   1.11505126953125,
   1.0441653728485107,
   1.0392782688140869,
   1.0081872940063477,
   1.0192372798919678,
   1.0241891145706177,
   1.0185749530792236,
   1.031602144241333,
   0.99656188488006592,
   1.0158851146697998,
   1.0038168430328369,
   1.0225725173950195,
   1.0322310924530029,
   0.99773150682449341,
   0.97782295942306519,
   0.95172947645187378,
   0.91228866577148438,
   0.92387884855270386,
   0.94301176071166992
]
