[
   2.2304511070251465,
   2.2316157817840576,
   2.23227858543396,
   2.231013298034668,
   2.2315893173217773,
   2.2324981689453125,
   2.2315406799316406,
   2.2286362648010254,
   2.230787992477417,
   2.2294692993164062,
   2.228191614151001,
   2.2245864868164062,
   2.2232985496520996,
   2.2275068759918213,
   2.2207164764404297,
   2.2217502593994141,
   2.2201972007751465,
   2.2175540924072266,
   2.2152867317199707,
   2.202359676361084,
   2.1878805160522461,
   2.1707735061645508,
   2.1572060585021973,
   2.1446270942687988,
   2.1387486457824707,
   2.1195516586303711,
   2.1112253665924072,
   2.0995278358459473,
   2.009077787399292,
   1.9352433681488037,
   1.8717076778411865,
   1.8173196315765381,
   1.7660770416259766,
   1.72536301612854,
   1.6871597766876221,
   1.6496741771697998,
   1.6179077625274658,
   1.4048573970794678,
   1.2920839786529541,
   1.2205464839935303,
   1.1670901775360107,
   1.1387779712677002,
   1.1203089952468872,
   1.1032744646072388,
   1.0828201770782471,
   1.0721428394317627,
   1.0304297208786011,
   1.0223770141601562,
   1.0295957326889038,
   1.018543004989624,
   1.0301756858825684,
   1.0222775936126709,
   1.0237616300582886,
   1.0200936794281006,
   1.031172513961792,
   0.99993002414703369,
   0.99064034223556519,
   1.0053850412368774,
   0.98835247755050659,
   0.99696367979049683,
   0.95090609788894653,
   0.96432286500930786,
   0.89375907182693481,
   0.7356640100479126
]
