[
   1.3714231252670288,
   1.3717131614685059,
   1.3717831373214722,
   1.3713138103485107,
   1.3706495761871338,
   1.3718338012695312,
   1.3716084957122803,
   1.3716135025024414,
   1.3708888292312622,
   1.371052622795105,
   1.3707849979400635,
   1.3701298236846924,
   1.3700220584869385,
   1.3703500032424927,
   1.3702003955841064,
   1.3691341876983643,
   1.3684676885604858,
   1.3678907155990601,
   1.3685421943664551,
   1.3658163547515869,
   1.3622138500213623,
   1.3592166900634766,
   1.3561278581619263,
   1.353603720664978,
   1.3511931896209717,
   1.3482983112335205,
   1.345915675163269,
   1.3429481983184814,
   1.3223646879196167,
   1.3040543794631958,
   1.2888661623001099,
   1.2744823694229126,
   1.2622692584991455,
   1.250996470451355,
   1.240138053894043,
   1.2304160594940186,
   1.221207857131958,
   1.1587611436843872,
   1.1203258037567139,
   1.0928572416305542,
   1.0796077251434326,
   1.0658406019210815,
   1.053235650062561,
   1.0452597141265869,
   1.03743577003479,
   1.0365161895751953,
   1.0110067129135132,
   1.0007494688034058,
   0.99666488170623779,
   0.99723035097122192,
   0.99967479705810547,
   0.99189215898513794,
   0.99672919511795044,
   0.99841105937957764,
   0.99885302782058716,
   0.99440681934356689,
   0.98461264371871948,
   0.98920470476150513,
   0.98831796646118164,
   1.0059592723846436,
   1.0036265850067139,
   1.0094716548919678,
   0.98749256134033203,
   1.0365784168243408
]
