[
   1.5406643152236938,
   1.5398107767105103,
   1.541102409362793,
   1.5416430234909058,
   1.5401568412780762,
   1.5399744510650635,
   1.5394586324691772,
   1.5404715538024902,
   1.5405523777008057,
   1.539752721786499,
   1.5406055450439453,
   1.5393717288970947,
   1.5390721559524536,
   1.5388498306274414,
   1.5367900133132935,
   1.5373232364654541,
   1.5363125801086426,
   1.5343049764633179,
   1.5351908206939697,
   1.5286028385162354,
   1.523593544960022,
   1.5189740657806396,
   1.513646125793457,
   1.5076628923416138,
   1.5038152933120728,
   1.4981099367141724,
   1.4945170879364014,
   1.4914677143096924,
   1.4515365362167358,
   1.4213396310806274,
   1.394492506980896,
   1.3690589666366577,
   1.3486472368240356,
   1.3298772573471069,
   1.3133275508880615,
   1.2976692914962769,
   1.2822858095169067,
   1.1877073049545288,
   1.136798620223999,
   1.1055212020874023,
   1.0839220285415649,
   1.0670897960662842,
   1.0507813692092896,
   1.0403950214385986,
   1.0344415903091431,
   1.0353693962097168,
   1.0031713247299194,
   0.99612265825271606,
   1.0042078495025635,
   0.99613344669342041,
   0.99406224489212036,
   0.99967873096466064,
   0.99218165874481201,
   0.99930727481842041,
   0.9923630952835083,
   0.98472487926483154,
   0.99589645862579346,
   1.0105291604995728,
   1.0161330699920654,
   0.99618947505950928,
   0.97460258007049561,
   1.0254933834075928,
   1.0491920709609985,
   1.0565838813781738
]
