[
   2.46077561378479,
   2.4623057842254639,
   2.4634871482849121,
   2.4627895355224609,
   2.4573884010314941,
   2.4602921009063721,
   2.460193395614624,
   2.4575746059417725,
   2.4542288780212402,
   2.4584813117980957,
   2.4536063671112061,
   2.4471592903137207,
   2.44553542137146,
   2.4439988136291504,
   2.4385337829589844,
   2.4378266334533691,
   2.4371373653411865,
   2.4287102222442627,
   2.424912691116333,
   2.3953838348388672,
   2.3673074245452881,
   2.3447775840759277,
   2.3189597129821777,
   2.2989411354064941,
   2.2726864814758301,
   2.2521185874938965,
   2.2293498516082764,
   2.2091631889343262,
   2.0460541248321533,
   1.9217697381973267,
   1.8232543468475342,
   1.7423912286758423,
   1.6764028072357178,
   1.6198688745498657,
   1.5715348720550537,
   1.532271146774292,
   1.4944689273834229,
   1.2805556058883667,
   1.1825156211853027,
   1.1347310543060303,
   1.0975061655044556,
   1.0758507251739502,
   1.0675672292709351,
   1.0482311248779297,
   1.0453214645385742,
   1.0366259813308716,
   1.0011398792266846,
   1.0161858797073364,
   1.0170285701751709,
   0.99371421337127686,
   1.0101702213287354,
   0.99813282489776611,
   0.97400361299514771,
   0.98620033264160156,
   0.98358744382858276,
   0.98583471775054932,
   1.0028942823410034,
   0.97173416614532471,
   0.98020792007446289,
   1.013380765914917,
   1.0122923851013184,
   1.0349967479705811,
   1.0343270301818848,
   0.99788886308670044
]
