[
   3.0013785362243652,
   2.9993107318878174,
   2.9988124370574951,
   3.0000596046447754,
   3.0007674694061279,
   2.9954166412353516,
   2.9945664405822754,
   2.9960360527038574,
   2.9969184398651123,
   2.997046947479248,
   2.9897079467773438,
   2.9802374839782715,
   2.9775395393371582,
   2.9740109443664551,
   2.9653661251068115,
   2.9622116088867188,
   2.9614040851593018,
   2.9550905227661133,
   2.9464004039764404,
   2.8945040702819824,
   2.8509719371795654,
   2.8079862594604492,
   2.7657103538513184,
   2.7269210815429688,
   2.6924738883972168,
   2.6505894660949707,
   2.6195492744445801,
   2.590505838394165,
   2.3288569450378418,
   2.1414589881896973,
   1.9995397329330444,
   1.8870077133178711,
   1.7935552597045898,
   1.7132842540740967,
   1.6496851444244385,
   1.5927045345306396,
   1.5510451793670654,
   1.3150166273117065,
   1.2228281497955322,
   1.17085862159729,
   1.1274904012680054,
   1.1067745685577393,
   1.0856220722198486,
   1.0561554431915283,
   1.0601029396057129,
   1.0535776615142822,
   1.0088076591491699,
   1.0114896297454834,
   0.9958881139755249,
   1.0127816200256348,
   1.0013483762741089,
   1.0229873657226562,
   1.0143812894821167,
   0.99442613124847412,
   0.98153877258300781,
   0.99227368831634521,
   0.99094581604003906,
   1.0093990564346313,
   1.029499888420105,
   0.99511253833770752,
   0.95729303359985352,
   1.0127604007720947,
   1.041866660118103,
   1.0784026384353638
]
