[
   6.8860979080200195,
   6.8692383766174316,
   6.8532028198242188,
   6.8643121719360352,
   6.8639335632324219,
   6.8803243637084961,
   6.8748998641967773,
   6.8655228614807129,
   6.8427910804748535,
   6.8439431190490723,
   6.8051290512084961,
   6.7496085166931152,
   6.7105240821838379,
   6.7027373313903809,
   6.6552557945251465,
   6.6126441955566406,
   6.5871973037719727,
   6.5303049087524414,
   6.5326881408691406,
   6.1545305252075195,
   5.8943910598754883,
   5.6351613998413086,
   5.4259581565856934,
   5.2265129089355469,
   5.0486712455749512,
   4.872706413269043,
   4.7071638107299805,
   4.5670309066772461,
   3.5684921741485596,
   3.0340707302093506,
   2.6790561676025391,
   2.4280796051025391,
   2.2388508319854736,
   2.0665078163146973,
   1.9258711338043213,
   1.8330303430557251,
   1.7899936437606812,
   1.3871692419052124,
   1.2427232265472412,
   1.1964457035064697,
   1.1214225292205811,
   1.1391699314117432,
   1.1112638711929321,
   1.1196677684783936,
   1.1174910068511963,
   1.0679444074630737,
   0.97372472286224365,
   0.9885406494140625,
   1.02413010597229,
   1.0242750644683838,
   0.99410504102706909,
   0.95001524686813354,
   0.95396679639816284,
   0.99820679426193237,
   1.0006172657012939,
   0.97830522060394287,
   0.95152634382247925,
   0.97565853595733643,
   1.0239797830581665,
   0.91101187467575073,
   0.96709024906158447,
   1.0037094354629517,
   1.032464861869812,
   1.0445705652236938
]
