[
   1.4426337480545044,
   1.4413925409317017,
   1.4414255619049072,
   1.4410197734832764,
   1.4412589073181152,
   1.4412213563919067,
   1.4414265155792236,
   1.4413871765136719,
   1.4410533905029297,
   1.4404799938201904,
   1.4408447742462158,
   1.4410965442657471,
   1.4402612447738647,
   1.4395579099655151,
   1.4388034343719482,
   1.4379976987838745,
   1.4384239912033081,
   1.4385416507720947,
   1.4371861219406128,
   1.4336452484130859,
   1.4295752048492432,
   1.4246939420700073,
   1.4220657348632812,
   1.4190630912780762,
   1.4151934385299683,
   1.4118716716766357,
   1.4082025289535522,
   1.4041959047317505,
   1.3765710592269897,
   1.3540399074554443,
   1.3341691493988037,
   1.3173259496688843,
   1.3016291856765747,
   1.2870891094207764,
   1.2745411396026611,
   1.2621296644210815,
   1.2506293058395386,
   1.173282265663147,
   1.1278111934661865,
   1.0957976579666138,
   1.0773651599884033,
   1.0654908418655396,
   1.0573680400848389,
   1.0509167909622192,
   1.0423656702041626,
   1.0409272909164429,
   1.017101526260376,
   1.0074573755264282,
   1.0085434913635254,
   0.99797946214675903,
   1.0016626119613647,
   0.9957965612411499,
   1.0032129287719727,
   1.0002710819244385,
   1.0018309354782104,
   0.99747991561889648,
   0.98836028575897217,
   0.96796447038650513,
   0.99107789993286133,
   1.0077654123306274,
   1.0433590412139893,
   1.0242396593093872,
   1.0223971605300903,
   0.98959255218505859
]
