[
   1.6072661876678467,
   1.6073493957519531,
   1.6080539226531982,
   1.6063277721405029,
   1.6071288585662842,
   1.6077989339828491,
   1.6080186367034912,
   1.607046365737915,
   1.6066163778305054,
   1.6062933206558228,
   1.6055349111557007,
   1.6047296524047852,
   1.6042909622192383,
   1.6040427684783936,
   1.6042753458023071,
   1.6036831140518188,
   1.6020679473876953,
   1.6007483005523682,
   1.5999449491500854,
   1.5925987958908081,
   1.5866415500640869,
   1.581129789352417,
   1.5751750469207764,
   1.5686737298965454,
   1.5631875991821289,
   1.557019829750061,
   1.5514392852783203,
   1.5471546649932861,
   1.5035042762756348,
   1.4665286540985107,
   1.4359766244888306,
   1.4095638990402222,
   1.3859450817108154,
   1.3645830154418945,
   1.3452974557876587,
   1.3289768695831299,
   1.3113613128662109,
   1.2043249607086182,
   1.1490979194641113,
   1.1127216815948486,
   1.0913801193237305,
   1.0708281993865967,
   1.0541913509368896,
   1.0444537401199341,
   1.0378086566925049,
   1.0358960628509521,
   1.0086414813995361,
   0.9998738169670105,
   0.99394339323043823,
   0.99060690402984619,
   0.99405974149703979,
   0.99805629253387451,
   0.99042022228240967,
   0.99504053592681885,
   0.988547682762146,
   0.99531173706054688,
   0.99321019649505615,
   0.98311120271682739,
   1.0019849538803101,
   0.98801517486572266,
   1.006758451461792,
   1.0200449228286743,
   1.0201510190963745,
   1.0460284948348999
]
