[
   1.6837829351425171,
   1.6824061870574951,
   1.6837558746337891,
   1.6855779886245728,
   1.6835520267486572,
   1.6838462352752686,
   1.6837291717529297,
   1.6831268072128296,
   1.6836040019989014,
   1.6842830181121826,
   1.6823272705078125,
   1.681283712387085,
   1.6805521249771118,
   1.6793534755706787,
   1.6790574789047241,
   1.6766140460968018,
   1.6763652563095093,
   1.6771396398544312,
   1.6752378940582275,
   1.6665897369384766,
   1.6580559015274048,
   1.6499783992767334,
   1.6423120498657227,
   1.6361774206161499,
   1.6279083490371704,
   1.6233699321746826,
   1.6156406402587891,
   1.6090853214263916,
   1.5559823513031006,
   1.5135732889175415,
   1.4754631519317627,
   1.4450539350509644,
   1.4173520803451538,
   1.3940408229827881,
   1.3712561130523682,
   1.3533022403717041,
   1.3334343433380127,
   1.2147135734558105,
   1.1545906066894531,
   1.1132076978683472,
   1.0905482769012451,
   1.0726363658905029,
   1.0576781034469604,
   1.0522077083587646,
   1.0416268110275269,
   1.0388014316558838,
   1.0047463178634644,
   1.0089982748031616,
   1.0013837814331055,
   0.99092978239059448,
   0.98967421054840088,
   0.99379634857177734,
   0.98846530914306641,
   0.99508190155029297,
   1.0107403993606567,
   1.0050429105758667,
   1.0203547477722168,
   0.99771976470947266,
   0.97666281461715698,
   1.0036352872848511,
   0.9706767201423645,
   0.96311819553375244,
   0.95563489198684692,
   1.0048748254776001
]
