[
   1.3513058423995972,
   1.3510568141937256,
   1.3507587909698486,
   1.3501209020614624,
   1.3506159782409668,
   1.3509422540664673,
   1.3501657247543335,
   1.3505604267120361,
   1.3504129648208618,
   1.3503067493438721,
   1.3498272895812988,
   1.3497265577316284,
   1.3498338460922241,
   1.3490699529647827,
   1.349000096321106,
   1.3486535549163818,
   1.3483538627624512,
   1.3481967449188232,
   1.3482210636138916,
   1.3452644348144531,
   1.3437201976776123,
   1.3408668041229248,
   1.3385412693023682,
   1.3368011713027954,
   1.3347718715667725,
   1.3329265117645264,
   1.3311731815338135,
   1.3287625312805176,
   1.3126804828643799,
   1.3004815578460693,
   1.2885068655014038,
   1.2787859439849854,
   1.2692553997039795,
   1.2608177661895752,
   1.2524367570877075,
   1.2456034421920776,
   1.2380307912826538,
   1.1809310913085938,
   1.1443473100662231,
   1.1168867349624634,
   1.1059010028839111,
   1.090272068977356,
   1.0787856578826904,
   1.0693261623382568,
   1.0583909749984741,
   1.0508148670196533,
   1.0058615207672119,
   0.99055731296539307,
   0.99362629652023315,
   0.98926591873168945,
   0.983512282371521,
   0.97991305589675903,
   0.98375195264816284,
   0.98499947786331177,
   0.989601731300354,
   1.0082430839538574,
   1.0005474090576172,
   0.99316596984863281,
   0.99881112575531006,
   1.0059177875518799,
   1.0069169998168945,
   1.0073611736297607,
   1.0079605579376221,
   1.0258476734161377
]
