[
   2.3717279434204102,
   2.3700149059295654,
   2.3681755065917969,
   2.3684933185577393,
   2.3736300468444824,
   2.3703627586364746,
   2.3688604831695557,
   2.3694615364074707,
   2.3698511123657227,
   2.368659496307373,
   2.3662014007568359,
   2.3652157783508301,
   2.3604702949523926,
   2.3589684963226318,
   2.3556652069091797,
   2.3511722087860107,
   2.3522732257843018,
   2.3476188182830811,
   2.3461539745330811,
   2.3263313770294189,
   2.3092226982116699,
   2.2908103466033936,
   2.2723929882049561,
   2.2582409381866455,
   2.2442662715911865,
   2.2312233448028564,
   2.2158932685852051,
   2.2019021511077881,
   2.0898952484130859,
   1.9952545166015625,
   1.9139055013656616,
   1.8455793857574463,
   1.7885795831680298,
   1.7337735891342163,
   1.6910245418548584,
   1.6491775512695312,
   1.6095802783966064,
   1.3667120933532715,
   1.2521368265151978,
   1.184917688369751,
   1.1437444686889648,
   1.1210483312606812,
   1.099690318107605,
   1.080796480178833,
   1.0539700984954834,
   1.0411254167556763,
   1.0077539682388306,
   0.98956906795501709,
   1.0006253719329834,
   0.9930344820022583,
   0.99770146608352661,
   0.98377406597137451,
   0.96802055835723877,
   0.97983121871948242,
   0.96432322263717651,
   1.0010454654693604,
   1.0041017532348633,
   1.0002293586730957,
   0.9704321026802063,
   1.0006122589111328,
   1.0239346027374268,
   0.99977314472198486,
   0.99866485595703125,
   1.0999890565872192
]
