[
   1.73581862449646,
   1.7371209859848022,
   1.7335450649261475,
   1.7351789474487305,
   1.7345516681671143,
   1.7350738048553467,
   1.7347255945205688,
   1.7340652942657471,
   1.7357286214828491,
   1.7343485355377197,
   1.7330491542816162,
   1.7318611145019531,
   1.7315666675567627,
   1.7298485040664673,
   1.7309125661849976,
   1.7300634384155273,
   1.7302290201187134,
   1.7280223369598389,
   1.7276685237884521,
   1.7191288471221924,
   1.7116867303848267,
   1.7059135437011719,
   1.699135422706604,
   1.6918052434921265,
   1.6859462261199951,
   1.6800864934921265,
   1.6752517223358154,
   1.6689357757568359,
   1.6244579553604126,
   1.5856893062591553,
   1.5523533821105957,
   1.5230538845062256,
   1.4968529939651489,
   1.4719504117965698,
   1.4487735033035278,
   1.4290206432342529,
   1.4098849296569824,
   1.2809674739837646,
   1.2077442407608032,
   1.1566754579544067,
   1.1287084817886353,
   1.1067259311676025,
   1.0918188095092773,
   1.079493522644043,
   1.0724694728851318,
   1.066551685333252,
   1.0255458354949951,
   1.0096158981323242,
   1.0007138252258301,
   1.0032799243927002,
   1.0046710968017578,
   1.0069706439971924,
   1.0040707588195801,
   1.0042401552200317,
   1.0044276714324951,
   1.0068645477294922,
   0.99413192272186279,
   1.0131270885467529,
   0.9943731427192688,
   0.99102628231048584,
   0.96918696165084839,
   0.98752355575561523,
   1.0200622081756592,
   0.94855564832687378
]
