[
   1.5622918605804443,
   1.5621700286865234,
   1.5616658926010132,
   1.5614620447158813,
   1.5621378421783447,
   1.5616328716278076,
   1.5613820552825928,
   1.5604228973388672,
   1.5622149705886841,
   1.5626779794692993,
   1.5603650808334351,
   1.5603997707366943,
   1.5597155094146729,
   1.5582128763198853,
   1.5596238374710083,
   1.5580867528915405,
   1.5578429698944092,
   1.5570307970046997,
   1.5563008785247803,
   1.5514713525772095,
   1.5456242561340332,
   1.5400606393814087,
   1.5365664958953857,
   1.5319042205810547,
   1.5281518697738647,
   1.5242378711700439,
   1.521203875541687,
   1.5162971019744873,
   1.4868627786636353,
   1.4608772993087769,
   1.4372522830963135,
   1.4176589250564575,
   1.3977270126342773,
   1.3803086280822754,
   1.3657190799713135,
   1.349643349647522,
   1.3353928327560425,
   1.2386081218719482,
   1.1789733171463013,
   1.1395885944366455,
   1.1105802059173584,
   1.095531702041626,
   1.0827103853225708,
   1.0719643831253052,
   1.057720422744751,
   1.0536971092224121,
   1.0199867486953735,
   1.0143519639968872,
   1.004460334777832,
   0.99370753765106201,
   0.99128025770187378,
   0.99320793151855469,
   0.99812686443328857,
   1.0014170408248901,
   0.99285316467285156,
   0.98529291152954102,
   0.99590551853179932,
   0.99154412746429443,
   1.0041898488998413,
   0.99578845500946045,
   0.99185258150100708,
   0.99408358335494995,
   1.0366346836090088,
   0.95700913667678833
]
