[
   10.468988418579102,
   10.478189468383789,
   10.459592819213867,
   10.41710090637207,
   10.461342811584473,
   10.396997451782227,
   10.43651008605957,
   10.411563873291016,
   10.412796974182129,
   10.359868049621582,
   10.314983367919922,
   10.281186103820801,
   10.148435592651367,
   10.18228816986084,
   10.106507301330566,
   10.002729415893555,
   9.9567680358886719,
   9.8457565307617188,
   9.840886116027832,
   9.3016548156738281,
   8.8435039520263672,
   8.4338979721069336,
   8.0888500213623047,
   7.7877945899963379,
   7.4824042320251465,
   7.1970434188842773,
   6.9051122665405273,
   6.6867647171020508,
   5.0615830421447754,
   4.1020536422729492,
   3.5021576881408691,
   3.0765743255615234,
   2.787710428237915,
   2.545194149017334,
   2.3624842166900635,
   2.2373552322387695,
   2.1080455780029297,
   1.582324743270874,
   1.3218029737472534,
   1.214540958404541,
   1.2277039289474487,
   1.1799726486206055,
   1.2015202045440674,
   1.1038554906845093,
   1.0507677793502808,
   1.0619008541107178,
   1.0007932186126709,
   0.98916798830032349,
   1.0088479518890381,
   0.95049130916595459,
   0.97811353206634521,
   0.95628947019577026,
   0.93370264768600464,
   1.001315712928772,
   0.8880956768989563,
   0.9613107442855835,
   0.98802679777145386,
   1.0878593921661377,
   0.91309487819671631,
   1.0092891454696655,
   0.92669421434402466,
   1.0171058177947998,
   1.1090028285980225,
   1.0796725749969482
]
