[
   2.0901157855987549,
   2.0944404602050781,
   2.0922856330871582,
   2.0927517414093018,
   2.0901389122009277,
   2.0931286811828613,
   2.0905482769012451,
   2.0946147441864014,
   2.0925137996673584,
   2.0928220748901367,
   2.088162899017334,
   2.0850644111633301,
   2.0872292518615723,
   2.0851256847381592,
   2.0836453437805176,
   2.0816586017608643,
   2.0791983604431152,
   2.0779380798339844,
   2.0760908126831055,
   2.0623531341552734,
   2.0515742301940918,
   2.0376577377319336,
   2.0257573127746582,
   2.01601243019104,
   2.0053615570068359,
   1.9971392154693604,
   1.9851287603378296,
   1.9752498865127563,
   1.8980417251586914,
   1.8305923938751221,
   1.7755041122436523,
   1.7257286310195923,
   1.6783574819564819,
   1.637952446937561,
   1.6047277450561523,
   1.5712770223617554,
   1.5406352281570435,
   1.3580387830734253,
   1.2636901140213013,
   1.2018532752990723,
   1.1541094779968262,
   1.1311194896697998,
   1.1123589277267456,
   1.1012665033340454,
   1.0821220874786377,
   1.0689072608947754,
   1.0261604785919189,
   0.9870573878288269,
   0.99352234601974487,
   1.0063751935958862,
   0.99916017055511475,
   0.99735385179519653,
   0.98453843593597412,
   0.97652482986450195,
   0.98576277494430542,
   1.0073955059051514,
   1.0079116821289062,
   0.97945499420166016,
   0.9771992564201355,
   1.017487645149231,
   1.0407884120941162,
   0.97904491424560547,
   0.96192330121994019,
   1.0279624462127686
]
