[
   33.45367431640625,
   33.267559051513672,
   33.339263916015625,
   33.267852783203125,
   33.270851135253906,
   32.927768707275391,
   32.978187561035156,
   33.080188751220703,
   32.746795654296875,
   32.574665069580078,
   32.349964141845703,
   31.482089996337891,
   30.909931182861328,
   30.165996551513672,
   29.685718536376953,
   29.165700912475586,
   28.554803848266602,
   28.001550674438477,
   27.730279922485352,
   23.718442916870117,
   20.612709045410156,
   18.313970565795898,
   16.61976432800293,
   15.263278007507324,
   13.884767532348633,
   12.88493824005127,
   12.021198272705078,
   11.164979934692383,
   6.909581184387207,
   5.2193584442138672,
   4.3398885726928711,
   3.5979709625244141,
   3.0352232456207275,
   2.6102457046508789,
   2.4400725364685059,
   2.3688881397247314,
   2.206270694732666,
   1.6734602451324463,
   1.3784533739089966,
   1.1294924020767212,
   1.1282907724380493,
   1.0805165767669678,
   1.1633299589157104,
   0.99593782424926758,
   1.0896034240722656,
   1.0638823509216309,
   0.84702599048614502,
   0.88890087604522705,
   1.1262019872665405,
   0.93930786848068237,
   1.0228484869003296,
   0.98119795322418213,
   0.910971999168396,
   1.0197995901107788,
   1.0128309726715088,
   0.95771855115890503,
   0.95060193538665771,
   0.93360298871994019,
   1.0002321004867554,
   1.0605506896972656,
   1.2562681436538696,
   1.2451260089874268,
   0.77246177196502686,
   1.0281977653503418
]
