[
   1.3630298376083374,
   1.3632218837738037,
   1.3626246452331543,
   1.3626124858856201,
   1.3625743389129639,
   1.3636065721511841,
   1.3626458644866943,
   1.3626735210418701,
   1.3630431890487671,
   1.3624395132064819,
   1.3630043268203735,
   1.3628835678100586,
   1.3616502285003662,
   1.3621450662612915,
   1.3619062900543213,
   1.3613928556442261,
   1.3610897064208984,
   1.3606046438217163,
   1.3600900173187256,
   1.3577384948730469,
   1.3553646802902222,
   1.3519114255905151,
   1.3504205942153931,
   1.3477017879486084,
   1.345639705657959,
   1.3436458110809326,
   1.3419519662857056,
   1.3396618366241455,
   1.3222113847732544,
   1.3078157901763916,
   1.2965097427368164,
   1.2853455543518066,
   1.2753176689147949,
   1.2648137807846069,
   1.2560036182403564,
   1.2485888004302979,
   1.2400610446929932,
   1.1792430877685547,
   1.1387336254119873,
   1.1122950315475464,
   1.0963523387908936,
   1.0813062191009521,
   1.0696465969085693,
   1.0598145723342896,
   1.0521352291107178,
   1.0495275259017944,
   1.0126861333847046,
   1.0008161067962646,
   0.99679774045944214,
   0.99698591232299805,
   0.99884188175201416,
   0.9910740852355957,
   0.99602812528610229,
   0.99855518341064453,
   1.0048000812530518,
   0.99591904878616333,
   0.99402111768722534,
   0.98048341274261475,
   0.99610698223114014,
   0.9947473406791687,
   0.99315559864044189,
   1.0098757743835449,
   1.0072063207626343,
   1.0233663320541382
]
