[
   2.9299042224884033,
   2.9293920993804932,
   2.9307513236999512,
   2.921788215637207,
   2.9244387149810791,
   2.9251852035522461,
   2.9290072917938232,
   2.9274759292602539,
   2.9257349967956543,
   2.9258584976196289,
   2.9207503795623779,
   2.9115231037139893,
   2.9067432880401611,
   2.9003720283508301,
   2.8956503868103027,
   2.8926379680633545,
   2.882474422454834,
   2.8811020851135254,
   2.8810679912567139,
   2.8160645961761475,
   2.7777621746063232,
   2.7389740943908691,
   2.7074494361877441,
   2.6700310707092285,
   2.6398203372955322,
   2.6035828590393066,
   2.5730295181274414,
   2.5441827774047852,
   2.3039846420288086,
   2.1334292888641357,
   1.9989786148071289,
   1.894338846206665,
   1.8069556951522827,
   1.7311069965362549,
   1.6761535406112671,
   1.6196794509887695,
   1.5756404399871826,
   1.3032019138336182,
   1.2059088945388794,
   1.1446685791015625,
   1.099285364151001,
   1.0764998197555542,
   1.0582206249237061,
   1.0440397262573242,
   1.0466258525848389,
   1.049940824508667,
   0.99769687652587891,
   1.0213539600372314,
   1.0030759572982788,
   1.0012469291687012,
   0.994270920753479,
   0.98853188753128052,
   0.99483317136764526,
   0.98820734024047852,
   0.99747592210769653,
   0.96728765964508057,
   1.0007075071334839,
   0.96367824077606201,
   0.96316146850585938,
   0.99652659893035889,
   0.99518406391143799,
   0.97165709733963013,
   1.0103223323822021,
   1.0452950000762939
]
