[
   2.3724942207336426,
   2.3777029514312744,
   2.3736958503723145,
   2.3735470771789551,
   2.3732600212097168,
   2.3732314109802246,
   2.3752970695495605,
   2.3739869594573975,
   2.3722023963928223,
   2.3726222515106201,
   2.3689653873443604,
   2.3667149543762207,
   2.3616876602172852,
   2.3598904609680176,
   2.3550140857696533,
   2.3510499000549316,
   2.3511943817138672,
   2.3488054275512695,
   2.3427529335021973,
   2.3139643669128418,
   2.2886757850646973,
   2.2614312171936035,
   2.2446019649505615,
   2.2176947593688965,
   2.2004697322845459,
   2.1754858493804932,
   2.1643397808074951,
   2.144869327545166,
   1.9936574697494507,
   1.8772373199462891,
   1.7891323566436768,
   1.712938666343689,
   1.6469695568084717,
   1.5975284576416016,
   1.5505756139755249,
   1.5114908218383789,
   1.4720834493637085,
   1.2723345756530762,
   1.1855307817459106,
   1.1346313953399658,
   1.103634238243103,
   1.0799934864044189,
   1.0638138055801392,
   1.0524551868438721,
   1.0343408584594727,
   1.0297415256500244,
   1.0124495029449463,
   0.99570715427398682,
   1.0148437023162842,
   0.97917622327804565,
   0.9933202862739563,
   0.98890465497970581,
   0.97688817977905273,
   0.9650537371635437,
   0.97791558504104614,
   0.98077249526977539,
   1.0020492076873779,
   1.0113661289215088,
   0.99314606189727783,
   0.99966078996658325,
   0.9684523344039917,
   0.95945817232131958,
   0.97107446193695068,
   1.0890041589736938
]
