[
   1.4781492948532104,
   1.4773585796356201,
   1.4772698879241943,
   1.4774129390716553,
   1.4763610363006592,
   1.4760853052139282,
   1.4769023656845093,
   1.4775365591049194,
   1.4765857458114624,
   1.4774510860443115,
   1.4762156009674072,
   1.4757373332977295,
   1.4752762317657471,
   1.4748611450195312,
   1.4742425680160522,
   1.473102331161499,
   1.4739032983779907,
   1.4729626178741455,
   1.4716863632202148,
   1.4674371480941772,
   1.4629824161529541,
   1.459083080291748,
   1.4535660743713379,
   1.4507806301116943,
   1.446671724319458,
   1.4428443908691406,
   1.4390969276428223,
   1.4351005554199219,
   1.4049087762832642,
   1.3800668716430664,
   1.3578798770904541,
   1.3377306461334229,
   1.3211939334869385,
   1.304915189743042,
   1.2909072637557983,
   1.2777227163314819,
   1.2648757696151733,
   1.1822315454483032,
   1.1318469047546387,
   1.1035404205322266,
   1.0826025009155273,
   1.0696476697921753,
   1.0565698146820068,
   1.0479152202606201,
   1.038630485534668,
   1.034894585609436,
   1.0084270238876343,
   0.99558430910110474,
   1.0018460750579834,
   0.99328213930130005,
   1.0035650730133057,
   0.99474918842315674,
   1.000408411026001,
   0.99805623292922974,
   1.0059760808944702,
   0.9989350438117981,
   0.99512565135955811,
   1.006832480430603,
   1.006619930267334,
   0.9864838719367981,
   0.99976980686187744,
   0.99577867984771729,
   1.0241334438323975,
   0.98675680160522461
]
