[
   1.7747085094451904,
   1.7755000591278076,
   1.7751667499542236,
   1.7743943929672241,
   1.7763675451278687,
   1.7754195928573608,
   1.7766298055648804,
   1.774783730506897,
   1.7742735147476196,
   1.7747437953948975,
   1.7732616662979126,
   1.7726669311523438,
   1.7698831558227539,
   1.7692992687225342,
   1.7691099643707275,
   1.766244649887085,
   1.764845609664917,
   1.7654374837875366,
   1.7651026248931885,
   1.7532167434692383,
   1.7433996200561523,
   1.7345695495605469,
   1.7248556613922119,
   1.7171351909637451,
   1.7084211111068726,
   1.7004009485244751,
   1.6938070058822632,
   1.6866413354873657,
   1.6236884593963623,
   1.5715171098709106,
   1.5297077894210815,
   1.4942057132720947,
   1.4609003067016602,
   1.4324468374252319,
   1.4057241678237915,
   1.3829953670501709,
   1.3629212379455566,
   1.2274264097213745,
   1.1625639200210571,
   1.1251604557037354,
   1.101667046546936,
   1.0798021554946899,
   1.0617754459381104,
   1.0563877820968628,
   1.043651819229126,
   1.0370585918426514,
   1.0061501264572144,
   1.0096228122711182,
   1.000535249710083,
   0.98838728666305542,
   0.99675083160400391,
   0.99632340669631958,
   0.99551039934158325,
   0.99799680709838867,
   0.99384909868240356,
   0.9918707013130188,
   0.98822486400604248,
   1.0012137889862061,
   1.0059590339660645,
   1.0016252994537354,
   0.97752273082733154,
   1.0144815444946289,
   0.99106532335281372,
   1.0366710424423218
]
