[
   2.1154117584228516,
   2.1166377067565918,
   2.1161422729492188,
   2.113832950592041,
   2.1138176918029785,
   2.1137588024139404,
   2.1136946678161621,
   2.1142621040344238,
   2.112452507019043,
   2.115419864654541,
   2.114525318145752,
   2.1093180179595947,
   2.1077749729156494,
   2.1029729843139648,
   2.0998673439025879,
   2.0994229316711426,
   2.0989527702331543,
   2.0963859558105469,
   2.0919480323791504,
   2.0735774040222168,
   2.0523512363433838,
   2.0382137298583984,
   2.0195822715759277,
   2.0043394565582275,
   1.9910314083099365,
   1.9733207225799561,
   1.9649957418441772,
   1.9518581628799438,
   1.8405176401138306,
   1.756077766418457,
   1.6829410791397095,
   1.6245553493499756,
   1.5717257261276245,
   1.5292646884918213,
   1.4913322925567627,
   1.4611251354217529,
   1.4324148893356323,
   1.2547918558120728,
   1.1726710796356201,
   1.1200764179229736,
   1.0869697332382202,
   1.0646098852157593,
   1.0557634830474854,
   1.0526517629623413,
   1.0386747121810913,
   1.0255076885223389,
   0.99264764785766602,
   0.98329323530197144,
   1.0029832124710083,
   0.99404364824295044,
   0.99004876613616943,
   1.0064308643341064,
   1.0054986476898193,
   0.99878776073455811,
   0.99899446964263916,
   1.0060509443283081,
   0.98530161380767822,
   0.99466955661773682,
   1.005632758140564,
   0.98495948314666748,
   0.98742181062698364,
   0.96499490737915039,
   0.93463456630706787,
   0.94478988647460938
]
