[
   4.1883382797241211,
   4.190669059753418,
   4.1918764114379883,
   4.1886415481567383,
   4.1765961647033691,
   4.1942110061645508,
   4.1817407608032227,
   4.1793694496154785,
   4.1759457588195801,
   4.1743583679199219,
   4.1686587333679199,
   4.1531448364257812,
   4.1461410522460938,
   4.1273179054260254,
   4.1262569427490234,
   4.1021757125854492,
   4.0916099548339844,
   4.0831718444824219,
   4.0707120895385742,
   3.9712784290313721,
   3.8887171745300293,
   3.8005688190460205,
   3.7290778160095215,
   3.6573104858398438,
   3.5989928245544434,
   3.5308246612548828,
   3.4912750720977783,
   3.4444231986999512,
   3.0206875801086426,
   2.7356970310211182,
   2.5274791717529297,
   2.3523828983306885,
   2.221494197845459,
   2.1099326610565186,
   2.0085954666137695,
   1.9270540475845337,
   1.8537296056747437,
   1.4647210836410522,
   1.312595009803772,
   1.2229348421096802,
   1.1439931392669678,
   1.096589207649231,
   1.0813851356506348,
   1.0594480037689209,
   1.0462491512298584,
   1.0292444229125977,
   1.0216233730316162,
   1.0008707046508789,
   0.99993163347244263,
   0.99279642105102539,
   0.99892508983612061,
   1.0140029191970825,
   1.0127240419387817,
   1.0045126676559448,
   0.99053174257278442,
   0.98623007535934448,
   0.99161416292190552,
   0.94382369518280029,
   1.0365849733352661,
   0.97702521085739136,
   1.0278298854827881,
   0.97191274166107178,
   0.96350544691085815,
   0.95352202653884888
]
