[
   20.276033401489258,
   20.183353424072266,
   20.223588943481445,
   20.142389297485352,
   20.164712905883789,
   20.188716888427734,
   20.239086151123047,
   19.91987419128418,
   20.147655487060547,
   19.905607223510742,
   19.918643951416016,
   19.569095611572266,
   19.450065612792969,
   19.059980392456055,
   18.900955200195312,
   18.716915130615234,
   18.518203735351562,
   18.33100700378418,
   18.203927993774414,
   16.683843612670898,
   15.489091873168945,
   14.406805038452148,
   13.621356010437012,
   12.927276611328125,
   12.002920150756836,
   11.459657669067383,
   10.884725570678711,
   10.429725646972656,
   7.2923111915588379,
   5.6726036071777344,
   4.624171257019043,
   4.08380126953125,
   3.4726917743682861,
   3.2179837226867676,
   2.8855507373809814,
   2.5871570110321045,
   2.4773774147033691,
   1.6954838037490845,
   1.4394819736480713,
   1.2988708019256592,
   1.2172901630401611,
   1.203826904296875,
   1.0717481374740601,
   1.1505515575408936,
   1.1038120985031128,
   1.0831489562988281,
   1.0103638172149658,
   1.0277597904205322,
   0.8698546290397644,
   0.95962744951248169,
   0.95196992158889771,
   0.95563256740570068,
   0.91838854551315308,
   0.87570726871490479,
   0.98949670791625977,
   0.93554222583770752,
   0.99109631776809692,
   0.96922457218170166,
   1.0697534084320068,
   1.0252740383148193,
   0.97427546977996826,
   1.0433117151260376,
   1.0318125486373901,
   1.1058424711227417
]
