[
   1.5755327939987183,
   1.5757049322128296,
   1.5745867490768433,
   1.5762250423431396,
   1.5752952098846436,
   1.5740687847137451,
   1.5745563507080078,
   1.5743601322174072,
   1.5751326084136963,
   1.5755833387374878,
   1.5737564563751221,
   1.5734504461288452,
   1.5717552900314331,
   1.5719583034515381,
   1.570908784866333,
   1.5697799921035767,
   1.5693979263305664,
   1.5677292346954346,
   1.5675022602081299,
   1.5609743595123291,
   1.552531361579895,
   1.5452359914779663,
   1.5386133193969727,
   1.5321811437606812,
   1.5247930288314819,
   1.5183546543121338,
   1.5135810375213623,
   1.5088598728179932,
   1.4607367515563965,
   1.4246970415115356,
   1.3944699764251709,
   1.3680669069290161,
   1.3485418558120728,
   1.3267267942428589,
   1.3106858730316162,
   1.2942339181900024,
   1.2788187265396118,
   1.1806379556655884,
   1.1249285936355591,
   1.0922896862030029,
   1.0664498805999756,
   1.0527942180633545,
   1.0372631549835205,
   1.0341900587081909,
   1.0276422500610352,
   1.0260982513427734,
   1.0039451122283936,
   0.99936020374298096,
   0.99741774797439575,
   0.99569022655487061,
   0.988148033618927,
   0.99621391296386719,
   0.99591875076293945,
   1.002660870552063,
   0.99839103221893311,
   1.0096755027770996,
   1.0047702789306641,
   0.98980414867401123,
   1.0008529424667358,
   0.99452143907546997,
   1.0119931697845459,
   0.98884803056716919,
   0.94962912797927856,
   0.94948816299438477
]
