[
   3.250312328338623,
   3.249854564666748,
   3.2486233711242676,
   3.2426731586456299,
   3.2486171722412109,
   3.2497818470001221,
   3.2430851459503174,
   3.2442727088928223,
   3.2414345741271973,
   3.2409267425537109,
   3.2321648597717285,
   3.2307848930358887,
   3.2279098033905029,
   3.2181599140167236,
   3.2055466175079346,
   3.2028427124023438,
   3.1972033977508545,
   3.1875972747802734,
   3.1828713417053223,
   3.125802755355835,
   3.0707576274871826,
   3.0244283676147461,
   2.9793314933776855,
   2.9360315799713135,
   2.9001576900482178,
   2.8613660335540771,
   2.8302247524261475,
   2.8021998405456543,
   2.5363824367523193,
   2.3475837707519531,
   2.205463171005249,
   2.0889945030212402,
   1.9907268285751343,
   1.9122244119644165,
   1.8353474140167236,
   1.7751353979110718,
   1.7240473031997681,
   1.3962881565093994,
   1.2494133710861206,
   1.167773962020874,
   1.1275430917739868,
   1.0972245931625366,
   1.0804674625396729,
   1.0601001977920532,
   1.0415173768997192,
   1.0486096143722534,
   1.0117418766021729,
   1.0095096826553345,
   0.98163062334060669,
   0.98047953844070435,
   0.97649747133255005,
   0.99486380815505981,
   0.99537837505340576,
   1.00382399559021,
   0.99548512697219849,
   1.0231449604034424,
   1.0049575567245483,
   1.0229454040527344,
   1.0076391696929932,
   0.92232322692871094,
   0.99282157421112061,
   0.9713054895401001,
   0.89578688144683838,
   1.0573786497116089
]
