[
   1.9841655492782593,
   1.9819866418838501,
   1.9831578731536865,
   1.9831171035766602,
   1.9850021600723267,
   1.9838054180145264,
   1.9832849502563477,
   1.9829921722412109,
   1.9792690277099609,
   1.9822940826416016,
   1.9793875217437744,
   1.9782546758651733,
   1.9769613742828369,
   1.9761955738067627,
   1.9730548858642578,
   1.9691940546035767,
   1.9703851938247681,
   1.9687902927398682,
   1.9628967046737671,
   1.9489330053329468,
   1.93084716796875,
   1.9171339273452759,
   1.9031164646148682,
   1.8898122310638428,
   1.8772315979003906,
   1.8612091541290283,
   1.8499829769134521,
   1.8397674560546875,
   1.7427200078964233,
   1.6745412349700928,
   1.6208600997924805,
   1.5736690759658813,
   1.5373297929763794,
   1.5028516054153442,
   1.4699374437332153,
   1.443464994430542,
   1.4161030054092407,
   1.2604448795318604,
   1.1826359033584595,
   1.1359028816223145,
   1.1039286851882935,
   1.0771739482879639,
   1.0588295459747314,
   1.0463253259658813,
   1.0391926765441895,
   1.0279752016067505,
   0.99915283918380737,
   1.0043864250183105,
   0.99805116653442383,
   0.99205434322357178,
   0.98523342609405518,
   0.99116194248199463,
   1.003088116645813,
   1.0064467191696167,
   1.0073463916778564,
   1.003770112991333,
   0.99587762355804443,
   1.0067523717880249,
   1.0074065923690796,
   0.99801480770111084,
   0.98468047380447388,
   0.97536182403564453,
   1.0189473628997803,
   1.0011556148529053
]
