[
   1.4831116199493408,
   1.4833970069885254,
   1.4821926355361938,
   1.483079195022583,
   1.4818463325500488,
   1.4836511611938477,
   1.4817841053009033,
   1.4826467037200928,
   1.4808789491653442,
   1.4834367036819458,
   1.4824364185333252,
   1.4802063703536987,
   1.4797153472900391,
   1.4799630641937256,
   1.4791991710662842,
   1.4785779714584351,
   1.4777653217315674,
   1.4775652885437012,
   1.4768879413604736,
   1.4700833559036255,
   1.4656665325164795,
   1.4591482877731323,
   1.4549728631973267,
   1.4496705532073975,
   1.4458229541778564,
   1.4406510591506958,
   1.4362926483154297,
   1.4325592517852783,
   1.395546555519104,
   1.3655178546905518,
   1.3424961566925049,
   1.320441722869873,
   1.3038911819458008,
   1.2877753973007202,
   1.2737345695495605,
   1.2619128227233887,
   1.2496814727783203,
   1.1702166795730591,
   1.1189587116241455,
   1.089697003364563,
   1.0678980350494385,
   1.0540716648101807,
   1.0433896780014038,
   1.0352045297622681,
   1.0263621807098389,
   1.0264018774032593,
   1.0054603815078735,
   0.9969756007194519,
   0.98978042602539062,
   0.99854356050491333,
   0.99704444408416748,
   1.0017015933990479,
   1.0008866786956787,
   0.99080610275268555,
   0.99493676424026489,
   0.98271054029464722,
   0.99736547470092773,
   0.98747366666793823,
   0.99584341049194336,
   1.0001001358032227,
   1.01017165184021,
   0.98853743076324463,
   1.039560079574585,
   1.0160781145095825
]
