[
   1.5292702913284302,
   1.5291329622268677,
   1.5291110277175903,
   1.5289661884307861,
   1.5289504528045654,
   1.5286719799041748,
   1.5294547080993652,
   1.5284576416015625,
   1.5298901796340942,
   1.5287610292434692,
   1.5285625457763672,
   1.5275449752807617,
   1.5264899730682373,
   1.5252066850662231,
   1.5236372947692871,
   1.5247868299484253,
   1.5243144035339355,
   1.5222148895263672,
   1.5228829383850098,
   1.5152679681777954,
   1.5080611705780029,
   1.503307580947876,
   1.4977095127105713,
   1.4913396835327148,
   1.4871261119842529,
   1.4812638759613037,
   1.4767084121704102,
   1.4710752964019775,
   1.4292266368865967,
   1.3962379693984985,
   1.3696078062057495,
   1.3457701206207275,
   1.3258640766143799,
   1.3074429035186768,
   1.2923069000244141,
   1.27820885181427,
   1.2653555870056152,
   1.1802507638931274,
   1.133121132850647,
   1.1004811525344849,
   1.0775450468063354,
   1.0588276386260986,
   1.0462924242019653,
   1.0370532274246216,
   1.0269858837127686,
   1.0249221324920654,
   0.99686682224273682,
   0.99847966432571411,
   1.0061918497085571,
   0.99872475862503052,
   0.99038189649581909,
   0.99216330051422119,
   1.0045953989028931,
   1.0002225637435913,
   0.98960274457931519,
   0.99385917186737061,
   0.98511779308319092,
   0.97963714599609375,
   0.99460315704345703,
   1.0000994205474854,
   1.0084941387176514,
   1.0075702667236328,
   1.0003701448440552,
   1.0008041858673096
]
