[
   8.1436634063720703,
   8.1747932434082031,
   8.1714897155761719,
   8.1439952850341797,
   8.1369380950927734,
   8.1121377944946289,
   8.1467561721801758,
   8.1274547576904297,
   8.1427841186523438,
   8.1131753921508789,
   8.0698642730712891,
   7.9715032577514648,
   7.9070839881896973,
   7.8108887672424316,
   7.8026094436645508,
   7.6960310935974121,
   7.6757874488830566,
   7.6257462501525879,
   7.5978989601135254,
   7.1078133583068848,
   6.766420841217041,
   6.3717365264892578,
   6.108820915222168,
   5.8457698822021484,
   5.5888776779174805,
   5.3854355812072754,
   5.2167205810546875,
   5.065310001373291,
   3.8893370628356934,
   3.2236893177032471,
   2.8005547523498535,
   2.50307297706604,
   2.2584872245788574,
   2.0568070411682129,
   1.9308032989501953,
   1.8123013973236084,
   1.7216380834579468,
   1.3112752437591553,
   1.1799638271331787,
   1.1432253122329712,
   1.0856082439422607,
   1.0643786191940308,
   1.0759042501449585,
   1.0721622705459595,
   1.0617923736572266,
   1.0515737533569336,
   1.0155754089355469,
   0.98537224531173706,
   0.96350270509719849,
   1.0119169950485229,
   1.0140457153320312,
   0.99541759490966797,
   0.95530617237091064,
   0.9626038670539856,
   1.0026547908782959,
   0.98978596925735474,
   1.0158971548080444,
   0.94568061828613281,
   0.95854008197784424,
   0.98000240325927734,
   0.91627758741378784,
   0.94196575880050659,
   0.90278565883636475,
   1.1153042316436768
]
