[
   1.9776465892791748,
   1.9807506799697876,
   1.976345419883728,
   1.9786593914031982,
   1.9788181781768799,
   1.9753977060317993,
   1.9774936437606812,
   1.9771362543106079,
   1.9756565093994141,
   1.9756914377212524,
   1.9748824834823608,
   1.9699356555938721,
   1.9719197750091553,
   1.9658416509628296,
   1.9656740427017212,
   1.9619079828262329,
   1.9574382305145264,
   1.9560806751251221,
   1.9526488780975342,
   1.9282585382461548,
   1.9062932729721069,
   1.8849408626556396,
   1.8632009029388428,
   1.8436664342880249,
   1.8277372121810913,
   1.8112108707427979,
   1.791149377822876,
   1.7776181697845459,
   1.6514889001846313,
   1.5635709762573242,
   1.4930672645568848,
   1.4412498474121094,
   1.3961696624755859,
   1.3623073101043701,
   1.3292449712753296,
   1.3011653423309326,
   1.2776752710342407,
   1.1535904407501221,
   1.1020709276199341,
   1.0707682371139526,
   1.0500633716583252,
   1.0355007648468018,
   1.0282915830612183,
   1.0303057432174683,
   1.0238075256347656,
   1.0182058811187744,
   1.0052502155303955,
   1.0007014274597168,
   0.99324285984039307,
   1.0030257701873779,
   0.99500197172164917,
   0.99892652034759521,
   1.0030949115753174,
   1.0079213380813599,
   1.0018208026885986,
   1.0078859329223633,
   1.0073894262313843,
   0.99724042415618896,
   1.0014593601226807,
   0.99036824703216553,
   0.99502241611480713,
   0.98937100172042847,
   0.99083614349365234,
   0.97872227430343628
]
