[
   1.6601959466934204,
   1.6602474451065063,
   1.6589813232421875,
   1.659501314163208,
   1.6602967977523804,
   1.6591994762420654,
   1.6590948104858398,
   1.6592233180999756,
   1.6600778102874756,
   1.6579221487045288,
   1.6569560766220093,
   1.6556717157363892,
   1.6539962291717529,
   1.6524463891983032,
   1.6518857479095459,
   1.6502020359039307,
   1.6473528146743774,
   1.6486475467681885,
   1.6455110311508179,
   1.632032036781311,
   1.6181485652923584,
   1.6059799194335938,
   1.5946652889251709,
   1.5823122262954712,
   1.5728386640548706,
   1.5619109869003296,
   1.5519261360168457,
   1.5444233417510986,
   1.4652924537658691,
   1.4068089723587036,
   1.3651794195175171,
   1.3266173601150513,
   1.2964493036270142,
   1.2734315395355225,
   1.2479064464569092,
   1.2322537899017334,
   1.2163821458816528,
   1.1257703304290771,
   1.0773346424102783,
   1.0519707202911377,
   1.0340617895126343,
   1.0274789333343506,
   1.0218948125839233,
   1.0153025388717651,
   1.0087031126022339,
   1.0069552659988403,
   1.0035375356674194,
   0.99845761060714722,
   1.0046076774597168,
   1.0013402700424194,
   0.99817752838134766,
   1.0030295848846436,
   1.0028617382049561,
   0.99337416887283325,
   0.99204838275909424,
   1.0005892515182495,
   1.0096354484558105,
   0.99504005908966064,
   0.99169224500656128,
   1.0054854154586792,
   0.99960756301879883,
   0.98665159940719604,
   0.99132215976715088,
   0.95349395275115967
]
