[
   2.7509963512420654,
   2.7465832233428955,
   2.7498393058776855,
   2.747373104095459,
   2.7472906112670898,
   2.7442324161529541,
   2.7401819229125977,
   2.748161792755127,
   2.7438445091247559,
   2.7435736656188965,
   2.7372994422912598,
   2.7270786762237549,
   2.7194685935974121,
   2.7118992805480957,
   2.707252025604248,
   2.7006592750549316,
   2.6997148990631104,
   2.692988395690918,
   2.6871790885925293,
   2.6260533332824707,
   2.5785279273986816,
   2.5241119861602783,
   2.4815776348114014,
   2.4372408390045166,
   2.4022469520568848,
   2.3636415004730225,
   2.3300907611846924,
   2.3010585308074951,
   2.0549881458282471,
   1.8821229934692383,
   1.7627702951431274,
   1.6707645654678345,
   1.596827507019043,
   1.5372928380966187,
   1.490573525428772,
   1.4537973403930664,
   1.4140517711639404,
   1.2103123664855957,
   1.1345676183700562,
   1.1007633209228516,
   1.0681313276290894,
   1.0515924692153931,
   1.0374603271484375,
   1.0224357843399048,
   1.0244220495223999,
   1.013805627822876,
   0.99695843458175659,
   0.99429750442504883,
   1.004560112953186,
   1.0077358484268188,
   1.0057865381240845,
   0.99797964096069336,
   1.0005663633346558,
   1.0102628469467163,
   1.0142345428466797,
   0.98952615261077881,
   1.0237762928009033,
   0.97816753387451172,
   1.0012443065643311,
   1.0024707317352295,
   0.97265893220901489,
   0.97876274585723877,
   1.0213297605514526,
   1.0490578413009644
]
