[
   5.317051887512207,
   5.3163919448852539,
   5.3092737197875977,
   5.3175253868103027,
   5.3163080215454102,
   5.3206772804260254,
   5.3046770095825195,
   5.3180694580078125,
   5.2996349334716797,
   5.3065800666809082,
   5.2763261795043945,
   5.2615160942077637,
   5.2097916603088379,
   5.202878475189209,
   5.153935432434082,
   5.1205873489379883,
   5.126345157623291,
   5.0924134254455566,
   5.0472450256347656,
   4.8261504173278809,
   4.6250858306884766,
   4.4559564590454102,
   4.3189496994018555,
   4.1768064498901367,
   4.0672130584716797,
   3.945065975189209,
   3.8555591106414795,
   3.7502098083496094,
   3.0499610900878906,
   2.6377391815185547,
   2.3257958889007568,
   2.1233382225036621,
   1.9662443399429321,
   1.8279688358306885,
   1.7283699512481689,
   1.6432695388793945,
   1.5779640674591064,
   1.2592326402664185,
   1.1469008922576904,
   1.0660873651504517,
   1.0390505790710449,
   1.0591609477996826,
   1.0253299474716187,
   1.0214865207672119,
   1.0175033807754517,
   1.0280351638793945,
   0.99124699831008911,
   1.0079094171524048,
   0.94698631763458252,
   0.99237287044525146,
   1.0233800411224365,
   0.99982881546020508,
   1.0003852844238281,
   1.0327718257904053,
   1.0060217380523682,
   1.005780816078186,
   0.97946804761886597,
   0.99980753660202026,
   0.99920958280563354,
   1.0276831388473511,
   0.96139335632324219,
   0.94981300830841064,
   0.97723495960235596,
   1.0010714530944824
]
