[
   1.5337002277374268,
   1.5337438583374023,
   1.5323759317398071,
   1.5327193737030029,
   1.5342248678207397,
   1.5329380035400391,
   1.5318604707717896,
   1.5331432819366455,
   1.5338231325149536,
   1.5322115421295166,
   1.5313847064971924,
   1.5307329893112183,
   1.529723048210144,
   1.5286711454391479,
   1.5276085138320923,
   1.5270973443984985,
   1.524019718170166,
   1.525567889213562,
   1.523176908493042,
   1.5134341716766357,
   1.5031099319458008,
   1.4947445392608643,
   1.4860562086105347,
   1.4767793416976929,
   1.4701434373855591,
   1.4617941379547119,
   1.4545084238052368,
   1.4484117031097412,
   1.3877145051956177,
   1.3431380987167358,
   1.3097642660140991,
   1.2789531946182251,
   1.2544174194335938,
   1.2354433536529541,
   1.214400053024292,
   1.2018009424209595,
   1.1884498596191406,
   1.1116522550582886,
   1.0699694156646729,
   1.0474927425384521,
   1.0315648317337036,
   1.0250388383865356,
   1.0199846029281616,
   1.0136721134185791,
   1.0078788995742798,
   1.0076750516891479,
   1.0017048120498657,
   0.99821931123733521,
   1.002985954284668,
   0.99988710880279541,
   0.99739807844161987,
   1.0024960041046143,
   1.0018543004989624,
   0.99421513080596924,
   0.99318665266036987,
   1.0005522966384888,
   1.0083225965499878,
   0.99438130855560303,
   0.99293440580368042,
   1.0053195953369141,
   1.0004737377166748,
   0.98737794160842896,
   0.98974406719207764,
   0.95968377590179443
]
