[
   17.733371734619141,
   17.682727813720703,
   17.731967926025391,
   17.624786376953125,
   17.632762908935547,
   17.713644027709961,
   17.584308624267578,
   17.455329895019531,
   17.678829193115234,
   17.56866455078125,
   17.298147201538086,
   16.989484786987305,
   16.860261917114258,
   16.559352874755859,
   16.43098258972168,
   16.276103973388672,
   15.971127510070801,
   15.763043403625488,
   15.673054695129395,
   14.171963691711426,
   12.97667121887207,
   12.107290267944336,
   11.220056533813477,
   10.613414764404297,
   9.9980182647705078,
   9.4412755966186523,
   9.0553855895996094,
   8.6097850799560547,
   5.8537445068359375,
   4.3581113815307617,
   3.5467174053192139,
   3.0017993450164795,
   2.6203184127807617,
   2.3852794170379639,
   2.2185161113739014,
   2.0262761116027832,
   1.9116141796112061,
   1.4448379278182983,
   1.1659834384918213,
   1.0955955982208252,
   1.0606834888458252,
   1.0425546169281006,
   0.96373492479324341,
   1.0322725772857666,
   0.99327069520950317,
   1.0849763154983521,
   0.95060408115386963,
   1.0472637414932251,
   1.0523394346237183,
   1.0319778919219971,
   1.0413448810577393,
   0.996940016746521,
   1.0072606801986694,
   0.93061745166778564,
   0.99017035961151123,
   1.0233358144760132,
   0.94080048799514771,
   1.0842806100845337,
   0.90595567226409912,
   0.93052846193313599,
   0.94845885038375854,
   1.0396155118942261,
   0.95938175916671753,
   0.97778302431106567
]
