[
   148.59524536132812,
   146.69728088378906,
   147.97450256347656,
   147.52200317382812,
   142.04249572753906,
   141.47325134277344,
   144.25914001464844,
   139.30474853515625,
   139.40243530273438,
   140.14871215820312,
   131.41075134277344,
   125.29414367675781,
   120.98873138427734,
   115.30336761474609,
   113.14347076416016,
   104.73699951171875,
   102.16926574707031,
   100.0152587890625,
   97.289085388183594,
   72.228927612304688,
   60.387859344482422,
   50.922222137451172,
   43.729560852050781,
   37.313102722167969,
   32.916046142578125,
   29.187366485595703,
   26.106952667236328,
   23.906845092773438,
   13.210968017578125,
   8.8459606170654297,
   5.871610164642334,
   4.4387350082397461,
   3.7587165832519531,
   3.1035430431365967,
   2.8528475761413574,
   2.2061576843261719,
   1.9480054378509521,
   1.7690451145172119,
   0.83074724674224854,
   0.98216980695724487,
   0.88377124071121216,
   1.3654677867889404,
   1.1923772096633911,
   1.1520981788635254,
   0.82975733280181885,
   1.2519726753234863,
   0.63841408491134644,
   0.83691006898880005,
   1.3086254596710205,
   0.83871495723724365,
   1.4576966762542725,
   1.1198612451553345,
   0.78711783885955811,
   0.84163367748260498,
   0.90134096145629883,
   0.82282686233520508,
   0.88646459579467773,
   0.86142271757125854,
   0.62549829483032227,
   1.5377665758132935,
   1.7776744365692139,
   0.86825597286224365,
   0.27680286765098572,
   1.4715820550918579
]
