[
   2.3873758316040039,
   2.3841979503631592,
   2.3835465908050537,
   2.3834068775177002,
   2.3810939788818359,
   2.379176139831543,
   2.3833045959472656,
   2.3812458515167236,
   2.385117769241333,
   2.3826100826263428,
   2.3740763664245605,
   2.3692076206207275,
   2.371511697769165,
   2.3607697486877441,
   2.3614108562469482,
   2.3562483787536621,
   2.3508584499359131,
   2.3420863151550293,
   2.3392808437347412,
   2.2992708683013916,
   2.2585611343383789,
   2.2226448059082031,
   2.1918959617614746,
   2.1581931114196777,
   2.1301860809326172,
   2.102180004119873,
   2.0790343284606934,
   2.0562458038330078,
   1.8647323846817017,
   1.7340320348739624,
   1.6378815174102783,
   1.5596244335174561,
   1.4944357872009277,
   1.4467908143997192,
   1.4032596349716187,
   1.3683204650878906,
   1.3392060995101929,
   1.1714228391647339,
   1.1152665615081787,
   1.0890748500823975,
   1.0606615543365479,
   1.0420856475830078,
   1.0435440540313721,
   1.0314340591430664,
   1.0265896320343018,
   1.0282185077667236,
   1.0112993717193604,
   1.0062271356582642,
   1.0054051876068115,
   0.99454337358474731,
   0.98845827579498291,
   0.99629467725753784,
   1.002488374710083,
   0.99548417329788208,
   1.0080188512802124,
   0.99117553234100342,
   1.0104838609695435,
   1.0202873945236206,
   0.99241352081298828,
   0.98805999755859375,
   0.97075903415679932,
   0.97546911239624023,
   1.0135179758071899,
   0.96782523393630981
]
