[
   33.849945068359375,
   33.813625335693359,
   33.766483306884766,
   33.82830810546875,
   33.707237243652344,
   33.462791442871094,
   33.545993804931641,
   33.234077453613281,
   33.600242614746094,
   33.168811798095703,
   32.759906768798828,
   31.866867065429688,
   31.205539703369141,
   30.851772308349609,
   30.134723663330078,
   30.047534942626953,
   29.422857284545898,
   28.856685638427734,
   28.24066162109375,
   24.916284561157227,
   21.933462142944336,
   19.982059478759766,
   18.302804946899414,
   16.792919158935547,
   15.386320114135742,
   14.428219795227051,
   13.507153511047363,
   12.591249465942383,
   7.7886686325073242,
   5.4304542541503906,
   4.3016595840454102,
   3.5414073467254639,
   2.965695858001709,
   2.7160444259643555,
   2.4754319190979004,
   2.407099723815918,
   2.1089320182800293,
   1.3803439140319824,
   1.0740412473678589,
   1.1786689758300781,
   0.94751566648483276,
   0.97747212648391724,
   1.1000367403030396,
   1.0175666809082031,
   0.98233574628829956,
   1.0319479703903198,
   1.1107083559036255,
   1.0436832904815674,
   0.95247137546539307,
   0.92525923252105713,
   0.90742290019989014,
   0.84309989213943481,
   0.95477914810180664,
   1.0813890695571899,
   0.95571660995483398,
   0.99638497829437256,
   0.90793401002883911,
   0.98200148344039917,
   0.94875270128250122,
   1.0888158082962036,
   0.94967460632324219,
   1.0507287979125977,
   0.79227280616760254,
   1.0947835445404053
]
