[
   1.5729936361312866,
   1.5729091167449951,
   1.5724139213562012,
   1.5720598697662354,
   1.5729763507843018,
   1.5729736089706421,
   1.5729858875274658,
   1.5739955902099609,
   1.5730975866317749,
   1.5733891725540161,
   1.5719728469848633,
   1.5716971158981323,
   1.5718098878860474,
   1.5695755481719971,
   1.5692470073699951,
   1.5699256658554077,
   1.5689185857772827,
   1.5684022903442383,
   1.5675512552261353,
   1.5618689060211182,
   1.5587111711502075,
   1.5545350313186646,
   1.5511839389801025,
   1.5466229915618896,
   1.5420722961425781,
   1.5391454696655273,
   1.5357818603515625,
   1.5323224067687988,
   1.5037429332733154,
   1.4800200462341309,
   1.459778904914856,
   1.4404256343841553,
   1.4219150543212891,
   1.4062255620956421,
   1.3901245594024658,
   1.3769426345825195,
   1.3634105920791626,
   1.2668306827545166,
   1.2059476375579834,
   1.1648809909820557,
   1.1334825754165649,
   1.1081507205963135,
   1.0878531932830811,
   1.0718713998794556,
   1.0619891881942749,
   1.0575642585754395,
   1.0307800769805908,
   1.0042698383331299,
   0.9892195463180542,
   0.98805296421051025,
   1.0046824216842651,
   0.99044197797775269,
   0.99424141645431519,
   0.99458599090576172,
   0.98657721281051636,
   0.98592072725296021,
   0.99034178256988525,
   0.99732828140258789,
   0.99268245697021484,
   1.0074992179870605,
   0.98239976167678833,
   1.0306787490844727,
   1.0254679918289185,
   0.99520158767700195
]
