[
   1.6617429256439209,
   1.6629438400268555,
   1.6613109111785889,
   1.6608822345733643,
   1.6612699031829834,
   1.6618009805679321,
   1.6609342098236084,
   1.6621999740600586,
   1.6626551151275635,
   1.6618192195892334,
   1.6608293056488037,
   1.6607859134674072,
   1.658664345741272,
   1.6592404842376709,
   1.6582348346710205,
   1.6578556299209595,
   1.6560580730438232,
   1.6567671298980713,
   1.6564369201660156,
   1.6504141092300415,
   1.6440865993499756,
   1.6379578113555908,
   1.6331512928009033,
   1.6282600164413452,
   1.6236026287078857,
   1.6204817295074463,
   1.6145699024200439,
   1.6104705333709717,
   1.5751634836196899,
   1.5449957847595215,
   1.5201185941696167,
   1.4972003698348999,
   1.4766087532043457,
   1.4563000202178955,
   1.436758279800415,
   1.4209765195846558,
   1.4051196575164795,
   1.2870593070983887,
   1.2166802883148193,
   1.1653944253921509,
   1.1330249309539795,
   1.1110489368438721,
   1.0949128866195679,
   1.0808241367340088,
   1.0714603662490845,
   1.0625178813934326,
   1.0098674297332764,
   0.99410468339920044,
   1.0023649930953979,
   1.0143245458602905,
   1.0051555633544922,
   1.0014479160308838,
   1.0115413665771484,
   1.0082757472991943,
   1.0001232624053955,
   0.98580187559127808,
   0.99951153993606567,
   0.99670755863189697,
   0.9977954626083374,
   0.98786228895187378,
   1.0012575387954712,
   0.98520535230636597,
   1.0019816160202026,
   0.91022366285324097
]
