[
   1.7421706914901733,
   1.7431421279907227,
   1.7414900064468384,
   1.741777777671814,
   1.7425047159194946,
   1.7427120208740234,
   1.7422904968261719,
   1.7419319152832031,
   1.7428843975067139,
   1.7408319711685181,
   1.7414491176605225,
   1.7419483661651611,
   1.7380930185317993,
   1.7402353286743164,
   1.7383377552032471,
   1.7380838394165039,
   1.7384659051895142,
   1.7351958751678467,
   1.7341963052749634,
   1.7280565500259399,
   1.7216144800186157,
   1.7157688140869141,
   1.7089649438858032,
   1.7045764923095703,
   1.7004886865615845,
   1.6944767236709595,
   1.6888710260391235,
   1.684740424156189,
   1.6443541049957275,
   1.6107848882675171,
   1.5791006088256836,
   1.5520079135894775,
   1.5271648168563843,
   1.5032203197479248,
   1.4821375608444214,
   1.461567759513855,
   1.4434938430786133,
   1.312896728515625,
   1.2309842109680176,
   1.1802706718444824,
   1.1438847780227661,
   1.1193082332611084,
   1.0949083566665649,
   1.0804792642593384,
   1.0707724094390869,
   1.0671570301055908,
   1.0147038698196411,
   1.0018060207366943,
   0.99383127689361572,
   0.98770105838775635,
   0.97403287887573242,
   0.9973718523979187,
   1.0107345581054688,
   1.0015136003494263,
   0.99806368350982666,
   0.99080038070678711,
   0.98914718627929688,
   0.97759139537811279,
   0.98571860790252686,
   1.0212148427963257,
   1.0196894407272339,
   0.98033678531646729,
   0.98259514570236206,
   0.91811549663543701
]
