[
   3.8916764259338379,
   3.8992838859558105,
   3.8950943946838379,
   3.8947856426239014,
   3.879004955291748,
   3.8866791725158691,
   3.8925755023956299,
   3.8885242938995361,
   3.8938255310058594,
   3.8896839618682861,
   3.8774032592773438,
   3.8675353527069092,
   3.8661742210388184,
   3.8569748401641846,
   3.8519439697265625,
   3.8394420146942139,
   3.834693431854248,
   3.839231014251709,
   3.8325705528259277,
   3.7599196434020996,
   3.7086269855499268,
   3.6586971282958984,
   3.6107463836669922,
   3.5725893974304199,
   3.5279388427734375,
   3.4869790077209473,
   3.4434037208557129,
   3.4129185676574707,
   3.0851387977600098,
   2.8359191417694092,
   2.6508231163024902,
   2.4813416004180908,
   2.3559861183166504,
   2.242570161819458,
   2.1390006542205811,
   2.0542171001434326,
   1.9780057668685913,
   1.559290885925293,
   1.3687547445297241,
   1.2760686874389648,
   1.2332589626312256,
   1.1904153823852539,
   1.1547698974609375,
   1.1296178102493286,
   1.1090576648712158,
   1.0849101543426514,
   1.0390870571136475,
   1.053264856338501,
   1.020538330078125,
   1.0248544216156006,
   0.99740952253341675,
   1.0144689083099365,
   0.98994934558868408,
   0.97803992033004761,
   0.96771907806396484,
   0.99308156967163086,
   0.97474288940429688,
   0.98641997575759888,
   0.99598819017410278,
   0.97209835052490234,
   1.0202972888946533,
   0.94243937730789185,
   1.0099751949310303,
   1.0950928926467896
]
