[
   1.4011623859405518,
   1.401386022567749,
   1.4020011425018311,
   1.4012292623519897,
   1.4008691310882568,
   1.4007985591888428,
   1.400141716003418,
   1.400761604309082,
   1.4018456935882568,
   1.4006545543670654,
   1.4003783464431763,
   1.3998453617095947,
   1.4012287855148315,
   1.4000052213668823,
   1.3996138572692871,
   1.3998082876205444,
   1.3994786739349365,
   1.3986032009124756,
   1.39873206615448,
   1.3960926532745361,
   1.3931125402450562,
   1.3918038606643677,
   1.3889783620834351,
   1.3860267400741577,
   1.3841085433959961,
   1.3820545673370361,
   1.3802459239959717,
   1.378227710723877,
   1.3611962795257568,
   1.3472133874893188,
   1.3354418277740479,
   1.3232399225234985,
   1.3131649494171143,
   1.3040387630462646,
   1.2951998710632324,
   1.2873262166976929,
   1.2785793542861938,
   1.2182232141494751,
   1.1760208606719971,
   1.1437900066375732,
   1.1240614652633667,
   1.1055099964141846,
   1.0895278453826904,
   1.0779261589050293,
   1.0693790912628174,
   1.0655653476715088,
   1.0228607654571533,
   0.99663448333740234,
   1.0008965730667114,
   0.99409610033035278,
   0.99039876461029053,
   0.99688863754272461,
   1.0002144575119019,
   0.99735009670257568,
   1.0016939640045166,
   1.0153131484985352,
   1.0054941177368164,
   1.0209710597991943,
   0.99665194749832153,
   0.99937659502029419,
   0.93198573589324951,
   0.95797348022460938,
   0.94153708219528198,
   0.93136036396026611
]
