[
   1.8823000192642212,
   1.8817150592803955,
   1.8832480907440186,
   1.8828157186508179,
   1.8842395544052124,
   1.882274866104126,
   1.8818973302841187,
   1.8815212249755859,
   1.8852243423461914,
   1.8832114934921265,
   1.8820068836212158,
   1.8794987201690674,
   1.878986120223999,
   1.8790546655654907,
   1.8787021636962891,
   1.8759132623672485,
   1.8755972385406494,
   1.8740600347518921,
   1.8725591897964478,
   1.8622119426727295,
   1.8542524576187134,
   1.8447237014770508,
   1.8358758687973022,
   1.8324544429779053,
   1.8239390850067139,
   1.8166786432266235,
   1.8090388774871826,
   1.8051325082778931,
   1.7486909627914429,
   1.7045564651489258,
   1.6612800359725952,
   1.6231153011322021,
   1.5894324779510498,
   1.5590214729309082,
   1.5319176912307739,
   1.5047174692153931,
   1.4784166812896729,
   1.3185409307479858,
   1.2348781824111938,
   1.1798735857009888,
   1.1449644565582275,
   1.1216204166412354,
   1.0990689992904663,
   1.0832656621932983,
   1.0701801776885986,
   1.0588598251342773,
   1.0157959461212158,
   1.0009996891021729,
   1.00191330909729,
   1.0011537075042725,
   0.99216002225875854,
   0.98564320802688599,
   0.99742764234542847,
   0.99397027492523193,
   0.98988497257232666,
   0.97584277391433716,
   0.9914475679397583,
   0.98869055509567261,
   0.98498708009719849,
   1.0305099487304688,
   0.99623715877532959,
   1.010061502456665,
   1.0153708457946777,
   1.0989717245101929
]
