[
   2.89361572265625,
   2.8935449123382568,
   2.8943674564361572,
   2.8931918144226074,
   2.8981051445007324,
   2.8980305194854736,
   2.8920426368713379,
   2.8906679153442383,
   2.8983733654022217,
   2.8937397003173828,
   2.8925230503082275,
   2.884075403213501,
   2.8821477890014648,
   2.876755952835083,
   2.8758890628814697,
   2.8772895336151123,
   2.8659398555755615,
   2.867203950881958,
   2.8639347553253174,
   2.8327412605285645,
   2.8048815727233887,
   2.7767949104309082,
   2.7568719387054443,
   2.7346706390380859,
   2.7174735069274902,
   2.6870191097259521,
   2.6731486320495605,
   2.6520743370056152,
   2.492971658706665,
   2.3491554260253906,
   2.2355341911315918,
   2.1374137401580811,
   2.0521979331970215,
   1.9795303344726562,
   1.9129989147186279,
   1.8608748912811279,
   1.8054389953613281,
   1.500931978225708,
   1.358905553817749,
   1.2600462436676025,
   1.2014414072036743,
   1.1544735431671143,
   1.1195778846740723,
   1.1025750637054443,
   1.107129693031311,
   1.0867362022399902,
   1.0097458362579346,
   0.98601692914962769,
   0.97949635982513428,
   0.9999920129776001,
   0.98785954713821411,
   1.0303089618682861,
   1.0203921794891357,
   0.99714773893356323,
   1.0141394138336182,
   0.97821438312530518,
   0.96627342700958252,
   0.97215777635574341,
   0.94776022434234619,
   0.97823762893676758,
   1.0589948892593384,
   1.0418436527252197,
   1.0072509050369263,
   0.93452805280685425
]
