[
   2.4430174827575684,
   2.4431805610656738,
   2.4451606273651123,
   2.4441742897033691,
   2.4411458969116211,
   2.4389746189117432,
   2.4376437664031982,
   2.4428024291992188,
   2.4415302276611328,
   2.4380121231079102,
   2.4321942329406738,
   2.4234805107116699,
   2.4243519306182861,
   2.4079594612121582,
   2.404759407043457,
   2.3984277248382568,
   2.3961920738220215,
   2.3893935680389404,
   2.3822641372680664,
   2.329566478729248,
   2.280123233795166,
   2.2418608665466309,
   2.2021756172180176,
   2.1623306274414062,
   2.1255905628204346,
   2.0928072929382324,
   2.0688555240631104,
   2.0395753383636475,
   1.8409322500228882,
   1.7153799533843994,
   1.6186240911483765,
   1.546680212020874,
   1.4879491329193115,
   1.4371953010559082,
   1.3941285610198975,
   1.3622620105743408,
   1.3264410495758057,
   1.1662716865539551,
   1.0952409505844116,
   1.0581870079040527,
   1.0463659763336182,
   1.0327208042144775,
   1.0251648426055908,
   1.0100575685501099,
   1.0130597352981567,
   1.0214171409606934,
   1.0040309429168701,
   1.0088963508605957,
   0.99752342700958252,
   0.99907302856445312,
   0.98460882902145386,
   1.0059386491775513,
   1.0120275020599365,
   1.0048099756240845,
   0.9844059944152832,
   1.0127122402191162,
   1.0020819902420044,
   0.97274386882781982,
   0.99778211116790771,
   1.0021611452102661,
   1.0227705240249634,
   0.9943312406539917,
   1.0413240194320679,
   1.0384907722473145
]
