[
   1.6000978946685791,
   1.6013551950454712,
   1.6014335155487061,
   1.6008679866790771,
   1.5998775959014893,
   1.6004072427749634,
   1.6008436679840088,
   1.5998227596282959,
   1.5985162258148193,
   1.5997827053070068,
   1.5971560478210449,
   1.5943365097045898,
   1.59444260597229,
   1.5921674966812134,
   1.5900599956512451,
   1.5907416343688965,
   1.5888478755950928,
   1.5872973203659058,
   1.5857962369918823,
   1.5724031925201416,
   1.5572508573532104,
   1.5443360805511475,
   1.5339937210083008,
   1.5211194753646851,
   1.5106562376022339,
   1.5007953643798828,
   1.4902700185775757,
   1.4814612865447998,
   1.4092563390731812,
   1.3563306331634521,
   1.3179056644439697,
   1.2846114635467529,
   1.260096549987793,
   1.2362163066864014,
   1.2190619707107544,
   1.2023298740386963,
   1.1872923374176025,
   1.1037455797195435,
   1.0651097297668457,
   1.0446226596832275,
   1.0294851064682007,
   1.0181844234466553,
   1.0125753879547119,
   1.0111948251724243,
   1.01082444190979,
   1.007617712020874,
   0.99984437227249146,
   0.99095898866653442,
   0.99799871444702148,
   1.0011765956878662,
   0.99726903438568115,
   0.9894067645072937,
   0.99328440427780151,
   0.99426710605621338,
   0.99138623476028442,
   1.0030720233917236,
   0.99224221706390381,
   1.0090701580047607,
   0.99159300327301025,
   1.0027039051055908,
   0.99044686555862427,
   1.0022826194763184,
   1.0055816173553467,
   1.0447622537612915
]
