[
   1.7781556844711304,
   1.775651216506958,
   1.7789442539215088,
   1.775779128074646,
   1.7757349014282227,
   1.7777872085571289,
   1.7765676975250244,
   1.7782424688339233,
   1.7743027210235596,
   1.7757940292358398,
   1.7725003957748413,
   1.7699854373931885,
   1.7667423486709595,
   1.7660421133041382,
   1.7632814645767212,
   1.7610352039337158,
   1.7609535455703735,
   1.7562679052352905,
   1.7544324398040771,
   1.7341541051864624,
   1.7150952816009521,
   1.6979973316192627,
   1.6792433261871338,
   1.6612155437469482,
   1.6452229022979736,
   1.632419228553772,
   1.6182126998901367,
   1.6063764095306396,
   1.5101263523101807,
   1.4429252147674561,
   1.3933422565460205,
   1.3548619747161865,
   1.3240604400634766,
   1.2935616970062256,
   1.2715954780578613,
   1.2511043548583984,
   1.2343963384628296,
   1.1281604766845703,
   1.0830757617950439,
   1.0600521564483643,
   1.0386523008346558,
   1.0256901979446411,
   1.017719030380249,
   1.0105737447738647,
   1.0071264505386353,
   1.0047290325164795,
   1.002041220664978,
   0.98914253711700439,
   0.99690055847167969,
   0.99826419353485107,
   0.99466115236282349,
   0.98221063613891602,
   0.99366939067840576,
   0.99770182371139526,
   1.0018212795257568,
   0.98915183544158936,
   1.0051058530807495,
   1.0020124912261963,
   1.0021264553070068,
   1.0001046657562256,
   0.98345184326171875,
   1.0065186023712158,
   1.0257084369659424,
   1.0199953317642212
]
