[
   18.91094970703125,
   18.851217269897461,
   18.632045745849609,
   18.738979339599609,
   18.524181365966797,
   18.581256866455078,
   18.494413375854492,
   18.553102493286133,
   18.397127151489258,
   18.448528289794922,
   18.141546249389648,
   17.784326553344727,
   17.595283508300781,
   17.206411361694336,
   17.014867782592773,
   16.757139205932617,
   16.58234977722168,
   16.326938629150391,
   16.112138748168945,
   14.450721740722656,
   13.298652648925781,
   12.394110679626465,
   11.588582992553711,
   10.89405632019043,
   10.489066123962402,
   9.7790679931640625,
   9.3659048080444336,
   8.9546747207641602,
   6.4832801818847656,
   4.9975185394287109,
   4.1293153762817383,
   3.4931800365447998,
   3.0289111137390137,
   2.7705161571502686,
   2.474323034286499,
   2.2756404876708984,
   2.1119685173034668,
   1.379939079284668,
   1.2928417921066284,
   1.0978453159332275,
   1.053362250328064,
   1.0878819227218628,
   1.0682694911956787,
   0.97737139463424683,
   1.0686502456665039,
   1.0081442594528198,
   1.0318418741226196,
   1.0782670974731445,
   1.0763561725616455,
   0.96886521577835083,
   0.9607316255569458,
   1.1554254293441772,
   0.99510061740875244,
   0.95614290237426758,
   0.95595568418502808,
   0.95906001329421997,
   1.0044735670089722,
   1.0135633945465088,
   1.129467248916626,
   1.0713366270065308,
   1.0886895656585693,
   1.0758988857269287,
   1.3265872001647949,
   1.119637131690979
]
