[
   2.7427084445953369,
   2.744685173034668,
   2.7440481185913086,
   2.7425220012664795,
   2.744814395904541,
   2.7485029697418213,
   2.7421979904174805,
   2.7370114326477051,
   2.7379379272460938,
   2.7368452548980713,
   2.7342398166656494,
   2.7206962108612061,
   2.7058711051940918,
   2.7028555870056152,
   2.6971676349639893,
   2.6899821758270264,
   2.6820178031921387,
   2.6761593818664551,
   2.6669797897338867,
   2.591942310333252,
   2.5318703651428223,
   2.4687168598175049,
   2.4269213676452637,
   2.3773226737976074,
   2.3331177234649658,
   2.2939639091491699,
   2.2626817226409912,
   2.2260520458221436,
   1.9737040996551514,
   1.8207365274429321,
   1.7141454219818115,
   1.6234365701675415,
   1.5548269748687744,
   1.5003302097320557,
   1.451085090637207,
   1.4062917232513428,
   1.3750243186950684,
   1.1797482967376709,
   1.1169909238815308,
   1.0702360868453979,
   1.046403169631958,
   1.0329498052597046,
   1.0196093320846558,
   1.0130293369293213,
   1.0123099088668823,
   1.0153486728668213,
   0.98884505033493042,
   0.98187541961669922,
   0.99475574493408203,
   0.9831923246383667,
   0.99719250202178955,
   0.99408894777297974,
   0.99586570262908936,
   1.0079399347305298,
   0.98823678493499756,
   1.0108689069747925,
   1.0141258239746094,
   1.0152226686477661,
   0.99007070064544678,
   1.0028096437454224,
   0.98646688461303711,
   0.95717650651931763,
   0.96083670854568481,
   0.99670284986495972
]
