[
   8.7344646453857422,
   8.6520986557006836,
   8.6741247177124023,
   8.6529836654663086,
   8.6778163909912109,
   8.6444740295410156,
   8.6595859527587891,
   8.6655349731445312,
   8.6398410797119141,
   8.6157360076904297,
   8.5386762619018555,
   8.4215784072875977,
   8.3458271026611328,
   8.283961296081543,
   8.2394838333129883,
   8.1229677200317383,
   8.0673999786376953,
   7.9922041893005371,
   7.9245238304138184,
   7.3917121887207031,
   6.933164119720459,
   6.5862679481506348,
   6.2938346862792969,
   6.072293758392334,
   5.8034529685974121,
   5.6579713821411133,
   5.4512825012207031,
   5.3100175857543945,
   4.1916646957397461,
   3.5135436058044434,
   3.0764408111572266,
   2.7143213748931885,
   2.4420862197875977,
   2.2435994148254395,
   2.0795474052429199,
   1.9538282155990601,
   1.8685934543609619,
   1.3803818225860596,
   1.1874998807907104,
   1.1052111387252808,
   1.0662479400634766,
   1.0589927434921265,
   1.0034917593002319,
   0.97374022006988525,
   0.96770846843719482,
   1.0127049684524536,
   1.0062325000762939,
   1.0263229608535767,
   0.98981571197509766,
   0.96755391359329224,
   0.9771043062210083,
   0.96561968326568604,
   0.98078668117523193,
   0.99019652605056763,
   0.96622228622436523,
   0.95517939329147339,
   1.0222915410995483,
   1.0107208490371704,
   0.99837225675582886,
   0.96242409944534302,
   0.94799548387527466,
   0.96401959657669067,
   1.0092834234237671,
   0.95544254779815674
]
