[
   16.061759948730469,
   16.167688369750977,
   16.000522613525391,
   15.941534042358398,
   15.928558349609375,
   15.971189498901367,
   15.907770156860352,
   15.820223808288574,
   15.917363166809082,
   15.75628662109375,
   15.565518379211426,
   15.137937545776367,
   15.126136779785156,
   15.022374153137207,
   14.700175285339355,
   14.52851676940918,
   14.390426635742188,
   14.242156982421875,
   14.124890327453613,
   12.881731986999512,
   12.100695610046387,
   11.444167137145996,
   10.73961353302002,
   10.38967227935791,
   9.8949527740478516,
   9.5407695770263672,
   9.0619659423828125,
   8.8070468902587891,
   6.3971405029296875,
   5.0419793128967285,
   4.1036348342895508,
   3.5209698677062988,
   2.9826209545135498,
   2.6439681053161621,
   2.3693649768829346,
   2.1688427925109863,
   2.064664363861084,
   1.4302785396575928,
   1.2616736888885498,
   1.1765962839126587,
   1.0085451602935791,
   1.0527055263519287,
   1.0482598543167114,
   1.0819728374481201,
   1.0510404109954834,
   1.0359227657318115,
   0.93902361392974854,
   0.93830996751785278,
   0.99016487598419189,
   0.98736876249313354,
   0.95461064577102661,
   1.1439031362533569,
   0.91104662418365479,
   0.89804792404174805,
   1.0320862531661987,
   0.98937100172042847,
   0.90639066696166992,
   0.97395169734954834,
   0.84898579120635986,
   0.97128850221633911,
   1.0221902132034302,
   0.95481091737747192,
   1.1610286235809326,
   1.1282269954681396
]
