[
   1.5940825939178467,
   1.5931620597839355,
   1.5936691761016846,
   1.5923974514007568,
   1.5914263725280762,
   1.5939006805419922,
   1.5924732685089111,
   1.5929546356201172,
   1.5932941436767578,
   1.5922420024871826,
   1.5909785032272339,
   1.5896912813186646,
   1.5874994993209839,
   1.5844365358352661,
   1.5853097438812256,
   1.5812853574752808,
   1.5797121524810791,
   1.5795506238937378,
   1.5771093368530273,
   1.562971830368042,
   1.5485702753067017,
   1.5365478992462158,
   1.5231493711471558,
   1.5135798454284668,
   1.5032253265380859,
   1.492774486541748,
   1.4854620695114136,
   1.4773998260498047,
   1.4072458744049072,
   1.359163761138916,
   1.3217465877532959,
   1.2936463356018066,
   1.2696346044540405,
   1.2482583522796631,
   1.230595588684082,
   1.2142364978790283,
   1.2003587484359741,
   1.1111505031585693,
   1.066049337387085,
   1.0471779108047485,
   1.0313088893890381,
   1.0190296173095703,
   1.0123037099838257,
   1.0127542018890381,
   1.0114041566848755,
   1.0117539167404175,
   0.99973088502883911,
   1.0044533014297485,
   0.99304533004760742,
   0.99551659822463989,
   0.98919332027435303,
   0.99246758222579956,
   0.99325859546661377,
   0.99493712186813354,
   0.99958038330078125,
   0.98864573240280151,
   0.99001777172088623,
   0.99753463268280029,
   1.0071496963500977,
   0.99899864196777344,
   0.97709530591964722,
   0.98802125453948975,
   1.0013375282287598,
   1.0549473762512207
]
