[
   2.1233310699462891,
   2.1211333274841309,
   2.1224265098571777,
   2.1213209629058838,
   2.1215612888336182,
   2.1202442646026611,
   2.1216838359832764,
   2.1200165748596191,
   2.1217420101165771,
   2.1206936836242676,
   2.1142306327819824,
   2.109790563583374,
   2.1036438941955566,
   2.0985264778137207,
   2.0973572731018066,
   2.0917782783508301,
   2.0878257751464844,
   2.0847461223602295,
   2.0809617042541504,
   2.0446047782897949,
   2.007533073425293,
   1.97843337059021,
   1.9522914886474609,
   1.9241836071014404,
   1.9004545211791992,
   1.877515435218811,
   1.8575637340545654,
   1.8384466171264648,
   1.7001283168792725,
   1.606135368347168,
   1.5371451377868652,
   1.4797675609588623,
   1.4372678995132446,
   1.3955676555633545,
   1.3608267307281494,
   1.3292491436004639,
   1.3054796457290649,
   1.1390886306762695,
   1.0829746723175049,
   1.0576549768447876,
   1.0413296222686768,
   1.0259095430374146,
   1.0243728160858154,
   1.021386981010437,
   1.0184909105300903,
   1.0133599042892456,
   0.99784553050994873,
   0.99428141117095947,
   0.99267137050628662,
   1.0044335126876831,
   1.0080773830413818,
   1.0053558349609375,
   0.99840021133422852,
   1.0016037225723267,
   0.99412363767623901,
   0.98620414733886719,
   0.99198043346405029,
   0.99992483854293823,
   0.98956263065338135,
   0.9926753044128418,
   1.0029776096343994,
   1.005271315574646,
   1.0365418195724487,
   1.0320967435836792
]
