[
   1.9544038772583008,
   1.9559580087661743,
   1.9559366703033447,
   1.9540059566497803,
   1.9500398635864258,
   1.9556211233139038,
   1.9529377222061157,
   1.9533073902130127,
   1.9532568454742432,
   1.9495887756347656,
   1.9488379955291748,
   1.9463287591934204,
   1.9407249689102173,
   1.9368441104888916,
   1.9351284503936768,
   1.9357945919036865,
   1.9303073883056641,
   1.9269134998321533,
   1.9206631183624268,
   1.8891372680664062,
   1.8631744384765625,
   1.8387825489044189,
   1.814957857131958,
   1.7938855886459351,
   1.7762124538421631,
   1.7587486505508423,
   1.7415233850479126,
   1.7280454635620117,
   1.609792947769165,
   1.5313119888305664,
   1.4718284606933594,
   1.4251850843429565,
   1.3834006786346436,
   1.3494259119033813,
   1.3206397294998169,
   1.2919492721557617,
   1.2706207036972046,
   1.1339250802993774,
   1.0791546106338501,
   1.0477126836776733,
   1.0310152769088745,
   1.0193712711334229,
   1.0180823802947998,
   1.016366720199585,
   1.0163452625274658,
   1.0178883075714111,
   1.0015697479248047,
   0.99634057283401489,
   0.99989116191864014,
   0.99079263210296631,
   0.99992477893829346,
   1.0124446153640747,
   1.0074117183685303,
   1.0024769306182861,
   1.0035650730133057,
   0.99840748310089111,
   1.0016354322433472,
   1.0154006481170654,
   0.98075884580612183,
   1.0073291063308716,
   0.98923331499099731,
   0.9822312593460083,
   0.98941260576248169,
   0.98022210597991943
]
