[
   2.6640658378601074,
   2.6683046817779541,
   2.6620960235595703,
   2.6600048542022705,
   2.6611824035644531,
   2.6585040092468262,
   2.6575319766998291,
   2.6584713459014893,
   2.6567897796630859,
   2.6501221656799316,
   2.6483194828033447,
   2.6375634670257568,
   2.6303641796112061,
   2.6196370124816895,
   2.609107494354248,
   2.6041848659515381,
   2.6026163101196289,
   2.5918011665344238,
   2.5847792625427246,
   2.520031213760376,
   2.4598629474639893,
   2.4098267555236816,
   2.3684625625610352,
   2.3252885341644287,
   2.2904891967773438,
   2.2544023990631104,
   2.225553035736084,
   2.199385404586792,
   1.9868907928466797,
   1.8489189147949219,
   1.7439472675323486,
   1.6614782810211182,
   1.592456579208374,
   1.5334432125091553,
   1.4839615821838379,
   1.4443323612213135,
   1.405436635017395,
   1.1872676610946655,
   1.1061595678329468,
   1.0664728879928589,
   1.0450794696807861,
   1.032709002494812,
   1.0137302875518799,
   1.0066317319869995,
   1.0144170522689819,
   1.0014563798904419,
   0.98540627956390381,
   0.98363524675369263,
   0.99405336380004883,
   1.0002551078796387,
   0.99857455492019653,
   1.0043953657150269,
   1.0047374963760376,
   1.0008481740951538,
   1.0022341012954712,
   0.99277657270431519,
   0.98661863803863525,
   0.98401820659637451,
   0.9904816746711731,
   1.0069304704666138,
   1.0359032154083252,
   1.0080134868621826,
   1.0015175342559814,
   0.99005997180938721
]
