[
   2.5711750984191895,
   2.5768465995788574,
   2.570972204208374,
   2.5736627578735352,
   2.5700078010559082,
   2.5651116371154785,
   2.5694389343261719,
   2.5663437843322754,
   2.5686454772949219,
   2.5678744316101074,
   2.5647931098937988,
   2.5587189197540283,
   2.5573275089263916,
   2.5530917644500732,
   2.5450263023376465,
   2.538078784942627,
   2.5384190082550049,
   2.5347945690155029,
   2.5230047702789307,
   2.4871554374694824,
   2.4432685375213623,
   2.409651517868042,
   2.3768684864044189,
   2.3453052043914795,
   2.3171877861022949,
   2.2940478324890137,
   2.2670440673828125,
   2.243389368057251,
   2.0747556686401367,
   1.9472892284393311,
   1.8578478097915649,
   1.7774841785430908,
   1.7081062793731689,
   1.655208945274353,
   1.6021964550018311,
   1.5546256303787231,
   1.5164351463317871,
   1.2766668796539307,
   1.1688929796218872,
   1.1082949638366699,
   1.0802336931228638,
   1.0542864799499512,
   1.0522463321685791,
   1.0478441715240479,
   1.0285310745239258,
   1.0177298784255981,
   0.99972265958786011,
   1.002460241317749,
   0.9842870831489563,
   1.0125653743743896,
   1.0207854509353638,
   1.013683557510376,
   1.0069966316223145,
   1.0156117677688599,
   1.0224835872650146,
   0.99309080839157104,
   0.99508112668991089,
   1.005789041519165,
   0.99628573656082153,
   0.98681944608688354,
   0.99669015407562256,
   0.94169414043426514,
   0.94203805923461914,
   0.87958323955535889
]
