[
   1.7982637882232666,
   1.7955461740493774,
   1.7943414449691772,
   1.795632004737854,
   1.7955758571624756,
   1.7953828573226929,
   1.7957890033721924,
   1.7957261800765991,
   1.7938659191131592,
   1.7952651977539062,
   1.7942612171173096,
   1.7908499240875244,
   1.7909290790557861,
   1.7876567840576172,
   1.7861751317977905,
   1.7848269939422607,
   1.7824913263320923,
   1.7807819843292236,
   1.7831754684448242,
   1.7649009227752686,
   1.7499244213104248,
   1.7341072559356689,
   1.7234808206558228,
   1.7110378742218018,
   1.6987285614013672,
   1.6863842010498047,
   1.6757739782333374,
   1.6683328151702881,
   1.5910093784332275,
   1.5335261821746826,
   1.4886049032211304,
   1.4523732662200928,
   1.4205734729766846,
   1.3927581310272217,
   1.36785888671875,
   1.3476637601852417,
   1.3283077478408813,
   1.20862877368927,
   1.1441202163696289,
   1.1003566980361938,
   1.0688308477401733,
   1.0548908710479736,
   1.0407892465591431,
   1.0335025787353516,
   1.0232670307159424,
   1.0185912847518921,
   1.0059753656387329,
   1.0049475431442261,
   0.9981231689453125,
   1.0032236576080322,
   1.0047621726989746,
   0.99890422821044922,
   0.98959702253341675,
   0.98783552646636963,
   0.99899351596832275,
   1.0156276226043701,
   1.0052695274353027,
   1.0107138156890869,
   0.99229848384857178,
   0.9962010383605957,
   0.9792553186416626,
   0.9634929895401001,
   0.93826371431350708,
   0.90925443172454834
]
