[
   109.9346923828125,
   105.61014556884766,
   107.91001892089844,
   107.40623474121094,
   105.87850189208984,
   107.19486236572266,
   106.59029388427734,
   104.08805847167969,
   105.44211578369141,
   103.9512939453125,
   101.84815979003906,
   99.55157470703125,
   96.112808227539062,
   95.365867614746094,
   92.532814025878906,
   89.72467041015625,
   88.552810668945312,
   85.112411499023438,
   84.516998291015625,
   73.404777526855469,
   61.622611999511719,
   54.501258850097656,
   49.526218414306641,
   45.309211730957031,
   41.860275268554688,
   38.045005798339844,
   34.940826416015625,
   33.811870574951172,
   17.758171081542969,
   12.951988220214844,
   10.200508117675781,
   7.9962515830993652,
   6.7736320495605469,
   6.0873308181762695,
   5.1081809997558594,
   4.1623501777648926,
   4.2642307281494141,
   2.0088086128234863,
   1.6062694787979126,
   1.2171981334686279,
   1.3461883068084717,
   1.8053306341171265,
   1.4636918306350708,
   0.85646742582321167,
   1.1603767871856689,
   1.0146714448928833,
   1.119673490524292,
   0.76080292463302612,
   0.95621156692504883,
   1.0141665935516357,
   0.74329173564910889,
   0.79824119806289673,
   0.84635078907012939,
   0.98944932222366333,
   1.4427478313446045,
   1.0308187007904053,
   0.98376262187957764,
   0.79462677240371704,
   0.69889682531356812,
   0.97307473421096802,
   1.217137336730957,
   0.42204219102859497,
   1.4985044002532959,
   0.18840232491493225
]
