[
   1.5019698143005371,
   1.5028426647186279,
   1.5016236305236816,
   1.501568078994751,
   1.5021607875823975,
   1.5018851757049561,
   1.5012247562408447,
   1.5010477304458618,
   1.5026144981384277,
   1.5010924339294434,
   1.5006448030471802,
   1.5003001689910889,
   1.4998852014541626,
   1.4975926876068115,
   1.4966678619384766,
   1.4962105751037598,
   1.4947099685668945,
   1.494829535484314,
   1.4939925670623779,
   1.4851996898651123,
   1.4777536392211914,
   1.4709632396697998,
   1.4638068675994873,
   1.458566427230835,
   1.4523723125457764,
   1.4456771612167358,
   1.4399901628494263,
   1.4357101917266846,
   1.3887553215026855,
   1.3554278612136841,
   1.3291288614273071,
   1.3065696954727173,
   1.2868547439575195,
   1.2705626487731934,
   1.2550117969512939,
   1.2419083118438721,
   1.2287318706512451,
   1.1448732614517212,
   1.0973485708236694,
   1.0706926584243774,
   1.0493620634078979,
   1.0381580591201782,
   1.027787446975708,
   1.0221133232116699,
   1.0172255039215088,
   1.0167562961578369,
   0.9942173957824707,
   0.99490535259246826,
   0.99749422073364258,
   0.99743384122848511,
   0.99405562877655029,
   0.99793463945388794,
   0.99881207942962646,
   1.0039156675338745,
   0.99061858654022217,
   1.003000020980835,
   0.98988419771194458,
   0.99500465393066406,
   1.0020561218261719,
   1.0027196407318115,
   0.99786198139190674,
   1.0097520351409912,
   0.99218642711639404,
   1.0010958909988403
]
