[
   3.6281733512878418,
   3.6171078681945801,
   3.6206429004669189,
   3.6238791942596436,
   3.6128859519958496,
   3.6102085113525391,
   3.6159300804138184,
   3.6122031211853027,
   3.6127433776855469,
   3.6049952507019043,
   3.5980288982391357,
   3.5843799114227295,
   3.5772995948791504,
   3.5741581916809082,
   3.5610020160675049,
   3.5572085380554199,
   3.538710355758667,
   3.5245106220245361,
   3.5184967517852783,
   3.4328072071075439,
   3.356635570526123,
   3.2886128425598145,
   3.2338721752166748,
   3.1805112361907959,
   3.125913143157959,
   3.0731456279754639,
   3.0291488170623779,
   2.991283655166626,
   2.693692684173584,
   2.4759631156921387,
   2.3185210227966309,
   2.1768729686737061,
   2.0623030662536621,
   1.9685757160186768,
   1.883553147315979,
   1.8200547695159912,
   1.7409435510635376,
   1.3782069683074951,
   1.2253618240356445,
   1.1359478235244751,
   1.1040647029876709,
   1.0658297538757324,
   1.0593136548995972,
   1.0514163970947266,
   1.0431320667266846,
   1.0383037328720093,
   0.98829519748687744,
   0.96877461671829224,
   0.97294533252716064,
   0.995269775390625,
   1.0128837823867798,
   0.98538035154342651,
   0.99615108966827393,
   1.0004328489303589,
   1.0021116733551025,
   0.98530024290084839,
   1.0043585300445557,
   1.0188467502593994,
   0.98606842756271362,
   0.94260680675506592,
   0.97567909955978394,
   0.92013299465179443,
   0.93379700183868408,
   1.0401612520217896
]
