[
   4.6588850021362305,
   4.6545953750610352,
   4.6438512802124023,
   4.6422033309936523,
   4.6557393074035645,
   4.6403207778930664,
   4.6406888961791992,
   4.6557650566101074,
   4.6388754844665527,
   4.6492109298706055,
   4.6234288215637207,
   4.5936245918273926,
   4.5842790603637695,
   4.5572099685668945,
   4.5426626205444336,
   4.5357327461242676,
   4.508946418762207,
   4.5001039505004883,
   4.4765448570251465,
   4.3295221328735352,
   4.1828503608703613,
   4.0839071273803711,
   4.001673698425293,
   3.9123783111572266,
   3.8402905464172363,
   3.764742374420166,
   3.7201576232910156,
   3.6526317596435547,
   3.1888868808746338,
   2.8635437488555908,
   2.6176035404205322,
   2.4366354942321777,
   2.2649312019348145,
   2.1466693878173828,
   2.0305438041687012,
   1.9501221179962158,
   1.8586652278900146,
   1.4036858081817627,
   1.2386165857315063,
   1.109972357749939,
   1.0728893280029297,
   1.0555511713027954,
   1.0275484323501587,
   1.014113187789917,
   1.0088759660720825,
   1.0215368270874023,
   1.0261425971984863,
   0.99207991361618042,
   0.99063503742218018,
   0.99583274126052856,
   0.97381478548049927,
   1.0068480968475342,
   1.0148361921310425,
   0.99949854612350464,
   1.030775785446167,
   0.93203294277191162,
   0.9523998498916626,
   0.99333620071411133,
   1.0166472196578979,
   0.99488306045532227,
   1.0013799667358398,
   0.97157037258148193,
   1.1619470119476318,
   1.1070020198822021
]
