[
   7.0829477310180664,
   7.0690298080444336,
   7.079862117767334,
   7.0673418045043945,
   7.0623259544372559,
   7.0708341598510742,
   7.0792107582092285,
   7.0845046043395996,
   7.0310935974121094,
   7.0386605262756348,
   7.0086417198181152,
   6.9661493301391602,
   6.9516324996948242,
   6.8599824905395508,
   6.8213768005371094,
   6.8044586181640625,
   6.7581443786621094,
   6.7309250831604004,
   6.6916632652282715,
   6.395749568939209,
   6.2040591239929199,
   6.0123043060302734,
   5.8211178779602051,
   5.683558464050293,
   5.5405826568603516,
   5.4025816917419434,
   5.3328108787536621,
   5.2194352149963379,
   4.385373592376709,
   3.842240571975708,
   3.4280269145965576,
   3.116255521774292,
   2.8441495895385742,
   2.6227045059204102,
   2.4434123039245605,
   2.2954921722412109,
   2.1922390460968018,
   1.5524419546127319,
   1.351597785949707,
   1.2044180631637573,
   1.1510448455810547,
   1.070939302444458,
   1.1005947589874268,
   1.0750044584274292,
   1.0699152946472168,
   1.0367549657821655,
   0.97711771726608276,
   1.0677963495254517,
   1.0183519124984741,
   1.0398890972137451,
   1.0133215188980103,
   1.000454306602478,
   0.97235888242721558,
   0.96533310413360596,
   0.98986661434173584,
   0.99121254682540894,
   0.9909977912902832,
   0.96709442138671875,
   1.018726110458374,
   1.013522744178772,
   0.96844065189361572,
   0.93852615356445312,
   0.87811040878295898,
   0.87119454145431519
]
