[
   1.4894580841064453,
   1.4912252426147461,
   1.4896306991577148,
   1.4899017810821533,
   1.4909712076187134,
   1.4896806478500366,
   1.4899563789367676,
   1.4891927242279053,
   1.4909741878509521,
   1.4887964725494385,
   1.489881157875061,
   1.4872610569000244,
   1.4871237277984619,
   1.4857211112976074,
   1.485695481300354,
   1.4845364093780518,
   1.4839950799942017,
   1.4836769104003906,
   1.4827225208282471,
   1.4754111766815186,
   1.4697589874267578,
   1.4628698825836182,
   1.4571257829666138,
   1.4505873918533325,
   1.4458349943161011,
   1.4404112100601196,
   1.4348514080047607,
   1.4309223890304565,
   1.3888367414474487,
   1.3590511083602905,
   1.3326547145843506,
   1.3114324808120728,
   1.2914885282516479,
   1.2751741409301758,
   1.2598912715911865,
   1.2469005584716797,
   1.2347801923751831,
   1.1565945148468018,
   1.1089471578598022,
   1.0825927257537842,
   1.0644092559814453,
   1.0492186546325684,
   1.0400077104568481,
   1.0345120429992676,
   1.0278728008270264,
   1.0255962610244751,
   0.99843323230743408,
   0.99691981077194214,
   0.99391448497772217,
   0.99791526794433594,
   1.0017049312591553,
   1.004712700843811,
   1.0072662830352783,
   1.0066715478897095,
   0.99834603071212769,
   1.0111099481582642,
   1.0265204906463623,
   1.00557541847229,
   1.0012032985687256,
   0.9962584376335144,
   0.9662398099899292,
   0.94139420986175537,
   0.9294474720954895,
   0.92870175838470459
]
