[
   87.707672119140625,
   88.879386901855469,
   87.344924926757812,
   87.497055053710938,
   86.809677124023438,
   87.197296142578125,
   87.277557373046875,
   87.343284606933594,
   85.81396484375,
   86.822982788085938,
   83.820198059082031,
   81.9298095703125,
   80.403045654296875,
   77.639785766601562,
   78.860763549804688,
   76.281326293945312,
   74.887374877929688,
   72.960739135742188,
   72.1685791015625,
   61.621788024902344,
   54.566352844238281,
   47.185028076171875,
   42.562976837158203,
   39.383800506591797,
   35.595130920410156,
   32.605400085449219,
   30.757848739624023,
   28.424510955810547,
   15.198567390441895,
   10.827415466308594,
   8.5402669906616211,
   7.3327522277832031,
   5.7560234069824219,
   5.2083253860473633,
   4.2020854949951172,
   4.2355546951293945,
   3.707381010055542,
   1.6437524557113647,
   1.7331473827362061,
   1.5022603273391724,
   1.0789247751235962,
   0.84105652570724487,
   1.1627324819564819,
   1.2862679958343506,
   0.98349589109420776,
   0.70199286937713623,
   1.4426755905151367,
   0.9741242527961731,
   0.75257474184036255,
   0.89436089992523193,
   1.0632903575897217,
   1.1277631521224976,
   1.1247718334197998,
   0.70796555280685425,
   1.1415866613388062,
   0.76731222867965698,
   0.80556786060333252,
   0.87315428256988525,
   1.1525609493255615,
   0.85875624418258667,
   0.70822024345397949,
   0.84376180171966553,
   1.5692565441131592,
   1.2956738471984863
]
