[
   1.8780248165130615,
   1.8766272068023682,
   1.8764705657958984,
   1.8745381832122803,
   1.8740253448486328,
   1.8752944469451904,
   1.8743366003036499,
   1.875515341758728,
   1.8752120733261108,
   1.8776657581329346,
   1.8725935220718384,
   1.8705406188964844,
   1.8701597452163696,
   1.8639242649078369,
   1.8665754795074463,
   1.8626219034194946,
   1.8629581928253174,
   1.8610719442367554,
   1.8586254119873047,
   1.8410991430282593,
   1.8295599222183228,
   1.8138307332992554,
   1.7983195781707764,
   1.790108323097229,
   1.7766866683959961,
   1.7668250799179077,
   1.7560205459594727,
   1.7433731555938721,
   1.6629607677459717,
   1.6039209365844727,
   1.556995153427124,
   1.5156629085540771,
   1.4797751903533936,
   1.446996808052063,
   1.4224646091461182,
   1.3931343555450439,
   1.3701045513153076,
   1.2241361141204834,
   1.1552106142044067,
   1.1160901784896851,
   1.0850403308868408,
   1.0579158067703247,
   1.0461152791976929,
   1.0393375158309937,
   1.0343300104141235,
   1.03118896484375,
   1.0095807313919067,
   1.0001275539398193,
   0.98767644166946411,
   0.98843479156494141,
   0.98826390504837036,
   0.99117076396942139,
   0.98972481489181519,
   0.99235904216766357,
   0.98626214265823364,
   0.99400746822357178,
   0.98110753297805786,
   1.002321720123291,
   0.99651229381561279,
   0.98488777875900269,
   0.99579209089279175,
   1.0167310237884521,
   1.0105812549591064,
   1.1534711122512817
]
