[
   2.4841134548187256,
   2.4831259250640869,
   2.4892985820770264,
   2.4875848293304443,
   2.4858765602111816,
   2.4805459976196289,
   2.4806323051452637,
   2.4853906631469727,
   2.4841468334197998,
   2.479689359664917,
   2.4810655117034912,
   2.4716610908508301,
   2.4696440696716309,
   2.46384596824646,
   2.460334300994873,
   2.4590716361999512,
   2.4526515007019043,
   2.4500224590301514,
   2.4464626312255859,
   2.4125027656555176,
   2.3799803256988525,
   2.3512787818908691,
   2.3243975639343262,
   2.298419713973999,
   2.2775046825408936,
   2.2536475658416748,
   2.2354168891906738,
   2.2151830196380615,
   2.0657994747161865,
   1.9508345127105713,
   1.8690872192382812,
   1.7962814569473267,
   1.7332780361175537,
   1.6774940490722656,
   1.6303201913833618,
   1.5856318473815918,
   1.5475276708602905,
   1.3123118877410889,
   1.1957567930221558,
   1.1341202259063721,
   1.1017730236053467,
   1.0738694667816162,
   1.0565197467803955,
   1.0378472805023193,
   1.0373556613922119,
   1.0352154970169067,
   0.99118870496749878,
   0.98320627212524414,
   0.98792552947998047,
   1.0138264894485474,
   1.010573148727417,
   1.0065197944641113,
   1.0283713340759277,
   1.017256498336792,
   1.0070970058441162,
   1.004868745803833,
   1.0274875164031982,
   1.0296967029571533,
   0.99261009693145752,
   0.97642958164215088,
   0.98074322938919067,
   0.9765545129776001,
   0.96854609251022339,
   0.93951195478439331
]
