[
   1.3462945222854614,
   1.3470207452774048,
   1.3461073637008667,
   1.3468587398529053,
   1.3466746807098389,
   1.3473056554794312,
   1.3462858200073242,
   1.3465787172317505,
   1.34609055519104,
   1.3461071252822876,
   1.3463525772094727,
   1.3462414741516113,
   1.3454403877258301,
   1.3458273410797119,
   1.3453651666641235,
   1.3460054397583008,
   1.3448183536529541,
   1.3450524806976318,
   1.3455938100814819,
   1.3434697389602661,
   1.3409870862960815,
   1.3398973941802979,
   1.3387805223464966,
   1.3369721174240112,
   1.3354284763336182,
   1.3337256908416748,
   1.3327987194061279,
   1.3313121795654297,
   1.3201463222503662,
   1.3086374998092651,
   1.2996439933776855,
   1.2906485795974731,
   1.2830928564071655,
   1.2757503986358643,
   1.2681100368499756,
   1.2610417604446411,
   1.2554024457931519,
   1.2041609287261963,
   1.1686117649078369,
   1.1439564228057861,
   1.1330835819244385,
   1.1169793605804443,
   1.1031670570373535,
   1.0926244258880615,
   1.0832760334014893,
   1.0781340599060059,
   1.0315808057785034,
   1.0126078128814697,
   1.0076369047164917,
   1.0040260553359985,
   0.99938595294952393,
   0.99554312229156494,
   1.0001460313796997,
   1.0014067888259888,
   1.0042999982833862,
   1.0038257837295532,
   1.00943922996521,
   1.0150728225708008,
   0.99331808090209961,
   0.98512542247772217,
   0.95919162034988403,
   0.97035133838653564,
   0.98424899578094482,
   0.96215248107910156
]
