[
   1.5085487365722656,
   1.5092294216156006,
   1.508243203163147,
   1.5081940889358521,
   1.5084875822067261,
   1.5088745355606079,
   1.5088347196578979,
   1.5098512172698975,
   1.5082476139068604,
   1.5090868473052979,
   1.5085127353668213,
   1.5079183578491211,
   1.5077676773071289,
   1.5076429843902588,
   1.5076630115509033,
   1.5064765214920044,
   1.5072617530822754,
   1.506106972694397,
   1.5064151287078857,
   1.5046193599700928,
   1.5012180805206299,
   1.4980959892272949,
   1.4952895641326904,
   1.4922460317611694,
   1.4911466836929321,
   1.4880130290985107,
   1.4862865209579468,
   1.4842654466629028,
   1.4644119739532471,
   1.4487824440002441,
   1.4336303472518921,
   1.4203987121582031,
   1.4075604677200317,
   1.3945680856704712,
   1.384749174118042,
   1.373831033706665,
   1.3638026714324951,
   1.2864506244659424,
   1.2322365045547485,
   1.1965198516845703,
   1.1674697399139404,
   1.1468420028686523,
   1.1267713308334351,
   1.1146684885025024,
   1.1053730249404907,
   1.1006608009338379,
   1.0430604219436646,
   1.0240097045898438,
   1.0091520547866821,
   1.0021450519561768,
   1.0130376815795898,
   0.99840372800827026,
   0.99646997451782227,
   0.99891406297683716,
   0.99737393856048584,
   0.99465161561965942,
   0.99785244464874268,
   1.0065610408782959,
   1.0067317485809326,
   0.95998877286911011,
   0.96705836057662964,
   0.98219680786132812,
   1.0094872713088989,
   0.90145838260650635
]
