[
   35.299625396728516,
   35.659008026123047,
   35.332012176513672,
   35.378410339355469,
   35.460613250732422,
   35.420799255371094,
   35.256290435791016,
   34.760047912597656,
   35.082233428955078,
   35.311668395996094,
   34.445388793945312,
   33.999240875244141,
   33.814914703369141,
   33.112392425537109,
   32.231189727783203,
   32.190383911132812,
   31.706295013427734,
   31.090106964111328,
   31.059036254882812,
   27.535385131835938,
   24.73335075378418,
   22.307750701904297,
   20.434858322143555,
   18.960725784301758,
   17.55674934387207,
   16.466796875,
   15.637125968933105,
   14.412175178527832,
   9.1976184844970703,
   7.337580680847168,
   5.8985419273376465,
   5.0053906440734863,
   4.4671468734741211,
   4.0527276992797852,
   3.4216132164001465,
   3.1082203388214111,
   2.9611034393310547,
   1.8099603652954102,
   1.6100215911865234,
   1.5892689228057861,
   1.340620756149292,
   1.1709631681442261,
   1.1706434488296509,
   1.0424200296401978,
   1.1078486442565918,
   1.2192192077636719,
   0.94137191772460938,
   0.91517114639282227,
   1.1864228248596191,
   0.96020793914794922,
   0.93310260772705078,
   0.96140015125274658,
   0.93554270267486572,
   1.0440171957015991,
   0.96771925687789917,
   1.0864914655685425,
   1.0088685750961304,
   0.89819824695587158,
   1.0483955144882202,
   1.0456031560897827,
   1.1124927997589111,
   0.73181915283203125,
   0.8972247838973999,
   0.52404206991195679
]
