[
   1.5703109502792358,
   1.5708492994308472,
   1.5705410242080688,
   1.5711314678192139,
   1.5704987049102783,
   1.5715464353561401,
   1.5712950229644775,
   1.5701136589050293,
   1.5700443983078003,
   1.5703471899032593,
   1.5704834461212158,
   1.5685737133026123,
   1.5683357715606689,
   1.5688515901565552,
   1.5680187940597534,
   1.5688574314117432,
   1.5694872140884399,
   1.5664737224578857,
   1.5671496391296387,
   1.5635011196136475,
   1.5607113838195801,
   1.5566403865814209,
   1.5547759532928467,
   1.55237877368927,
   1.5501219034194946,
   1.5455734729766846,
   1.5422797203063965,
   1.5406800508499146,
   1.5179964303970337,
   1.4976636171340942,
   1.4799193143844604,
   1.4652706384658813,
   1.4494869709014893,
   1.434490442276001,
   1.4236091375350952,
   1.4116026163101196,
   1.400130033493042,
   1.3110184669494629,
   1.2508609294891357,
   1.2084375619888306,
   1.1771068572998047,
   1.1536710262298584,
   1.1341594457626343,
   1.1203638315200806,
   1.1067391633987427,
   1.0986728668212891,
   1.0509511232376099,
   1.0277473926544189,
   1.0190384387969971,
   1.023141622543335,
   1.0106011629104614,
   1.0117101669311523,
   1.0062789916992188,
   1.0048828125,
   1.0003435611724854,
   1.0049750804901123,
   1.0070145130157471,
   0.99473297595977783,
   1.0116016864776611,
   0.99032193422317505,
   0.99157702922821045,
   0.97862797975540161,
   0.93949639797210693,
   0.864127516746521
]
