[
   1.7503734827041626,
   1.749253511428833,
   1.7498462200164795,
   1.7506259679794312,
   1.7483593225479126,
   1.749447226524353,
   1.7484585046768188,
   1.7490116357803345,
   1.748239278793335,
   1.7503526210784912,
   1.7490981817245483,
   1.7487192153930664,
   1.7478344440460205,
   1.7464609146118164,
   1.7462635040283203,
   1.744563102722168,
   1.7458963394165039,
   1.7447845935821533,
   1.7423490285873413,
   1.7384912967681885,
   1.7346454858779907,
   1.7295070886611938,
   1.7242014408111572,
   1.7187073230743408,
   1.7151796817779541,
   1.7121706008911133,
   1.7057332992553711,
   1.7030048370361328,
   1.6680504083633423,
   1.6380382776260376,
   1.6129763126373291,
   1.5884048938751221,
   1.5655395984649658,
   1.5455126762390137,
   1.5265603065490723,
   1.510486364364624,
   1.4919121265411377,
   1.3693785667419434,
   1.288718581199646,
   1.2320442199707031,
   1.190348744392395,
   1.1580460071563721,
   1.1371573209762573,
   1.125434398651123,
   1.1136815547943115,
   1.1034929752349854,
   1.0346603393554688,
   1.0093114376068115,
   1.003212571144104,
   1.0005998611450195,
   0.99547302722930908,
   0.99426233768463135,
   1.001185417175293,
   1.0128923654556274,
   0.99204015731811523,
   1.0016312599182129,
   0.98028773069381714,
   0.99482744932174683,
   0.99521273374557495,
   0.99634015560150146,
   1.0243079662322998,
   0.98374348878860474,
   1.0089203119277954,
   0.97168862819671631
]
