[
   3.8066287040710449,
   3.7959752082824707,
   3.8093113899230957,
   3.8004627227783203,
   3.8057987689971924,
   3.7967007160186768,
   3.8001856803894043,
   3.8028247356414795,
   3.7967884540557861,
   3.8064155578613281,
   3.7898018360137939,
   3.7892277240753174,
   3.7859230041503906,
   3.7769389152526855,
   3.7743632793426514,
   3.7673938274383545,
   3.7602412700653076,
   3.7600216865539551,
   3.7441146373748779,
   3.7009930610656738,
   3.6581363677978516,
   3.6087265014648438,
   3.5787780284881592,
   3.5438494682312012,
   3.506622314453125,
   3.4813454151153564,
   3.4402890205383301,
   3.4175925254821777,
   3.1390883922576904,
   2.9279944896697998,
   2.7328174114227295,
   2.5778329372406006,
   2.4679505825042725,
   2.3646035194396973,
   2.2742762565612793,
   2.194406270980835,
   2.1219997406005859,
   1.6704782247543335,
   1.4529409408569336,
   1.313996434211731,
   1.2471392154693604,
   1.2207319736480713,
   1.1650040149688721,
   1.1124041080474854,
   1.0927191972732544,
   1.0599576234817505,
   1.0136690139770508,
   1.0308279991149902,
   1.0084432363510132,
   0.99046337604522705,
   0.99978607892990112,
   0.96843338012695312,
   0.99608182907104492,
   0.99026936292648315,
   1.0079134702682495,
   0.97035771608352661,
   0.96629524230957031,
   0.99949616193771362,
   1.0039124488830566,
   0.9742436408996582,
   0.99083054065704346,
   1.0476534366607666,
   0.9755634069442749,
   0.90411347150802612
]
