[
   6.3047800064086914,
   6.326596736907959,
   6.3130764961242676,
   6.3273615837097168,
   6.3181886672973633,
   6.31121826171875,
   6.3182172775268555,
   6.3123540878295898,
   6.3003373146057129,
   6.3273053169250488,
   6.2907180786132812,
   6.2711424827575684,
   6.2608189582824707,
   6.2236967086791992,
   6.2153463363647461,
   6.194401741027832,
   6.1907868385314941,
   6.1599879264831543,
   6.1526002883911133,
   6.0096235275268555,
   5.8804159164428711,
   5.7270021438598633,
   5.6398262977600098,
   5.5237560272216797,
   5.4092798233032227,
   5.2875771522521973,
   5.1995348930358887,
   5.1174964904785156,
   4.3851943016052246,
   3.8576874732971191,
   3.4815192222595215,
   3.1690020561218262,
   2.9405150413513184,
   2.7551884651184082,
   2.6022050380706787,
   2.4704205989837646,
   2.3805394172668457,
   1.7350242137908936,
   1.5164269208908081,
   1.4264925718307495,
   1.3024159669876099,
   1.2771209478378296,
   1.2475107908248901,
   1.1872575283050537,
   1.1385186910629272,
   1.1259366273880005,
   1.0969103574752808,
   1.0194423198699951,
   1.0083236694335938,
   0.97775697708129883,
   1.0528934001922607,
   1.0406527519226074,
   1.0215883255004883,
   1.0324063301086426,
   0.98652839660644531,
   1.0464794635772705,
   0.93957269191741943,
   1.001333475112915,
   0.97217023372650146,
   1.0009233951568604,
   1.0136622190475464,
   0.91710245609283447,
   1.0118770599365234,
   1.0621769428253174
]
