[
   2.7553842067718506,
   2.7531747817993164,
   2.7494649887084961,
   2.7569866180419922,
   2.7541615962982178,
   2.7549936771392822,
   2.7517848014831543,
   2.7545571327209473,
   2.7552628517150879,
   2.7522120475769043,
   2.7484240531921387,
   2.7415511608123779,
   2.7445409297943115,
   2.7402305603027344,
   2.738896369934082,
   2.7344226837158203,
   2.7393593788146973,
   2.7350177764892578,
   2.7271437644958496,
   2.7063007354736328,
   2.6864018440246582,
   2.6655242443084717,
   2.6492400169372559,
   2.6322989463806152,
   2.6084854602813721,
   2.5986626148223877,
   2.5790157318115234,
   2.561962366104126,
   2.42732834815979,
   2.3175723552703857,
   2.2125096321105957,
   2.1353268623352051,
   2.0538492202758789,
   1.9922666549682617,
   1.9317076206207275,
   1.8830093145370483,
   1.8315260410308838,
   1.5333149433135986,
   1.3847825527191162,
   1.3013979196548462,
   1.2330032587051392,
   1.1944949626922607,
   1.1544626951217651,
   1.1379950046539307,
   1.1222045421600342,
   1.10938560962677,
   1.0790897607803345,
   1.0160324573516846,
   1.0017354488372803,
   0.99490392208099365,
   1.0167171955108643,
   0.99480581283569336,
   0.98855495452880859,
   0.99620115756988525,
   0.98933398723602295,
   1.0067023038864136,
   0.99971848726272583,
   1.0036376714706421,
   0.98584955930709839,
   0.99420177936553955,
   0.96278828382492065,
   0.94360458850860596,
   0.93747043609619141,
   0.91262739896774292
]
