[
   2.0668468475341797,
   2.0667526721954346,
   2.065934419631958,
   2.0674667358398438,
   2.0682656764984131,
   2.067049503326416,
   2.0658130645751953,
   2.0647132396697998,
   2.0649335384368896,
   2.0653700828552246,
   2.0659441947937012,
   2.0613811016082764,
   2.062575101852417,
   2.0604567527770996,
   2.061293363571167,
   2.0613846778869629,
   2.0564188957214355,
   2.0560526847839355,
   2.0564305782318115,
   2.0473048686981201,
   2.0355668067932129,
   2.0288841724395752,
   2.0197141170501709,
   2.0128796100616455,
   2.0039916038513184,
   1.9963438510894775,
   1.9885377883911133,
   1.9819685220718384,
   1.9214881658554077,
   1.8703052997589111,
   1.8254969120025635,
   1.7830921411514282,
   1.7445529699325562,
   1.7105710506439209,
   1.6777999401092529,
   1.6490714550018311,
   1.619403600692749,
   1.4316779375076294,
   1.3277943134307861,
   1.2598764896392822,
   1.2103537321090698,
   1.167525053024292,
   1.1392138004302979,
   1.1188679933547974,
   1.1034327745437622,
   1.1050823926925659,
   1.0392148494720459,
   1.00971519947052,
   1.0284920930862427,
   1.0173872709274292,
   0.99900197982788086,
   0.98986214399337769,
   0.97997885942459106,
   1.0006895065307617,
   1.0015672445297241,
   0.99302470684051514,
   1.0123374462127686,
   1.0103405714035034,
   0.99383556842803955,
   0.99222898483276367,
   0.97760075330734253,
   0.96883201599121094,
   0.91100329160690308,
   1.0222523212432861
]
