[
   1.4077011346817017,
   1.4074622392654419,
   1.4075357913970947,
   1.4078445434570312,
   1.4081161022186279,
   1.4080238342285156,
   1.407881498336792,
   1.4080188274383545,
   1.4084161520004272,
   1.4084348678588867,
   1.4078246355056763,
   1.4075080156326294,
   1.4074019193649292,
   1.4069610834121704,
   1.4068760871887207,
   1.4073127508163452,
   1.4064992666244507,
   1.4059749841690063,
   1.4056603908538818,
   1.4043638706207275,
   1.4022458791732788,
   1.4000502824783325,
   1.397963285446167,
   1.3967365026473999,
   1.3942782878875732,
   1.393543004989624,
   1.3911442756652832,
   1.3899385929107666,
   1.375298023223877,
   1.3632752895355225,
   1.3518545627593994,
   1.3406894207000732,
   1.3321831226348877,
   1.3231692314147949,
   1.3152822256088257,
   1.3063304424285889,
   1.2993673086166382,
   1.237311840057373,
   1.1951099634170532,
   1.1639266014099121,
   1.1426849365234375,
   1.1221915483474731,
   1.1038150787353516,
   1.0885607004165649,
   1.0776996612548828,
   1.0711240768432617,
   1.0412529706954956,
   1.0246559381484985,
   1.0218098163604736,
   1.0161736011505127,
   1.0149030685424805,
   1.0000526905059814,
   1.0131015777587891,
   1.0052120685577393,
   1.0090698003768921,
   1.0189961194992065,
   1.0102294683456421,
   1.0018980503082275,
   0.98761212825775146,
   0.99239587783813477,
   0.97283065319061279,
   0.9465104341506958,
   0.91834723949432373,
   0.87754917144775391
]
