[
   1.7073802947998047,
   1.7072021961212158,
   1.7076336145401001,
   1.7052110433578491,
   1.705837607383728,
   1.7065480947494507,
   1.7047001123428345,
   1.7068904638290405,
   1.7059043645858765,
   1.7062288522720337,
   1.7051694393157959,
   1.7040989398956299,
   1.7031261920928955,
   1.7006585597991943,
   1.7010399103164673,
   1.697545051574707,
   1.6972202062606812,
   1.6982351541519165,
   1.6970800161361694,
   1.6869831085205078,
   1.6786133050918579,
   1.6706596612930298,
   1.6610176563262939,
   1.6531698703765869,
   1.6469001770019531,
   1.640891432762146,
   1.6337645053863525,
   1.6290614604949951,
   1.5774872303009033,
   1.5358837842941284,
   1.5056285858154297,
   1.4771413803100586,
   1.4528306722640991,
   1.4291085004806519,
   1.4095429182052612,
   1.3903000354766846,
   1.3722833395004272,
   1.2557376623153687,
   1.19007408618927,
   1.1476887464523315,
   1.1155669689178467,
   1.0937539339065552,
   1.0735290050506592,
   1.0606958866119385,
   1.0516221523284912,
   1.0462727546691895,
   1.0065392255783081,
   0.99275046586990356,
   0.99331748485565186,
   0.99445116519927979,
   1.0005844831466675,
   0.98628395795822144,
   0.99676960706710815,
   0.99571150541305542,
   1.0099042654037476,
   0.99988830089569092,
   0.98417931795120239,
   1.0145179033279419,
   1.006470799446106,
   0.98329675197601318,
   0.99689847230911255,
   1.0044891834259033,
   1.0054094791412354,
   0.99064427614212036
]
