[
   1.7889575958251953,
   1.7896779775619507,
   1.7893860340118408,
   1.7898609638214111,
   1.7895524501800537,
   1.7890570163726807,
   1.7901322841644287,
   1.7879959344863892,
   1.7892318964004517,
   1.7887719869613647,
   1.7870849370956421,
   1.7864034175872803,
   1.7831577062606812,
   1.783682107925415,
   1.7815227508544922,
   1.780102014541626,
   1.7793315649032593,
   1.7780656814575195,
   1.7763477563858032,
   1.764041543006897,
   1.7545210123062134,
   1.7439533472061157,
   1.7347424030303955,
   1.7261021137237549,
   1.7158746719360352,
   1.708422064781189,
   1.7010542154312134,
   1.6940033435821533,
   1.6317266225814819,
   1.5848996639251709,
   1.545392632484436,
   1.5143487453460693,
   1.4832602739334106,
   1.4566054344177246,
   1.4347916841506958,
   1.4096896648406982,
   1.389832615852356,
   1.2587127685546875,
   1.1873067617416382,
   1.1465673446655273,
   1.1186205148696899,
   1.0998762845993042,
   1.0815659761428833,
   1.0668995380401611,
   1.0537368059158325,
   1.0448839664459229,
   1.0069005489349365,
   0.99108493328094482,
   0.99120885133743286,
   1.0056263208389282,
   0.98580664396286011,
   0.98150748014450073,
   0.99814796447753906,
   0.98937332630157471,
   0.99479341506958008,
   0.98871243000030518,
   0.98729169368743896,
   0.99189788103103638,
   0.9941178560256958,
   1.0013506412506104,
   1.0025178194046021,
   1.0228297710418701,
   1.0025087594985962,
   0.96811056137084961
]
