[
   2.3926396369934082,
   2.3917934894561768,
   2.3942017555236816,
   2.3946058750152588,
   2.3907973766326904,
   2.3938553333282471,
   2.3937520980834961,
   2.3949604034423828,
   2.3939108848571777,
   2.3946399688720703,
   2.3887927532196045,
   2.3846452236175537,
   2.3816027641296387,
   2.3804798126220703,
   2.3731265068054199,
   2.374016284942627,
   2.3705995082855225,
   2.3651227951049805,
   2.3660132884979248,
   2.3369946479797363,
   2.315765380859375,
   2.2919979095458984,
   2.2663238048553467,
   2.2527651786804199,
   2.2302701473236084,
   2.2155547142028809,
   2.2012839317321777,
   2.18251633644104,
   2.0602989196777344,
   1.9659090042114258,
   1.8869254589080811,
   1.8189420700073242,
   1.7608007192611694,
   1.7123715877532959,
   1.6631629467010498,
   1.6271288394927979,
   1.5878531932830811,
   1.3596808910369873,
   1.2554932832717896,
   1.1942198276519775,
   1.1553503274917603,
   1.1301491260528564,
   1.1023662090301514,
   1.0733752250671387,
   1.0520638227462769,
   1.0513871908187866,
   1.0280439853668213,
   0.99246180057525635,
   1.003750205039978,
   1.0204098224639893,
   1.0012457370758057,
   1.002393364906311,
   1.0015898942947388,
   0.97970139980316162,
   0.99583804607391357,
   0.98416626453399658,
   1.0079542398452759,
   0.99216777086257935,
   0.99341613054275513,
   1.0209634304046631,
   1.0084937810897827,
   0.96997702121734619,
   1.0276873111724854,
   0.88141947984695435
]
