[
   1.411365270614624,
   1.4116891622543335,
   1.4111828804016113,
   1.4124572277069092,
   1.4116743803024292,
   1.4115025997161865,
   1.4111989736557007,
   1.4112154245376587,
   1.4104090929031372,
   1.410417914390564,
   1.4102001190185547,
   1.4103685617446899,
   1.4090205430984497,
   1.4096990823745728,
   1.4086277484893799,
   1.4080007076263428,
   1.4080917835235596,
   1.4066568613052368,
   1.4066524505615234,
   1.4024786949157715,
   1.3981401920318604,
   1.3938956260681152,
   1.3903877735137939,
   1.3869240283966064,
   1.3836319446563721,
   1.3799045085906982,
   1.3763865232467651,
   1.3726646900177002,
   1.3470934629440308,
   1.3267295360565186,
   1.3094980716705322,
   1.293393611907959,
   1.2806499004364014,
   1.2669565677642822,
   1.256279468536377,
   1.2465412616729736,
   1.2383301258087158,
   1.1709878444671631,
   1.1301121711730957,
   1.100359320640564,
   1.0793815851211548,
   1.0611724853515625,
   1.0476624965667725,
   1.0415427684783936,
   1.0365754365921021,
   1.0326448678970337,
   1.0122650861740112,
   1.0042380094528198,
   1.0067940950393677,
   1.0019794702529907,
   1.0075595378875732,
   0.99503880739212036,
   0.99771547317504883,
   0.99693548679351807,
   0.99228489398956299,
   1.0054036378860474,
   0.99435174465179443,
   1.0120152235031128,
   1.0009139776229858,
   0.98544132709503174,
   0.99179661273956299,
   0.98550432920455933,
   0.97041738033294678,
   0.94982755184173584
]
