[
   9.1597805023193359,
   9.1401596069335938,
   9.1137332916259766,
   9.1285600662231445,
   9.1002817153930664,
   9.0577011108398438,
   9.0916938781738281,
   9.0682992935180664,
   9.078791618347168,
   9.0279769897460938,
   9.0058975219726562,
   8.9514598846435547,
   8.8798990249633789,
   8.8404426574707031,
   8.7854146957397461,
   8.7336254119873047,
   8.7214536666870117,
   8.6991949081420898,
   8.587153434753418,
   8.2298946380615234,
   7.8665618896484375,
   7.5912580490112305,
   7.3576035499572754,
   7.097320556640625,
   6.9068670272827148,
   6.6704378128051758,
   6.486055850982666,
   6.3491706848144531,
   4.998598575592041,
   4.1646146774291992,
   3.6374878883361816,
   3.197354793548584,
   2.8983817100524902,
   2.6676397323608398,
   2.473076343536377,
   2.2954199314117432,
   2.1671054363250732,
   1.6707668304443359,
   1.3979071378707886,
   1.2453811168670654,
   1.1959121227264404,
   1.1966077089309692,
   1.0727226734161377,
   1.0922814607620239,
   1.0431970357894897,
   1.0145705938339233,
   0.99852454662322998,
   1.032996654510498,
   0.92366248369216919,
   0.98377352952957153,
   0.99548208713531494,
   1.0430983304977417,
   0.99602138996124268,
   0.95891904830932617,
   0.98300457000732422,
   0.89452970027923584,
   1.0135804414749146,
   0.93581008911132812,
   0.92769545316696167,
   0.99233847856521606,
   1.1329989433288574,
   0.98220062255859375,
   1.2461944818496704,
   0.94288432598114014
]
