[
   6.6030206680297852,
   6.6337037086486816,
   6.587949275970459,
   6.6116323471069336,
   6.6296477317810059,
   6.6059274673461914,
   6.6179909706115723,
   6.6048393249511719,
   6.6064543724060059,
   6.578364372253418,
   6.537783145904541,
   6.4730443954467773,
   6.475400447845459,
   6.4518270492553711,
   6.4097061157226562,
   6.3641862869262695,
   6.3480491638183594,
   6.280754566192627,
   6.2508254051208496,
   5.9797825813293457,
   5.7463479042053223,
   5.55743408203125,
   5.3856253623962402,
   5.2354512214660645,
   5.1229243278503418,
   4.974757194519043,
   4.8671364784240723,
   4.7667632102966309,
   3.9534516334533691,
   3.3906707763671875,
   3.0389201641082764,
   2.7296643257141113,
   2.481978178024292,
   2.2946658134460449,
   2.1230630874633789,
   1.9835001230239868,
   1.8840758800506592,
   1.3719555139541626,
   1.2381449937820435,
   1.1505768299102783,
   1.0813170671463013,
   1.0247418880462646,
   1.0385268926620483,
   1.0486286878585815,
   1.0684883594512939,
   1.0505419969558716,
   1.0121519565582275,
   0.9948919415473938,
   1.0244956016540527,
   0.99649727344512939,
   0.97975987195968628,
   0.98449862003326416,
   0.99724501371383667,
   1.0077210664749146,
   0.98549145460128784,
   1.0085549354553223,
   0.96407872438430786,
   1.0363361835479736,
   1.0424916744232178,
   1.0255786180496216,
   0.96063917875289917,
   0.92616558074951172,
   1.0281438827514648,
   0.91363066434860229
]
