[
   1.6110082864761353,
   1.6111154556274414,
   1.6101586818695068,
   1.6109880208969116,
   1.6105573177337646,
   1.6096096038818359,
   1.6111705303192139,
   1.6085214614868164,
   1.6092503070831299,
   1.6103487014770508,
   1.6102403402328491,
   1.6079957485198975,
   1.6060158014297485,
   1.6049016714096069,
   1.6028881072998047,
   1.6024253368377686,
   1.6005356311798096,
   1.6009746789932251,
   1.5987823009490967,
   1.5871098041534424,
   1.5768768787384033,
   1.5657432079315186,
   1.5566670894622803,
   1.548093318939209,
   1.5380280017852783,
   1.5295957326889038,
   1.5244060754776001,
   1.5152809619903564,
   1.4572280645370483,
   1.4130430221557617,
   1.3782680034637451,
   1.3502408266067505,
   1.3228121995925903,
   1.3028519153594971,
   1.2837742567062378,
   1.2649132013320923,
   1.2493479251861572,
   1.1478124856948853,
   1.0976674556732178,
   1.0685184001922607,
   1.0501754283905029,
   1.0417947769165039,
   1.0314733982086182,
   1.0262665748596191,
   1.0170058012008667,
   1.0121777057647705,
   0.99456912279129028,
   1.0056684017181396,
   1.0058472156524658,
   1.0063492059707642,
   1.0000605583190918,
   1.0002954006195068,
   0.99949800968170166,
   0.99946612119674683,
   1.0005290508270264,
   0.99975651502609253,
   1.0043544769287109,
   0.97951352596282959,
   0.99771690368652344,
   0.99844920635223389,
   0.99820834398269653,
   1.0022519826889038,
   0.96256887912750244,
   0.94811123609542847
]
