[
   4.3993678092956543,
   4.4024496078491211,
   4.3836312294006348,
   4.391728401184082,
   4.3901834487915039,
   4.3878164291381836,
   4.3832335472106934,
   4.3826932907104492,
   4.3745641708374023,
   4.3741574287414551,
   4.3546953201293945,
   4.3425726890563965,
   4.3149638175964355,
   4.3089637756347656,
   4.2781925201416016,
   4.2670755386352539,
   4.2567543983459473,
   4.2421693801879883,
   4.2148752212524414,
   4.0775694847106934,
   3.9360795021057129,
   3.8543212413787842,
   3.7474007606506348,
   3.6654219627380371,
   3.587160587310791,
   3.5268433094024658,
   3.4545142650604248,
   3.3974044322967529,
   2.9345824718475342,
   2.6212475299835205,
   2.387056827545166,
   2.1987366676330566,
   2.0557098388671875,
   1.9218275547027588,
   1.8313758373260498,
   1.7577491998672485,
   1.6919502019882202,
   1.3130966424942017,
   1.1935156583786011,
   1.1365746259689331,
   1.0684797763824463,
   1.0601494312286377,
   1.0352433919906616,
   1.0358636379241943,
   1.0097038745880127,
   1.0171477794647217,
   1.0042647123336792,
   0.98997098207473755,
   1.0194391012191772,
   1.0216232538223267,
   1.00990891456604,
   1.0153059959411621,
   1.0219690799713135,
   0.98491078615188599,
   0.99936294555664062,
   1.0093109607696533,
   0.97607052326202393,
   0.98860263824462891,
   0.96426743268966675,
   1.0306096076965332,
   1.0001871585845947,
   0.97102195024490356,
   0.98844718933105469,
   1.0282135009765625
]
