[
   3.4028637409210205,
   3.405611515045166,
   3.4112029075622559,
   3.4042019844055176,
   3.3996772766113281,
   3.3995003700256348,
   3.3986423015594482,
   3.3981959819793701,
   3.3991081714630127,
   3.4004712104797363,
   3.3812568187713623,
   3.3715660572052002,
   3.3671650886535645,
   3.3559098243713379,
   3.3481669425964355,
   3.3354804515838623,
   3.3250832557678223,
   3.3133697509765625,
   3.3139431476593018,
   3.2201156616210938,
   3.1419177055358887,
   3.0739519596099854,
   3.0288057327270508,
   2.9673459529876709,
   2.9173917770385742,
   2.8730411529541016,
   2.8340599536895752,
   2.7920076847076416,
   2.4918689727783203,
   2.2892775535583496,
   2.1301131248474121,
   2.0021512508392334,
   1.8926827907562256,
   1.8110878467559814,
   1.7383226156234741,
   1.6794523000717163,
   1.6220686435699463,
   1.317204475402832,
   1.1861512660980225,
   1.1229908466339111,
   1.0782864093780518,
   1.0562512874603271,
   1.0367473363876343,
   1.0245705842971802,
   1.0132796764373779,
   1.0121386051177979,
   0.98466759920120239,
   1.0025306940078735,
   0.99595290422439575,
   0.98437118530273438,
   0.99674588441848755,
   0.98456841707229614,
   0.99330073595046997,
   0.99523508548736572,
   1.0110065937042236,
   1.0126835107803345,
   0.99632090330123901,
   1.0015507936477661,
   0.97810536623001099,
   0.99747002124786377,
   1.0162646770477295,
   0.97060549259185791,
   0.98662537336349487,
   0.87860333919525146
]
