[
   1.543510913848877,
   1.5438450574874878,
   1.542894721031189,
   1.5433279275894165,
   1.5431122779846191,
   1.5413864850997925,
   1.5423277616500854,
   1.5413920879364014,
   1.5406138896942139,
   1.540885329246521,
   1.539069652557373,
   1.540715217590332,
   1.5385904312133789,
   1.5360944271087646,
   1.5352437496185303,
   1.5353230237960815,
   1.5338472127914429,
   1.5335805416107178,
   1.5326716899871826,
   1.5229361057281494,
   1.5135509967803955,
   1.5038306713104248,
   1.4958586692810059,
   1.4898700714111328,
   1.4813884496688843,
   1.4739971160888672,
   1.466566801071167,
   1.4601359367370605,
   1.4084699153900146,
   1.3695406913757324,
   1.3368775844573975,
   1.311873197555542,
   1.2897040843963623,
   1.2700836658477783,
   1.2535552978515625,
   1.2382216453552246,
   1.2237594127655029,
   1.1366161108016968,
   1.0890634059906006,
   1.0620636940002441,
   1.0463581085205078,
   1.0354030132293701,
   1.0276782512664795,
   1.0224983692169189,
   1.0180656909942627,
   1.0144321918487549,
   0.99380683898925781,
   1.0004411935806274,
   0.9970935583114624,
   0.99847668409347534,
   0.9982951283454895,
   0.9975203275680542,
   0.99509131908416748,
   0.98909628391265869,
   0.99378454685211182,
   1.0047295093536377,
   0.99646806716918945,
   0.99333065748214722,
   0.99701404571533203,
   0.99395668506622314,
   0.9889453649520874,
   0.99138069152832031,
   0.97721970081329346,
   1.0097986459732056
]
