[
   3.8560299873352051,
   3.8612797260284424,
   3.8545525074005127,
   3.8495190143585205,
   3.8509707450866699,
   3.8567359447479248,
   3.8571228981018066,
   3.8451213836669922,
   3.8500454425811768,
   3.8449592590332031,
   3.8283901214599609,
   3.8065872192382812,
   3.7976517677307129,
   3.7699151039123535,
   3.7626197338104248,
   3.7449576854705811,
   3.7378330230712891,
   3.7187149524688721,
   3.7003104686737061,
   3.5609760284423828,
   3.4428544044494629,
   3.3397307395935059,
   3.2592792510986328,
   3.1722121238708496,
   3.0847406387329102,
   3.0280365943908691,
   2.9659664630889893,
   2.9040684700012207,
   2.4677259922027588,
   2.187873363494873,
   2.0002398490905762,
   1.8481595516204834,
   1.732143759727478,
   1.6299021244049072,
   1.5608146190643311,
   1.500739574432373,
   1.4490463733673096,
   1.2225117683410645,
   1.1405189037322998,
   1.0862977504730225,
   1.0743796825408936,
   1.0573216676712036,
   1.0387523174285889,
   1.0282111167907715,
   1.0210684537887573,
   1.0272687673568726,
   1.0037953853607178,
   0.9974522590637207,
   0.99723947048187256,
   0.97493350505828857,
   0.99320828914642334,
   1.0024667978286743,
   1.0140478610992432,
   0.98121052980422974,
   0.98968803882598877,
   1.0011968612670898,
   1.0035427808761597,
   0.98185950517654419,
   1.0066729784011841,
   1.0271075963973999,
   0.96320784091949463,
   0.9689713716506958,
   1.0321362018585205,
   0.96615344285964966
]
