[
   1.5584931373596191,
   1.5602676868438721,
   1.5594429969787598,
   1.5587031841278076,
   1.5593773126602173,
   1.5586616992950439,
   1.5581809282302856,
   1.5595710277557373,
   1.5589454174041748,
   1.5581556558609009,
   1.5577883720397949,
   1.5566365718841553,
   1.5549590587615967,
   1.5523468255996704,
   1.5531085729598999,
   1.551958441734314,
   1.5501601696014404,
   1.5497256517410278,
   1.547770619392395,
   1.536365270614624,
   1.5240375995635986,
   1.5156682729721069,
   1.5048588514328003,
   1.4958367347717285,
   1.4865682125091553,
   1.4771971702575684,
   1.4706834554672241,
   1.4621140956878662,
   1.3992617130279541,
   1.3512749671936035,
   1.3140349388122559,
   1.2844002246856689,
   1.2598555088043213,
   1.23908531665802,
   1.2202073335647583,
   1.2046865224838257,
   1.190672755241394,
   1.109204888343811,
   1.0704972743988037,
   1.0461634397506714,
   1.0323903560638428,
   1.0202630758285522,
   1.0135146379470825,
   1.011310338973999,
   1.006360650062561,
   1.0053308010101318,
   0.99803954362869263,
   1.0019770860671997,
   1.0058201551437378,
   1.0082998275756836,
   1.0011453628540039,
   1.004401683807373,
   1.0063055753707886,
   1.0011196136474609,
   1.0045080184936523,
   1.0128083229064941,
   1.0055854320526123,
   1.0004074573516846,
   1.006476879119873,
   0.98067772388458252,
   0.99708425998687744,
   0.97260779142379761,
   0.94306135177612305,
   0.96100032329559326
]
