[
   2.6988120079040527,
   2.6944808959960938,
   2.6979763507843018,
   2.6958184242248535,
   2.6973021030426025,
   2.6945033073425293,
   2.6924161911010742,
   2.692741870880127,
   2.6912729740142822,
   2.6918044090270996,
   2.6821944713592529,
   2.67891526222229,
   2.6634054183959961,
   2.6601624488830566,
   2.65336012840271,
   2.6401820182800293,
   2.6355235576629639,
   2.6325395107269287,
   2.626758337020874,
   2.5574173927307129,
   2.5042433738708496,
   2.4510183334350586,
   2.406125545501709,
   2.3624947071075439,
   2.3233685493469238,
   2.2896761894226074,
   2.2538180351257324,
   2.2200942039489746,
   1.9839563369750977,
   1.819713830947876,
   1.700084924697876,
   1.6122291088104248,
   1.5352680683135986,
   1.4773902893066406,
   1.4315475225448608,
   1.3879237174987793,
   1.3555768728256226,
   1.1634509563446045,
   1.1059223413467407,
   1.069780707359314,
   1.0559062957763672,
   1.0378210544586182,
   1.0297688245773315,
   1.0286104679107666,
   1.0265296697616577,
   1.0063951015472412,
   0.99944686889648438,
   1.0019943714141846,
   1.0039112567901611,
   1.0107933282852173,
   1.0008242130279541,
   1.0143520832061768,
   1.0049111843109131,
   0.9978257417678833,
   0.99285680055618286,
   1.0062218904495239,
   1.0011653900146484,
   1.0026756525039673,
   1.0033732652664185,
   0.99553012847900391,
   0.99967575073242188,
   0.96956557035446167,
   0.93444842100143433,
   0.95188885927200317
]
