[
   1.8371992111206055,
   1.8367760181427002,
   1.8385889530181885,
   1.8368923664093018,
   1.83687424659729,
   1.8376643657684326,
   1.840084433555603,
   1.8393728733062744,
   1.8365427255630493,
   1.8362586498260498,
   1.8322947025299072,
   1.8318271636962891,
   1.8303648233413696,
   1.8255479335784912,
   1.824353814125061,
   1.8209469318389893,
   1.8197339773178101,
   1.8184190988540649,
   1.8147404193878174,
   1.7914419174194336,
   1.7714307308197021,
   1.7504613399505615,
   1.7320734262466431,
   1.7165756225585938,
   1.7002732753753662,
   1.6849286556243896,
   1.6707185506820679,
   1.6589138507843018,
   1.5518839359283447,
   1.4733889102935791,
   1.4185842275619507,
   1.3719636201858521,
   1.3329924345016479,
   1.3029049634933472,
   1.2777882814407349,
   1.2540686130523682,
   1.23518967628479,
   1.1259641647338867,
   1.0814030170440674,
   1.0591397285461426,
   1.037278413772583,
   1.0255230665206909,
   1.0253670215606689,
   1.0168125629425049,
   1.0064951181411743,
   1.0026154518127441,
   0.99608421325683594,
   0.98839539289474487,
   0.98835122585296631,
   0.99258697032928467,
   0.9951203465461731,
   1.0010608434677124,
   0.99742090702056885,
   0.99280226230621338,
   1.0053576231002808,
   1.0071191787719727,
   0.98872596025466919,
   1.000484824180603,
   1.0157387256622314,
   0.99232131242752075,
   0.99114096164703369,
   1.0039596557617188,
   0.98077553510665894,
   0.99155890941619873
]
