[
   1.6634048223495483,
   1.6642942428588867,
   1.6625804901123047,
   1.6633173227310181,
   1.6627496480941772,
   1.6642324924468994,
   1.6639530658721924,
   1.6628208160400391,
   1.6620784997940063,
   1.6618413925170898,
   1.6594324111938477,
   1.6579866409301758,
   1.6573550701141357,
   1.6551717519760132,
   1.6526635885238647,
   1.6517503261566162,
   1.6496471166610718,
   1.6498969793319702,
   1.6462093591690063,
   1.631695032119751,
   1.6158561706542969,
   1.6023896932601929,
   1.5902444124221802,
   1.5768436193466187,
   1.5660359859466553,
   1.5553807020187378,
   1.5417283773422241,
   1.531693696975708,
   1.4533834457397461,
   1.3957444429397583,
   1.3507531881332397,
   1.3149094581604004,
   1.284581184387207,
   1.2573304176330566,
   1.2375099658966064,
   1.2206586599349976,
   1.2029223442077637,
   1.1123052835464478,
   1.0722626447677612,
   1.0461126565933228,
   1.0287034511566162,
   1.0189112424850464,
   1.012711763381958,
   1.0121110677719116,
   1.0086944103240967,
   1.010587215423584,
   1.008847713470459,
   0.99634647369384766,
   0.99777746200561523,
   1.0072972774505615,
   0.99528443813323975,
   0.999420166015625,
   1.0051001310348511,
   1.0095348358154297,
   0.99595820903778076,
   1.0077052116394043,
   1.0018990039825439,
   0.99345922470092773,
   0.99805194139480591,
   1.0056501626968384,
   0.98986798524856567,
   0.98461687564849854,
   0.99128150939941406,
   1.0406173467636108
]
