[
   1.5931086540222168,
   1.5919137001037598,
   1.5924128293991089,
   1.5926192998886108,
   1.5915615558624268,
   1.5918290615081787,
   1.5906715393066406,
   1.5918132066726685,
   1.5892120599746704,
   1.5913276672363281,
   1.5897216796875,
   1.587700366973877,
   1.5866677761077881,
   1.5849106311798096,
   1.5842792987823486,
   1.5814917087554932,
   1.5809006690979004,
   1.5778820514678955,
   1.5785624980926514,
   1.564103364944458,
   1.5528115034103394,
   1.5405405759811401,
   1.5313378572463989,
   1.5186572074890137,
   1.507868766784668,
   1.4987223148345947,
   1.4913573265075684,
   1.4812599420547485,
   1.4104486703872681,
   1.3590600490570068,
   1.3209923505783081,
   1.2863185405731201,
   1.2624084949493408,
   1.2379499673843384,
   1.2178921699523926,
   1.200554370880127,
   1.185476541519165,
   1.1011244058609009,
   1.0624216794967651,
   1.0405638217926025,
   1.0298117399215698,
   1.0256013870239258,
   1.0140417814254761,
   1.0137484073638916,
   1.0090105533599854,
   1.0080440044403076,
   0.99503934383392334,
   0.99309122562408447,
   0.9997517466545105,
   1.001503586769104,
   1.0017029047012329,
   0.99296438694000244,
   0.99976330995559692,
   1.0027482509613037,
   1.0002191066741943,
   1.0102322101593018,
   0.99494612216949463,
   0.99346077442169189,
   0.98871994018554688,
   1.0050885677337646,
   0.99688166379928589,
   1.0023189783096313,
   0.98611104488372803,
   1.0025426149368286
]
