[
   2.3669629096984863,
   2.3667466640472412,
   2.3657689094543457,
   2.3661198616027832,
   2.364574670791626,
   2.3650462627410889,
   2.3653671741485596,
   2.3669376373291016,
   2.3615043163299561,
   2.3642697334289551,
   2.3503570556640625,
   2.3527762889862061,
   2.3467316627502441,
   2.3436973094940186,
   2.3406136035919189,
   2.3296163082122803,
   2.3265964984893799,
   2.3240046501159668,
   2.3177115917205811,
   2.2675418853759766,
   2.230832576751709,
   2.1869702339172363,
   2.1504807472229004,
   2.1214087009429932,
   2.091219425201416,
   2.066420316696167,
   2.0358896255493164,
   2.0112349987030029,
   1.8231170177459717,
   1.6950445175170898,
   1.6060359477996826,
   1.532444953918457,
   1.4720015525817871,
   1.419144868850708,
   1.3778878450393677,
   1.3442730903625488,
   1.3138419389724731,
   1.1535289287567139,
   1.0920035839080811,
   1.056079626083374,
   1.0357773303985596,
   1.0340479612350464,
   1.0279430150985718,
   1.0282725095748901,
   1.0103274583816528,
   1.0076344013214111,
   0.9964941143989563,
   1.0018777847290039,
   1.0097039937973022,
   0.99633902311325073,
   0.98530817031860352,
   1.0042163133621216,
   0.98878300189971924,
   0.99986517429351807,
   1.0029809474945068,
   0.99079591035842896,
   0.99096393585205078,
   0.99659347534179688,
   0.98925131559371948,
   1.0024268627166748,
   1.0182533264160156,
   1.0015838146209717,
   0.95873594284057617,
   0.92972791194915771
]
