[
   30.965103149414062,
   31.029943466186523,
   30.800006866455078,
   30.761983871459961,
   30.762191772460938,
   30.664953231811523,
   30.842304229736328,
   30.529804229736328,
   30.538906097412109,
   30.313983917236328,
   29.582904815673828,
   29.203460693359375,
   28.801223754882812,
   28.269220352172852,
   27.407718658447266,
   26.967418670654297,
   26.828891754150391,
   26.233587265014648,
   25.896734237670898,
   22.429487228393555,
   20.470426559448242,
   18.493053436279297,
   16.853418350219727,
   15.421772956848145,
   14.385177612304688,
   13.310981750488281,
   12.522091865539551,
   11.993446350097656,
   7.1996359825134277,
   5.2544889450073242,
   4.1818361282348633,
   3.4244511127471924,
   2.8910105228424072,
   2.5202286243438721,
   2.3961181640625,
   2.1900520324707031,
   2.0683846473693848,
   1.2956551313400269,
   1.0367929935455322,
   1.0852857828140259,
   1.1267403364181519,
   1.1926524639129639,
   0.9896475076675415,
   0.99081820249557495,
   0.94604557752609253,
   1.1330206394195557,
   1.067765474319458,
   0.91650313138961792,
   0.95615178346633911,
   0.95870888233184814,
   0.96929645538330078,
   0.97633278369903564,
   0.83128726482391357,
   1.0088714361190796,
   1.0037438869476318,
   0.90190112590789795,
   0.93602192401885986,
   1.0663763284683228,
   0.95262163877487183,
   0.96134555339813232,
   0.92282307147979736,
   1.13209068775177,
   0.89764416217803955,
   1.0529922246932983
]
