[
   1.9054578542709351,
   1.9035383462905884,
   1.904384970664978,
   1.9036709070205688,
   1.9033664464950562,
   1.9022232294082642,
   1.9028470516204834,
   1.9020636081695557,
   1.9024913311004639,
   1.9012172222137451,
   1.897629976272583,
   1.8947665691375732,
   1.8930065631866455,
   1.8887243270874023,
   1.8866376876831055,
   1.8820081949234009,
   1.8817466497421265,
   1.8805662393569946,
   1.8761098384857178,
   1.8500754833221436,
   1.8262803554534912,
   1.8072942495346069,
   1.7869399785995483,
   1.7685699462890625,
   1.7512805461883545,
   1.7370221614837646,
   1.7219991683959961,
   1.7037010192871094,
   1.5964447259902954,
   1.5196363925933838,
   1.4590892791748047,
   1.4105925559997559,
   1.3716428279876709,
   1.3387970924377441,
   1.3089033365249634,
   1.2838408946990967,
   1.2589131593704224,
   1.129724383354187,
   1.0794422626495361,
   1.0619175434112549,
   1.0384831428527832,
   1.0255963802337646,
   1.0159751176834106,
   1.0121035575866699,
   1.0096557140350342,
   1.0025210380554199,
   0.99939233064651489,
   0.99321889877319336,
   0.99149447679519653,
   0.99128043651580811,
   0.99261891841888428,
   0.99518156051635742,
   0.99016892910003662,
   0.9904637336730957,
   0.98907649517059326,
   0.99083805084228516,
   1.0057904720306396,
   1.0074825286865234,
   0.99465084075927734,
   0.98409432172775269,
   0.98001223802566528,
   0.97937089204788208,
   1.0207693576812744,
   1.0334452390670776
]
