[
   14.725443840026855,
   14.74439811706543,
   14.631584167480469,
   14.644505500793457,
   14.720672607421875,
   14.659927368164062,
   14.51374340057373,
   14.573911666870117,
   14.534977912902832,
   14.561739921569824,
   14.31071949005127,
   14.110855102539062,
   13.953641891479492,
   13.791084289550781,
   13.651751518249512,
   13.386445999145508,
   13.261747360229492,
   13.223017692565918,
   13.004379272460938,
   12.015257835388184,
   11.099342346191406,
   10.438663482666016,
   9.8681049346923828,
   9.3418302536010742,
   8.9232082366943359,
   8.5169086456298828,
   8.1350202560424805,
   7.7228302955627441,
   5.483302116394043,
   4.2211508750915527,
   3.4791915416717529,
   2.9362597465515137,
   2.6284811496734619,
   2.3213472366333008,
   2.1966564655303955,
   2.0329074859619141,
   1.8523266315460205,
   1.3909010887145996,
   1.1122071743011475,
   1.0472332239151001,
   1.054836630821228,
   1.025381326675415,
   1.0891019105911255,
   1.0484001636505127,
   0.99895840883255005,
   1.0073992013931274,
   1.0757108926773071,
   0.93724644184112549,
   1.0589406490325928,
   0.98219364881515503,
   0.97625142335891724,
   1.0328789949417114,
   1.0158793926239014,
   0.93435651063919067,
   0.93929445743560791,
   0.94329804182052612,
   1.0289289951324463,
   1.0933701992034912,
   0.98096263408660889,
   0.99467027187347412,
   0.93551480770111084,
   0.97244101762771606,
   0.88848400115966797,
   0.86556452512741089
]
