[
   4.6861639022827148,
   4.6846904754638672,
   4.6769089698791504,
   4.6758279800415039,
   4.6646733283996582,
   4.6562976837158203,
   4.6708950996398926,
   4.6556787490844727,
   4.655421257019043,
   4.6530070304870605,
   4.6398897171020508,
   4.5940265655517578,
   4.5867576599121094,
   4.550755500793457,
   4.5427160263061523,
   4.4996109008789062,
   4.4760761260986328,
   4.4768800735473633,
   4.4421396255493164,
   4.2643332481384277,
   4.0988988876342773,
   3.9645016193389893,
   3.8374850749969482,
   3.7265040874481201,
   3.6415724754333496,
   3.5572116374969482,
   3.4792532920837402,
   3.3965182304382324,
   2.820746898651123,
   2.4562997817993164,
   2.1877536773681641,
   2.0093917846679688,
   1.8548504114151001,
   1.7445329427719116,
   1.6525739431381226,
   1.5711653232574463,
   1.5148087739944458,
   1.2160962820053101,
   1.1477952003479004,
   1.0908777713775635,
   1.0570547580718994,
   1.0304834842681885,
   1.0230202674865723,
   1.0317662954330444,
   1.0081417560577393,
   1.003532886505127,
   0.98716354370117188,
   1.0107567310333252,
   1.0170274972915649,
   1.0052642822265625,
   0.99164801836013794,
   1.0092687606811523,
   1.0004558563232422,
   1.0046805143356323,
   1.0124779939651489,
   0.99657440185546875,
   1.0383603572845459,
   1.0357420444488525,
   1.0178591012954712,
   1.0458072423934937,
   0.98992359638214111,
   0.98106843233108521,
   0.98914021253585815,
   0.91899216175079346
]
