[
   103.85420989990234,
   103.86088562011719,
   102.896728515625,
   99.989219665527344,
   99.460540771484375,
   99.815277099609375,
   99.444381713867188,
   100.59806823730469,
   98.800636291503906,
   97.419509887695312,
   94.690689086914062,
   90.843276977539062,
   85.905601501464844,
   83.287391662597656,
   79.81976318359375,
   78.830368041992188,
   74.965446472167969,
   75.187637329101562,
   70.144454956054688,
   54.952735900878906,
   45.607185363769531,
   38.250461578369141,
   32.495357513427734,
   28.67572021484375,
   24.785709381103516,
   23.659160614013672,
   21.554805755615234,
   19.547859191894531,
   11.10493278503418,
   6.5179533958435059,
   5.4730672836303711,
   4.3198385238647461,
   3.1896491050720215,
   2.7611696720123291,
   2.4172396659851074,
   2.0038313865661621,
   1.8673334121704102,
   1.6535800695419312,
   0.83489656448364258,
   0.93940103054046631,
   0.89237749576568604,
   0.86516225337982178,
   1.1010221242904663,
   1.0281881093978882,
   1.0449533462524414,
   0.98159855604171753,
   1.0072251558303833,
   1.064056396484375,
   1.2255051136016846,
   1.1396152973175049,
   0.81707108020782471,
   0.73696064949035645,
   1.10251784324646,
   0.87843799591064453,
   1.4335498809814453,
   0.85029822587966919,
   1.1425472497940063,
   0.99057835340499878,
   1.1760631799697876,
   1.4534904956817627,
   1.1401050090789795,
   0.64075690507888794,
   1.3347089290618896,
   1.0609033107757568
]
