[
   2.33376145362854,
   2.3368513584136963,
   2.335747241973877,
   2.3335163593292236,
   2.3357555866241455,
   2.3365013599395752,
   2.3345057964324951,
   2.3292427062988281,
   2.3338956832885742,
   2.3329405784606934,
   2.3245928287506104,
   2.3210647106170654,
   2.3151297569274902,
   2.3121919631958008,
   2.3061614036560059,
   2.3027818202972412,
   2.3002176284790039,
   2.2927260398864746,
   2.2895429134368896,
   2.2440319061279297,
   2.2096676826477051,
   2.1731617450714111,
   2.1409544944763184,
   2.1127133369445801,
   2.0875780582427979,
   2.0635144710540771,
   2.038424015045166,
   2.0164103507995605,
   1.8501455783843994,
   1.7410932779312134,
   1.6544034481048584,
   1.5855286121368408,
   1.5277290344238281,
   1.4757859706878662,
   1.4327564239501953,
   1.3956801891326904,
   1.3626453876495361,
   1.1864358186721802,
   1.1216769218444824,
   1.0857886075973511,
   1.0564485788345337,
   1.0368678569793701,
   1.0271927118301392,
   1.0153588056564331,
   1.0112721920013428,
   1.0013594627380371,
   1.0049880743026733,
   1.0021636486053467,
   1.0004518032073975,
   1.014967679977417,
   1.0063464641571045,
   0.98986685276031494,
   1.0048955678939819,
   0.99819087982177734,
   1.0167573690414429,
   1.0091483592987061,
   0.98895561695098877,
   1.0024946928024292,
   0.98462092876434326,
   1.0149664878845215,
   1.0041277408599854,
   1.0161589384078979,
   0.98353499174118042,
   0.93933326005935669
]
