[
   3.1165852546691895,
   3.1113600730895996,
   3.1114931106567383,
   3.1094217300415039,
   3.1078636646270752,
   3.1072402000427246,
   3.108201265335083,
   3.108574390411377,
   3.1016416549682617,
   3.0994439125061035,
   3.0902030467987061,
   3.0807604789733887,
   3.0711319446563721,
   3.0625975131988525,
   3.0557436943054199,
   3.0394980907440186,
   3.0317466259002686,
   3.0282399654388428,
   3.0172972679138184,
   2.930088996887207,
   2.8656139373779297,
   2.8047299385070801,
   2.7485954761505127,
   2.6993026733398438,
   2.6474571228027344,
   2.6104736328125,
   2.5764069557189941,
   2.5357553958892822,
   2.2618212699890137,
   2.0810463428497314,
   1.9394592046737671,
   1.8260225057601929,
   1.733181357383728,
   1.6605608463287354,
   1.5951982736587524,
   1.5410765409469604,
   1.4913386106491089,
   1.2461143732070923,
   1.1417471170425415,
   1.0903266668319702,
   1.0718775987625122,
   1.0620434284210205,
   1.0391063690185547,
   1.035999059677124,
   1.0220067501068115,
   0.99105870723724365,
   0.99823808670043945,
   0.99579399824142456,
   0.98739230632781982,
   1.004751443862915,
   0.99614942073822021,
   0.97713100910186768,
   1.0061461925506592,
   0.98782873153686523,
   0.98471832275390625,
   0.99156486988067627,
   1.0076562166213989,
   1.0150043964385986,
   1.015882134437561,
   0.97228926420211792,
   0.97303855419158936,
   0.94436442852020264,
   1.0716344118118286,
   1.0534274578094482
]
