[
   5.1280450820922852,
   5.1247348785400391,
   5.130500316619873,
   5.1152219772338867,
   5.1175045967102051,
   5.1258106231689453,
   5.10650634765625,
   5.1044573783874512,
   5.1024603843688965,
   5.0952482223510742,
   5.0576925277709961,
   5.0543646812438965,
   5.0285553932189941,
   5.0070466995239258,
   4.9611392021179199,
   4.9545822143554688,
   4.9195365905761719,
   4.9011869430541992,
   4.8648872375488281,
   4.6655654907226562,
   4.4841246604919434,
   4.3587265014648438,
   4.2359557151794434,
   4.13330078125,
   4.0347356796264648,
   3.9456753730773926,
   3.846865177154541,
   3.7887606620788574,
   3.2019870281219482,
   2.8075604438781738,
   2.5109403133392334,
   2.3115859031677246,
   2.1262319087982178,
   1.9918676614761353,
   1.8810007572174072,
   1.7725517749786377,
   1.7013661861419678,
   1.2780883312225342,
   1.14206862449646,
   1.1042490005493164,
   1.0865848064422607,
   1.0840928554534912,
   1.0557833909988403,
   1.02497398853302,
   0.99817389249801636,
   1.0104868412017822,
   1.0107635259628296,
   0.98914039134979248,
   0.98096162080764771,
   1.0146934986114502,
   0.9745442271232605,
   0.98360359668731689,
   0.96914005279541016,
   0.99229699373245239,
   1.045147180557251,
   0.97238236665725708,
   1.0211236476898193,
   0.98297679424285889,
   1.0149097442626953,
   1.0033918619155884,
   0.95698708295822144,
   0.88966387510299683,
   0.93378812074661255,
   0.96724474430084229
]
