[
   1.9536653757095337,
   1.9546703100204468,
   1.9534311294555664,
   1.9508073329925537,
   1.9528135061264038,
   1.9504839181900024,
   1.952441930770874,
   1.9503008127212524,
   1.9512784481048584,
   1.9540512561798096,
   1.9476544857025146,
   1.9451072216033936,
   1.9418437480926514,
   1.9393678903579712,
   1.9357621669769287,
   1.9343187808990479,
   1.9317039251327515,
   1.9261993169784546,
   1.9264093637466431,
   1.9012962579727173,
   1.8751678466796875,
   1.8555934429168701,
   1.8367326259613037,
   1.8150966167449951,
   1.7998933792114258,
   1.7831306457519531,
   1.7680740356445312,
   1.7538629770278931,
   1.6436841487884521,
   1.5640227794647217,
   1.5039608478546143,
   1.4563665390014648,
   1.4105907678604126,
   1.3753813505172729,
   1.3437955379486084,
   1.3189547061920166,
   1.2942129373550415,
   1.1503208875656128,
   1.0900390148162842,
   1.0572091341018677,
   1.0368392467498779,
   1.0265765190124512,
   1.0224707126617432,
   1.0166324377059937,
   1.0148183107376099,
   1.0050433874130249,
   0.99916231632232666,
   0.98976790904998779,
   0.99904125928878784,
   0.98525190353393555,
   0.99100017547607422,
   0.99090653657913208,
   1.0031213760375977,
   1.0044060945510864,
   1.0036914348602295,
   0.99833613634109497,
   0.99626100063323975,
   0.99343889951705933,
   0.98052537441253662,
   1.0178073644638062,
   1.005675196647644,
   1.0206623077392578,
   1.0054919719696045,
   0.97093790769577026
]
