[
   2.6422224044799805,
   2.6346652507781982,
   2.6334385871887207,
   2.636155366897583,
   2.6374249458312988,
   2.6342720985412598,
   2.634483814239502,
   2.6296424865722656,
   2.631232738494873,
   2.630643367767334,
   2.6247210502624512,
   2.6158277988433838,
   2.6094489097595215,
   2.6056070327758789,
   2.5965898036956787,
   2.5958592891693115,
   2.5853991508483887,
   2.5850217342376709,
   2.5762553215026855,
   2.5202603340148926,
   2.4643971920013428,
   2.4201729297637939,
   2.3802762031555176,
   2.3403692245483398,
   2.3047897815704346,
   2.2781853675842285,
   2.2429049015045166,
   2.2207136154174805,
   2.0050759315490723,
   1.8608430624008179,
   1.7495254278182983,
   1.6605358123779297,
   1.5872042179107666,
   1.5263577699661255,
   1.4768867492675781,
   1.4334489107131958,
   1.3941154479980469,
   1.1932905912399292,
   1.113682746887207,
   1.0828539133071899,
   1.0459024906158447,
   1.0286753177642822,
   1.0373814105987549,
   1.0240523815155029,
   1.020899772644043,
   1.0107269287109375,
   0.99944448471069336,
   1.0007154941558838,
   1.0012482404708862,
   1.0041186809539795,
   1.0010550022125244,
   0.97039711475372314,
   1.0099151134490967,
   0.9945911169052124,
   1.0067442655563354,
   0.99581670761108398,
   0.98960572481155396,
   0.98239821195602417,
   1.0024405717849731,
   0.98804235458374023,
   1.0055761337280273,
   1.0391137599945068,
   1.0015709400177002,
   0.98038613796234131
]
