[
   7.5136594772338867,
   7.525144100189209,
   7.4928960800170898,
   7.4877142906188965,
   7.4831953048706055,
   7.5262346267700195,
   7.4933309555053711,
   7.4837431907653809,
   7.4728937149047852,
   7.4480581283569336,
   7.3926935195922852,
   7.3297958374023438,
   7.2783002853393555,
   7.2622847557067871,
   7.1855249404907227,
   7.1492643356323242,
   7.1154952049255371,
   7.0443191528320312,
   7.0294733047485352,
   6.6333131790161133,
   6.3629660606384277,
   6.1122560501098633,
   5.8862276077270508,
   5.7118244171142578,
   5.555872917175293,
   5.4097437858581543,
   5.2712907791137695,
   5.1492161750793457,
   4.1442480087280273,
   3.5266079902648926,
   3.054471492767334,
   2.7067599296569824,
   2.4472899436950684,
   2.2570734024047852,
   2.105679988861084,
   1.9518928527832031,
   1.8705352544784546,
   1.3454082012176514,
   1.1603769063949585,
   1.1036803722381592,
   1.0786893367767334,
   1.0644651651382446,
   1.0492619276046753,
   1.0152056217193604,
   1.0460145473480225,
   1.0143288373947144,
   0.97606742382049561,
   1.0025798082351685,
   0.9605976939201355,
   1.0077345371246338,
   0.99826467037200928,
   0.99235457181930542,
   1.0348615646362305,
   1.0288197994232178,
   1.0705776214599609,
   0.99177014827728271,
   0.95555603504180908,
   1.0079035758972168,
   0.98647153377532959,
   1.0259120464324951,
   0.9797433614730835,
   0.95590418577194214,
   1.0164010524749756,
   0.79115569591522217
]
