[
   120.04734802246094,
   121.19972229003906,
   119.19486236572266,
   119.39154052734375,
   118.81630706787109,
   118.23248291015625,
   117.24808502197266,
   117.00825500488281,
   117.24848937988281,
   114.06925964355469,
   111.21920013427734,
   108.07210540771484,
   106.73234558105469,
   104.03397369384766,
   99.524360656738281,
   98.005691528320312,
   97.368240356445312,
   92.9931640625,
   92.133712768554688,
   79.492912292480469,
   67.37835693359375,
   59.614715576171875,
   52.744709014892578,
   45.862350463867188,
   41.894432067871094,
   37.023902893066406,
   33.928718566894531,
   32.388225555419922,
   16.25201416015625,
   10.976593971252441,
   7.1222696304321289,
   5.7437567710876465,
   4.2633600234985352,
   4.5968780517578125,
   3.8561363220214844,
   3.2690360546112061,
   2.9556126594543457,
   1.7996857166290283,
   1.5893645286560059,
   1.0825334787368774,
   1.186745285987854,
   1.3067337274551392,
   0.91924846172332764,
   1.170203685760498,
   1.3881654739379883,
   1.0817842483520508,
   0.91597253084182739,
   1.432714581489563,
   1.2783149480819702,
   1.3838088512420654,
   0.98627817630767822,
   1.2019397020339966,
   1.5734199285507202,
   1.0506727695465088,
   0.7221720814704895,
   0.88034182786941528,
   0.84517031908035278,
   0.70423775911331177,
   1.2201163768768311,
   0.69731080532073975,
   0.88724434375762939,
   1.4675588607788086,
   0.74217516183853149,
   0.57501423358917236
]
