[
   3.7751674652099609,
   3.7719242572784424,
   3.7798538208007812,
   3.785407543182373,
   3.7867341041564941,
   3.786963939666748,
   3.7723641395568848,
   3.7781410217285156,
   3.7688031196594238,
   3.7727851867675781,
   3.7578768730163574,
   3.7356884479522705,
   3.726224422454834,
   3.7156760692596436,
   3.6983504295349121,
   3.6804404258728027,
   3.6657142639160156,
   3.6629834175109863,
   3.6469345092773438,
   3.5280094146728516,
   3.4148318767547607,
   3.3302855491638184,
   3.2611987590789795,
   3.1904237270355225,
   3.1350769996643066,
   3.0790269374847412,
   3.0198009014129639,
   2.9717679023742676,
   2.6058354377746582,
   2.3419091701507568,
   2.1490225791931152,
   1.9895985126495361,
   1.8696216344833374,
   1.7689878940582275,
   1.692029595375061,
   1.6189556121826172,
   1.5609922409057617,
   1.2662707567214966,
   1.1652450561523438,
   1.0935710668563843,
   1.068681001663208,
   1.0453425645828247,
   1.0172127485275269,
   1.0172264575958252,
   1.0022902488708496,
   1.0124557018280029,
   0.98292666673660278,
   0.99908125400543213,
   1.0074551105499268,
   0.99405086040496826,
   0.99483311176300049,
   1.0033453702926636,
   0.98025399446487427,
   0.96381628513336182,
   1.0003670454025269,
   0.96759128570556641,
   0.99571990966796875,
   0.98983794450759888,
   1.0276197195053101,
   0.97896039485931396,
   1.0108258724212646,
   1.0393607616424561,
   0.9904211163520813,
   1.1908179521560669
]
