[
   6.5936188697814941,
   6.5705070495605469,
   6.5764451026916504,
   6.564943790435791,
   6.5873231887817383,
   6.563502311706543,
   6.5634355545043945,
   6.555668830871582,
   6.5521745681762695,
   6.5735206604003906,
   6.5204668045043945,
   6.4844651222229004,
   6.4416122436523438,
   6.3868913650512695,
   6.3764572143554688,
   6.3364272117614746,
   6.3010706901550293,
   6.2775583267211914,
   6.2393612861633301,
   5.9859766960144043,
   5.696958065032959,
   5.4899168014526367,
   5.2843122482299805,
   5.0773396492004395,
   4.9142003059387207,
   4.7866764068603516,
   4.6384344100952148,
   4.5102066993713379,
   3.5298075675964355,
   2.986546516418457,
   2.6134848594665527,
   2.352562427520752,
   2.1447913646697998,
   1.9971349239349365,
   1.9293267726898193,
   1.8405472040176392,
   1.759299635887146,
   1.3678399324417114,
   1.2087576389312744,
   1.1742712259292603,
   1.1281974315643311,
   1.0982877016067505,
   1.0904035568237305,
   1.031984806060791,
   1.0528744459152222,
   1.0748918056488037,
   0.99248170852661133,
   0.99830371141433716,
   1.0147973299026489,
   0.98657810688018799,
   0.98675286769866943,
   1.017268180847168,
   0.96562451124191284,
   0.96075677871704102,
   0.99895370006561279,
   0.97621142864227295,
   0.94579172134399414,
   0.98283565044403076,
   0.99918526411056519,
   1.0149646997451782,
   1.0962803363800049,
   1.0207197666168213,
   0.98121702671051025,
   1.037639856338501
]
