[
   3.6865630149841309,
   3.6878972053527832,
   3.681044340133667,
   3.6854393482208252,
   3.6833057403564453,
   3.6860630512237549,
   3.6881241798400879,
   3.6810677051544189,
   3.6822097301483154,
   3.6817886829376221,
   3.6672148704528809,
   3.6592433452606201,
   3.651665210723877,
   3.6335055828094482,
   3.6379008293151855,
   3.6166272163391113,
   3.6147212982177734,
   3.5945708751678467,
   3.5901443958282471,
   3.4968192577362061,
   3.4280097484588623,
   3.3532547950744629,
   3.290916919708252,
   3.2340264320373535,
   3.1724088191986084,
   3.1188042163848877,
   3.0695805549621582,
   3.0191788673400879,
   2.6305680274963379,
   2.3689746856689453,
   2.1770951747894287,
   2.025315523147583,
   1.9155786037445068,
   1.8147993087768555,
   1.7445087432861328,
   1.6818511486053467,
   1.6228803396224976,
   1.3291345834732056,
   1.2252562046051025,
   1.1533390283584595,
   1.1013747453689575,
   1.0882458686828613,
   1.0742828845977783,
   1.0655568838119507,
   1.064471960067749,
   1.0493338108062744,
   1.0189324617385864,
   1.0058081150054932,
   0.97694051265716553,
   1.0037376880645752,
   0.99907243251800537,
   1.0141184329986572,
   1.0116356611251831,
   0.99961060285568237,
   1.0177046060562134,
   0.99316370487213135,
   0.98031890392303467,
   0.98730611801147461,
   1.004034161567688,
   0.99131935834884644,
   0.96447849273681641,
   0.97967875003814697,
   0.97672128677368164,
   0.90141695737838745
]
