[
   34.944812774658203,
   34.556926727294922,
   34.927272796630859,
   34.577522277832031,
   34.265281677246094,
   34.230552673339844,
   34.230308532714844,
   34.123561859130859,
   34.073005676269531,
   34.003318786621094,
   32.6824951171875,
   31.726800918579102,
   30.638128280639648,
   29.750377655029297,
   29.174697875976562,
   28.547536849975586,
   27.585638046264648,
   26.916866302490234,
   26.471141815185547,
   21.110040664672852,
   17.820810317993164,
   15.488126754760742,
   13.710339546203613,
   12.145776748657227,
   11.082685470581055,
   10.131929397583008,
   9.3695068359375,
   8.6036882400512695,
   5.3013591766357422,
   3.8417911529541016,
   3.1443097591400146,
   2.6407089233398438,
   2.3315637111663818,
   2.2270441055297852,
   2.0917236804962158,
   2.0006458759307861,
   1.9862359762191772,
   1.4343985319137573,
   1.1149122714996338,
   1.1619807481765747,
   1.1225568056106567,
   1.1959230899810791,
   1.2535475492477417,
   1.1288259029388428,
   1.0743750333786011,
   1.0878465175628662,
   1.0582027435302734,
   0.99705111980438232,
   1.0787413120269775,
   0.98289763927459717,
   1.0327455997467041,
   1.002795934677124,
   1.0102388858795166,
   1.1599966287612915,
   1.0510213375091553,
   0.84368449449539185,
   0.92416727542877197,
   1.0147391557693481,
   1.0945800542831421,
   1.0363845825195312,
   1.0810469388961792,
   1.1017796993255615,
   1.0388190746307373,
   0.67902958393096924
]
