[
   1.735015869140625,
   1.7352279424667358,
   1.7336101531982422,
   1.7347679138183594,
   1.7341493368148804,
   1.7348620891571045,
   1.734545111656189,
   1.7353197336196899,
   1.7326643466949463,
   1.7347011566162109,
   1.7338212728500366,
   1.732871413230896,
   1.7319694757461548,
   1.73044753074646,
   1.729622483253479,
   1.7277660369873047,
   1.7281496524810791,
   1.7263679504394531,
   1.7253439426422119,
   1.7168430089950562,
   1.7060644626617432,
   1.6987415552139282,
   1.6916007995605469,
   1.6837402582168579,
   1.6759264469146729,
   1.6678791046142578,
   1.6638724803924561,
   1.6539328098297119,
   1.5997359752655029,
   1.5514050722122192,
   1.5110160112380981,
   1.4775302410125732,
   1.4468406438827515,
   1.4189234972000122,
   1.3941768407821655,
   1.3723372220993042,
   1.354336142539978,
   1.2291349172592163,
   1.1641222238540649,
   1.125592827796936,
   1.0922070741653442,
   1.0685322284698486,
   1.0594427585601807,
   1.0529706478118896,
   1.0380910634994507,
   1.0334255695343018,
   1.0094627141952515,
   0.99733126163482666,
   1.0093200206756592,
   1.0014119148254395,
   0.99159049987792969,
   1.0054631233215332,
   0.99747371673583984,
   0.98891770839691162,
   0.98554259538650513,
   0.99569576978683472,
   0.97449314594268799,
   0.99050313234329224,
   0.97591793537139893,
   1.0062990188598633,
   1.0209126472473145,
   1.0114842653274536,
   1.0360933542251587,
   1.030248761177063
]
