[
   2.2103965282440186,
   2.2109038829803467,
   2.2036948204040527,
   2.2062475681304932,
   2.2079498767852783,
   2.2049729824066162,
   2.2063910961151123,
   2.2047977447509766,
   2.2022485733032227,
   2.2038986682891846,
   2.1990113258361816,
   2.1983451843261719,
   2.1891484260559082,
   2.188098669052124,
   2.1848392486572266,
   2.1770532131195068,
   2.1704216003417969,
   2.1696345806121826,
   2.1655197143554688,
   2.1264839172363281,
   2.0974524021148682,
   2.0648469924926758,
   2.037778377532959,
   2.0130598545074463,
   1.9913734197616577,
   1.967063307762146,
   1.9501199722290039,
   1.9291856288909912,
   1.7854025363922119,
   1.6853290796279907,
   1.6056005954742432,
   1.5407686233520508,
   1.4858111143112183,
   1.4401094913482666,
   1.4001028537750244,
   1.3685345649719238,
   1.3400890827178955,
   1.183729887008667,
   1.1137040853500366,
   1.0699951648712158,
   1.0443817377090454,
   1.030864953994751,
   1.0273187160491943,
   1.0209357738494873,
   1.0169422626495361,
   1.0107661485671997,
   1.0036828517913818,
   0.99083453416824341,
   0.99873912334442139,
   1.004970908164978,
   1.0034171342849731,
   1.0064451694488525,
   1.0177954435348511,
   1.0061156749725342,
   0.99953281879425049,
   0.97507107257843018,
   1.0092954635620117,
   0.99036377668380737,
   1.0030652284622192,
   0.99048364162445068,
   1.0032894611358643,
   1.0194631814956665,
   0.97957783937454224,
   0.91576367616653442
]
