[
   3.4147651195526123,
   3.4213576316833496,
   3.4147434234619141,
   3.4137847423553467,
   3.406761646270752,
   3.4043872356414795,
   3.4061923027038574,
   3.4054882526397705,
   3.3956058025360107,
   3.398770809173584,
   3.3863804340362549,
   3.3751316070556641,
   3.3570199012756348,
   3.3489470481872559,
   3.339266300201416,
   3.3288383483886719,
   3.3134217262268066,
   3.2999217510223389,
   3.2912769317626953,
   3.1916050910949707,
   3.1097481250762939,
   3.0407977104187012,
   2.9739222526550293,
   2.9139893054962158,
   2.8702442646026611,
   2.817655086517334,
   2.7714226245880127,
   2.7295141220092773,
   2.4173731803894043,
   2.1919708251953125,
   2.0202107429504395,
   1.8963167667388916,
   1.7825677394866943,
   1.6960170269012451,
   1.6205198764801025,
   1.5562527179718018,
   1.51296067237854,
   1.2305198907852173,
   1.1373058557510376,
   1.0992085933685303,
   1.0590264797210693,
   1.0414599180221558,
   1.0149898529052734,
   1.0186512470245361,
   1.0051909685134888,
   1.0054057836532593,
   1.0037267208099365,
   0.99602097272872925,
   0.99821710586547852,
   0.98782205581665039,
   0.98626405000686646,
   1.0035941600799561,
   0.98999178409576416,
   0.9833599328994751,
   1.0036725997924805,
   1.0220057964324951,
   0.9928431510925293,
   0.9926493763923645,
   1.0095188617706299,
   1.0021998882293701,
   0.98769485950469971,
   0.97892439365386963,
   0.93596392869949341,
   0.94634771347045898
]
