[
   4.4519548416137695,
   4.445641040802002,
   4.4498376846313477,
   4.4469060897827148,
   4.453087329864502,
   4.4485845565795898,
   4.4470067024230957,
   4.4292750358581543,
   4.4292659759521484,
   4.431915283203125,
   4.408970832824707,
   4.3814878463745117,
   4.35888671875,
   4.3376545906066895,
   4.3119592666625977,
   4.2904510498046875,
   4.2732810974121094,
   4.2586855888366699,
   4.2493877410888672,
   4.0759873390197754,
   3.951127290725708,
   3.8342208862304688,
   3.7447905540466309,
   3.6469852924346924,
   3.5565533638000488,
   3.4864833354949951,
   3.4221420288085938,
   3.3616976737976074,
   2.8824114799499512,
   2.536552906036377,
   2.2998332977294922,
   2.1058714389801025,
   1.9757773876190186,
   1.8717176914215088,
   1.7705042362213135,
   1.7069177627563477,
   1.6415220499038696,
   1.2995641231536865,
   1.1704287528991699,
   1.1127960681915283,
   1.0717761516571045,
   1.0661497116088867,
   1.0530722141265869,
   1.0336178541183472,
   1.0202724933624268,
   1.0100171566009521,
   0.99877786636352539,
   0.98618853092193604,
   0.99488753080368042,
   0.98910170793533325,
   0.98737287521362305,
   0.98297196626663208,
   1.0041080713272095,
   1.0055196285247803,
   1.0191994905471802,
   1.0081983804702759,
   1.0068395137786865,
   0.97354590892791748,
   0.99667727947235107,
   1.002501368522644,
   1.0013183355331421,
   0.99296826124191284,
   1.0610826015472412,
   1.0235567092895508
]
