[
   1.7820940017700195,
   1.7817771434783936,
   1.7819093465805054,
   1.7807672023773193,
   1.7800719738006592,
   1.780146598815918,
   1.7800147533416748,
   1.7819770574569702,
   1.7803611755371094,
   1.7800964117050171,
   1.7770538330078125,
   1.7746622562408447,
   1.7746937274932861,
   1.7703857421875,
   1.7676641941070557,
   1.766606330871582,
   1.7665128707885742,
   1.7618163824081421,
   1.7620255947113037,
   1.7412102222442627,
   1.7250373363494873,
   1.707136869430542,
   1.6908471584320068,
   1.6781003475189209,
   1.666738748550415,
   1.6546376943588257,
   1.6443761587142944,
   1.6315319538116455,
   1.5478146076202393,
   1.4836435317993164,
   1.4394512176513672,
   1.399857759475708,
   1.3662153482437134,
   1.3381669521331787,
   1.3129842281341553,
   1.2914862632751465,
   1.2728860378265381,
   1.1582720279693604,
   1.1028878688812256,
   1.0671360492706299,
   1.0437864065170288,
   1.032785177230835,
   1.0186600685119629,
   1.0172463655471802,
   1.0097477436065674,
   1.0115735530853271,
   0.99341505765914917,
   0.98641097545623779,
   0.99046915769577026,
   0.99596798419952393,
   0.99829179048538208,
   0.99934899806976318,
   0.99390679597854614,
   0.99975717067718506,
   0.99419653415679932,
   0.98959696292877197,
   0.99807721376419067,
   0.98777377605438232,
   1.0006368160247803,
   1.0018794536590576,
   0.99783241748809814,
   1.0101586580276489,
   1.0037223100662231,
   1.0161300897598267
]
