[
   2.0350444316864014,
   2.0318529605865479,
   2.0322093963623047,
   2.0337574481964111,
   2.0331120491027832,
   2.0294833183288574,
   2.0340588092803955,
   2.0297310352325439,
   2.0317890644073486,
   2.0290448665618896,
   2.025714635848999,
   2.0232489109039307,
   2.0159084796905518,
   2.0177841186523438,
   2.0143284797668457,
   2.0072202682495117,
   2.0059483051300049,
   2.0027120113372803,
   2.0003864765167236,
   1.9695873260498047,
   1.9430649280548096,
   1.9201749563217163,
   1.8981952667236328,
   1.8732802867889404,
   1.8594160079956055,
   1.8408565521240234,
   1.8256301879882812,
   1.8103164434432983,
   1.6869757175445557,
   1.6033176183700562,
   1.5364252328872681,
   1.4829264879226685,
   1.4374550580978394,
   1.3988761901855469,
   1.3623573780059814,
   1.3320916891098022,
   1.3080404996871948,
   1.1635175943374634,
   1.1015726327896118,
   1.0638526678085327,
   1.0475916862487793,
   1.0284717082977295,
   1.0292147397994995,
   1.0158466100692749,
   1.0195688009262085,
   1.0123285055160522,
   0.99415886402130127,
   0.99196559190750122,
   0.99559462070465088,
   0.99478495121002197,
   1.0017760992050171,
   0.99260568618774414,
   0.9961925745010376,
   0.99309951066970825,
   0.9963613748550415,
   1.0094681978225708,
   0.99941587448120117,
   0.98552846908569336,
   1.0094668865203857,
   0.99908936023712158,
   1.0170681476593018,
   1.0012125968933105,
   0.96777218580245972,
   0.94575417041778564
]
