[
   2.5028257369995117,
   2.4992785453796387,
   2.4964854717254639,
   2.5009381771087646,
   2.4963793754577637,
   2.4919476509094238,
   2.4947998523712158,
   2.4938111305236816,
   2.4925827980041504,
   2.4951975345611572,
   2.4884111881256104,
   2.4840164184570312,
   2.470646858215332,
   2.4719138145446777,
   2.460308313369751,
   2.458336353302002,
   2.4562141895294189,
   2.4467954635620117,
   2.4405157566070557,
   2.3910653591156006,
   2.3500077724456787,
   2.3087704181671143,
   2.2730844020843506,
   2.2422840595245361,
   2.2098031044006348,
   2.1875178813934326,
   2.1651124954223633,
   2.1348941326141357,
   1.9572741985321045,
   1.8315715789794922,
   1.7348121404647827,
   1.6524152755737305,
   1.585052490234375,
   1.5274715423583984,
   1.4810802936553955,
   1.4435634613037109,
   1.4056755304336548,
   1.1910998821258545,
   1.1203639507293701,
   1.0788626670837402,
   1.0540567636489868,
   1.0377519130706787,
   1.0263745784759521,
   1.0244767665863037,
   1.0167063474655151,
   1.0090811252593994,
   1.0006855726242065,
   1.003974437713623,
   0.99230039119720459,
   1.0107481479644775,
   0.99838411808013916,
   1.0088669061660767,
   0.99282246828079224,
   0.98954468965530396,
   1.0032902956008911,
   0.98552560806274414,
   1.0030816793441772,
   1.014135479927063,
   0.99093705415725708,
   0.97745621204376221,
   0.98423612117767334,
   0.9714045524597168,
   0.95590794086456299,
   1.0080225467681885
]
