[
   1.8081948757171631,
   1.8096854686737061,
   1.8091011047363281,
   1.8091537952423096,
   1.810066819190979,
   1.8105576038360596,
   1.8102178573608398,
   1.8092283010482788,
   1.8082414865493774,
   1.8087842464447021,
   1.8079506158828735,
   1.8066709041595459,
   1.806161642074585,
   1.8013565540313721,
   1.8014320135116577,
   1.8011668920516968,
   1.7992664575576782,
   1.7974742650985718,
   1.7960323095321655,
   1.7848110198974609,
   1.7761697769165039,
   1.7656227350234985,
   1.7571369409561157,
   1.7477314472198486,
   1.7384650707244873,
   1.7312209606170654,
   1.7218707799911499,
   1.7166388034820557,
   1.6543798446655273,
   1.6082518100738525,
   1.5679140090942383,
   1.5350444316864014,
   1.5028306245803833,
   1.4767909049987793,
   1.452110767364502,
   1.4307535886764526,
   1.408501148223877,
   1.2606592178344727,
   1.1876122951507568,
   1.1417579650878906,
   1.1095981597900391,
   1.0886058807373047,
   1.0704612731933594,
   1.0564851760864258,
   1.0481854677200317,
   1.0401561260223389,
   1.0063198804855347,
   0.99301421642303467,
   1.000188946723938,
   1.0037391185760498,
   0.99099266529083252,
   0.99457275867462158,
   1.0047695636749268,
   0.99404191970825195,
   0.99481534957885742,
   0.98573523759841919,
   0.98657798767089844,
   0.9846227765083313,
   1.0067175626754761,
   0.99865710735321045,
   1.0432069301605225,
   0.97946035861968994,
   0.98548048734664917,
   0.99491417407989502
]
