[
   1.4250038862228394,
   1.4258397817611694,
   1.42548668384552,
   1.4251611232757568,
   1.4258850812911987,
   1.4248875379562378,
   1.4251096248626709,
   1.4260909557342529,
   1.4250041246414185,
   1.4250750541687012,
   1.4246416091918945,
   1.4244714975357056,
   1.4233824014663696,
   1.4243018627166748,
   1.4229648113250732,
   1.4225237369537354,
   1.4211905002593994,
   1.4210788011550903,
   1.4206720590591431,
   1.4164462089538574,
   1.4129321575164795,
   1.4089968204498291,
   1.4047507047653198,
   1.4020326137542725,
   1.3976317644119263,
   1.3946166038513184,
   1.3914787769317627,
   1.3872561454772949,
   1.3616069555282593,
   1.3406541347503662,
   1.3224380016326904,
   1.307370662689209,
   1.2937500476837158,
   1.2812788486480713,
   1.2697365283966064,
   1.2574132680892944,
   1.2479008436203003,
   1.1757066249847412,
   1.1298806667327881,
   1.1022567749023438,
   1.0833560228347778,
   1.069439172744751,
   1.0572108030319214,
   1.0514538288116455,
   1.0460121631622314,
   1.042611837387085,
   1.0110986232757568,
   1.0032428503036499,
   1.0087740421295166,
   1.0027525424957275,
   1.0023269653320312,
   1.0059902667999268,
   1.0125107765197754,
   0.99906951189041138,
   1.00531005859375,
   1.0217769145965576,
   1.0045316219329834,
   1.000461220741272,
   1.0169731378555298,
   0.97926437854766846,
   0.97177189588546753,
   0.96786165237426758,
   0.91013115644454956,
   0.87860852479934692
]
