[
   1.9575163125991821,
   1.9593849182128906,
   1.9588714838027954,
   1.9587604999542236,
   1.9566701650619507,
   1.9596465826034546,
   1.9584949016571045,
   1.9557285308837891,
   1.9582481384277344,
   1.9579322338104248,
   1.9562826156616211,
   1.9515565633773804,
   1.9531052112579346,
   1.9496215581893921,
   1.9474999904632568,
   1.9492883682250977,
   1.9469810724258423,
   1.9427486658096313,
   1.9425134658813477,
   1.9260375499725342,
   1.9132665395736694,
   1.9006309509277344,
   1.8879947662353516,
   1.8766536712646484,
   1.8621881008148193,
   1.8548705577850342,
   1.8460922241210938,
   1.8339208364486694,
   1.7578550577163696,
   1.6990890502929688,
   1.6481425762176514,
   1.6036739349365234,
   1.5655419826507568,
   1.5289207696914673,
   1.498150110244751,
   1.4713215827941895,
   1.4452015161514282,
   1.2770085334777832,
   1.1842782497406006,
   1.1405131816864014,
   1.0988868474960327,
   1.0743871927261353,
   1.0516090393066406,
   1.0411698818206787,
   1.0356820821762085,
   1.031302809715271,
   1.0101044178009033,
   1.001062273979187,
   1.0093562602996826,
   1.0000318288803101,
   1.0064327716827393,
   0.99447023868560791,
   1.0065557956695557,
   0.99007809162139893,
   0.9941980242729187,
   0.98717319965362549,
   1.0127265453338623,
   1.0026732683181763,
   0.99740135669708252,
   1.0016276836395264,
   1.0042001008987427,
   1.0095651149749756,
   1.0003913640975952,
   1.0171802043914795
]
