[
   2.7629313468933105,
   2.7623581886291504,
   2.7602040767669678,
   2.7635960578918457,
   2.7610688209533691,
   2.7620956897735596,
   2.7594833374023438,
   2.7616720199584961,
   2.7577071189880371,
   2.7590458393096924,
   2.7550110816955566,
   2.7487807273864746,
   2.7445871829986572,
   2.7433114051818848,
   2.7373509407043457,
   2.734931468963623,
   2.7285666465759277,
   2.7240736484527588,
   2.7164819240570068,
   2.6826014518737793,
   2.6530194282531738,
   2.6180453300476074,
   2.5899205207824707,
   2.5619890689849854,
   2.5380134582519531,
   2.513573169708252,
   2.4923007488250732,
   2.4724462032318115,
   2.2984175682067871,
   2.1632077693939209,
   2.0554709434509277,
   1.9566501379013062,
   1.880986213684082,
   1.8055245876312256,
   1.7473757266998291,
   1.6968262195587158,
   1.6513302326202393,
   1.3746200799942017,
   1.243376612663269,
   1.1709496974945068,
   1.1350195407867432,
   1.1195751428604126,
   1.1012386083602905,
   1.0952894687652588,
   1.0713125467300415,
   1.0508744716644287,
   1.0125091075897217,
   0.9833606481552124,
   1.0067425966262817,
   0.99687451124191284,
   0.99304932355880737,
   1.0092915296554565,
   1.0040984153747559,
   0.98061788082122803,
   1.0014853477478027,
   1.0034720897674561,
   1.0297915935516357,
   0.99155271053314209,
   0.98873454332351685,
   0.96208047866821289,
   0.98192626237869263,
   0.94744551181793213,
   0.98589694499969482,
   0.94078910350799561
]
