[
   2.1523988246917725,
   2.1494812965393066,
   2.1504116058349609,
   2.1499912738800049,
   2.1491620540618896,
   2.145733118057251,
   2.1474153995513916,
   2.1493957042694092,
   2.1478085517883301,
   2.1467478275299072,
   2.1446957588195801,
   2.1405491828918457,
   2.1427960395812988,
   2.1381916999816895,
   2.1360790729522705,
   2.1347041130065918,
   2.1340441703796387,
   2.1327774524688721,
   2.1275725364685059,
   2.1063845157623291,
   2.0895760059356689,
   2.0736241340637207,
   2.0587599277496338,
   2.0445077419281006,
   2.0284161567687988,
   2.0180048942565918,
   2.0055365562438965,
   1.9927518367767334,
   1.8979851007461548,
   1.8242006301879883,
   1.7605152130126953,
   1.7081291675567627,
   1.6589939594268799,
   1.6189537048339844,
   1.5804336071014404,
   1.5483334064483643,
   1.5159800052642822,
   1.3171370029449463,
   1.221796989440918,
   1.1566746234893799,
   1.1181609630584717,
   1.0914663076400757,
   1.0680215358734131,
   1.0539880990982056,
   1.0448038578033447,
   1.0357259511947632,
   0.99772214889526367,
   0.98138272762298584,
   0.99377775192260742,
   0.97472840547561646,
   0.97357046604156494,
   0.97797477245330811,
   0.99238908290863037,
   1.008395791053772,
   0.98460596799850464,
   0.98701602220535278,
   0.97130930423736572,
   0.99847614765167236,
   1.0063124895095825,
   1.006339430809021,
   0.96807402372360229,
   0.9798157811164856,
   1.0039850473403931,
   1.0007649660110474
]
