[
   1.5566810369491577,
   1.5586459636688232,
   1.5566952228546143,
   1.5565820932388306,
   1.5570310354232788,
   1.5564665794372559,
   1.5566099882125854,
   1.5567362308502197,
   1.5565210580825806,
   1.5556187629699707,
   1.5558458566665649,
   1.5548219680786133,
   1.5547772645950317,
   1.5532574653625488,
   1.5533074140548706,
   1.552765965461731,
   1.553057074546814,
   1.5504204034805298,
   1.5501232147216797,
   1.5434538125991821,
   1.5374751091003418,
   1.5317785739898682,
   1.5266042947769165,
   1.5192832946777344,
   1.514604926109314,
   1.5106929540634155,
   1.5035551786422729,
   1.5008679628372192,
   1.4628173112869263,
   1.4304623603820801,
   1.4050837755203247,
   1.3851877450942993,
   1.3653687238693237,
   1.3482629060745239,
   1.3316152095794678,
   1.3181028366088867,
   1.3039239645004272,
   1.2104032039642334,
   1.1531902551651001,
   1.1157902479171753,
   1.0891060829162598,
   1.0690230131149292,
   1.0536532402038574,
   1.0420523881912231,
   1.0353966951370239,
   1.0314961671829224,
   1.0077518224716187,
   0.9991070032119751,
   0.99381840229034424,
   0.99347668886184692,
   0.9856298565864563,
   0.99380016326904297,
   1.0044810771942139,
   0.99291294813156128,
   0.99227029085159302,
   0.99423539638519287,
   0.98281753063201904,
   0.99667710065841675,
   0.99807995557785034,
   0.9972880482673645,
   0.99578601121902466,
   1.0148922204971313,
   0.96907484531402588,
   0.98595744371414185
]
