[
   1.4501256942749023,
   1.4482067823410034,
   1.4488775730133057,
   1.4495384693145752,
   1.4491262435913086,
   1.4494085311889648,
   1.448972225189209,
   1.4482967853546143,
   1.4487311840057373,
   1.4488074779510498,
   1.4479750394821167,
   1.4474875926971436,
   1.4472570419311523,
   1.4470099210739136,
   1.4473717212677002,
   1.4456530809402466,
   1.4461600780487061,
   1.4443215131759644,
   1.4439878463745117,
   1.4395133256912231,
   1.434795618057251,
   1.4305895566940308,
   1.4260272979736328,
   1.4215297698974609,
   1.4182809591293335,
   1.4144545793533325,
   1.4103158712387085,
   1.408500075340271,
   1.3785181045532227,
   1.3548059463500977,
   1.335439920425415,
   1.3186255693435669,
   1.3025696277618408,
   1.2888176441192627,
   1.2755757570266724,
   1.2648680210113525,
   1.2527701854705811,
   1.1756855249404907,
   1.1275701522827148,
   1.0986433029174805,
   1.0770537853240967,
   1.0603653192520142,
   1.047109842300415,
   1.0415545701980591,
   1.0336035490036011,
   1.0287176370620728,
   1.0001809597015381,
   0.99067831039428711,
   0.99339139461517334,
   0.97948276996612549,
   0.985992431640625,
   0.98138248920440674,
   0.987884521484375,
   0.98918282985687256,
   0.98986703157424927,
   0.98802840709686279,
   0.98554980754852295,
   0.98372459411621094,
   0.99427449703216553,
   0.99220532178878784,
   1.0163905620574951,
   1.011799693107605,
   1.0414506196975708,
   1.0700802803039551
]
