[
   8.8868465423583984,
   8.8887958526611328,
   8.8908157348632812,
   8.8821506500244141,
   8.8781251907348633,
   8.9021396636962891,
   8.8737888336181641,
   8.8542881011962891,
   8.8452548980712891,
   8.8455181121826172,
   8.7926778793334961,
   8.7886991500854492,
   8.7088108062744141,
   8.6717147827148438,
   8.6110668182373047,
   8.5904474258422852,
   8.5084867477416992,
   8.4948835372924805,
   8.4589052200317383,
   8.1298484802246094,
   7.7851953506469727,
   7.5337400436401367,
   7.2767410278320312,
   7.0471220016479492,
   6.8541336059570312,
   6.6578879356384277,
   6.5101804733276367,
   6.3165640830993652,
   5.0164384841918945,
   4.1690502166748047,
   3.6485123634338379,
   3.2432868480682373,
   2.9646663665771484,
   2.7317650318145752,
   2.5300965309143066,
   2.3768439292907715,
   2.231224536895752,
   1.622234582901001,
   1.3759970664978027,
   1.2660243511199951,
   1.1940842866897583,
   1.1131734848022461,
   1.1118276119232178,
   1.1013948917388916,
   1.069754958152771,
   1.0601459741592407,
   0.9962347149848938,
   1.0573580265045166,
   0.94928437471389771,
   0.91539984941482544,
   0.98725402355194092,
   0.98446738719940186,
   1.0172725915908813,
   0.98507547378540039,
   1.0415164232254028,
   1.0272115468978882,
   0.97006142139434814,
   0.97971230745315552,
   0.9192768931388855,
   1.0493764877319336,
   1.0277290344238281,
   0.97384870052337646,
   0.934012770652771,
   0.91294872760772705
]
