[
   1.5801601409912109,
   1.580275297164917,
   1.5797407627105713,
   1.5794829130172729,
   1.579505443572998,
   1.579743504524231,
   1.5790307521820068,
   1.5791394710540771,
   1.5799539089202881,
   1.5792005062103271,
   1.5797141790390015,
   1.5786831378936768,
   1.5764505863189697,
   1.5771372318267822,
   1.5767199993133545,
   1.5753825902938843,
   1.5775506496429443,
   1.5746995210647583,
   1.5744092464447021,
   1.5705388784408569,
   1.5661275386810303,
   1.5617550611495972,
   1.5574926137924194,
   1.5539836883544922,
   1.5509434938430786,
   1.5460343360900879,
   1.5442408323287964,
   1.5408635139465332,
   1.5108352899551392,
   1.4852218627929688,
   1.4626580476760864,
   1.4438912868499756,
   1.4231150150299072,
   1.4064404964447021,
   1.3902162313461304,
   1.3755638599395752,
   1.3624224662780762,
   1.2623564004898071,
   1.201826810836792,
   1.1590321063995361,
   1.1251891851425171,
   1.1043126583099365,
   1.0918207168579102,
   1.0775935649871826,
   1.0673059225082397,
   1.060554027557373,
   1.0164505243301392,
   0.99871999025344849,
   0.99598866701126099,
   0.98640048503875732,
   0.98967206478118896,
   0.99594515562057495,
   0.99664747714996338,
   0.98247784376144409,
   0.9966200590133667,
   0.99217826128005981,
   1.0004270076751709,
   0.99013978242874146,
   0.98936402797698975,
   0.98564749956130981,
   0.98932045698165894,
   0.98309648036956787,
   1.0174192190170288,
   0.99355918169021606
]
