[
   9.6159229278564453,
   9.6083087921142578,
   9.5984277725219727,
   9.6554746627807617,
   9.6266794204711914,
   9.5910511016845703,
   9.5746440887451172,
   9.5494375228881836,
   9.5783329010009766,
   9.5884437561035156,
   9.5254917144775391,
   9.4827899932861328,
   9.3949947357177734,
   9.3115787506103516,
   9.2407236099243164,
   9.2139768600463867,
   9.1629962921142578,
   9.1609029769897461,
   9.0500631332397461,
   8.6054172515869141,
   8.2175502777099609,
   7.8710455894470215,
   7.4804773330688477,
   7.2188782691955566,
   6.9463815689086914,
   6.7142500877380371,
   6.4689421653747559,
   6.2812094688415527,
   4.790250301361084,
   3.9600720405578613,
   3.4082725048065186,
   3.0066401958465576,
   2.7271780967712402,
   2.5034291744232178,
   2.3178300857543945,
   2.2113761901855469,
   2.0854623317718506,
   1.5848383903503418,
   1.4061505794525146,
   1.307040810585022,
   1.2335299253463745,
   1.1525112390518188,
   1.1002662181854248,
   1.1049890518188477,
   1.0710556507110596,
   1.0867221355438232,
   1.0363614559173584,
   1.009246826171875,
   1.008875846862793,
   1.0495072603225708,
   0.9768945574760437,
   1.0425369739532471,
   0.95952522754669189,
   0.98656141757965088,
   0.98137795925140381,
   0.98591899871826172,
   0.99795567989349365,
   1.0205516815185547,
   1.057151198387146,
   0.97535133361816406,
   0.92272549867630005,
   0.95454299449920654,
   0.83415794372558594,
   0.9916955828666687
]
