[
   1.310474157333374,
   1.310563325881958,
   1.3104555606842041,
   1.3105393648147583,
   1.3106392621994019,
   1.3103940486907959,
   1.3105350732803345,
   1.3105860948562622,
   1.3104205131530762,
   1.3103146553039551,
   1.3102329969406128,
   1.3102411031723022,
   1.3101030588150024,
   1.3100788593292236,
   1.3099085092544556,
   1.3089325428009033,
   1.3085950613021851,
   1.3083053827285767,
   1.3087643384933472,
   1.3066015243530273,
   1.3056486845016479,
   1.3031471967697144,
   1.3025411367416382,
   1.3004002571105957,
   1.2988917827606201,
   1.2980502843856812,
   1.2962963581085205,
   1.2952877283096313,
   1.2831981182098389,
   1.2733277082443237,
   1.2640067338943481,
   1.2560746669769287,
   1.2483992576599121,
   1.2414451837539673,
   1.234595775604248,
   1.2280774116516113,
   1.2222738265991211,
   1.1752475500106812,
   1.1425372362136841,
   1.1171588897705078,
   1.1086812019348145,
   1.0924984216690063,
   1.0805442333221436,
   1.0701982975006104,
   1.0610554218292236,
   1.0555793046951294,
   1.0154498815536499,
   0.99882936477661133,
   0.9947056770324707,
   1.0002487897872925,
   0.99711674451828003,
   0.98697090148925781,
   0.99265801906585693,
   0.99618375301361084,
   0.99946415424346924,
   1.0068219900131226,
   0.98780888319015503,
   0.99874955415725708,
   0.97828042507171631,
   0.99976110458374023,
   1.0037894248962402,
   1.0302388668060303,
   0.99216020107269287,
   1.0136874914169312
]
