[
   6.0104727745056152,
   6.0250873565673828,
   6.0061254501342773,
   6.0088090896606445,
   6.0067300796508789,
   6.0180568695068359,
   6.0117216110229492,
   6.0127992630004883,
   5.9862537384033203,
   6.0046372413635254,
   5.975135326385498,
   5.9495716094970703,
   5.9332094192504883,
   5.9016933441162109,
   5.8870692253112793,
   5.8769803047180176,
   5.8368449211120605,
   5.8383646011352539,
   5.7963929176330566,
   5.6281895637512207,
   5.4811568260192871,
   5.3182921409606934,
   5.175318717956543,
   5.0740432739257812,
   4.9360413551330566,
   4.8247785568237305,
   4.7331266403198242,
   4.6167988777160645,
   3.8608558177947998,
   3.3516623973846436,
   2.9714779853820801,
   2.7070009708404541,
   2.5002908706665039,
   2.3339512348175049,
   2.2006230354309082,
   2.0980567932128906,
   2.0087132453918457,
   1.5580382347106934,
   1.3277275562286377,
   1.2621911764144897,
   1.2141406536102295,
   1.1872527599334717,
   1.1537219285964966,
   1.1097533702850342,
   1.0879852771759033,
   1.0687547922134399,
   1.0081474781036377,
   1.0206936597824097,
   1.0410447120666504,
   1.0007331371307373,
   0.96405839920043945,
   0.94773358106613159,
   0.97866517305374146,
   0.92436951398849487,
   0.97645747661590576,
   0.9901965856552124,
   0.96203756332397461,
   0.97060364484786987,
   0.95076453685760498,
   1.0308600664138794,
   0.96537035703659058,
   0.95306283235549927,
   1.0215270519256592,
   1.3032200336456299
]
