[
   1.6889464855194092,
   1.6897319555282593,
   1.6889663934707642,
   1.6898494958877563,
   1.6901533603668213,
   1.690882682800293,
   1.6902233362197876,
   1.6897346973419189,
   1.6887876987457275,
   1.6898730993270874,
   1.6874101161956787,
   1.6877467632293701,
   1.6879196166992188,
   1.6875091791152954,
   1.6863892078399658,
   1.6853997707366943,
   1.6829538345336914,
   1.6848198175430298,
   1.6839317083358765,
   1.676889181137085,
   1.6712888479232788,
   1.6664726734161377,
   1.6606929302215576,
   1.6561555862426758,
   1.6509726047515869,
   1.6472145318984985,
   1.6427147388458252,
   1.6387468576431274,
   1.600929856300354,
   1.5674252510070801,
   1.538519024848938,
   1.5136971473693848,
   1.4899860620498657,
   1.4688998460769653,
   1.4468648433685303,
   1.4306398630142212,
   1.4141943454742432,
   1.2967596054077148,
   1.223949670791626,
   1.1797137260437012,
   1.1498395204544067,
   1.1274510622024536,
   1.1058306694030762,
   1.0924545526504517,
   1.0771960020065308,
   1.0691162347793579,
   1.0222032070159912,
   1.0027612447738647,
   0.99659597873687744,
   1.0031372308731079,
   0.98508757352828979,
   0.98540478944778442,
   0.97794151306152344,
   1.0029745101928711,
   0.9939340353012085,
   0.99469393491744995,
   0.96141469478607178,
   0.9688953161239624,
   0.96495628356933594,
   0.9951445460319519,
   1.0263674259185791,
   1.0726282596588135,
   1.024909496307373,
   1.0863428115844727
]
