[
   2.6147055625915527,
   2.6131634712219238,
   2.6112830638885498,
   2.6105606555938721,
   2.6142334938049316,
   2.6081063747406006,
   2.6134331226348877,
   2.6110348701477051,
   2.6083955764770508,
   2.610370397567749,
   2.6058988571166992,
   2.5999510288238525,
   2.6006548404693604,
   2.5971152782440186,
   2.5938119888305664,
   2.5911550521850586,
   2.5886759757995605,
   2.5852293968200684,
   2.5796298980712891,
   2.5536675453186035,
   2.5338006019592285,
   2.5139534473419189,
   2.4938359260559082,
   2.4713644981384277,
   2.4525527954101562,
   2.4335994720458984,
   2.4205865859985352,
   2.4023540019989014,
   2.2494721412658691,
   2.1274399757385254,
   2.0284562110900879,
   1.943861722946167,
   1.8690893650054932,
   1.8089205026626587,
   1.7598005533218384,
   1.7137330770492554,
   1.6718370914459229,
   1.4176737070083618,
   1.2969253063201904,
   1.2297173738479614,
   1.1854543685913086,
   1.1535131931304932,
   1.1365858316421509,
   1.1144750118255615,
   1.1014516353607178,
   1.0859326124191284,
   1.040569543838501,
   1.0092461109161377,
   0.9673227071762085,
   0.99083101749420166,
   0.98444020748138428,
   0.98624813556671143,
   0.99447214603424072,
   0.98317033052444458,
   0.980083167552948,
   0.98401641845703125,
   0.9581066370010376,
   0.99041163921356201,
   0.97269707918167114,
   1.0137722492218018,
   1.0237606763839722,
   1.0350977182388306,
   1.0391812324523926,
   1.099555492401123
]
