[
   2.2278237342834473,
   2.2309257984161377,
   2.2323892116546631,
   2.2297275066375732,
   2.2289166450500488,
   2.228745698928833,
   2.2282974720001221,
   2.2273855209350586,
   2.2273979187011719,
   2.2285933494567871,
   2.2264382839202881,
   2.2245283126831055,
   2.221630334854126,
   2.218820333480835,
   2.2208967208862305,
   2.2159104347229004,
   2.2184207439422607,
   2.2147042751312256,
   2.2141726016998291,
   2.1975111961364746,
   2.1803874969482422,
   2.168159008026123,
   2.1552786827087402,
   2.1455748081207275,
   2.1323211193084717,
   2.1176562309265137,
   2.1056947708129883,
   2.0951862335205078,
   2.00266432762146,
   1.9207454919815063,
   1.8530008792877197,
   1.7960126399993896,
   1.7416365146636963,
   1.6966556310653687,
   1.6544640064239502,
   1.6223504543304443,
   1.5874729156494141,
   1.3743865489959717,
   1.2601082324981689,
   1.1981443166732788,
   1.150628924369812,
   1.1268419027328491,
   1.1008797883987427,
   1.0819807052612305,
   1.0732767581939697,
   1.0593843460083008,
   1.0188482999801636,
   1.0049394369125366,
   0.99760973453521729,
   0.98734539747238159,
   1.0045558214187622,
   0.97928464412689209,
   0.98171168565750122,
   0.97646158933639526,
   0.98856526613235474,
   0.99875754117965698,
   0.99586600065231323,
   0.99997043609619141,
   0.98550558090209961,
   0.98826378583908081,
   0.95907419919967651,
   0.96705090999603271,
   1.0007731914520264,
   1.0589972734451294
]
