[
   8.6954822540283203,
   8.6430234909057617,
   8.6819171905517578,
   8.6736068725585938,
   8.7078514099121094,
   8.6531839370727539,
   8.6487255096435547,
   8.6460781097412109,
   8.6293449401855469,
   8.6127805709838867,
   8.5844135284423828,
   8.5577125549316406,
   8.522216796875,
   8.4524555206298828,
   8.4392070770263672,
   8.3461141586303711,
   8.3156604766845703,
   8.3038845062255859,
   8.2115459442138672,
   7.8530006408691406,
   7.4890685081481934,
   7.1853575706481934,
   6.9139580726623535,
   6.625119686126709,
   6.4070596694946289,
   6.1606235504150391,
   5.9932851791381836,
   5.8353395462036133,
   4.508699893951416,
   3.7319889068603516,
   3.2244460582733154,
   2.8836650848388672,
   2.6336674690246582,
   2.4218547344207764,
   2.2634010314941406,
   2.1759791374206543,
   2.0950589179992676,
   1.5774927139282227,
   1.3550565242767334,
   1.2665884494781494,
   1.2561544179916382,
   1.1818115711212158,
   1.1757169961929321,
   1.0947251319885254,
   1.1047012805938721,
   1.0725680589675903,
   1.0086212158203125,
   1.050565242767334,
   1.0754306316375732,
   0.93469059467315674,
   1.0108115673065186,
   1.0302755832672119,
   1.0137456655502319,
   1.0095508098602295,
   0.99277085065841675,
   0.96263009309768677,
   1.0084786415100098,
   1.0102133750915527,
   1.0309529304504395,
   0.98082304000854492,
   0.88195830583572388,
   1.0747424364089966,
   1.0817158222198486,
   1.0330235958099365
]
