[
   1.3018805980682373,
   1.3009802103042603,
   1.3013969659805298,
   1.3014850616455078,
   1.3015238046646118,
   1.3014068603515625,
   1.3013912439346313,
   1.3014031648635864,
   1.3007658720016479,
   1.3013311624526978,
   1.3014373779296875,
   1.300803542137146,
   1.3009331226348877,
   1.3007510900497437,
   1.3009893894195557,
   1.3007833957672119,
   1.3006985187530518,
   1.3007723093032837,
   1.3004059791564941,
   1.2995202541351318,
   1.2976555824279785,
   1.2962076663970947,
   1.2953002452850342,
   1.2940490245819092,
   1.2930057048797607,
   1.2916817665100098,
   1.290780782699585,
   1.2894572019577026,
   1.2797833681106567,
   1.2712106704711914,
   1.2622164487838745,
   1.2543098926544189,
   1.2473766803741455,
   1.2400530576705933,
   1.2341763973236084,
   1.2274161577224731,
   1.2220250368118286,
   1.1745600700378418,
   1.1423723697662354,
   1.1186736822128296,
   1.112163782119751,
   1.0971070528030396,
   1.0845036506652832,
   1.0764153003692627,
   1.0695780515670776,
   1.0645041465759277,
   1.0328924655914307,
   1.0090939998626709,
   0.99686956405639648,
   0.99501430988311768,
   0.99676120281219482,
   0.98972165584564209,
   0.99310934543609619,
   0.98830175399780273,
   0.99052894115447998,
   0.99735724925994873,
   1.0186417102813721,
   0.99981671571731567,
   0.99876582622528076,
   0.99399787187576294,
   0.97582322359085083,
   0.96340781450271606,
   0.99209630489349365,
   1.0346976518630981
]
