[
   1.3648234605789185,
   1.3638526201248169,
   1.364277720451355,
   1.3641856908798218,
   1.3642932176589966,
   1.3641852140426636,
   1.364182710647583,
   1.3645675182342529,
   1.363749623298645,
   1.3639379739761353,
   1.3643180131912231,
   1.3633568286895752,
   1.3636112213134766,
   1.3632271289825439,
   1.364037036895752,
   1.3633030652999878,
   1.3634065389633179,
   1.363513708114624,
   1.3627979755401611,
   1.360927939414978,
   1.3593623638153076,
   1.3576763868331909,
   1.3562045097351074,
   1.354404091835022,
   1.3529531955718994,
   1.3510544300079346,
   1.3499761819839478,
   1.3483861684799194,
   1.3350363969802856,
   1.3235180377960205,
   1.3120888471603394,
   1.3012392520904541,
   1.292574405670166,
   1.2830793857574463,
   1.2754278182983398,
   1.2665812969207764,
   1.2596313953399658,
   1.2006232738494873,
   1.1618696451187134,
   1.1343237161636353,
   1.1195589303970337,
   1.1021490097045898,
   1.0888363122940063,
   1.079717755317688,
   1.0723416805267334,
   1.0676912069320679,
   1.034725546836853,
   1.0097863674163818,
   0.99767714738845825,
   0.99097651243209839,
   0.9961165189743042,
   0.98976260423660278,
   0.99526089429855347,
   0.98410427570343018,
   0.98863363265991211,
   0.99477595090866089,
   1.0170199871063232,
   0.99965399503707886,
   0.99838125705718994,
   0.9919663667678833,
   0.97467041015625,
   0.96154946088790894,
   0.99477279186248779,
   1.0390064716339111
]
