[
   1.2780939340591431,
   1.2771722078323364,
   1.2776420116424561,
   1.2776187658309937,
   1.2775788307189941,
   1.2777659893035889,
   1.2776672840118408,
   1.2777038812637329,
   1.2769520282745361,
   1.2774239778518677,
   1.2777863740921021,
   1.2770254611968994,
   1.2771341800689697,
   1.2770878076553345,
   1.2771601676940918,
   1.2770473957061768,
   1.2770122289657593,
   1.2769687175750732,
   1.2766133546829224,
   1.2759419679641724,
   1.2742903232574463,
   1.2728660106658936,
   1.2724393606185913,
   1.2710816860198975,
   1.2701470851898193,
   1.269085168838501,
   1.2680960893630981,
   1.2671414613723755,
   1.2584891319274902,
   1.2509458065032959,
   1.2428039312362671,
   1.2360824346542358,
   1.2298431396484375,
   1.2233245372772217,
   1.2180284261703491,
   1.2120381593704224,
   1.2069880962371826,
   1.1639741659164429,
   1.1343555450439453,
   1.1122643947601318,
   1.1079868078231812,
   1.0939223766326904,
   1.0819555521011353,
   1.0741609334945679,
   1.0674005746841431,
   1.0625252723693848,
   1.0314013957977295,
   1.0092594623565674,
   0.99734878540039062,
   0.99634647369384766,
   0.99722307920455933,
   0.98964035511016846,
   0.99244487285614014,
   0.98929870128631592,
   0.99058258533477783,
   0.99836766719818115,
   1.0191596746444702,
   1.0000280141830444,
   0.99887382984161377,
   0.99463522434234619,
   0.97665911912918091,
   0.96442395448684692,
   0.99088895320892334,
   1.0334784984588623
]
