[
   3.2767448425292969,
   3.2755284309387207,
   3.2821788787841797,
   3.2748920917510986,
   3.2765355110168457,
   3.271226167678833,
   3.2721874713897705,
   3.2733750343322754,
   3.2720279693603516,
   3.2679963111877441,
   3.2662777900695801,
   3.257143497467041,
   3.252821683883667,
   3.2566757202148438,
   3.2493796348571777,
   3.2461037635803223,
   3.2307782173156738,
   3.2281696796417236,
   3.2308921813964844,
   3.1878900527954102,
   3.1497721672058105,
   3.1085691452026367,
   3.0691299438476562,
   3.033815860748291,
   2.9972243309020996,
   2.967862606048584,
   2.9375131130218506,
   2.9095885753631592,
   2.6438729763031006,
   2.4520020484924316,
   2.2921230792999268,
   2.1724562644958496,
   2.0686330795288086,
   1.9811384677886963,
   1.904636025428772,
   1.8344764709472656,
   1.779441237449646,
   1.4518239498138428,
   1.314988374710083,
   1.2517554759979248,
   1.2183959484100342,
   1.1747136116027832,
   1.1566300392150879,
   1.1443448066711426,
   1.107643723487854,
   1.0944042205810547,
   1.0365173816680908,
   1.0249245166778564,
   0.98162335157394409,
   0.98206502199172974,
   0.98585337400436401,
   1.0033590793609619,
   0.99670445919036865,
   0.98887765407562256,
   0.96599322557449341,
   0.99763071537017822,
   1.0323115587234497,
   1.0185401439666748,
   0.97364729642868042,
   0.96139460802078247,
   0.97796612977981567,
   0.93172389268875122,
   1.0066503286361694,
   1.0368980169296265
]
