[
   2.4413838386535645,
   2.438929557800293,
   2.4380416870117188,
   2.4392151832580566,
   2.4388232231140137,
   2.4399724006652832,
   2.4394333362579346,
   2.4383842945098877,
   2.4383583068847656,
   2.4385950565338135,
   2.4324254989624023,
   2.4349586963653564,
   2.4317612648010254,
   2.428856372833252,
   2.4245553016662598,
   2.4274945259094238,
   2.4248783588409424,
   2.4187343120574951,
   2.4167017936706543,
   2.3974242210388184,
   2.382265567779541,
   2.3617422580718994,
   2.3482909202575684,
   2.3292312622070312,
   2.3159229755401611,
   2.3001599311828613,
   2.2825236320495605,
   2.2691590785980225,
   2.142949104309082,
   2.0394973754882812,
   1.9475036859512329,
   1.8743190765380859,
   1.8106533288955688,
   1.7547757625579834,
   1.7046964168548584,
   1.6552321910858154,
   1.6208732128143311,
   1.3676824569702148,
   1.2503166198730469,
   1.1862927675247192,
   1.1566892862319946,
   1.1335382461547852,
   1.1123837232589722,
   1.1025341749191284,
   1.1014528274536133,
   1.0921866893768311,
   1.0312310457229614,
   1.010722279548645,
   1.0093376636505127,
   1.0121647119522095,
   1.0129563808441162,
   0.992012619972229,
   0.99786186218261719,
   0.98492461442947388,
   0.9713403582572937,
   0.95959997177124023,
   0.96067774295806885,
   0.98804605007171631,
   0.98083746433258057,
   1.0042072534561157,
   1.0092787742614746,
   1.0677447319030762,
   1.0524539947509766,
   1.0922130346298218
]
