[
   1.4061712026596069,
   1.4049911499023438,
   1.4055383205413818,
   1.4054993391036987,
   1.4052624702453613,
   1.4050813913345337,
   1.4054924249649048,
   1.4056572914123535,
   1.4048078060150146,
   1.4051848649978638,
   1.4052407741546631,
   1.4044288396835327,
   1.4044737815856934,
   1.4042799472808838,
   1.4054198265075684,
   1.4041937589645386,
   1.4042274951934814,
   1.4045827388763428,
   1.4036591053009033,
   1.4014961719512939,
   1.3995462656021118,
   1.3975592851638794,
   1.3957654237747192,
   1.3935935497283936,
   1.3922483921051025,
   1.3899738788604736,
   1.3882205486297607,
   1.3866727352142334,
   1.3708630800247192,
   1.3571048974990845,
   1.3442376852035522,
   1.3316221237182617,
   1.3209830522537231,
   1.310250997543335,
   1.3012028932571411,
   1.2912566661834717,
   1.2829121351242065,
   1.2163553237915039,
   1.1731199026107788,
   1.1436269283294678,
   1.1232273578643799,
   1.1047414541244507,
   1.0906713008880615,
   1.0815595388412476,
   1.07380211353302,
   1.0692979097366333,
   1.0354924201965332,
   1.0105750560760498,
   0.99799811840057373,
   0.98920536041259766,
   0.99555718898773193,
   0.98983705043792725,
   0.99626761674880981,
   0.98164129257202148,
   0.98784065246582031,
   0.99303972721099854,
   1.0161986351013184,
   0.99941128492355347,
   0.99838864803314209,
   0.99049109220504761,
   0.97394609451293945,
   0.96051520109176636,
   0.99560517072677612,
   1.0417202711105347
]
