[
   1.7807767391204834,
   1.7814929485321045,
   1.7824243307113647,
   1.7800232172012329,
   1.7804782390594482,
   1.7790635824203491,
   1.7809264659881592,
   1.7797181606292725,
   1.7803373336791992,
   1.7792322635650635,
   1.7792809009552002,
   1.7784082889556885,
   1.7765804529190063,
   1.7744245529174805,
   1.773890495300293,
   1.7721239328384399,
   1.7704321146011353,
   1.770136833190918,
   1.7668697834014893,
   1.7567211389541626,
   1.745383620262146,
   1.7350984811782837,
   1.723793625831604,
   1.7144041061401367,
   1.7040691375732422,
   1.6974875926971436,
   1.6909637451171875,
   1.6833559274673462,
   1.617855429649353,
   1.5655577182769775,
   1.5236612558364868,
   1.48679518699646,
   1.4547381401062012,
   1.4270702600479126,
   1.4008865356445312,
   1.37892746925354,
   1.3604272603988647,
   1.2360566854476929,
   1.1639556884765625,
   1.125770092010498,
   1.0982747077941895,
   1.0828273296356201,
   1.0725753307342529,
   1.0660306215286255,
   1.0608171224594116,
   1.0535200834274292,
   1.015092134475708,
   0.99871331453323364,
   0.99666720628738403,
   0.9820176362991333,
   0.99295824766159058,
   0.98566484451293945,
   1.0032036304473877,
   0.99777412414550781,
   0.99569815397262573,
   0.99349993467330933,
   0.98374426364898682,
   1.0038220882415771,
   0.97917091846466064,
   1.0037527084350586,
   0.99083691835403442,
   1.0069414377212524,
   0.98573416471481323,
   1.0075256824493408
]
