[
   1.4395530223846436,
   1.4403955936431885,
   1.4398661851882935,
   1.4392235279083252,
   1.4399714469909668,
   1.4388136863708496,
   1.4390014410018921,
   1.43914794921875,
   1.4388406276702881,
   1.4388620853424072,
   1.43882155418396,
   1.4383933544158936,
   1.4373856782913208,
   1.4380190372467041,
   1.437235951423645,
   1.4363210201263428,
   1.435228705406189,
   1.4359490871429443,
   1.4341055154800415,
   1.4297927618026733,
   1.4263366460800171,
   1.4215726852416992,
   1.4179772138595581,
   1.4143553972244263,
   1.4091757535934448,
   1.4053547382354736,
   1.4021786451339722,
   1.3994275331497192,
   1.3696341514587402,
   1.3460080623626709,
   1.3254538774490356,
   1.3074122667312622,
   1.2915997505187988,
   1.2785613536834717,
   1.2656114101409912,
   1.2538378238677979,
   1.2439965009689331,
   1.1699807643890381,
   1.1250488758087158,
   1.0991860628128052,
   1.0775971412658691,
   1.0642426013946533,
   1.0518832206726074,
   1.0416022539138794,
   1.0347504615783691,
   1.0319144725799561,
   1.0044999122619629,
   1.0033175945281982,
   0.99911165237426758,
   0.99227458238601685,
   0.99808967113494873,
   0.99001133441925049,
   0.98598623275756836,
   0.98799294233322144,
   0.99807846546173096,
   0.99551570415496826,
   0.99594509601593018,
   0.99347704648971558,
   0.9901086688041687,
   0.9972807765007019,
   0.99464702606201172,
   0.98616135120391846,
   1.025892972946167,
   1.0097551345825195
]
