[
   2.6408262252807617,
   2.6470332145690918,
   2.6417636871337891,
   2.6456494331359863,
   2.6480703353881836,
   2.6412003040313721,
   2.6412463188171387,
   2.6411929130554199,
   2.6415503025054932,
   2.6423635482788086,
   2.6352925300598145,
   2.6344332695007324,
   2.6242120265960693,
   2.6220722198486328,
   2.6164498329162598,
   2.6143796443939209,
   2.607823371887207,
   2.603975772857666,
   2.5981156826019287,
   2.5602471828460693,
   2.5312237739562988,
   2.497422456741333,
   2.4653303623199463,
   2.4377901554107666,
   2.4118630886077881,
   2.385939359664917,
   2.3656480312347412,
   2.33815598487854,
   2.1602683067321777,
   2.0141220092773438,
   1.90657639503479,
   1.8184823989868164,
   1.7428125143051147,
   1.6857578754425049,
   1.6242992877960205,
   1.5839132070541382,
   1.5411837100982666,
   1.2952044010162354,
   1.2068276405334473,
   1.1691675186157227,
   1.137958288192749,
   1.1046946048736572,
   1.0888173580169678,
   1.0697906017303467,
   1.0446306467056274,
   1.0425832271575928,
   1.0218487977981567,
   1.0284855365753174,
   1.0262496471405029,
   1.0055994987487793,
   1.0044498443603516,
   1.0157033205032349,
   1.0062918663024902,
   1.0151640176773071,
   1.0193192958831787,
   1.0101054906845093,
   1.0167803764343262,
   1.0377570390701294,
   0.9844735860824585,
   0.98471862077713013,
   0.94792717695236206,
   0.9839707612991333,
   0.91787374019622803,
   0.83739984035491943
]
