[
   2.1009032726287842,
   2.0998787879943848,
   2.0994830131530762,
   2.1026983261108398,
   2.1009297370910645,
   2.0987153053283691,
   2.1008567810058594,
   2.1012463569641113,
   2.0996670722961426,
   2.0984792709350586,
   2.0987133979797363,
   2.0960836410522461,
   2.0920376777648926,
   2.0904531478881836,
   2.0867924690246582,
   2.085075855255127,
   2.0834529399871826,
   2.0808098316192627,
   2.078345775604248,
   2.0586133003234863,
   2.0407013893127441,
   2.0231759548187256,
   2.0083377361297607,
   1.991199254989624,
   1.9764432907104492,
   1.9644479751586914,
   1.9524024724960327,
   1.9389183521270752,
   1.8335611820220947,
   1.7511599063873291,
   1.6857397556304932,
   1.6309143304824829,
   1.5808805227279663,
   1.542106032371521,
   1.505730152130127,
   1.4738368988037109,
   1.4459898471832275,
   1.2656279802322388,
   1.1879494190216064,
   1.1397751569747925,
   1.0985550880432129,
   1.0745275020599365,
   1.0563430786132812,
   1.0473121404647827,
   1.0392134189605713,
   1.0456751585006714,
   1.0030616521835327,
   0.99224978685379028,
   1.0133469104766846,
   1.0044056177139282,
   0.99200314283370972,
   0.99370467662811279,
   0.99759501218795776,
   1.00028395652771,
   1.0116581916809082,
   0.980918288230896,
   0.99205958843231201,
   1.0140026807785034,
   1.0086572170257568,
   0.97857838869094849,
   0.96635007858276367,
   0.97170841693878174,
   1.0481979846954346,
   0.98917806148529053
]
