[
   3.2891597747802734,
   3.2809162139892578,
   3.285416841506958,
   3.2808761596679688,
   3.2868721485137939,
   3.2882161140441895,
   3.2730815410614014,
   3.2860786914825439,
   3.2791545391082764,
   3.2807488441467285,
   3.2696652412414551,
   3.2636954784393311,
   3.2564167976379395,
   3.2378230094909668,
   3.2392139434814453,
   3.2278265953063965,
   3.2192528247833252,
   3.222337007522583,
   3.2125568389892578,
   3.1427793502807617,
   3.0918233394622803,
   3.0368416309356689,
   2.984255313873291,
   2.9379203319549561,
   2.8866658210754395,
   2.8494465351104736,
   2.8181388378143311,
   2.7768361568450928,
   2.4801878929138184,
   2.2697052955627441,
   2.0983660221099854,
   1.9710772037506104,
   1.8606544733047485,
   1.7680284976959229,
   1.7007033824920654,
   1.6412336826324463,
   1.5907682180404663,
   1.2984621524810791,
   1.1849387884140015,
   1.1273821592330933,
   1.0840761661529541,
   1.0387227535247803,
   1.039806604385376,
   1.0353277921676636,
   1.036994457244873,
   1.0288612842559814,
   1.0071542263031006,
   1.0116307735443115,
   1.0269567966461182,
   0.99200296401977539,
   1.0119330883026123,
   1.0087621212005615,
   0.98130142688751221,
   1.0134506225585938,
   0.98662394285202026,
   0.97596722841262817,
   1.0066289901733398,
   0.97396957874298096,
   0.99672967195510864,
   1.0017436742782593,
   0.98162621259689331,
   1.0471707582473755,
   1.0450750589370728,
   0.89478605985641479
]
