[
   49.893699645996094,
   49.607944488525391,
   49.183696746826172,
   49.756195068359375,
   48.935935974121094,
   48.788349151611328,
   48.439327239990234,
   48.537498474121094,
   48.576133728027344,
   48.603523254394531,
   47.088245391845703,
   44.842658996582031,
   43.772712707519531,
   42.094234466552734,
   41.766685485839844,
   40.427589416503906,
   39.289810180664062,
   38.619758605957031,
   37.67236328125,
   30.120265960693359,
   25.090217590332031,
   21.624282836914062,
   18.655574798583984,
   16.492118835449219,
   15.459698677062988,
   13.58417797088623,
   12.378613471984863,
   11.609126091003418,
   7.1227278709411621,
   5.046633243560791,
   4.038994312286377,
   3.3340671062469482,
   2.9395842552185059,
   2.7455008029937744,
   2.4566335678100586,
   2.2324767112731934,
   1.95377516746521,
   1.3948204517364502,
   1.22014319896698,
   1.2963377237319946,
   1.2248820066452026,
   1.1812015771865845,
   1.181418776512146,
   1.1359035968780518,
   1.0369294881820679,
   1.1145178079605103,
   0.89507627487182617,
   1.0961291790008545,
   1.1210563182830811,
   1.0498721599578857,
   1.0178763866424561,
   1.03509521484375,
   0.94456863403320312,
   0.81637221574783325,
   0.91367626190185547,
   0.99873226881027222,
   0.77943885326385498,
   1.090740442276001,
   0.96951353549957275,
   1.0285975933074951,
   0.84144747257232666,
   0.83329850435256958,
   0.59922158718109131,
   1.1245988607406616
]
