[
   1.6604044437408447,
   1.6584314107894897,
   1.659457802772522,
   1.6590263843536377,
   1.6597926616668701,
   1.6574764251708984,
   1.6565742492675781,
   1.656937837600708,
   1.6588064432144165,
   1.6569483280181885,
   1.6565433740615845,
   1.6568071842193604,
   1.6525850296020508,
   1.6515352725982666,
   1.6491187810897827,
   1.6480013132095337,
   1.648166298866272,
   1.6445515155792236,
   1.6442623138427734,
   1.629155158996582,
   1.6149944067001343,
   1.6041263341903687,
   1.5907274484634399,
   1.5801790952682495,
   1.5670574903488159,
   1.5581018924713135,
   1.5473313331604004,
   1.5388761758804321,
   1.4614865779876709,
   1.4074231386184692,
   1.3609092235565186,
   1.3262979984283447,
   1.2949036359786987,
   1.2701742649078369,
   1.2474688291549683,
   1.226828932762146,
   1.2110786437988281,
   1.1180393695831299,
   1.072559118270874,
   1.0488760471343994,
   1.0411618947982788,
   1.0314638614654541,
   1.0237007141113281,
   1.0227922201156616,
   1.016681432723999,
   1.0108669996261597,
   0.99663817882537842,
   1.0005830526351929,
   0.99799507856369019,
   1.0036914348602295,
   0.99822771549224854,
   1.0011183023452759,
   1.0008260011672974,
   1.0028228759765625,
   0.99979782104492188,
   1.0032504796981812,
   0.99131327867507935,
   0.99721497297286987,
   1.0011271238327026,
   0.99214076995849609,
   0.99199783802032471,
   1.0023654699325562,
   0.98614799976348877,
   0.96679878234863281
]
