[
   34.111869812011719,
   33.953586578369141,
   33.763702392578125,
   34.095973968505859,
   33.711883544921875,
   33.934837341308594,
   33.763053894042969,
   33.651264190673828,
   33.610137939453125,
   33.2801513671875,
   32.863288879394531,
   31.998031616210938,
   31.101678848266602,
   31.003030776977539,
   30.495498657226562,
   29.929672241210938,
   29.699874877929688,
   29.132577896118164,
   28.717227935791016,
   25.511680603027344,
   22.760402679443359,
   20.755960464477539,
   19.344192504882812,
   17.923934936523438,
   16.667051315307617,
   15.560107231140137,
   14.693452835083008,
   14.05262565612793,
   8.6798515319824219,
   6.012941837310791,
   4.7922878265380859,
   3.9361484050750732,
   3.4459967613220215,
   3.1160159111022949,
   2.7827773094177246,
   2.6004552841186523,
   2.3465337753295898,
   1.4180322885513306,
   1.3067597150802612,
   1.0999711751937866,
   1.2436263561248779,
   1.1425309181213379,
   1.204350471496582,
   0.98964899778366089,
   1.110843300819397,
   1.0159575939178467,
   0.98595952987670898,
   0.90822029113769531,
   0.9795873761177063,
   1.0409259796142578,
   1.0910155773162842,
   0.97500085830688477,
   0.96332252025604248,
   0.97696036100387573,
   0.90263569355010986,
   0.8291550874710083,
   0.9846874475479126,
   0.99477654695510864,
   1.0742596387863159,
   1.0315114259719849,
   1.0063244104385376,
   0.887897789478302,
   0.98452186584472656,
   0.68950259685516357
]
