[
   1.5984206199645996,
   1.5988696813583374,
   1.5992116928100586,
   1.5996361970901489,
   1.5989232063293457,
   1.5988960266113281,
   1.5987060070037842,
   1.598989725112915,
   1.5991840362548828,
   1.5996142625808716,
   1.5975916385650635,
   1.5950055122375488,
   1.5950860977172852,
   1.5938451290130615,
   1.5914422273635864,
   1.5896270275115967,
   1.5893244743347168,
   1.5871222019195557,
   1.5867587327957153,
   1.5734877586364746,
   1.5626664161682129,
   1.5511429309844971,
   1.5410423278808594,
   1.5299526453018188,
   1.5216312408447266,
   1.5120695829391479,
   1.5038988590240479,
   1.4954023361206055,
   1.4282369613647461,
   1.3786534070968628,
   1.3394867181777954,
   1.3079386949539185,
   1.2800445556640625,
   1.2559044361114502,
   1.2351739406585693,
   1.2192853689193726,
   1.2007944583892822,
   1.1124053001403809,
   1.0682523250579834,
   1.0539178848266602,
   1.0388593673706055,
   1.0259031057357788,
   1.0161916017532349,
   1.0122359991073608,
   1.0082007646560669,
   1.0081393718719482,
   1.0045053958892822,
   1.0026721954345703,
   1.0037366151809692,
   1.0033218860626221,
   0.99473583698272705,
   0.99574726819992065,
   0.99535894393920898,
   0.99543648958206177,
   0.99883520603179932,
   1.0030211210250854,
   0.99629676342010498,
   0.99796265363693237,
   0.99645721912384033,
   0.99810123443603516,
   1.0129671096801758,
   0.9938124418258667,
   0.99169766902923584,
   0.99911630153656006
]
