[
   17.550909042358398,
   17.604625701904297,
   17.614459991455078,
   17.505878448486328,
   17.357822418212891,
   17.484390258789062,
   17.366872787475586,
   17.339817047119141,
   17.360965728759766,
   17.305061340332031,
   17.034183502197266,
   16.837701797485352,
   16.720405578613281,
   16.381576538085938,
   16.222845077514648,
   16.184501647949219,
   15.810731887817383,
   15.585861206054688,
   15.536169052124023,
   14.112040519714355,
   13.140362739562988,
   12.36763858795166,
   11.529735565185547,
   10.888726234436035,
   10.279546737670898,
   9.7833461761474609,
   9.3598546981811523,
   8.9881134033203125,
   6.1948785781860352,
   4.7493381500244141,
   3.8522453308105469,
   3.2493865489959717,
   2.9543557167053223,
   2.6031918525695801,
   2.3980414867401123,
   2.1606884002685547,
   2.025254487991333,
   1.403273344039917,
   1.2679240703582764,
   1.1676077842712402,
   1.1325002908706665,
   1.0646650791168213,
   1.106026291847229,
   1.0915882587432861,
   0.97959291934967041,
   0.99718916416168213,
   1.0961785316467285,
   0.96501815319061279,
   0.97520077228546143,
   1.0007064342498779,
   0.93206322193145752,
   0.9748225212097168,
   0.96083003282546997,
   1.0486879348754883,
   0.98124390840530396,
   0.97751367092132568,
   0.98313796520233154,
   1.100238561630249,
   0.9560171365737915,
   1.0250202417373657,
   0.93561780452728271,
   1.1653987169265747,
   1.0623338222503662,
   0.87403231859207153
]
