[
   8.1943941116333008,
   8.2300004959106445,
   8.1964435577392578,
   8.2117118835449219,
   8.1647548675537109,
   8.2029314041137695,
   8.1906394958496094,
   8.1482343673706055,
   8.1451663970947266,
   8.160090446472168,
   8.0880241394042969,
   8.0321331024169922,
   7.953371524810791,
   7.8885016441345215,
   7.8510322570800781,
   7.7505850791931152,
   7.7138261795043945,
   7.6969728469848633,
   7.601595401763916,
   7.1867256164550781,
   6.7925653457641602,
   6.4880533218383789,
   6.1995935440063477,
   5.960594654083252,
   5.7707986831665039,
   5.5704617500305176,
   5.3714709281921387,
   5.2136173248291016,
   4.1106863021850586,
   3.4229412078857422,
   2.9376275539398193,
   2.6087830066680908,
   2.3814883232116699,
   2.1850180625915527,
   2.0608146190643311,
   1.9345451593399048,
   1.8329722881317139,
   1.3471401929855347,
   1.175750732421875,
   1.1039035320281982,
   1.0386461019515991,
   1.0440212488174438,
   1.0610860586166382,
   1.0659862756729126,
   1.0484505891799927,
   1.0328587293624878,
   0.99686747789382935,
   1.0046907663345337,
   0.96573734283447266,
   1.0003511905670166,
   0.99193781614303589,
   1.0262105464935303,
   1.0134319067001343,
   1.0081112384796143,
   1.0324815511703491,
   0.97070729732513428,
   1.0038163661956787,
   0.97190743684768677,
   0.96028316020965576,
   1.0333257913589478,
   0.96871316432952881,
   1.0101431608200073,
   1.0452334880828857,
   0.79969960451126099
]
