[
   1.7258951663970947,
   1.726125955581665,
   1.7254679203033447,
   1.7265256643295288,
   1.7262595891952515,
   1.725105881690979,
   1.7249065637588501,
   1.7252743244171143,
   1.7256021499633789,
   1.7253021001815796,
   1.7215206623077393,
   1.7201576232910156,
   1.7183992862701416,
   1.7168718576431274,
   1.7164217233657837,
   1.7132899761199951,
   1.7126938104629517,
   1.7111377716064453,
   1.7084184885025024,
   1.691741943359375,
   1.6758372783660889,
   1.6607558727264404,
   1.6456006765365601,
   1.6320273876190186,
   1.6189916133880615,
   1.6100155115127563,
   1.5956395864486694,
   1.5851943492889404,
   1.4993016719818115,
   1.4329123497009277,
   1.3843028545379639,
   1.3439137935638428,
   1.3119330406188965,
   1.2871006727218628,
   1.2605632543563843,
   1.2416166067123413,
   1.2243571281433105,
   1.1193239688873291,
   1.0758167505264282,
   1.0495147705078125,
   1.0357440710067749,
   1.0229436159133911,
   1.0186092853546143,
   1.0169633626937866,
   1.0102063417434692,
   1.0028088092803955,
   0.99832761287689209,
   0.9912104606628418,
   0.99685180187225342,
   0.99640023708343506,
   0.99757832288742065,
   0.99024474620819092,
   0.99253463745117188,
   0.99825191497802734,
   0.99201327562332153,
   0.99662590026855469,
   0.9959033727645874,
   1.0042682886123657,
   1.0069971084594727,
   0.98504143953323364,
   0.98589622974395752,
   0.97547519207000732,
   0.98614299297332764,
   1.023485541343689
]
