[
   2.166508674621582,
   2.1664328575134277,
   2.1699950695037842,
   2.1637389659881592,
   2.1676633358001709,
   2.1688847541809082,
   2.1629641056060791,
   2.1655373573303223,
   2.1653127670288086,
   2.1650063991546631,
   2.1605143547058105,
   2.1600222587585449,
   2.1508755683898926,
   2.1523566246032715,
   2.1493287086486816,
   2.1408729553222656,
   2.1386017799377441,
   2.1354970932006836,
   2.1305956840515137,
   2.0934033393859863,
   2.0669906139373779,
   2.0421338081359863,
   2.009650707244873,
   1.9883136749267578,
   1.9613430500030518,
   1.943232536315918,
   1.9232990741729736,
   1.8995193243026733,
   1.7486511468887329,
   1.6439125537872314,
   1.5637137889862061,
   1.4989769458770752,
   1.4445488452911377,
   1.4040067195892334,
   1.3701626062393188,
   1.3406887054443359,
   1.3184276819229126,
   1.1582756042480469,
   1.1000679731369019,
   1.0665640830993652,
   1.0476335287094116,
   1.0384905338287354,
   1.0329654216766357,
   1.0212527513504028,
   1.0159817934036255,
   1.0100587606430054,
   0.99785643815994263,
   0.99133920669555664,
   0.9885181188583374,
   0.99337482452392578,
   0.9977186918258667,
   1.0076102018356323,
   1.0001411437988281,
   0.99710428714752197,
   1.0004093647003174,
   1.0106093883514404,
   1.0027636289596558,
   1.012482762336731,
   0.99397403001785278,
   1.0006653070449829,
   0.9575423002243042,
   0.97365570068359375,
   0.95722979307174683,
   0.99968492984771729
]
