[
   2.0186328887939453,
   2.0156373977661133,
   2.018735408782959,
   2.0160655975341797,
   2.0171232223510742,
   2.0162642002105713,
   2.0185520648956299,
   2.0177681446075439,
   2.0181214809417725,
   2.0178360939025879,
   2.0121316909790039,
   2.0121135711669922,
   2.0066566467285156,
   2.0055382251739502,
   2.0005171298980713,
   1.9966716766357422,
   1.9914849996566772,
   1.9909693002700806,
   1.9861509799957275,
   1.9582468271255493,
   1.9313627481460571,
   1.9055271148681641,
   1.8800722360610962,
   1.8630664348602295,
   1.8437521457672119,
   1.823264479637146,
   1.8070446252822876,
   1.7880426645278931,
   1.6607202291488647,
   1.5685482025146484,
   1.5032289028167725,
   1.4475890398025513,
   1.4044984579086304,
   1.3659616708755493,
   1.3314101696014404,
   1.3023173809051514,
   1.2786952257156372,
   1.1449868679046631,
   1.0874897241592407,
   1.0531332492828369,
   1.0402405261993408,
   1.0275287628173828,
   1.0113277435302734,
   1.0031355619430542,
   0.99926459789276123,
   0.99880445003509521,
   0.99925315380096436,
   1.0035556554794312,
   0.99860799312591553,
   1.0073716640472412,
   0.99820423126220703,
   0.99307763576507568,
   1.0108940601348877,
   0.99949884414672852,
   1.0003707408905029,
   1.0055229663848877,
   1.0009843111038208,
   0.99447095394134521,
   1.0039095878601074,
   0.98332118988037109,
   0.99227523803710938,
   0.96408241987228394,
   0.94960051774978638,
   0.95146751403808594
]
