[
   34.854095458984375,
   35.079742431640625,
   34.978294372558594,
   34.544631958007812,
   34.409530639648438,
   34.626823425292969,
   34.565670013427734,
   34.067550659179688,
   34.235530853271484,
   34.567070007324219,
   33.345283508300781,
   32.492549896240234,
   32.090904235839844,
   31.895406723022461,
   30.994998931884766,
   30.796279907226562,
   30.372762680053711,
   29.837574005126953,
   29.647775650024414,
   26.361461639404297,
   24.615345001220703,
   22.733091354370117,
   21.351299285888672,
   19.625783920288086,
   18.507171630859375,
   17.477296829223633,
   16.640190124511719,
   15.700326919555664,
   10.290505409240723,
   7.1693315505981445,
   5.3307709693908691,
   4.5511374473571777,
   3.9223868846893311,
   3.2538466453552246,
   2.9839212894439697,
   2.4119653701782227,
   2.1122574806213379,
   1.5074448585510254,
   1.1732183694839478,
   1.0275752544403076,
   0.97264748811721802,
   1.0779726505279541,
   1.022385835647583,
   0.99544906616210938,
   1.0929021835327148,
   1.008084774017334,
   0.89638042449951172,
   1.0408728122711182,
   1.027665376663208,
   1.0353597402572632,
   1.1225636005401611,
   1.0390286445617676,
   1.0201364755630493,
   0.88535773754119873,
   0.95542222261428833,
   1.197905421257019,
   0.98116379976272583,
   1.1147153377532959,
   0.91086512804031372,
   1.0841697454452515,
   0.82278144359588623,
   1.1163451671600342,
   1.0089733600616455,
   0.76431906223297119
]
