[
   2.1678805351257324,
   2.1664230823516846,
   2.168057918548584,
   2.166785717010498,
   2.1644730567932129,
   2.1680428981781006,
   2.1659445762634277,
   2.1626653671264648,
   2.1676695346832275,
   2.1681928634643555,
   2.1605105400085449,
   2.1557736396789551,
   2.1512668132781982,
   2.1466436386108398,
   2.1418116092681885,
   2.142967700958252,
   2.1355178356170654,
   2.1305184364318848,
   2.1269712448120117,
   2.0848066806793213,
   2.0540153980255127,
   2.0214571952819824,
   1.9946620464324951,
   1.9670069217681885,
   1.9419265985488892,
   1.9187638759613037,
   1.9006967544555664,
   1.8775408267974854,
   1.726801872253418,
   1.621677041053772,
   1.5437614917755127,
   1.4806824922561646,
   1.4302272796630859,
   1.3858129978179932,
   1.3488180637359619,
   1.315180778503418,
   1.2934776544570923,
   1.141444206237793,
   1.0933490991592407,
   1.0627310276031494,
   1.036832332611084,
   1.0210787057876587,
   1.01258385181427,
   1.0087239742279053,
   1.0070081949234009,
   1.0053433179855347,
   1.0003122091293335,
   1.0092089176177979,
   1.0012794733047485,
   1.0041239261627197,
   1.0001540184020996,
   1.0124645233154297,
   1.0202370882034302,
   0.99068993330001831,
   0.99934947490692139,
   1.0065855979919434,
   1.0073837041854858,
   1.0060527324676514,
   1.0001062154769897,
   0.96730965375900269,
   0.98668277263641357,
   1.0032691955566406,
   0.97309952974319458,
   0.99701803922653198
]
