[
   3.9661190509796143,
   3.9641029834747314,
   3.9587769508361816,
   3.9599552154541016,
   3.9579379558563232,
   3.9535536766052246,
   3.9492766857147217,
   3.945004940032959,
   3.9503650665283203,
   3.9442188739776611,
   3.930863618850708,
   3.9177660942077637,
   3.8991444110870361,
   3.8838315010070801,
   3.8550467491149902,
   3.8393349647521973,
   3.8327794075012207,
   3.8024411201477051,
   3.7942805290222168,
   3.6554152965545654,
   3.5280098915100098,
   3.4319064617156982,
   3.3326382637023926,
   3.254910945892334,
   3.1811575889587402,
   3.1151704788208008,
   3.0506818294525146,
   2.9931695461273193,
   2.5697886943817139,
   2.299293041229248,
   2.0875036716461182,
   1.9217040538787842,
   1.7913267612457275,
   1.7009971141815186,
   1.6214256286621094,
   1.5502216815948486,
   1.4912590980529785,
   1.1953208446502686,
   1.1157244443893433,
   1.0771652460098267,
   1.0560805797576904,
   1.0050990581512451,
   1.0260467529296875,
   1.0199326276779175,
   1.0193135738372803,
   1.0024309158325195,
   1.0171991586685181,
   0.99954080581665039,
   1.0097594261169434,
   0.96672379970550537,
   1.0068961381912231,
   0.99688100814819336,
   1.0134048461914062,
   0.99245518445968628,
   1.0091538429260254,
   1.0326895713806152,
   0.99778139591217041,
   0.98855507373809814,
   0.99352043867111206,
   1.0019134283065796,
   0.97403210401535034,
   0.99076282978057861,
   0.97901409864425659,
   0.92472380399703979
]
