[
   8.4293193817138672,
   8.3841228485107422,
   8.351994514465332,
   8.3648090362548828,
   8.3724126815795898,
   8.3686246871948242,
   8.3106374740600586,
   8.3164005279541016,
   8.3139104843139648,
   8.3354816436767578,
   8.250370979309082,
   8.180750846862793,
   8.0412797927856445,
   8.0287418365478516,
   7.9646120071411133,
   7.8826346397399902,
   7.8456087112426758,
   7.7688264846801758,
   7.7006654739379883,
   7.2397713661193848,
   6.8670616149902344,
   6.5512123107910156,
   6.307126522064209,
   6.0656085014343262,
   5.8632016181945801,
   5.6805944442749023,
   5.5163869857788086,
   5.3505253791809082,
   4.2535576820373535,
   3.5516982078552246,
   3.0317869186401367,
   2.6666388511657715,
   2.387293815612793,
   2.1805505752563477,
   2.0314421653747559,
   1.8824548721313477,
   1.7463337182998657,
   1.2170889377593994,
   1.1686556339263916,
   1.1026656627655029,
   1.0607254505157471,
   1.0582735538482666,
   1.0091954469680786,
   1.024477481842041,
   0.96947658061981201,
   0.97352254390716553,
   0.98761922121047974,
   1.0084774494171143,
   1.0071191787719727,
   1.0148607492446899,
   0.99349355697631836,
   1.0082411766052246,
   0.9756087064743042,
   0.9800230860710144,
   1.0150859355926514,
   1.0424480438232422,
   1.0234652757644653,
   1.0038946866989136,
   0.99427729845046997,
   0.93451195955276489,
   0.99531614780426025,
   0.94903707504272461,
   0.7489660382270813,
   0.90748804807662964
]
