[
   17.890800476074219,
   17.887477874755859,
   17.880268096923828,
   17.850368499755859,
   17.862871170043945,
   17.73492431640625,
   17.724826812744141,
   17.672286987304688,
   17.755962371826172,
   17.615598678588867,
   17.375049591064453,
   17.196725845336914,
   16.800586700439453,
   16.713342666625977,
   16.468927383422852,
   16.316616058349609,
   16.128902435302734,
   15.914233207702637,
   15.695352554321289,
   14.404017448425293,
   13.475692749023438,
   12.726301193237305,
   11.922198295593262,
   11.402467727661133,
   10.892766952514648,
   10.384310722351074,
   10.001136779785156,
   9.5461587905883789,
   6.6971955299377441,
   5.1069536209106445,
   4.0430326461791992,
   3.4061284065246582,
   2.9681363105773926,
   2.5563066005706787,
   2.2614331245422363,
   1.9906368255615234,
   1.8806524276733398,
   1.405671238899231,
   1.219954252243042,
   1.129655122756958,
   1.0726537704467773,
   0.96285611391067505,
   1.0664335489273071,
   1.0677018165588379,
   0.99569499492645264,
   0.97546845674514771,
   1.0617420673370361,
   0.96252697706222534,
   1.0006657838821411,
   0.99390089511871338,
   0.97097766399383545,
   0.98167335987091064,
   1.0072537660598755,
   1.0415682792663574,
   1.0192590951919556,
   0.91454517841339111,
   0.9714081883430481,
   0.90247833728790283,
   0.99665755033493042,
   1.0328000783920288,
   0.94972199201583862,
   0.86238300800323486,
   0.806407630443573,
   1.0784196853637695
]
