[
   1.6039584875106812,
   1.6032063961029053,
   1.6031687259674072,
   1.6020843982696533,
   1.6027787923812866,
   1.6020702123641968,
   1.6020147800445557,
   1.6007454395294189,
   1.602267861366272,
   1.6018921136856079,
   1.6007102727890015,
   1.5977194309234619,
   1.5971460342407227,
   1.5960661172866821,
   1.5943646430969238,
   1.5944454669952393,
   1.5915676355361938,
   1.5893138647079468,
   1.5900475978851318,
   1.5757856369018555,
   1.5598840713500977,
   1.5489362478256226,
   1.5381748676300049,
   1.5254455804824829,
   1.5146336555480957,
   1.5047407150268555,
   1.4951314926147461,
   1.4854462146759033,
   1.414319634437561,
   1.361122727394104,
   1.3218871355056763,
   1.2906404733657837,
   1.2646043300628662,
   1.2419306039810181,
   1.2233294248580933,
   1.2070486545562744,
   1.1913167238235474,
   1.1032702922821045,
   1.0679254531860352,
   1.0408716201782227,
   1.027483344078064,
   1.0178817510604858,
   1.0101239681243896,
   1.005123496055603,
   1.0037499666213989,
   1.0030776262283325,
   1.0030950307846069,
   1.0000463724136353,
   0.99393701553344727,
   0.99920284748077393,
   1.0015449523925781,
   0.99810868501663208,
   1.0001571178436279,
   0.9963759183883667,
   1.000863790512085,
   0.99113357067108154,
   0.99280482530593872,
   0.99299681186676025,
   0.99151021242141724,
   0.99723255634307861,
   0.99284869432449341,
   1.0072804689407349,
   1.0150837898254395,
   0.97563982009887695
]
