wxy = 0.071 starts replicate 0
wxy = 0.132 starts replicate 0
wxy = 0.173 starts replicate 0
wxy = 0.241 starts replicate 0
wxy = 0.295 starts replicate 0
wxy = 0.34 starts replicate 0
wxy = 0.379 starts replicate 0
wxy = 0.415 starts replicate 0
wxy = 0.448 starts replicate 0
wxy = 0.479 starts replicate 0
wxy = 0.508 starts replicate 0
wxy = 0.535 starts replicate 0
wxy = 0.561 starts replicate 0
wxy = 0.586 starts replicate 0
wxy = 0.61 starts replicate 0
wxy = 0.632 starts replicate 0
wxy = 0.071 finished replicate 0 total counts 4878
wxy = 0.071 starts replicate 1
wxy = 0.241 finished replicate 0 total counts 99601
wxy = 0.241 starts replicate 1
wxy = 0.295 finished replicate 0 total counts 166939
wxy = 0.295 starts replicate 1
wxy = 0.173 finished replicate 0 total counts 50278
wxy = 0.173 starts replicate 1
wxy = 0.34 finished replicate 0 total counts 238923
wxy = 0.34 starts replicate 1
wxy = 0.132 finished replicate 0 total counts 21201
wxy = 0.132 starts replicate 1
wxy = 0.379 finished replicate 0 total counts 283430
wxy = 0.379 starts replicate 1
wxy = 0.415 finished replicate 0 total counts 371970
wxy = 0.415 starts replicate 1
wxy = 0.448 finished replicate 0 total counts 453132
wxy = 0.448 starts replicate 1
wxy = 0.479 finished replicate 0 total counts 585078
wxy = 0.479 starts replicate 1
wxy = 0.508 finished replicate 0 total counts 647605
wxy = 0.508 starts replicate 1
wxy = 0.535 finished replicate 0 total counts 738727
wxy = 0.535 starts replicate 1
wxy = 0.561 finished replicate 0 total counts 896567
wxy = 0.561 starts replicate 1
wxy = 0.586 finished replicate 0 total counts 969224
wxy = 0.586 starts replicate 1
wxy = 0.61 finished replicate 0 total counts 1.0739e+06
wxy = 0.61 starts replicate 1
wxy = 0.632 finished replicate 0 total counts 1.14836e+06
wxy = 0.632 starts replicate 1
wxy = 0.071 finished replicate 1 total counts 5313
wxy = 0.071 starts replicate 2
wxy = 0.241 finished replicate 1 total counts 84937
wxy = 0.241 starts replicate 2
wxy = 0.295 finished replicate 1 total counts 163832
wxy = 0.295 starts replicate 2
wxy = 0.34 finished replicate 1 total counts 242764
wxy = 0.34 starts replicate 2
wxy = 0.379 finished replicate 1 total counts 276095
wxy = 0.379 starts replicate 2
wxy = 0.173 finished replicate 1 total counts 38891
wxy = 0.173 starts replicate 2
wxy = 0.415 finished replicate 1 total counts 354346
wxy = 0.415 starts replicate 2
wxy = 0.132 finished replicate 1 total counts 25285
wxy = 0.132 starts replicate 2
wxy = 0.535 finished replicate 1 total counts 736232
wxy = 0.535 starts replicate 2
wxy = 0.479 finished replicate 1 total counts 544309
wxy = 0.479 starts replicate 2
wxy = 0.448 finished replicate 1 total counts 479695
wxy = 0.448 starts replicate 2
wxy = 0.508 finished replicate 1 total counts 695747
wxy = 0.508 starts replicate 2
wxy = 0.561 finished replicate 1 total counts 873449
wxy = 0.561 starts replicate 2
wxy = 0.586 finished replicate 1 total counts 991643
wxy = 0.586 starts replicate 2
wxy = 0.61 finished replicate 1 total counts 989486
wxy = 0.61 starts replicate 2
wxy = 0.632 finished replicate 1 total counts 1.19981e+06
wxy = 0.632 starts replicate 2
wxy = 0.071 finished replicate 2 total counts 5300
wxy = 0.071 starts replicate 3
wxy = 0.241 finished replicate 2 total counts 105408
wxy = 0.241 starts replicate 3
wxy = 0.295 finished replicate 2 total counts 140106
wxy = 0.295 starts replicate 3
wxy = 0.34 finished replicate 2 total counts 212162
wxy = 0.34 starts replicate 3
wxy = 0.379 finished replicate 2 total counts 292968
wxy = 0.379 starts replicate 3
wxy = 0.535 finished replicate 2 total counts 788065
wxy = 0.535 starts replicate 3
wxy = 0.415 finished replicate 2 total counts 397815
wxy = 0.415 starts replicate 3
wxy = 0.508 finished replicate 2 total counts 657815
wxy = 0.508 starts replicate 3
wxy = 0.173 finished replicate 2 total counts 44357
wxy = 0.173 starts replicate 3
wxy = 0.561 finished replicate 2 total counts 885805
wxy = 0.561 starts replicate 3
wxy = 0.448 finished replicate 2 total counts 439464
wxy = 0.448 starts replicate 3
wxy = 0.479 finished replicate 2 total counts 574062
wxy = 0.479 starts replicate 3
wxy = 0.586 finished replicate 2 total counts 974780
wxy = 0.586 starts replicate 3
wxy = 0.61 finished replicate 2 total counts 1.02371e+06
wxy = 0.61 starts replicate 3
wxy = 0.632 finished replicate 2 total counts 1.20646e+06
wxy = 0.632 starts replicate 3
wxy = 0.132 finished replicate 2 total counts 18560
wxy = 0.132 starts replicate 3
wxy = 0.071 finished replicate 3 total counts 6439
wxy = 0.071 starts replicate 4
wxy = 0.241 finished replicate 3 total counts 97673
wxy = 0.241 starts replicate 4
wxy = 0.295 finished replicate 3 total counts 156105
wxy = 0.295 starts replicate 4
wxy = 0.34 finished replicate 3 total counts 240879
wxy = 0.34 starts replicate 4
wxy = 0.379 finished replicate 3 total counts 284392
wxy = 0.379 starts replicate 4
wxy = 0.535 finished replicate 3 total counts 738722
wxy = 0.535 starts replicate 4
wxy = 0.415 finished replicate 3 total counts 394130
wxy = 0.415 starts replicate 4
wxy = 0.508 finished replicate 3 total counts 677095
wxy = 0.508 starts replicate 4
wxy = 0.561 finished replicate 3 total counts 855885
wxy = 0.561 starts replicate 4
wxy = 0.586 finished replicate 3 total counts 992514
wxy = 0.586 starts replicate 4
wxy = 0.61 finished replicate 3 total counts 1.11294e+06
wxy = 0.61 starts replicate 4
wxy = 0.632 finished replicate 3 total counts 1.17261e+06
wxy = 0.632 starts replicate 4
wxy = 0.479 finished replicate 3 total counts 544042
wxy = 0.479 starts replicate 4
wxy = 0.448 finished replicate 3 total counts 471750
wxy = 0.448 starts replicate 4
wxy = 0.173 finished replicate 3 total counts 39821
wxy = 0.173 starts replicate 4
wxy = 0.132 finished replicate 3 total counts 21192
wxy = 0.132 starts replicate 4
wxy = 0.071 finished replicate 4 total counts 7634
wxy = 0.071 starts replicate 5
wxy = 0.241 finished replicate 4 total counts 86503
wxy = 0.241 starts replicate 5
wxy = 0.295 finished replicate 4 total counts 156662
wxy = 0.295 starts replicate 5
wxy = 0.535 finished replicate 4 total counts 716288
wxy = 0.535 starts replicate 5
wxy = 0.34 finished replicate 4 total counts 228399
wxy = 0.34 starts replicate 5
wxy = 0.379 finished replicate 4 total counts 314613
wxy = 0.379 starts replicate 5
wxy = 0.61 finished replicate 4 total counts 1.09435e+06
wxy = 0.61 starts replicate 5
wxy = 0.561 finished replicate 4 total counts 912477
wxy = 0.561 starts replicate 5
wxy = 0.586 finished replicate 4 total counts 992259
wxy = 0.586 starts replicate 5
wxy = 0.508 finished replicate 4 total counts 632014
wxy = 0.508 starts replicate 5
wxy = 0.415 finished replicate 4 total counts 405224
wxy = 0.415 starts replicate 5
wxy = 0.632 finished replicate 4 total counts 1.15148e+06
wxy = 0.632 starts replicate 5
wxy = 0.479 finished replicate 4 total counts 548766
wxy = 0.479 starts replicate 5
wxy = 0.448 finished replicate 4 total counts 428539
wxy = 0.448 starts replicate 5
wxy = 0.173 finished replicate 4 total counts 47724
wxy = 0.173 starts replicate 5
wxy = 0.132 finished replicate 4 total counts 25392
wxy = 0.132 starts replicate 5
wxy = 0.071 finished replicate 5 total counts 4533
wxy = 0.071 starts replicate 6
wxy = 0.241 finished replicate 5 total counts 89724
wxy = 0.241 starts replicate 6
wxy = 0.295 finished replicate 5 total counts 151091
wxy = 0.295 starts replicate 6
wxy = 0.535 finished replicate 5 total counts 777160
wxy = 0.535 starts replicate 6
wxy = 0.61 finished replicate 5 total counts 1.04089e+06
wxy = 0.61 starts replicate 6
wxy = 0.586 finished replicate 5 total counts 944169
wxy = 0.586 starts replicate 6
wxy = 0.561 finished replicate 5 total counts 815606
wxy = 0.561 starts replicate 6
wxy = 0.34 finished replicate 5 total counts 217570
wxy = 0.34 starts replicate 6
wxy = 0.632 finished replicate 5 total counts 1.17535e+06
wxy = 0.632 starts replicate 6
wxy = 0.508 finished replicate 5 total counts 670507
wxy = 0.508 starts replicate 6
wxy = 0.379 finished replicate 5 total counts 306200
wxy = 0.379 starts replicate 6
wxy = 0.415 finished replicate 5 total counts 381732
wxy = 0.415 starts replicate 6
wxy = 0.479 finished replicate 5 total counts 536761
wxy = 0.479 starts replicate 6
wxy = 0.448 finished replicate 5 total counts 450673
wxy = 0.448 starts replicate 6
wxy = 0.173 finished replicate 5 total counts 39142
wxy = 0.173 starts replicate 6
wxy = 0.132 finished replicate 5 total counts 22636
wxy = 0.132 starts replicate 6
wxy = 0.071 finished replicate 6 total counts 5191
wxy = 0.071 starts replicate 7
wxy = 0.241 finished replicate 6 total counts 91470
wxy = 0.241 starts replicate 7
wxy = 0.295 finished replicate 6 total counts 161990
wxy = 0.295 starts replicate 7
wxy = 0.535 finished replicate 6 total counts 774839
wxy = 0.535 starts replicate 7
wxy = 0.61 finished replicate 6 total counts 1.04609e+06
wxy = 0.61 starts replicate 7
wxy = 0.586 finished replicate 6 total counts 991829
wxy = 0.586 starts replicate 7
wxy = 0.561 finished replicate 6 total counts 933910
wxy = 0.561 starts replicate 7
wxy = 0.632 finished replicate 6 total counts 1.11792e+06
wxy = 0.632 starts replicate 7
wxy = 0.508 finished replicate 6 total counts 642705
wxy = 0.508 starts replicate 7
wxy = 0.34 finished replicate 6 total counts 225257
wxy = 0.34 starts replicate 7
wxy = 0.379 finished replicate 6 total counts 315705
wxy = 0.379 starts replicate 7
wxy = 0.415 finished replicate 6 total counts 358587
wxy = 0.415 starts replicate 7
wxy = 0.479 finished replicate 6 total counts 555019
wxy = 0.479 starts replicate 7
wxy = 0.448 finished replicate 6 total counts 491732
wxy = 0.448 starts replicate 7
wxy = 0.173 finished replicate 6 total counts 44784
wxy = 0.173 starts replicate 7
wxy = 0.132 finished replicate 6 total counts 20274
wxy = 0.132 starts replicate 7
wxy = 0.071 finished replicate 7 total counts 5413
wxy = 0.071 starts replicate 8
wxy = 0.241 finished replicate 7 total counts 108648
wxy = 0.241 starts replicate 8
wxy = 0.535 finished replicate 7 total counts 754063
wxy = 0.535 starts replicate 8
wxy = 0.295 finished replicate 7 total counts 162218
wxy = 0.295 starts replicate 8
wxy = 0.61 finished replicate 7 total counts 1.08434e+06
wxy = 0.61 starts replicate 8
wxy = 0.586 finished replicate 7 total counts 926275
wxy = 0.586 starts replicate 8
wxy = 0.561 finished replicate 7 total counts 915349
wxy = 0.561 starts replicate 8
wxy = 0.632 finished replicate 7 total counts 1.15967e+06
wxy = 0.632 starts replicate 8
wxy = 0.508 finished replicate 7 total counts 692000
wxy = 0.508 starts replicate 8
wxy = 0.34 finished replicate 7 total counts 222149
wxy = 0.34 starts replicate 8
wxy = 0.415 finished replicate 7 total counts 377360
wxy = 0.415 starts replicate 8
wxy = 0.379 finished replicate 7 total counts 294737
wxy = 0.379 starts replicate 8
wxy = 0.479 finished replicate 7 total counts 589898
wxy = 0.479 starts replicate 8
wxy = 0.448 finished replicate 7 total counts 483434
wxy = 0.448 starts replicate 8
wxy = 0.173 finished replicate 7 total counts 38820
wxy = 0.173 starts replicate 8
wxy = 0.132 finished replicate 7 total counts 20301
wxy = 0.132 starts replicate 8
wxy = 0.071 finished replicate 8 total counts 5581
wxy = 0.071 starts replicate 9
wxy = 0.535 finished replicate 8 total counts 751452
wxy = 0.535 starts replicate 9
wxy = 0.241 finished replicate 8 total counts 99637
wxy = 0.241 starts replicate 9
wxy = 0.295 finished replicate 8 total counts 157128
wxy = 0.295 starts replicate 9
wxy = 0.61 finished replicate 8 total counts 1.06733e+06
wxy = 0.61 starts replicate 9
wxy = 0.586 finished replicate 8 total counts 931005
wxy = 0.586 starts replicate 9
wxy = 0.561 finished replicate 8 total counts 837163
wxy = 0.561 starts replicate 9
wxy = 0.632 finished replicate 8 total counts 1.17267e+06
wxy = 0.632 starts replicate 9
wxy = 0.508 finished replicate 8 total counts 659444
wxy = 0.508 starts replicate 9
wxy = 0.34 finished replicate 8 total counts 222299
wxy = 0.34 starts replicate 9
wxy = 0.415 finished replicate 8 total counts 393995
wxy = 0.415 starts replicate 9
wxy = 0.379 finished replicate 8 total counts 313760
wxy = 0.379 starts replicate 9
wxy = 0.479 finished replicate 8 total counts 577509
wxy = 0.479 starts replicate 9
wxy = 0.448 finished replicate 8 total counts 464807
wxy = 0.448 starts replicate 9
wxy = 0.173 finished replicate 8 total counts 40631
wxy = 0.173 starts replicate 9
wxy = 0.132 finished replicate 8 total counts 21637
wxy = 0.132 starts replicate 9
wxy = 0.071 finished replicate 9 total counts 5034
wxy = 0.071 starts replicate 10
wxy = 0.535 finished replicate 9 total counts 726981
wxy = 0.535 starts replicate 10
wxy = 0.241 finished replicate 9 total counts 95924
wxy = 0.241 starts replicate 10
wxy = 0.61 finished replicate 9 total counts 1.08515e+06
wxy = 0.61 starts replicate 10
wxy = 0.295 finished replicate 9 total counts 162809
wxy = 0.295 starts replicate 10
wxy = 0.586 finished replicate 9 total counts 992471
wxy = 0.586 starts replicate 10
wxy = 0.632 finished replicate 9 total counts 1.25916e+06
wxy = 0.632 starts replicate 10
wxy = 0.561 finished replicate 9 total counts 844237
wxy = 0.561 starts replicate 10
wxy = 0.508 finished replicate 9 total counts 639766
wxy = 0.508 starts replicate 10
wxy = 0.415 finished replicate 9 total counts 397265
wxy = 0.415 starts replicate 10
wxy = 0.34 finished replicate 9 total counts 254442
wxy = 0.34 starts replicate 10
wxy = 0.379 finished replicate 9 total counts 297491
wxy = 0.379 starts replicate 10
wxy = 0.479 finished replicate 9 total counts 525257
wxy = 0.479 starts replicate 10
wxy = 0.448 finished replicate 9 total counts 460088
wxy = 0.448 starts replicate 10
wxy = 0.173 finished replicate 9 total counts 44532
wxy = 0.173 starts replicate 10
wxy = 0.132 finished replicate 9 total counts 21757
wxy = 0.132 starts replicate 10
wxy = 0.071 finished replicate 10 total counts 5675
wxy = 0.071 starts replicate 11
wxy = 0.535 finished replicate 10 total counts 794780
wxy = 0.535 starts replicate 11
wxy = 0.61 finished replicate 10 total counts 1.06337e+06
wxy = 0.61 starts replicate 11
wxy = 0.586 finished replicate 10 total counts 990913
wxy = 0.586 starts replicate 11
wxy = 0.241 finished replicate 10 total counts 104639
wxy = 0.241 starts replicate 11
wxy = 0.632 finished replicate 10 total counts 1.19558e+06
wxy = 0.632 starts replicate 11
wxy = 0.561 finished replicate 10 total counts 870987
wxy = 0.561 starts replicate 11
wxy = 0.295 finished replicate 10 total counts 173376
wxy = 0.295 starts replicate 11
wxy = 0.508 finished replicate 10 total counts 636915
wxy = 0.508 starts replicate 11
wxy = 0.415 finished replicate 10 total counts 419323
wxy = 0.415 starts replicate 11
wxy = 0.34 finished replicate 10 total counts 253808
wxy = 0.34 starts replicate 11
wxy = 0.379 finished replicate 10 total counts 300852
wxy = 0.379 starts replicate 11
wxy = 0.479 finished replicate 10 total counts 616284
wxy = 0.479 starts replicate 11
wxy = 0.448 finished replicate 10 total counts 483996
wxy = 0.448 starts replicate 11
wxy = 0.173 finished replicate 10 total counts 41105
wxy = 0.173 starts replicate 11
wxy = 0.132 finished replicate 10 total counts 21847
wxy = 0.132 starts replicate 11
wxy = 0.071 finished replicate 11 total counts 4907
wxy = 0.071 starts replicate 12
wxy = 0.535 finished replicate 11 total counts 778042
wxy = 0.535 starts replicate 12
wxy = 0.61 finished replicate 11 total counts 1.08767e+06
wxy = 0.61 starts replicate 12
wxy = 0.586 finished replicate 11 total counts 1.00094e+06
wxy = 0.586 starts replicate 12
wxy = 0.632 finished replicate 11 total counts 1.2075e+06
wxy = 0.632 starts replicate 12
wxy = 0.561 finished replicate 11 total counts 836101
wxy = 0.561 starts replicate 12
wxy = 0.241 finished replicate 11 total counts 95125
wxy = 0.241 starts replicate 12
wxy = 0.295 finished replicate 11 total counts 148658
wxy = 0.295 starts replicate 12
wxy = 0.508 finished replicate 11 total counts 643083
wxy = 0.508 starts replicate 12
wxy = 0.415 finished replicate 11 total counts 400488
wxy = 0.415 starts replicate 12
wxy = 0.479 finished replicate 11 total counts 568514
wxy = 0.479 starts replicate 12
wxy = 0.34 finished replicate 11 total counts 235746
wxy = 0.34 starts replicate 12
wxy = 0.379 finished replicate 11 total counts 300425
wxy = 0.379 starts replicate 12
wxy = 0.448 finished replicate 11 total counts 428612
wxy = 0.448 starts replicate 12
wxy = 0.173 finished replicate 11 total counts 40424
wxy = 0.173 starts replicate 12
wxy = 0.132 finished replicate 11 total counts 29873
wxy = 0.132 starts replicate 12
wxy = 0.071 finished replicate 12 total counts 4937
wxy = 0.071 starts replicate 13
wxy = 0.535 finished replicate 12 total counts 702570
wxy = 0.535 starts replicate 13
wxy = 0.61 finished replicate 12 total counts 1.04125e+06
wxy = 0.61 starts replicate 13
wxy = 0.586 finished replicate 12 total counts 939094
wxy = 0.586 starts replicate 13
wxy = 0.632 finished replicate 12 total counts 1.20388e+06
wxy = 0.632 starts replicate 13
wxy = 0.561 finished replicate 12 total counts 867504
wxy = 0.561 starts replicate 13
wxy = 0.241 finished replicate 12 total counts 91535
wxy = 0.241 starts replicate 13
wxy = 0.295 finished replicate 12 total counts 178844
wxy = 0.295 starts replicate 13
wxy = 0.508 finished replicate 12 total counts 623548
wxy = 0.508 starts replicate 13
wxy = 0.415 finished replicate 12 total counts 408847
wxy = 0.415 starts replicate 13
wxy = 0.479 finished replicate 12 total counts 550434
wxy = 0.479 starts replicate 13
wxy = 0.34 finished replicate 12 total counts 237399
wxy = 0.34 starts replicate 13
wxy = 0.379 finished replicate 12 total counts 331804
wxy = 0.379 starts replicate 13
wxy = 0.448 finished replicate 12 total counts 474976
wxy = 0.448 starts replicate 13
wxy = 0.173 finished replicate 12 total counts 44037
wxy = 0.173 starts replicate 13
wxy = 0.071 finished replicate 13 total counts 4217
wxy = 0.071 starts replicate 14
wxy = 0.132 finished replicate 12 total counts 21760
wxy = 0.132 starts replicate 13
wxy = 0.535 finished replicate 13 total counts 739925
wxy = 0.535 starts replicate 14
wxy = 0.61 finished replicate 13 total counts 1.03161e+06
wxy = 0.61 starts replicate 14
wxy = 0.632 finished replicate 13 total counts 1.09461e+06
wxy = 0.632 starts replicate 14
wxy = 0.586 finished replicate 13 total counts 925675
wxy = 0.586 starts replicate 14
wxy = 0.561 finished replicate 13 total counts 850561
wxy = 0.561 starts replicate 14
wxy = 0.241 finished replicate 13 total counts 92189
wxy = 0.241 starts replicate 14
wxy = 0.295 finished replicate 13 total counts 159665
wxy = 0.295 starts replicate 14
wxy = 0.508 finished replicate 13 total counts 614640
wxy = 0.508 starts replicate 14
wxy = 0.415 finished replicate 13 total counts 384910
wxy = 0.415 starts replicate 14
wxy = 0.479 finished replicate 13 total counts 561585
wxy = 0.479 starts replicate 14
wxy = 0.379 finished replicate 13 total counts 310064
wxy = 0.379 starts replicate 14
wxy = 0.34 finished replicate 13 total counts 238507
wxy = 0.34 starts replicate 14
wxy = 0.448 finished replicate 13 total counts 460681
wxy = 0.448 starts replicate 14
wxy = 0.173 finished replicate 13 total counts 38423
wxy = 0.173 starts replicate 14
wxy = 0.071 finished replicate 14 total counts 4574
wxy = 0.071 starts replicate 15
wxy = 0.132 finished replicate 13 total counts 20880
wxy = 0.132 starts replicate 14
wxy = 0.535 finished replicate 14 total counts 765398
wxy = 0.535 starts replicate 15
wxy = 0.61 finished replicate 14 total counts 1.03104e+06
wxy = 0.61 starts replicate 15
wxy = 0.632 finished replicate 14 total counts 1.14574e+06
wxy = 0.632 starts replicate 15
wxy = 0.586 finished replicate 14 total counts 997906
wxy = 0.586 starts replicate 15
wxy = 0.561 finished replicate 14 total counts 834777
wxy = 0.561 starts replicate 15
wxy = 0.241 finished replicate 14 total counts 99142
wxy = 0.241 starts replicate 15
wxy = 0.295 finished replicate 14 total counts 155039
wxy = 0.295 starts replicate 15
wxy = 0.508 finished replicate 14 total counts 671516
wxy = 0.508 starts replicate 15
wxy = 0.415 finished replicate 14 total counts 448123
wxy = 0.415 starts replicate 15
wxy = 0.479 finished replicate 14 total counts 567972
wxy = 0.479 starts replicate 15
wxy = 0.379 finished replicate 14 total counts 307265
wxy = 0.379 starts replicate 15
wxy = 0.34 finished replicate 14 total counts 223974
wxy = 0.34 starts replicate 15
wxy = 0.448 finished replicate 14 total counts 458636
wxy = 0.448 starts replicate 15
wxy = 0.173 finished replicate 14 total counts 45321
wxy = 0.173 starts replicate 15
wxy = 0.071 finished replicate 15 total counts 5630
wxy = 0.071 starts replicate 16
wxy = 0.132 finished replicate 14 total counts 15854
wxy = 0.132 starts replicate 15
wxy = 0.535 finished replicate 15 total counts 812459
wxy = 0.535 starts replicate 16
wxy = 0.61 finished replicate 15 total counts 1.02451e+06
wxy = 0.61 starts replicate 16
wxy = 0.632 finished replicate 15 total counts 1.16579e+06
wxy = 0.632 starts replicate 16
wxy = 0.586 finished replicate 15 total counts 976745
wxy = 0.586 starts replicate 16
wxy = 0.561 finished replicate 15 total counts 825806
wxy = 0.561 starts replicate 16
wxy = 0.241 finished replicate 15 total counts 92229
wxy = 0.241 starts replicate 16
wxy = 0.295 finished replicate 15 total counts 163558
wxy = 0.295 starts replicate 16
wxy = 0.508 finished replicate 15 total counts 644650
wxy = 0.508 starts replicate 16
wxy = 0.415 finished replicate 15 total counts 374042
wxy = 0.415 starts replicate 16
wxy = 0.479 finished replicate 15 total counts 556800
wxy = 0.479 starts replicate 16
wxy = 0.379 finished replicate 15 total counts 316474
wxy = 0.379 starts replicate 16
wxy = 0.34 finished replicate 15 total counts 212779
wxy = 0.34 starts replicate 16
wxy = 0.448 finished replicate 15 total counts 478070
wxy = 0.448 starts replicate 16
wxy = 0.173 finished replicate 15 total counts 45439
wxy = 0.173 starts replicate 16
wxy = 0.071 finished replicate 16 total counts 5248
wxy = 0.071 starts replicate 17
wxy = 0.535 finished replicate 16 total counts 735417
wxy = 0.535 starts replicate 17
wxy = 0.61 finished replicate 16 total counts 1.11685e+06
wxy = 0.61 starts replicate 17
wxy = 0.632 finished replicate 16 total counts 1.15267e+06
wxy = 0.632 starts replicate 17
wxy = 0.586 finished replicate 16 total counts 986786
wxy = 0.586 starts replicate 17
wxy = 0.132 finished replicate 15 total counts 18392
wxy = 0.132 starts replicate 16
wxy = 0.561 finished replicate 16 total counts 837222
wxy = 0.561 starts replicate 17
wxy = 0.241 finished replicate 16 total counts 87784
wxy = 0.241 starts replicate 17
wxy = 0.295 finished replicate 16 total counts 176550
wxy = 0.295 starts replicate 17
wxy = 0.508 finished replicate 16 total counts 681159
wxy = 0.508 starts replicate 17
wxy = 0.415 finished replicate 16 total counts 362272
wxy = 0.415 starts replicate 17
wxy = 0.479 finished replicate 16 total counts 536148
wxy = 0.479 starts replicate 17
wxy = 0.379 finished replicate 16 total counts 294919
wxy = 0.379 starts replicate 17
wxy = 0.34 finished replicate 16 total counts 216301
wxy = 0.34 starts replicate 17
wxy = 0.448 finished replicate 16 total counts 475263
wxy = 0.448 starts replicate 17
wxy = 0.071 finished replicate 17 total counts 5423
wxy = 0.071 starts replicate 18
wxy = 0.173 finished replicate 16 total counts 44500
wxy = 0.173 starts replicate 17
wxy = 0.535 finished replicate 17 total counts 744709
wxy = 0.535 starts replicate 18
wxy = 0.61 finished replicate 17 total counts 1.14042e+06
wxy = 0.61 starts replicate 18
wxy = 0.632 finished replicate 17 total counts 1.11399e+06
wxy = 0.632 starts replicate 18
wxy = 0.586 finished replicate 17 total counts 1.00118e+06
wxy = 0.586 starts replicate 18
wxy = 0.561 finished replicate 17 total counts 879373
wxy = 0.561 starts replicate 18
wxy = 0.132 finished replicate 16 total counts 22178
wxy = 0.132 starts replicate 17
wxy = 0.241 finished replicate 17 total counts 92668
wxy = 0.241 starts replicate 18
wxy = 0.508 finished replicate 17 total counts 665789
wxy = 0.508 starts replicate 18
wxy = 0.295 finished replicate 17 total counts 159906
wxy = 0.295 starts replicate 18
wxy = 0.415 finished replicate 17 total counts 388647
wxy = 0.415 starts replicate 18
wxy = 0.479 finished replicate 17 total counts 615433
wxy = 0.479 starts replicate 18
wxy = 0.34 finished replicate 17 total counts 231260
wxy = 0.34 starts replicate 18
wxy = 0.379 finished replicate 17 total counts 297948
wxy = 0.379 starts replicate 18
wxy = 0.448 finished replicate 17 total counts 435072
wxy = 0.448 starts replicate 18
wxy = 0.071 finished replicate 18 total counts 5610
wxy = 0.071 starts replicate 19
wxy = 0.173 finished replicate 17 total counts 45201
wxy = 0.173 starts replicate 18
wxy = 0.535 finished replicate 18 total counts 782254
wxy = 0.535 starts replicate 19
wxy = 0.61 finished replicate 18 total counts 1.08014e+06
wxy = 0.61 starts replicate 19
wxy = 0.632 finished replicate 18 total counts 1.19618e+06
wxy = 0.632 starts replicate 19
wxy = 0.586 finished replicate 18 total counts 1.00988e+06
wxy = 0.586 starts replicate 19
wxy = 0.561 finished replicate 18 total counts 882114
wxy = 0.561 starts replicate 19
wxy = 0.241 finished replicate 18 total counts 91837
wxy = 0.241 starts replicate 19
wxy = 0.508 finished replicate 18 total counts 704689
wxy = 0.508 starts replicate 19
wxy = 0.295 finished replicate 18 total counts 157107
wxy = 0.295 starts replicate 19
wxy = 0.132 finished replicate 17 total counts 20376
wxy = 0.132 starts replicate 18
wxy = 0.415 finished replicate 18 total counts 414718
wxy = 0.415 starts replicate 19
wxy = 0.479 finished replicate 18 total counts 615578
wxy = 0.479 starts replicate 19
wxy = 0.34 finished replicate 18 total counts 239610
wxy = 0.34 starts replicate 19
wxy = 0.379 finished replicate 18 total counts 293171
wxy = 0.379 starts replicate 19
wxy = 0.448 finished replicate 18 total counts 438502
wxy = 0.448 starts replicate 19
wxy = 0.071 finished replicate 19 total counts 6399
wxy = 0.173 finished replicate 18 total counts 42239
wxy = 0.173 starts replicate 19
wxy = 0.535 finished replicate 19 total counts 773576
wxy = 0.61 finished replicate 19 total counts 1.06028e+06
wxy = 0.632 finished replicate 19 total counts 1.12681e+06
wxy = 0.586 finished replicate 19 total counts 958896
wxy = 0.561 finished replicate 19 total counts 853317
wxy = 0.241 finished replicate 19 total counts 100763
wxy = 0.295 finished replicate 19 total counts 159169
wxy = 0.508 finished replicate 19 total counts 650334
wxy = 0.132 finished replicate 18 total counts 24885
wxy = 0.132 starts replicate 19
wxy = 0.415 finished replicate 19 total counts 348245
wxy = 0.479 finished replicate 19 total counts 589027
wxy = 0.34 finished replicate 19 total counts 232539
wxy = 0.448 finished replicate 19 total counts 489508
wxy = 0.379 finished replicate 19 total counts 298263
wxy = 0.173 finished replicate 19 total counts 41145
wxy = 0.132 finished replicate 19 total counts 25752
