[
   2.2268784046173096,
   2.2214102745056152,
   2.2234349250793457,
   2.2248425483703613,
   2.2224311828613281,
   2.2222795486450195,
   2.2229106426239014,
   2.2201876640319824,
   2.2178845405578613,
   2.2202668190002441,
   2.2161788940429688,
   2.2141189575195312,
   2.2112257480621338,
   2.2063014507293701,
   2.2022571563720703,
   2.1971442699432373,
   2.19610595703125,
   2.1915707588195801,
   2.19339919090271,
   2.1606793403625488,
   2.131399393081665,
   2.1085705757141113,
   2.0819621086120605,
   2.0658462047576904,
   2.0441935062408447,
   2.0274767875671387,
   2.0094866752624512,
   1.9927600622177124,
   1.8673299551010132,
   1.7754433155059814,
   1.7032010555267334,
   1.6419680118560791,
   1.5873554944992065,
   1.5457427501678467,
   1.50809645652771,
   1.4696359634399414,
   1.4388645887374878,
   1.2558770179748535,
   1.1581833362579346,
   1.1106243133544922,
   1.0765106678009033,
   1.060792088508606,
   1.0448012351989746,
   1.0384578704833984,
   1.0252112150192261,
   1.0156314373016357,
   0.99602431058883667,
   0.99609345197677612,
   0.99882060289382935,
   0.99001675844192505,
   1.001448392868042,
   0.98801356554031372,
   1.0037158727645874,
   1.0053428411483765,
   0.98477441072463989,
   0.99790984392166138,
   0.99169713258743286,
   0.97549402713775635,
   0.99503564834594727,
   1.0187743902206421,
   1.0218559503555298,
   0.99073517322540283,
   1.0268605947494507,
   1.0578970909118652
]
