[
   1.5459884405136108,
   1.5452395677566528,
   1.5468442440032959,
   1.544991135597229,
   1.5467681884765625,
   1.5442416667938232,
   1.5449219942092896,
   1.5441843271255493,
   1.5447849035263062,
   1.5450471639633179,
   1.5443001985549927,
   1.5422307252883911,
   1.5435435771942139,
   1.5399720668792725,
   1.5410101413726807,
   1.538465142250061,
   1.5382497310638428,
   1.5379105806350708,
   1.5365579128265381,
   1.5259097814559937,
   1.5178216695785522,
   1.5096023082733154,
   1.5032038688659668,
   1.4953677654266357,
   1.4884598255157471,
   1.4809894561767578,
   1.4740859270095825,
   1.470003604888916,
   1.4190442562103271,
   1.3853275775909424,
   1.3558529615402222,
   1.3312892913818359,
   1.3113808631896973,
   1.2924298048019409,
   1.2756412029266357,
   1.2603843212127686,
   1.2476391792297363,
   1.1580238342285156,
   1.1112035512924194,
   1.0827888250350952,
   1.0597686767578125,
   1.0442959070205688,
   1.0354379415512085,
   1.0278012752532959,
   1.0227627754211426,
   1.0251947641372681,
   1.004973292350769,
   1.0084820985794067,
   1.0006721019744873,
   1.0003321170806885,
   1.0016950368881226,
   1.002808690071106,
   1.0085486173629761,
   1.0020272731781006,
   0.99207389354705811,
   1.0063210725784302,
   0.98721522092819214,
   0.99610459804534912,
   1.0036618709564209,
   1.0015757083892822,
   0.99806374311447144,
   1.0115387439727783,
   0.98954641819000244,
   0.94843733310699463
]
