[
   2.0232746601104736,
   2.0212345123291016,
   2.0226821899414062,
   2.0215270519256592,
   2.0172164440155029,
   2.0166022777557373,
   2.0181427001953125,
   2.021735668182373,
   2.0193917751312256,
   2.0182769298553467,
   2.0184388160705566,
   2.0100696086883545,
   2.0132412910461426,
   2.0103170871734619,
   2.0060491561889648,
   2.0058753490447998,
   2.0012373924255371,
   2.0003018379211426,
   1.995378851890564,
   1.9751449823379517,
   1.95499587059021,
   1.9310954809188843,
   1.9115726947784424,
   1.898013710975647,
   1.8827502727508545,
   1.8648134469985962,
   1.8526570796966553,
   1.839943528175354,
   1.7358379364013672,
   1.6615569591522217,
   1.6084636449813843,
   1.5585868358612061,
   1.5173189640045166,
   1.484858512878418,
   1.4503072500228882,
   1.4194635152816772,
   1.3945215940475464,
   1.230118989944458,
   1.1512535810470581,
   1.1036373376846313,
   1.0740334987640381,
   1.0611186027526855,
   1.0496776103973389,
   1.0372798442840576,
   1.0330612659454346,
   1.0308172702789307,
   0.99255359172821045,
   0.99204123020172119,
   1.0048791170120239,
   0.99022495746612549,
   0.99887454509735107,
   1.000809907913208,
   0.98494565486907959,
   0.98167121410369873,
   0.99109983444213867,
   0.99795639514923096,
   0.98855715990066528,
   0.95468246936798096,
   0.99431610107421875,
   1.0072256326675415,
   1.0564447641372681,
   0.98527657985687256,
   0.98506689071655273,
   0.97576063871383667
]
