[
   1.6918437480926514,
   1.692730188369751,
   1.6908251047134399,
   1.6912367343902588,
   1.6920506954193115,
   1.691293478012085,
   1.692157506942749,
   1.690953254699707,
   1.6901195049285889,
   1.6910808086395264,
   1.6887876987457275,
   1.6874408721923828,
   1.6857805252075195,
   1.6853072643280029,
   1.6837031841278076,
   1.6819444894790649,
   1.6804641485214233,
   1.6779298782348633,
   1.6781551837921143,
   1.6652857065200806,
   1.6534111499786377,
   1.6432726383209229,
   1.6309690475463867,
   1.6222198009490967,
   1.6128247976303101,
   1.6039043664932251,
   1.5932923555374146,
   1.5862294435501099,
   1.5225268602371216,
   1.4758979082107544,
   1.4371161460876465,
   1.4053955078125,
   1.3787890672683716,
   1.3548005819320679,
   1.3338472843170166,
   1.3144594430923462,
   1.2966114282608032,
   1.1853382587432861,
   1.1266021728515625,
   1.0901405811309814,
   1.0668774843215942,
   1.0534536838531494,
   1.0385018587112427,
   1.0322973728179932,
   1.0267541408538818,
   1.0228604078292847,
   1.0041754245758057,
   1.007905125617981,
   0.99601650238037109,
   0.99849092960357666,
   0.99579781293869019,
   0.99765366315841675,
   0.99773836135864258,
   0.99168121814727783,
   0.99124538898468018,
   1.0027879476547241,
   0.982707679271698,
   1.0021542310714722,
   0.99672156572341919,
   0.99323737621307373,
   0.98805272579193115,
   0.99017351865768433,
   1.011770486831665,
   1.0074983835220337
]
