[
   46.64642333984375,
   46.579113006591797,
   45.829730987548828,
   47.019981384277344,
   46.182807922363281,
   45.802383422851562,
   45.764019012451172,
   45.694164276123047,
   45.658378601074219,
   45.581123352050781,
   44.594371795654297,
   43.551200866699219,
   41.888607025146484,
   41.242988586425781,
   40.949623107910156,
   39.422325134277344,
   38.723842620849609,
   38.405036926269531,
   37.475566864013672,
   31.638662338256836,
   27.3096923828125,
   24.097606658935547,
   21.780002593994141,
   19.789669036865234,
   17.740415573120117,
   16.337459564208984,
   15.073026657104492,
   14.03019905090332,
   8.8172330856323242,
   6.2212381362915039,
   4.7985043525695801,
   4.0401492118835449,
   3.6589806079864502,
   3.1158230304718018,
   2.8805274963378906,
   2.5843946933746338,
   2.2083408832550049,
   1.630597710609436,
   1.2528339624404907,
   1.2301094532012939,
   1.0383560657501221,
   1.1798509359359741,
   1.1212756633758545,
   1.2735393047332764,
   1.1107938289642334,
   1.044005274772644,
   1.0349564552307129,
   0.92709904909133911,
   1.0670710802078247,
   1.034581184387207,
   0.95810890197753906,
   0.89057320356369019,
   0.97373759746551514,
   1.0451549291610718,
   0.9013592004776001,
   0.92528855800628662,
   0.955524742603302,
   1.000330924987793,
   0.88640928268432617,
   0.99930495023727417,
   0.9525829553604126,
   0.78638142347335815,
   1.4331239461898804,
   0.88953608274459839
]
