[
   7.9313521385192871,
   7.9062333106994629,
   7.9146337509155273,
   7.8806381225585938,
   7.9042649269104004,
   7.8654203414916992,
   7.8634047508239746,
   7.8683137893676758,
   7.8744635581970215,
   7.8628034591674805,
   7.8230042457580566,
   7.7762784957885742,
   7.7185087203979492,
   7.7047567367553711,
   7.6445741653442383,
   7.6163077354431152,
   7.5624055862426758,
   7.5372977256774902,
   7.5015549659729004,
   7.2083969116210938,
   6.9585695266723633,
   6.6996421813964844,
   6.5162477493286133,
   6.291100025177002,
   6.1004438400268555,
   5.9349241256713867,
   5.7620487213134766,
   5.658179759979248,
   4.4948244094848633,
   3.7824592590332031,
   3.3189406394958496,
   2.999265193939209,
   2.7404186725616455,
   2.5419209003448486,
   2.3671612739562988,
   2.2263674736022949,
   2.1257338523864746,
   1.5667288303375244,
   1.3507610559463501,
   1.2476150989532471,
   1.1670353412628174,
   1.1060720682144165,
   1.0978882312774658,
   1.0619926452636719,
   1.0883729457855225,
   1.0682708024978638,
   1.0042200088500977,
   1.010689377784729,
   0.9605366587638855,
   0.99383372068405151,
   1.0038620233535767,
   0.93972265720367432,
   1.0252679586410522,
   0.95031106472015381,
   1.0078079700469971,
   0.99994039535522461,
   0.93626594543457031,
   0.99390918016433716,
   0.94539958238601685,
   0.97595465183258057,
   1.0103123188018799,
   1.0887479782104492,
   1.2165826559066772,
   0.89449512958526611
]
