[
   1.4685815572738647,
   1.4690039157867432,
   1.4677975177764893,
   1.4697158336639404,
   1.4698927402496338,
   1.4686352014541626,
   1.4687998294830322,
   1.4681342840194702,
   1.46856689453125,
   1.4679543972015381,
   1.4683655500411987,
   1.4682867527008057,
   1.4675160646438599,
   1.4660897254943848,
   1.4657466411590576,
   1.4651727676391602,
   1.4649323225021362,
   1.4636344909667969,
   1.4636620283126831,
   1.4591711759567261,
   1.453734278678894,
   1.4488251209259033,
   1.4446951150894165,
   1.4395915269851685,
   1.4366378784179688,
   1.4331597089767456,
   1.428593635559082,
   1.4247910976409912,
   1.3966894149780273,
   1.374552845954895,
   1.3546786308288574,
   1.3372211456298828,
   1.322643518447876,
   1.308225154876709,
   1.2952061891555786,
   1.2837049961090088,
   1.2731311321258545,
   1.1920880079269409,
   1.1393413543701172,
   1.1077243089675903,
   1.0831160545349121,
   1.0648267269134521,
   1.0502837896347046,
   1.0424667596817017,
   1.0364363193511963,
   1.035709023475647,
   1.0088965892791748,
   1.0010102987289429,
   1.0029737949371338,
   0.9934619665145874,
   0.99863064289093018,
   1.002860426902771,
   1.0006107091903687,
   1.0094037055969238,
   1.0054309368133545,
   0.99804955720901489,
   1.0080640316009521,
   0.99033993482589722,
   1.0080283880233765,
   0.99121320247650146,
   0.99925625324249268,
   0.98549097776412964,
   0.99529361724853516,
   0.92595845460891724
]
