[
   1.4160299301147461,
   1.4159386157989502,
   1.4156275987625122,
   1.4161040782928467,
   1.4156821966171265,
   1.4158593416213989,
   1.4159737825393677,
   1.4154195785522461,
   1.4153107404708862,
   1.41493821144104,
   1.4144389629364014,
   1.4148030281066895,
   1.4144436120986938,
   1.4152438640594482,
   1.415041446685791,
   1.4141771793365479,
   1.4145084619522095,
   1.4145596027374268,
   1.4141830205917358,
   1.4128906726837158,
   1.4109599590301514,
   1.4098389148712158,
   1.4078919887542725,
   1.4066646099090576,
   1.4049239158630371,
   1.4035717248916626,
   1.4028397798538208,
   1.4017974138259888,
   1.3885883092880249,
   1.3778780698776245,
   1.3678617477416992,
   1.3589129447937012,
   1.3491300344467163,
   1.3396816253662109,
   1.3317067623138428,
   1.3225657939910889,
   1.3154630661010742,
   1.2528029680252075,
   1.208926796913147,
   1.1723037958145142,
   1.1474268436431885,
   1.1269828081130981,
   1.1102137565612793,
   1.0940275192260742,
   1.081594705581665,
   1.0742559432983398,
   1.0305590629577637,
   1.0168352127075195,
   1.0105851888656616,
   0.99783027172088623,
   1.0020487308502197,
   0.99433672428131104,
   0.99686640501022339,
   0.99156475067138672,
   0.98983728885650635,
   0.98252075910568237,
   0.98366439342498779,
   1.0124895572662354,
   0.98572218418121338,
   0.9910043478012085,
   0.97064054012298584,
   0.99123114347457886,
   1.0405666828155518,
   1.0090804100036621
]
