[
   26.675012588500977,
   26.585744857788086,
   26.398345947265625,
   26.591445922851562,
   26.536861419677734,
   26.652639389038086,
   26.576244354248047,
   26.510828018188477,
   26.533817291259766,
   26.350988388061523,
   26.163135528564453,
   25.670003890991211,
   25.463037490844727,
   25.093746185302734,
   24.654474258422852,
   24.276823043823242,
   24.190204620361328,
   23.789363861083984,
   23.464950561523438,
   21.001649856567383,
   18.792673110961914,
   17.187221527099609,
   15.918658256530762,
   14.684501647949219,
   13.693242073059082,
   12.814343452453613,
   12.102910995483398,
   11.662688255310059,
   7.6442780494689941,
   5.7770800590515137,
   4.6782574653625488,
   4.0412726402282715,
   3.6808178424835205,
   3.328873872756958,
   3.1502580642700195,
   2.954369068145752,
   2.798546314239502,
   1.8405460119247437,
   1.4196386337280273,
   1.3986169099807739,
   1.3564133644104004,
   1.3689843416213989,
   1.1573379039764404,
   1.2308166027069092,
   1.1678853034973145,
   1.2136377096176147,
   1.0770270824432373,
   1.0469459295272827,
   0.97687357664108276,
   0.96536129713058472,
   1.0680819749832153,
   1.0551725625991821,
   0.83793336153030396,
   0.96714246273040771,
   1.1105808019638062,
   1.0424537658691406,
   0.92184174060821533,
   1.0106927156448364,
   0.93077576160430908,
   1.0759096145629883,
   0.91421425342559814,
   0.72671496868133545,
   0.92931652069091797,
   0.86068803071975708
]
