[
   1.4730020761489868,
   1.4742667675018311,
   1.4724639654159546,
   1.4730645418167114,
   1.4729902744293213,
   1.4734641313552856,
   1.4731276035308838,
   1.4729417562484741,
   1.4734545946121216,
   1.4736019372940063,
   1.4734781980514526,
   1.4732191562652588,
   1.4727427959442139,
   1.4721245765686035,
   1.4711191654205322,
   1.4708926677703857,
   1.4713339805603027,
   1.4710620641708374,
   1.4719306230545044,
   1.468651294708252,
   1.468328595161438,
   1.4661635160446167,
   1.4653732776641846,
   1.4630510807037354,
   1.4603766202926636,
   1.4599347114562988,
   1.4575539827346802,
   1.4568469524383545,
   1.4418662786483765,
   1.4271249771118164,
   1.416890025138855,
   1.4053316116333008,
   1.395214319229126,
   1.3849543333053589,
   1.37531578540802,
   1.3666257858276367,
   1.3590648174285889,
   1.2883870601654053,
   1.2411739826202393,
   1.20578932762146,
   1.1769348382949829,
   1.1534125804901123,
   1.1347479820251465,
   1.1229726076126099,
   1.1106259822845459,
   1.1034290790557861,
   1.0537312030792236,
   1.0430318117141724,
   1.0311048030853271,
   1.014904260635376,
   1.0074197053909302,
   1.0056521892547607,
   1.00628662109375,
   0.99927407503128052,
   0.99663543701171875,
   0.97821265459060669,
   1.0015964508056641,
   0.99783629179000854,
   0.97769469022750854,
   0.99522078037261963,
   1.0008153915405273,
   0.98409497737884521,
   1.0010502338409424,
   0.92251300811767578
]
