[
   1.8725734949111938,
   1.8738654851913452,
   1.8738114833831787,
   1.8742115497589111,
   1.8727235794067383,
   1.8735290765762329,
   1.8746505975723267,
   1.8729228973388672,
   1.8753392696380615,
   1.873370885848999,
   1.8725025653839111,
   1.8714252710342407,
   1.8718159198760986,
   1.871729850769043,
   1.8701114654541016,
   1.8681838512420654,
   1.8695636987686157,
   1.8685232400894165,
   1.8660373687744141,
   1.8633372783660889,
   1.857804536819458,
   1.8518825769424438,
   1.8475301265716553,
   1.8422038555145264,
   1.8372312784194946,
   1.830883264541626,
   1.8262367248535156,
   1.8238369226455688,
   1.7825708389282227,
   1.7458639144897461,
   1.7127196788787842,
   1.68072509765625,
   1.6537212133407593,
   1.6258052587509155,
   1.6020654439926147,
   1.5793787240982056,
   1.5571855306625366,
   1.4145927429199219,
   1.3258076906204224,
   1.2662303447723389,
   1.2194156646728516,
   1.1840245723724365,
   1.1585371494293213,
   1.1412771940231323,
   1.1231770515441895,
   1.1144801378250122,
   1.0441052913665771,
   1.0326334238052368,
   1.0244400501251221,
   1.0068309307098389,
   1.019170880317688,
   1.0154838562011719,
   1.005229115486145,
   1.0196758508682251,
   1.0238649845123291,
   0.99762523174285889,
   0.97932147979736328,
   1.0037877559661865,
   0.99972140789031982,
   1.0082638263702393,
   0.99513274431228638,
   0.93370401859283447,
   0.96241968870162964,
   0.83132755756378174
]
