[
   1.371290922164917,
   1.3703479766845703,
   1.3711875677108765,
   1.3699109554290771,
   1.3708322048187256,
   1.3712441921234131,
   1.3705869913101196,
   1.3714580535888672,
   1.3700225353240967,
   1.3708275556564331,
   1.3700737953186035,
   1.3704267740249634,
   1.3703658580780029,
   1.3703620433807373,
   1.3700695037841797,
   1.3698092699050903,
   1.3706389665603638,
   1.369633674621582,
   1.3691731691360474,
   1.368116021156311,
   1.3668808937072754,
   1.3656599521636963,
   1.364519476890564,
   1.3632681369781494,
   1.3615399599075317,
   1.3612385988235474,
   1.3600852489471436,
   1.3579826354980469,
   1.3480088710784912,
   1.3384616374969482,
   1.3299758434295654,
   1.3218123912811279,
   1.3135939836502075,
   1.3063771724700928,
   1.299288272857666,
   1.2922470569610596,
   1.2852553129196167,
   1.2319211959838867,
   1.1926236152648926,
   1.160935640335083,
   1.1446496248245239,
   1.125652551651001,
   1.1094087362289429,
   1.0975866317749023,
   1.0872900485992432,
   1.0801129341125488,
   1.030933141708374,
   1.0109326839447021,
   1.01539146900177,
   1.0022733211517334,
   1.0047929286956787,
   0.99141913652420044,
   0.99732112884521484,
   0.99560916423797607,
   0.99234044551849365,
   0.9855804443359375,
   0.98607176542282104,
   0.9834936261177063,
   0.97843217849731445,
   1.0244417190551758,
   0.98839026689529419,
   1.021608829498291,
   1.0285053253173828,
   1.0187417268753052
]
