[
   1.3359472751617432,
   1.3352481126785278,
   1.3357728719711304,
   1.3347393274307251,
   1.3356950283050537,
   1.3356645107269287,
   1.3355157375335693,
   1.3362833261489868,
   1.3351434469223022,
   1.3354816436767578,
   1.3349645137786865,
   1.3349920511245728,
   1.3352692127227783,
   1.3351848125457764,
   1.3350158929824829,
   1.3348749876022339,
   1.3354611396789551,
   1.3345272541046143,
   1.3342868089675903,
   1.3333625793457031,
   1.3324013948440552,
   1.3308502435684204,
   1.3303911685943604,
   1.3289506435394287,
   1.3276984691619873,
   1.3273564577102661,
   1.3265285491943359,
   1.3246119022369385,
   1.316001296043396,
   1.3079259395599365,
   1.3001965284347534,
   1.2931814193725586,
   1.2862402200698853,
   1.2799813747406006,
   1.2741367816925049,
   1.2680385112762451,
   1.2618577480316162,
   1.2149165868759155,
   1.1795403957366943,
   1.1508419513702393,
   1.1398055553436279,
   1.122183084487915,
   1.1069706678390503,
   1.0956571102142334,
   1.0857701301574707,
   1.0788666009902954,
   1.0311291217803955,
   1.0104248523712158,
   1.0137742757797241,
   1.0036677122116089,
   1.0052132606506348,
   0.99198830127716064,
   0.99716824293136597,
   0.9968799352645874,
   0.99353229999542236,
   0.98701828718185425,
   0.98738908767700195,
   0.98413240909576416,
   0.97983437776565552,
   1.0233973264694214,
   0.98903191089630127,
   1.018930196762085,
   1.0284676551818848,
   1.0171080827713013
]
