[
   3.2185702323913574,
   3.2188305854797363,
   3.2123246192932129,
   3.2065963745117188,
   3.2171611785888672,
   3.2132353782653809,
   3.2171845436096191,
   3.2161941528320312,
   3.2145602703094482,
   3.2152073383331299,
   3.2134757041931152,
   3.2026112079620361,
   3.1989941596984863,
   3.2009551525115967,
   3.193556547164917,
   3.1978259086608887,
   3.1913876533508301,
   3.1915240287780762,
   3.1845190525054932,
   3.1525819301605225,
   3.1257905960083008,
   3.1025924682617188,
   3.0729126930236816,
   3.0494039058685303,
   3.0174860954284668,
   2.9970874786376953,
   2.973442554473877,
   2.9523921012878418,
   2.753943920135498,
   2.5844414234161377,
   2.4533908367156982,
   2.3403897285461426,
   2.2381343841552734,
   2.1564633846282959,
   2.0737073421478271,
   2.0202126502990723,
   1.9553391933441162,
   1.5932430028915405,
   1.4104850292205811,
   1.3126038312911987,
   1.2333724498748779,
   1.1966583728790283,
   1.1636736392974854,
   1.1544214487075806,
   1.1339681148529053,
   1.110396146774292,
   1.0857305526733398,
   1.0287938117980957,
   1.0261659622192383,
   1.0086604356765747,
   1.0040932893753052,
   1.0098490715026855,
   1.0162293910980225,
   1.0018683671951294,
   0.98042190074920654,
   1.0250636339187622,
   1.0488370656967163,
   1.0033905506134033,
   0.9729846715927124,
   0.97898703813552856,
   0.89919579029083252,
   0.97451049089431763,
   0.99556541442871094,
   1.0093803405761719
]
