[
   8.3433780670166016,
   8.3202857971191406,
   8.3255996704101562,
   8.3439006805419922,
   8.2740850448608398,
   8.3266277313232422,
   8.318974494934082,
   8.3366432189941406,
   8.3272418975830078,
   8.3362369537353516,
   8.2731103897094727,
   8.241851806640625,
   8.208796501159668,
   8.1915149688720703,
   8.1631603240966797,
   8.0796213150024414,
   8.1090154647827148,
   8.0351104736328125,
   8.0216007232666016,
   7.7429060935974121,
   7.462371826171875,
   7.2233476638793945,
   7.0108847618103027,
   6.7951164245605469,
   6.6031036376953125,
   6.4146347045898438,
   6.2169466018676758,
   6.0911374092102051,
   4.8921098709106445,
   4.1388850212097168,
   3.6129353046417236,
   3.246579647064209,
   2.9594576358795166,
   2.738609790802002,
   2.5691962242126465,
   2.4261379241943359,
   2.2910211086273193,
   1.7372767925262451,
   1.4688518047332764,
   1.3050754070281982,
   1.2569340467453003,
   1.2666598558425903,
   1.2314484119415283,
   1.181079626083374,
   1.1670433282852173,
   1.1418089866638184,
   1.0343328714370728,
   1.005840539932251,
   0.97873938083648682,
   0.99598568677902222,
   0.98721808195114136,
   0.99605286121368408,
   0.99531328678131104,
   1.0301845073699951,
   1.0126330852508545,
   1.0237663984298706,
   0.99993860721588135,
   0.9681280255317688,
   0.9159272313117981,
   0.98217505216598511,
   0.95881795883178711,
   0.78791821002960205,
   0.97565239667892456,
   1.0650089979171753
]
