[
   6.8727974891662598,
   6.8578896522521973,
   6.8415031433105469,
   6.857424259185791,
   6.8491768836975098,
   6.8435425758361816,
   6.8742685317993164,
   6.847416877746582,
   6.8305273056030273,
   6.8164606094360352,
   6.803774356842041,
   6.7861518859863281,
   6.761561393737793,
   6.700803279876709,
   6.699246883392334,
   6.6709394454956055,
   6.6820464134216309,
   6.6571860313415527,
   6.5859956741333008,
   6.4265365600585938,
   6.2705535888671875,
   6.1084675788879395,
   5.9759793281555176,
   5.8383932113647461,
   5.697911262512207,
   5.5746235847473145,
   5.4622526168823242,
   5.3601255416870117,
   4.4737863540649414,
   3.887373685836792,
   3.4843151569366455,
   3.1578078269958496,
   2.9283864498138428,
   2.7275643348693848,
   2.5605969429016113,
   2.4297549724578857,
   2.3188471794128418,
   1.7314834594726562,
   1.4357891082763672,
   1.3859403133392334,
   1.2679611444473267,
   1.1987649202346802,
   1.1600493192672729,
   1.1410729885101318,
   1.1452009677886963,
   1.1178761720657349,
   1.0188063383102417,
   0.98009967803955078,
   0.98181504011154175,
   0.94183701276779175,
   0.99151515960693359,
   1.0090405941009521,
   1.0298649072647095,
   1.0391099452972412,
   1.0655181407928467,
   1.0602242946624756,
   0.98708772659301758,
   1.0210150480270386,
   1.0191823244094849,
   1.069646954536438,
   0.93765079975128174,
   0.87647688388824463,
   0.72148740291595459,
   0.87275588512420654
]
