[
   1.4238177537918091,
   1.4242289066314697,
   1.42384934425354,
   1.4233957529067993,
   1.4244422912597656,
   1.4237644672393799,
   1.4232108592987061,
   1.4232712984085083,
   1.4234788417816162,
   1.4234673976898193,
   1.4243354797363281,
   1.42275071144104,
   1.423600435256958,
   1.4220020771026611,
   1.421708345413208,
   1.4224197864532471,
   1.4213091135025024,
   1.4212925434112549,
   1.4207282066345215,
   1.4176411628723145,
   1.414954662322998,
   1.4119951725006104,
   1.410006046295166,
   1.4075005054473877,
   1.4050878286361694,
   1.402682900428772,
   1.3996331691741943,
   1.3980166912078857,
   1.3788397312164307,
   1.3639259338378906,
   1.350313663482666,
   1.3379994630813599,
   1.3264479637145996,
   1.3163031339645386,
   1.3065588474273682,
   1.2960331439971924,
   1.2891398668289185,
   1.2227495908737183,
   1.176242470741272,
   1.1448557376861572,
   1.1212865114212036,
   1.1009782552719116,
   1.0852136611938477,
   1.072007417678833,
   1.063690185546875,
   1.0600960254669189,
   1.0240247249603271,
   1.0044302940368652,
   0.99246948957443237,
   0.99203765392303467,
   0.99787455797195435,
   0.99842596054077148,
   0.99406540393829346,
   0.99055624008178711,
   0.99195832014083862,
   0.99253749847412109,
   1.006097674369812,
   0.98911315202713013,
   0.99393272399902344,
   0.98219823837280273,
   0.97419518232345581,
   0.97512465715408325,
   0.99319946765899658,
   1.0713925361633301
]
