[
   1.5152192115783691,
   1.5163916349411011,
   1.5158772468566895,
   1.514445424079895,
   1.5151345729827881,
   1.5153416395187378,
   1.5156086683273315,
   1.5157268047332764,
   1.5160800218582153,
   1.5164778232574463,
   1.5155465602874756,
   1.5157049894332886,
   1.514630913734436,
   1.5142577886581421,
   1.5136711597442627,
   1.513410210609436,
   1.5135269165039062,
   1.5125826597213745,
   1.5118943452835083,
   1.5078408718109131,
   1.5027872323989868,
   1.501699686050415,
   1.4970314502716064,
   1.4933230876922607,
   1.49152672290802,
   1.487436056137085,
   1.4842804670333862,
   1.482458233833313,
   1.458135724067688,
   1.4388447999954224,
   1.4206987619400024,
   1.4037859439849854,
   1.3885413408279419,
   1.3765230178833008,
   1.3628329038619995,
   1.3512434959411621,
   1.3398597240447998,
   1.2554185390472412,
   1.2004793882369995,
   1.1601916551589966,
   1.1340615749359131,
   1.1148078441619873,
   1.0987997055053711,
   1.0887883901596069,
   1.0804836750030518,
   1.0770748853683472,
   1.0352058410644531,
   1.0118591785430908,
   1.0125515460968018,
   1.0095353126525879,
   1.0055114030838013,
   0.99322712421417236,
   0.99417984485626221,
   0.99047136306762695,
   0.99644434452056885,
   0.98771840333938599,
   1.0085933208465576,
   1.0116908550262451,
   0.99556410312652588,
   0.99915790557861328,
   0.97296541929244995,
   0.97310078144073486,
   0.98539352416992188,
   0.93629950284957886
]
