[
   2.3673577308654785,
   2.3660194873809814,
   2.3671548366546631,
   2.3654971122741699,
   2.3677535057067871,
   2.367577075958252,
   2.3653912544250488,
   2.3641631603240967,
   2.3637645244598389,
   2.3662543296813965,
   2.3657450675964355,
   2.3597896099090576,
   2.3566892147064209,
   2.3575670719146729,
   2.3541610240936279,
   2.3524770736694336,
   2.3511290550231934,
   2.3457884788513184,
   2.3503654003143311,
   2.3284525871276855,
   2.3104348182678223,
   2.2965800762176514,
   2.2848849296569824,
   2.2657601833343506,
   2.2537140846252441,
   2.2401924133300781,
   2.2279257774353027,
   2.2125835418701172,
   2.1128842830657959,
   2.0257022380828857,
   1.9521329402923584,
   1.8888562917709351,
   1.8279483318328857,
   1.7794935703277588,
   1.734074592590332,
   1.6944881677627563,
   1.6550881862640381,
   1.4201875925064087,
   1.2880252599716187,
   1.2130947113037109,
   1.1643728017807007,
   1.1325713396072388,
   1.101260781288147,
   1.0860741138458252,
   1.075379490852356,
   1.0646991729736328,
   1.0194892883300781,
   1.014296293258667,
   0.99940574169158936,
   0.99046975374221802,
   1.0020664930343628,
   1.0060871839523315,
   0.99547213315963745,
   0.99261921644210815,
   1.0243090391159058,
   0.99465763568878174,
   0.99605530500411987,
   0.99582064151763916,
   0.96728503704071045,
   0.99848145246505737,
   1.0453391075134277,
   0.99003946781158447,
   0.96149981021881104,
   1.0111243724822998
]
