[
   2.0015254020690918,
   2.0018150806427002,
   2.0021135807037354,
   2.0028166770935059,
   2.0026984214782715,
   2.0013387203216553,
   2.002357006072998,
   2.0011832714080811,
   2.001554012298584,
   2.0023863315582275,
   1.9989197254180908,
   1.998792290687561,
   1.9943790435791016,
   1.9956403970718384,
   1.9939670562744141,
   1.993382453918457,
   1.9930992126464844,
   1.9913251399993896,
   1.99072265625,
   1.9777843952178955,
   1.9641262292861938,
   1.9568507671356201,
   1.9481487274169922,
   1.9350887537002563,
   1.9282233715057373,
   1.9173412322998047,
   1.9122051000595093,
   1.9013643264770508,
   1.836836576461792,
   1.7809855937957764,
   1.7275075912475586,
   1.6831811666488647,
   1.6447336673736572,
   1.6099452972412109,
   1.5753462314605713,
   1.5446546077728271,
   1.5205115079879761,
   1.3377189636230469,
   1.2390506267547607,
   1.1697918176651001,
   1.1272157430648804,
   1.1021796464920044,
   1.0819709300994873,
   1.0735622644424438,
   1.0645307302474976,
   1.0567766427993774,
   1.010692834854126,
   1.0007460117340088,
   1.0036988258361816,
   1.0072038173675537,
   0.98339098691940308,
   0.98268681764602661,
   0.98846375942230225,
   1.0181474685668945,
   0.99545496702194214,
   1.0026439428329468,
   0.98355484008789062,
   0.98510968685150146,
   0.99118125438690186,
   0.99678599834442139,
   1.0394699573516846,
   1.0131193399429321,
   0.99295634031295776,
   0.94300591945648193
]
