[
   35.508392333984375,
   35.390460968017578,
   35.044910430908203,
   34.950035095214844,
   35.000816345214844,
   35.089923858642578,
   34.7669677734375,
   34.762275695800781,
   34.927932739257812,
   34.539375305175781,
   33.954662322998047,
   33.438098907470703,
   32.721996307373047,
   32.333213806152344,
   31.9046630859375,
   31.379009246826172,
   30.60211181640625,
   30.300601959228516,
   30.139276504516602,
   26.077236175537109,
   23.267114639282227,
   21.026357650756836,
   19.109989166259766,
   17.659181594848633,
   16.114032745361328,
   14.84186840057373,
   13.851255416870117,
   13.14048957824707,
   8.0026874542236328,
   5.9375705718994141,
   4.8357992172241211,
   3.8431327342987061,
   3.4085991382598877,
   3.241605281829834,
   2.8957381248474121,
   2.6780252456665039,
   2.5334455966949463,
   1.6273750066757202,
   1.3659331798553467,
   1.3299038410186768,
   1.3254952430725098,
   1.2253625392913818,
   1.1965886354446411,
   1.1417081356048584,
   1.2191920280456543,
   1.0533214807510376,
   1.0557956695556641,
   1.0358724594116211,
   1.0495485067367554,
   0.87954986095428467,
   0.85066241025924683,
   0.96114790439605713,
   1.0408215522766113,
   1.049258828163147,
   0.80379468202590942,
   1.0676041841506958,
   0.96335518360137939,
   0.81144076585769653,
   1.0321434736251831,
   0.98144924640655518,
   1.1506869792938232,
   0.7592962384223938,
   0.8403705358505249,
   0.96291482448577881
]
