[
   14.28608512878418,
   14.2220458984375,
   14.215147018432617,
   14.166154861450195,
   14.173420906066895,
   14.129396438598633,
   14.129789352416992,
   14.123974800109863,
   14.08582592010498,
   14.100767135620117,
   13.92662239074707,
   13.667109489440918,
   13.563458442687988,
   13.339258193969727,
   13.155764579772949,
   13.042386054992676,
   12.882331848144531,
   12.828653335571289,
   12.704226493835449,
   11.547114372253418,
   10.844841003417969,
   10.19806957244873,
   9.5814390182495117,
   9.0904979705810547,
   8.6197967529296875,
   8.2704963684082031,
   7.9262642860412598,
   7.55657958984375,
   5.3976731300354004,
   4.2742290496826172,
   3.5642807483673096,
   3.0116143226623535,
   2.6536319255828857,
   2.3511261940002441,
   2.1977438926696777,
   2.0418086051940918,
   1.8787374496459961,
   1.2893352508544922,
   1.2367047071456909,
   1.1129459142684937,
   1.0253798961639404,
   1.0557209253311157,
   1.068371057510376,
   0.99281483888626099,
   0.97654449939727783,
   0.91773116588592529,
   0.98779600858688354,
   1.0466741323471069,
   0.98534810543060303,
   0.94350326061248779,
   0.9899713397026062,
   0.97436505556106567,
   0.98899781703948975,
   0.98300421237945557,
   0.99450576305389404,
   1.0549263954162598,
   1.0900446176528931,
   0.98165589570999146,
   1.0176668167114258,
   0.81376379728317261,
   0.94444513320922852,
   0.95846617221832275,
   0.90733414888381958,
   0.99119365215301514
]
