[
   3.586259126663208,
   3.5702216625213623,
   3.5679774284362793,
   3.5641613006591797,
   3.5654723644256592,
   3.5719254016876221,
   3.5645973682403564,
   3.5669753551483154,
   3.5605800151824951,
   3.561767578125,
   3.5475139617919922,
   3.524904727935791,
   3.5084164142608643,
   3.4977412223815918,
   3.4817166328430176,
   3.4697747230529785,
   3.4595673084259033,
   3.4346015453338623,
   3.4310600757598877,
   3.3031506538391113,
   3.2059683799743652,
   3.1238470077514648,
   3.0483939647674561,
   2.9769878387451172,
   2.904407262802124,
   2.8613715171813965,
   2.8087899684906006,
   2.7553305625915527,
   2.3907985687255859,
   2.1394686698913574,
   1.9625318050384521,
   1.8205788135528564,
   1.6990678310394287,
   1.6169004440307617,
   1.5462057590484619,
   1.4907678365707397,
   1.4428697824478149,
   1.1984491348266602,
   1.1311471462249756,
   1.0908052921295166,
   1.0585331916809082,
   1.0469528436660767,
   1.0492920875549316,
   1.0446770191192627,
   1.0301108360290527,
   1.0088276863098145,
   1.0018202066421509,
   0.99465978145599365,
   1.0050441026687622,
   1.0115605592727661,
   1.0049669742584229,
   1.021162748336792,
   0.99949485063552856,
   0.98944836854934692,
   1.0116943120956421,
   1.0090583562850952,
   0.98246157169342041,
   1.0102601051330566,
   0.98282492160797119,
   0.99548560380935669,
   0.98791849613189697,
   1.0080587863922119,
   0.96592855453491211,
   0.91155797243118286
]
