[
   103.7052001953125,
   102.34902191162109,
   101.89408874511719,
   100.92539215087891,
   101.13175964355469,
   100.27733612060547,
   100.30360412597656,
   98.372390747070312,
   97.294586181640625,
   97.593132019042969,
   93.188896179199219,
   88.831253051757812,
   88.690940856933594,
   82.807418823242188,
   79.643905639648438,
   77.045745849609375,
   77.165229797363281,
   73.649002075195312,
   71.005508422851562,
   56.213970184326172,
   45.9915771484375,
   38.613784790039062,
   32.946548461914062,
   28.439544677734375,
   25.930572509765625,
   23.443035125732422,
   21.204011917114258,
   19.499502182006836,
   10.437324523925781,
   6.4097146987915039,
   4.7602496147155762,
   3.8180413246154785,
   3.1833276748657227,
   2.642549991607666,
   2.8330790996551514,
   2.1413154602050781,
   2.2060625553131104,
   1.4910387992858887,
   0.97939813137054443,
   1.1275603771209717,
   1.0082551240921021,
   0.9304499626159668,
   1.0058860778808594,
   0.82287693023681641,
   0.89772099256515503,
   1.1531170606613159,
   1.2063663005828857,
   0.99833095073699951,
   0.93048298358917236,
   0.91148865222930908,
   1.0783735513687134,
   1.0522447824478149,
   0.9585576057434082,
   1.175973653793335,
   0.95208483934402466,
   1.1890358924865723,
   0.9391103982925415,
   0.7612650990486145,
   0.93904531002044678,
   0.63427591323852539,
   0.99630844593048096,
   0.884296715259552,
   0.97474747896194458,
   0.21792931854724884
]
