[
   2.2636446952819824,
   2.2625689506530762,
   2.2670402526855469,
   2.2627379894256592,
   2.267357349395752,
   2.261075496673584,
   2.2640430927276611,
   2.2620036602020264,
   2.2606124877929688,
   2.2567152976989746,
   2.2512204647064209,
   2.2541861534118652,
   2.244873046875,
   2.2410171031951904,
   2.2343709468841553,
   2.2265770435333252,
   2.2252974510192871,
   2.2221932411193848,
   2.2175149917602539,
   2.1701836585998535,
   2.1331608295440674,
   2.0997781753540039,
   2.0641379356384277,
   2.0376310348510742,
   2.0105047225952148,
   1.9861418008804321,
   1.9618403911590576,
   1.9461694955825806,
   1.7853639125823975,
   1.6766971349716187,
   1.5923519134521484,
   1.5261914730072021,
   1.47162926197052,
   1.4251562356948853,
   1.3884899616241455,
   1.3494051694869995,
   1.323974609375,
   1.1549122333526611,
   1.0964628458023071,
   1.0712648630142212,
   1.0497899055480957,
   1.0301038026809692,
   1.0230902433395386,
   1.017874002456665,
   1.0077611207962036,
   1.006969690322876,
   1.0024510622024536,
   0.99680745601654053,
   0.99561291933059692,
   1.0031235218048096,
   0.99248027801513672,
   0.98675143718719482,
   1.0032830238342285,
   0.99986410140991211,
   1.0161492824554443,
   0.99974459409713745,
   0.9918854832649231,
   0.98193979263305664,
   1.0117599964141846,
   1.0032918453216553,
   0.99083435535430908,
   1.0264027118682861,
   0.975411057472229,
   1.0068303346633911
]
