[
   1.5332365036010742,
   1.5327999591827393,
   1.5326617956161499,
   1.5323400497436523,
   1.5346295833587646,
   1.5326335430145264,
   1.5314538478851318,
   1.5327295064926147,
   1.5330508947372437,
   1.5317389965057373,
   1.5329158306121826,
   1.5300042629241943,
   1.5279128551483154,
   1.5274989604949951,
   1.5253210067749023,
   1.5222088098526001,
   1.523405909538269,
   1.5211284160614014,
   1.5196655988693237,
   1.5071310997009277,
   1.4947953224182129,
   1.4846317768096924,
   1.4731887578964233,
   1.4644157886505127,
   1.4548404216766357,
   1.4457747936248779,
   1.436866283416748,
   1.4291131496429443,
   1.3657090663909912,
   1.3194247484207153,
   1.286036491394043,
   1.2562593221664429,
   1.2317969799041748,
   1.2114315032958984,
   1.1953232288360596,
   1.1799030303955078,
   1.1669445037841797,
   1.0928105115890503,
   1.0570933818817139,
   1.0414822101593018,
   1.0251508951187134,
   1.0188924074172974,
   1.0127389430999756,
   1.0131264925003052,
   1.0089061260223389,
   1.0070476531982422,
   0.99843549728393555,
   0.99135923385620117,
   0.99740535020828247,
   0.99967259168624878,
   1.0007079839706421,
   1.0007839202880859,
   0.99736577272415161,
   1.0011395215988159,
   1.0025042295455933,
   0.99685591459274292,
   0.98942434787750244,
   0.99844419956207275,
   0.99526518583297729,
   0.99846726655960083,
   1.0040658712387085,
   1.0131932497024536,
   0.99145495891571045,
   0.98169410228729248
]
