[
   1.5881015062332153,
   1.5877809524536133,
   1.5869935750961304,
   1.5874464511871338,
   1.589729905128479,
   1.5874814987182617,
   1.5860135555267334,
   1.5876814126968384,
   1.5882480144500732,
   1.5866355895996094,
   1.5878152847290039,
   1.584703803062439,
   1.5821561813354492,
   1.5813703536987305,
   1.5792883634567261,
   1.5752166509628296,
   1.5762609243392944,
   1.5741415023803711,
   1.5721766948699951,
   1.5584993362426758,
   1.5436718463897705,
   1.5323450565338135,
   1.5188548564910889,
   1.5091397762298584,
   1.4977657794952393,
   1.4878637790679932,
   1.4768521785736084,
   1.4687440395355225,
   1.3973667621612549,
   1.3459901809692383,
   1.3091838359832764,
   1.276533842086792,
   1.2489371299743652,
   1.2270940542221069,
   1.2089376449584961,
   1.19245445728302,
   1.1784858703613281,
   1.0978531837463379,
   1.0599370002746582,
   1.043015718460083,
   1.0263994932174683,
   1.0193610191345215,
   1.0132664442062378,
   1.0138970613479614,
   1.0098793506622314,
   1.0066636800765991,
   0.99832522869110107,
   0.99145114421844482,
   0.99785077571868896,
   1.0002503395080566,
   1.0009729862213135,
   1.0013706684112549,
   0.99798071384429932,
   1.0025240182876587,
   1.0035488605499268,
   0.9967581033706665,
   0.98966741561889648,
   0.99871331453323364,
   0.99483931064605713,
   0.99783146381378174,
   1.0031919479370117,
   1.0119084119796753,
   0.99069088697433472,
   0.98063009977340698
]
