[
   1.9487676620483398,
   1.9481287002563477,
   1.9511756896972656,
   1.9496341943740845,
   1.9493532180786133,
   1.9490489959716797,
   1.9502311944961548,
   1.948223352432251,
   1.9476146697998047,
   1.9473718404769897,
   1.9452037811279297,
   1.9436037540435791,
   1.9405992031097412,
   1.9387592077255249,
   1.9363396167755127,
   1.9353004693984985,
   1.9348964691162109,
   1.9299331903457642,
   1.927112340927124,
   1.9059816598892212,
   1.885509729385376,
   1.8654212951660156,
   1.8493425846099854,
   1.832424521446228,
   1.8164522647857666,
   1.801377534866333,
   1.7876579761505127,
   1.7744764089584351,
   1.6697261333465576,
   1.59550940990448,
   1.5335748195648193,
   1.4888367652893066,
   1.4487755298614502,
   1.4169323444366455,
   1.386094331741333,
   1.3619230985641479,
   1.3354866504669189,
   1.1964519023895264,
   1.1359730958938599,
   1.094720721244812,
   1.0696088075637817,
   1.0502804517745972,
   1.0365146398544312,
   1.0277650356292725,
   1.0219532251358032,
   1.0169417858123779,
   1.0019325017929077,
   0.99941694736480713,
   0.99673736095428467,
   0.9952397346496582,
   0.98675364255905151,
   0.98599159717559814,
   1.004349946975708,
   0.99530160427093506,
   0.98937118053436279,
   0.98965966701507568,
   0.98170918226242065,
   0.99342167377471924,
   0.99751156568527222,
   0.98471277952194214,
   0.99445295333862305,
   1.0537307262420654,
   1.0631697177886963,
   1.030888557434082
]
