[
   2.304032564163208,
   2.3084514141082764,
   2.3027710914611816,
   2.3029508590698242,
   2.3022732734680176,
   2.3021063804626465,
   2.3008685111999512,
   2.3030128479003906,
   2.3011724948883057,
   2.3016276359558105,
   2.2962188720703125,
   2.2959022521972656,
   2.2873885631561279,
   2.2849087715148926,
   2.2809150218963623,
   2.273409366607666,
   2.2739772796630859,
   2.2762229442596436,
   2.2673630714416504,
   2.2286765575408936,
   2.1965568065643311,
   2.1705987453460693,
   2.1450612545013428,
   2.121018648147583,
   2.0942692756652832,
   2.0747718811035156,
   2.0543596744537354,
   2.0361790657043457,
   1.8817501068115234,
   1.7810252904891968,
   1.6989271640777588,
   1.637303352355957,
   1.5802388191223145,
   1.5362874269485474,
   1.4967174530029297,
   1.4624022245407104,
   1.4323779344558716,
   1.2427241802215576,
   1.1618406772613525,
   1.102914571762085,
   1.0756137371063232,
   1.0654008388519287,
   1.0513150691986084,
   1.0371954441070557,
   1.0325732231140137,
   1.0270016193389893,
   0.99564826488494873,
   0.98920774459838867,
   0.98832595348358154,
   0.98393285274505615,
   0.99216568470001221,
   0.9869990348815918,
   0.99165898561477661,
   0.99381351470947266,
   0.98570489883422852,
   1.0072470903396606,
   0.98721027374267578,
   0.98994052410125732,
   0.98572921752929688,
   1.0010378360748291,
   0.99270927906036377,
   1.009782075881958,
   0.94987857341766357,
   1.0290549993515015
]
