[
   1.5740402936935425,
   1.5740416049957275,
   1.5737698078155518,
   1.5746020078659058,
   1.5744329690933228,
   1.5741325616836548,
   1.5749027729034424,
   1.5743529796600342,
   1.5728062391281128,
   1.5734232664108276,
   1.5729159116744995,
   1.5725232362747192,
   1.5695569515228271,
   1.5703194141387939,
   1.5688927173614502,
   1.5674202442169189,
   1.5662257671356201,
   1.5657987594604492,
   1.5630789995193481,
   1.5541675090789795,
   1.5444680452346802,
   1.5351541042327881,
   1.5263668298721313,
   1.5188661813735962,
   1.5092613697052002,
   1.5023965835571289,
   1.4957748651504517,
   1.4879723787307739,
   1.4301050901412964,
   1.3866736888885498,
   1.3529132604598999,
   1.3246308565139771,
   1.3019536733627319,
   1.2817023992538452,
   1.2632453441619873,
   1.2470405101776123,
   1.23404860496521,
   1.1442272663116455,
   1.0947779417037964,
   1.0679898262023926,
   1.0476490259170532,
   1.0360606908798218,
   1.0239202976226807,
   1.0199329853057861,
   1.0149486064910889,
   1.0165523290634155,
   1.004638671875,
   1.0084553956985474,
   0.99821412563323975,
   0.99532651901245117,
   0.99273616075515747,
   0.99898797273635864,
   0.99290120601654053,
   0.99218177795410156,
   0.99709874391555786,
   1.0005558729171753,
   1.0089242458343506,
   1.0033103227615356,
   1.0038920640945435,
   0.99874323606491089,
   0.99175596237182617,
   0.97854387760162354,
   1.0003519058227539,
   1.0523664951324463
]
