[
   1.6342401504516602,
   1.6354604959487915,
   1.6313616037368774,
   1.6336174011230469,
   1.6321020126342773,
   1.6333833932876587,
   1.6328119039535522,
   1.6338933706283569,
   1.6326544284820557,
   1.6323320865631104,
   1.63140869140625,
   1.6308324337005615,
   1.6282409429550171,
   1.6284902095794678,
   1.6261911392211914,
   1.6250646114349365,
   1.6232259273529053,
   1.6217849254608154,
   1.6232467889785767,
   1.6096668243408203,
   1.5984334945678711,
   1.5880124568939209,
   1.5770992040634155,
   1.5693762302398682,
   1.5586848258972168,
   1.5494353771209717,
   1.5413534641265869,
   1.5329269170761108,
   1.4694089889526367,
   1.419022798538208,
   1.3819692134857178,
   1.3502427339553833,
   1.3260759115219116,
   1.3021175861358643,
   1.2843068838119507,
   1.267409086227417,
   1.251742959022522,
   1.1519609689712524,
   1.1044838428497314,
   1.0719614028930664,
   1.0536936521530151,
   1.0407744646072388,
   1.0338884592056274,
   1.0342967510223389,
   1.0287511348724365,
   1.0238568782806396,
   1.008840799331665,
   1.0066487789154053,
   1.0030984878540039,
   1.0109906196594238,
   1.0121548175811768,
   1.003139853477478,
   1.0067553520202637,
   0.99849784374237061,
   1.0050495862960815,
   1.0029065608978271,
   0.98942643404006958,
   1.0078911781311035,
   0.99804019927978516,
   1.0058176517486572,
   0.98934459686279297,
   1.0123958587646484,
   0.97139501571655273,
   0.97626990079879761
]
