[
   4.8905725479125977,
   4.8715925216674805,
   4.8962922096252441,
   4.8865113258361816,
   4.8775639533996582,
   4.8678770065307617,
   4.8886966705322266,
   4.879185676574707,
   4.8910140991210938,
   4.8830633163452148,
   4.8500232696533203,
   4.8301873207092285,
   4.8231487274169922,
   4.7945766448974609,
   4.7661776542663574,
   4.7615871429443359,
   4.7524528503417969,
   4.7158446311950684,
   4.6972956657409668,
   4.5154428482055664,
   4.3546910285949707,
   4.2435770034790039,
   4.1345434188842773,
   4.0224947929382324,
   3.9270915985107422,
   3.8453972339630127,
   3.7613372802734375,
   3.6845574378967285,
   3.1525466442108154,
   2.8107399940490723,
   2.5505366325378418,
   2.3729681968688965,
   2.2088212966918945,
   2.095200777053833,
   1.9667413234710693,
   1.875,
   1.7977203130722046,
   1.4056477546691895,
   1.2706048488616943,
   1.1689115762710571,
   1.1354539394378662,
   1.0961596965789795,
   1.0658204555511475,
   1.050620436668396,
   1.0515624284744263,
   1.0146088600158691,
   0.99314689636230469,
   0.95593148469924927,
   0.97114819288253784,
   0.96167594194412231,
   0.97193324565887451,
   0.99209672212600708,
   1.0011147260665894,
   1.0019803047180176,
   1.0106756687164307,
   1.0194752216339111,
   0.97465342283248901,
   0.94340008497238159,
   1.0012067556381226,
   1.0084187984466553,
   1.0657851696014404,
   1.0658265352249146,
   1.0401847362518311,
   1.00376296043396
]
