[
   1.8100967407226562,
   1.8121544122695923,
   1.8095384836196899,
   1.8089914321899414,
   1.810494065284729,
   1.8103444576263428,
   1.8091634511947632,
   1.8079032897949219,
   1.8098337650299072,
   1.8099899291992188,
   1.8084087371826172,
   1.8063215017318726,
   1.8039789199829102,
   1.803145170211792,
   1.7990779876708984,
   1.7971197366714478,
   1.7948207855224609,
   1.7943227291107178,
   1.7934688329696655,
   1.7767269611358643,
   1.7583434581756592,
   1.7411569356918335,
   1.729182243347168,
   1.7155147790908813,
   1.7040910720825195,
   1.6887586116790771,
   1.6752579212188721,
   1.6639506816864014,
   1.5759721994400024,
   1.5119938850402832,
   1.4616726636886597,
   1.4205617904663086,
   1.389096736907959,
   1.35819411277771,
   1.3335556983947754,
   1.3122760057449341,
   1.29228675365448,
   1.1746242046356201,
   1.1064960956573486,
   1.0684773921966553,
   1.0449457168579102,
   1.0334360599517822,
   1.023018479347229,
   1.0182673931121826,
   1.0146110057830811,
   1.010190486907959,
   0.99792385101318359,
   0.99357175827026367,
   0.9928099513053894,
   0.9896320104598999,
   0.9892231822013855,
   0.9929203987121582,
   0.97338896989822388,
   0.98809325695037842,
   0.98204296827316284,
   0.98302888870239258,
   0.97736883163452148,
   0.98397952318191528,
   0.99273490905761719,
   1.0095994472503662,
   1.0133965015411377,
   1.0456606149673462,
   1.0761396884918213,
   1.054377555847168
]
