[
   1.7946970462799072,
   1.7921884059906006,
   1.7916568517684937,
   1.793286919593811,
   1.7954337596893311,
   1.7913070917129517,
   1.7926654815673828,
   1.7906738519668579,
   1.7920286655426025,
   1.7919679880142212,
   1.7907340526580811,
   1.7883701324462891,
   1.7872110605239868,
   1.7854306697845459,
   1.7835066318511963,
   1.781471848487854,
   1.7807672023773193,
   1.7789356708526611,
   1.7776962518692017,
   1.7626893520355225,
   1.7491500377655029,
   1.7346576452255249,
   1.7232236862182617,
   1.7135200500488281,
   1.7028305530548096,
   1.6912469863891602,
   1.6816179752349854,
   1.6717733144760132,
   1.5962111949920654,
   1.5383632183074951,
   1.4964721202850342,
   1.4594627618789673,
   1.425490140914917,
   1.3998768329620361,
   1.3760180473327637,
   1.355241060256958,
   1.3338193893432617,
   1.2009172439575195,
   1.1329971551895142,
   1.0975092649459839,
   1.0740715265274048,
   1.0624904632568359,
   1.0468995571136475,
   1.0306819677352905,
   1.0276459455490112,
   1.0270648002624512,
   1.007892370223999,
   1.0045429468154907,
   0.99640911817550659,
   1.0039817094802856,
   1.0026369094848633,
   1.0125775337219238,
   1.0100109577178955,
   1.0093623399734497,
   1.007404088973999,
   1.0119774341583252,
   0.99433743953704834,
   0.99180299043655396,
   0.98567736148834229,
   0.99154633283615112,
   0.99569082260131836,
   0.99355810880661011,
   0.95755612850189209,
   0.90740567445755005
]
