[
   1.6881738901138306,
   1.6864588260650635,
   1.6876418590545654,
   1.6884618997573853,
   1.6871570348739624,
   1.6895825862884521,
   1.6863094568252563,
   1.6873605251312256,
   1.6873308420181274,
   1.6881008148193359,
   1.6850754022598267,
   1.6830663681030273,
   1.6830503940582275,
   1.6817121505737305,
   1.6804263591766357,
   1.6800458431243896,
   1.6793205738067627,
   1.6776158809661865,
   1.6741358041763306,
   1.6634700298309326,
   1.654376745223999,
   1.6432759761810303,
   1.6328262090682983,
   1.6231701374053955,
   1.6160495281219482,
   1.6045850515365601,
   1.5999253988265991,
   1.5898211002349854,
   1.5271960496902466,
   1.4826935529708862,
   1.4455324411392212,
   1.4144750833511353,
   1.3862597942352295,
   1.3633182048797607,
   1.340936541557312,
   1.3228704929351807,
   1.3046808242797852,
   1.190704345703125,
   1.128506064414978,
   1.0884686708450317,
   1.0638824701309204,
   1.0466724634170532,
   1.0348187685012817,
   1.0322487354278564,
   1.0267231464385986,
   1.0184613466262817,
   0.99733269214630127,
   0.99094069004058838,
   0.99185657501220703,
   1.0000250339508057,
   1.0066533088684082,
   1.001753568649292,
   1.0089417695999146,
   0.99305897951126099,
   0.99794071912765503,
   0.99991953372955322,
   1.0030200481414795,
   0.98665684461593628,
   0.99250113964080811,
   1.0099626779556274,
   1.0075134038925171,
   1.0139714479446411,
   1.0067946910858154,
   0.99070292711257935
]
