[
   105.4532470703125,
   106.32891845703125,
   104.69221496582031,
   102.20695495605469,
   102.45320129394531,
   103.52775573730469,
   104.16780853271484,
   103.35945129394531,
   101.53094482421875,
   102.28687286376953,
   100.45759582519531,
   95.865119934082031,
   93.347740173339844,
   94.130653381347656,
   92.798690795898438,
   90.215042114257812,
   88.007675170898438,
   85.700607299804688,
   84.885612487792969,
   75.583564758300781,
   64.678016662597656,
   56.830757141113281,
   53.495037078857422,
   47.389472961425781,
   44.533763885498047,
   40.948616027832031,
   37.270721435546875,
   34.639560699462891,
   20.246562957763672,
   13.156825065612793,
   9.7808237075805664,
   7.6897749900817871,
   6.7947907447814941,
   5.4278688430786133,
   4.2694082260131836,
   4.0278868675231934,
   3.9841556549072266,
   1.7465331554412842,
   1.682114839553833,
   1.434314489364624,
   0.99417197704315186,
   0.91488027572631836,
   1.213160514831543,
   1.1951678991317749,
   1.2665760517120361,
   0.99339067935943604,
   0.90565586090087891,
   0.78369837999343872,
   0.67017549276351929,
   1.136788010597229,
   0.9117051362991333,
   0.85053366422653198,
   0.8889460563659668,
   1.0841611623764038,
   1.173325777053833,
   0.99170529842376709,
   1.3811986446380615,
   1.7969917058944702,
   1.1880210638046265,
   0.88826048374176025,
   0.88680440187454224,
   0.80867516994476318,
   0.36344262957572937,
   0.12199820578098297
]
