[
   1.6380054950714111,
   1.6374461650848389,
   1.6372566223144531,
   1.6356712579727173,
   1.6365954875946045,
   1.637645959854126,
   1.6378052234649658,
   1.6367257833480835,
   1.6347658634185791,
   1.6372352838516235,
   1.635272741317749,
   1.6349118947982788,
   1.6326570510864258,
   1.6327775716781616,
   1.6294139623641968,
   1.6300342082977295,
   1.6271289587020874,
   1.6273810863494873,
   1.6247494220733643,
   1.6155569553375244,
   1.606921911239624,
   1.5984915494918823,
   1.5886954069137573,
   1.5797282457351685,
   1.5729258060455322,
   1.564606785774231,
   1.5554726123809814,
   1.552048921585083,
   1.4965353012084961,
   1.453157901763916,
   1.4183924198150635,
   1.3927018642425537,
   1.3670849800109863,
   1.3457553386688232,
   1.3260873556137085,
   1.3070508241653442,
   1.2918126583099365,
   1.1912986040115356,
   1.1294076442718506,
   1.0933628082275391,
   1.0676681995391846,
   1.0490590333938599,
   1.0406177043914795,
   1.0329699516296387,
   1.0269471406936646,
   1.0212626457214355,
   0.99750363826751709,
   0.9910925030708313,
   0.99387514591217041,
   1.0008130073547363,
   0.99592936038970947,
   0.99461966753005981,
   0.99266493320465088,
   0.98371154069900513,
   0.99078738689422607,
   0.98666322231292725,
   0.9763941764831543,
   0.98716700077056885,
   0.9931066632270813,
   1.0143136978149414,
   1.0040884017944336,
   1.0274350643157959,
   1.0108709335327148,
   1.0722718238830566
]
