[
   1.9094793796539307,
   1.9095962047576904,
   1.9085788726806641,
   1.9069693088531494,
   1.9095722436904907,
   1.9095785617828369,
   1.9095453023910522,
   1.9090719223022461,
   1.9090864658355713,
   1.9102966785430908,
   1.9069801568984985,
   1.906785249710083,
   1.9045770168304443,
   1.9051902294158936,
   1.9020073413848877,
   1.9008815288543701,
   1.9001607894897461,
   1.8956611156463623,
   1.896719217300415,
   1.8828535079956055,
   1.8696534633636475,
   1.8547443151473999,
   1.8448024988174438,
   1.8323774337768555,
   1.8217313289642334,
   1.8127186298370361,
   1.8014818429946899,
   1.7928451299667358,
   1.710235595703125,
   1.6467313766479492,
   1.5906264781951904,
   1.545783519744873,
   1.5072286128997803,
   1.4730963706970215,
   1.4423413276672363,
   1.4155813455581665,
   1.3912348747253418,
   1.2440249919891357,
   1.1709601879119873,
   1.1238963603973389,
   1.0916256904602051,
   1.0699012279510498,
   1.0578823089599609,
   1.0439870357513428,
   1.0451843738555908,
   1.041248083114624,
   1.0161604881286621,
   0.99965000152587891,
   1.0046430826187134,
   0.99455118179321289,
   0.99764126539230347,
   0.99746954441070557,
   0.99119120836257935,
   1.0000786781311035,
   0.9996412992477417,
   0.98554867506027222,
   1.0060570240020752,
   1.0275719165802002,
   1.038077712059021,
   0.980751633644104,
   0.93259274959564209,
   0.98615443706512451,
   1.0383715629577637,
   0.92352914810180664
]
