[
   1.7771403789520264,
   1.7754806280136108,
   1.7755458354949951,
   1.7755377292633057,
   1.7755076885223389,
   1.7751514911651611,
   1.774488091468811,
   1.7751775979995728,
   1.7741934061050415,
   1.7746464014053345,
   1.7748725414276123,
   1.7731641530990601,
   1.770804762840271,
   1.7703444957733154,
   1.7692092657089233,
   1.7664951086044312,
   1.7671842575073242,
   1.7664076089859009,
   1.7648086547851562,
   1.7543811798095703,
   1.7458673715591431,
   1.7335933446884155,
   1.7268850803375244,
   1.7190576791763306,
   1.7089102268218994,
   1.7003934383392334,
   1.692330002784729,
   1.6862262487411499,
   1.6211827993392944,
   1.5672563314437866,
   1.5243470668792725,
   1.4860752820968628,
   1.4535071849822998,
   1.4245355129241943,
   1.3992969989776611,
   1.3757240772247314,
   1.3551735877990723,
   1.225839376449585,
   1.154181957244873,
   1.1127883195877075,
   1.089280366897583,
   1.0751607418060303,
   1.0625627040863037,
   1.0604702234268188,
   1.0544030666351318,
   1.0528886318206787,
   1.0204668045043945,
   0.99714565277099609,
   1.0140335559844971,
   0.99620550870895386,
   0.9978102445602417,
   0.99246138334274292,
   0.99642258882522583,
   0.99429237842559814,
   0.99135607481002808,
   0.97203177213668823,
   1.0137323141098022,
   0.99310380220413208,
   0.97239100933074951,
   1.0255407094955444,
   1.017175555229187,
   0.98081445693969727,
   1.0706690549850464,
   1.0729402303695679
]
