[
   8.3284130096435547,
   8.3236427307128906,
   8.2787561416625977,
   8.3038005828857422,
   8.3029899597167969,
   8.2833414077758789,
   8.2709169387817383,
   8.2655496597290039,
   8.2521486282348633,
   8.2188358306884766,
   8.2108783721923828,
   8.1551389694213867,
   8.1205577850341797,
   8.06207275390625,
   8.0169839859008789,
   7.9614095687866211,
   7.9140501022338867,
   7.8840608596801758,
   7.7854833602905273,
   7.4079732894897461,
   7.0711641311645508,
   6.7511391639709473,
   6.4776334762573242,
   6.198911190032959,
   5.9511899948120117,
   5.7646646499633789,
   5.5885982513427734,
   5.3865518569946289,
   4.1325769424438477,
   3.4240760803222656,
   2.9916939735412598,
   2.6977224349975586,
   2.4602742195129395,
   2.2612199783325195,
   2.093440055847168,
   1.9992005825042725,
   1.913762092590332,
   1.47395920753479,
   1.3360270261764526,
   1.2081812620162964,
   1.1320183277130127,
   1.0813417434692383,
   1.0611622333526611,
   1.0423097610473633,
   1.0098750591278076,
   0.98820817470550537,
   0.98677235841751099,
   0.97930288314819336,
   0.99796372652053833,
   1.0383665561676025,
   1.0075528621673584,
   1.0180580615997314,
   0.98720180988311768,
   0.96793872117996216,
   0.95703327655792236,
   0.98373734951019287,
   1.0118879079818726,
   1.0145338773727417,
   1.067646861076355,
   0.97055566310882568,
   0.93049943447113037,
   0.97244769334793091,
   0.97226935625076294,
   0.95893228054046631
]
