[
   3.3122684955596924,
   3.3066024780273438,
   3.310309886932373,
   3.3140816688537598,
   3.3194413185119629,
   3.3161365985870361,
   3.3131165504455566,
   3.3098781108856201,
   3.3095440864562988,
   3.309180736541748,
   3.3076057434082031,
   3.2963001728057861,
   3.2892451286315918,
   3.2785873413085938,
   3.2755513191223145,
   3.2647113800048828,
   3.2550101280212402,
   3.2482452392578125,
   3.2474594116210938,
   3.1904573440551758,
   3.1251482963562012,
   3.0673956871032715,
   3.0264654159545898,
   2.9723563194274902,
   2.9365484714508057,
   2.887749195098877,
   2.8432559967041016,
   2.8088810443878174,
   2.5142848491668701,
   2.2916016578674316,
   2.1264820098876953,
   1.9872720241546631,
   1.8861042261123657,
   1.8041660785675049,
   1.7326122522354126,
   1.6687816381454468,
   1.614915132522583,
   1.3459736108779907,
   1.2359189987182617,
   1.1649240255355835,
   1.1021983623504639,
   1.0791218280792236,
   1.0742288827896118,
   1.0723203420639038,
   1.0587184429168701,
   1.0387632846832275,
   1.0025174617767334,
   1.0015156269073486,
   0.99890536069869995,
   0.99208724498748779,
   1.0077844858169556,
   0.99920737743377686,
   1.0121620893478394,
   1.0078258514404297,
   0.99498701095581055,
   0.99396324157714844,
   0.97349774837493896,
   0.99926817417144775,
   1.023489236831665,
   0.95636999607086182,
   0.97840499877929688,
   1.0086566209793091,
   0.95520907640457153,
   0.94389104843139648
]
