[
   2.1021664142608643,
   2.1014268398284912,
   2.1009488105773926,
   2.1019105911254883,
   2.0990090370178223,
   2.1000347137451172,
   2.0982322692871094,
   2.0995614528656006,
   2.1028409004211426,
   2.0986971855163574,
   2.0980753898620605,
   2.0943150520324707,
   2.0924642086029053,
   2.0919749736785889,
   2.0918576717376709,
   2.0862603187561035,
   2.0869693756103516,
   2.0818274021148682,
   2.081611156463623,
   2.063692569732666,
   2.0481326580047607,
   2.0329604148864746,
   2.0136361122131348,
   2.0006842613220215,
   1.9872305393218994,
   1.9714263677597046,
   1.9610980749130249,
   1.9467060565948486,
   1.8441555500030518,
   1.7624228000640869,
   1.6956214904785156,
   1.6368547677993774,
   1.5890570878982544,
   1.5440930128097534,
   1.5046279430389404,
   1.4715715646743774,
   1.442645788192749,
   1.2615126371383667,
   1.1724725961685181,
   1.1355025768280029,
   1.1052244901657104,
   1.0758712291717529,
   1.0576634407043457,
   1.0495166778564453,
   1.0315057039260864,
   1.0160973072052002,
   1.02840256690979,
   1.0045933723449707,
   0.99658125638961792,
   0.99014377593994141,
   0.99305647611618042,
   0.99775409698486328,
   0.99409151077270508,
   1.0079487562179565,
   0.99014550447463989,
   0.96553295850753784,
   1.0077667236328125,
   0.98964041471481323,
   1.0038046836853027,
   0.99468392133712769,
   1.0023325681686401,
   0.99506556987762451,
   0.96625947952270508,
   1.0472593307495117
]
