[
   2.3699243068695068,
   2.3685765266418457,
   2.3678872585296631,
   2.3725471496582031,
   2.3669540882110596,
   2.3653721809387207,
   2.3694705963134766,
   2.3640258312225342,
   2.3685815334320068,
   2.3697142601013184,
   2.3625445365905762,
   2.3627328872680664,
   2.3541996479034424,
   2.3541254997253418,
   2.3526873588562012,
   2.3480219841003418,
   2.3464665412902832,
   2.3446564674377441,
   2.3417379856109619,
   2.3151485919952393,
   2.2908878326416016,
   2.2685790061950684,
   2.2435197830200195,
   2.227902889251709,
   2.2064533233642578,
   2.1869251728057861,
   2.1684756278991699,
   2.1555671691894531,
   2.0087716579437256,
   1.8989741802215576,
   1.813140869140625,
   1.741943359375,
   1.6790535449981689,
   1.6284866333007812,
   1.5819814205169678,
   1.5431098937988281,
   1.5057024955749512,
   1.2928054332733154,
   1.1988375186920166,
   1.1448444128036499,
   1.1152057647705078,
   1.0906345844268799,
   1.0634721517562866,
   1.0564578771591187,
   1.05478835105896,
   1.0467078685760498,
   1.0156151056289673,
   1.0020596981048584,
   0.99924975633621216,
   0.98040562868118286,
   0.99072122573852539,
   0.99099951982498169,
   0.98874509334564209,
   0.96535789966583252,
   0.96987086534500122,
   0.98828113079071045,
   0.98797523975372314,
   0.99758684635162354,
   0.98604869842529297,
   1.0221232175827026,
   1.0155931711196899,
   1.0444283485412598,
   1.031541109085083,
   1.1260411739349365
]
