[
   48.337276458740234,
   48.265739440917969,
   48.188854217529297,
   48.300056457519531,
   47.538272857666016,
   46.835430145263672,
   47.391212463378906,
   47.048019409179688,
   47.197273254394531,
   46.878219604492188,
   45.159507751464844,
   43.944972991943359,
   42.607551574707031,
   41.385997772216797,
   40.328575134277344,
   39.478073120117188,
   38.3814697265625,
   37.200965881347656,
   36.115882873535156,
   29.052984237670898,
   24.155422210693359,
   20.735050201416016,
   18.511989593505859,
   16.131328582763672,
   14.476844787597656,
   13.055183410644531,
   11.97758674621582,
   11.112419128417969,
   6.7523903846740723,
   4.8254079818725586,
   3.8796584606170654,
   3.3432853221893311,
   3.146395206451416,
   2.7645590305328369,
   2.4934108257293701,
   2.4974761009216309,
   2.2641797065734863,
   1.5545833110809326,
   1.19770348072052,
   1.2170231342315674,
   0.98595476150512695,
   0.8344264030456543,
   1.1058651208877563,
   0.9799504280090332,
   1.0093033313751221,
   1.1638877391815186,
   0.92062503099441528,
   0.93941181898117065,
   0.94837033748626709,
   0.94709575176239014,
   0.88960254192352295,
   0.76297509670257568,
   1.1307432651519775,
   1.1031579971313477,
   0.92527216672897339,
   0.95342886447906494,
   0.99991285800933838,
   0.98349988460540771,
   0.99826270341873169,
   0.98776692152023315,
   0.98593771457672119,
   0.93647032976150513,
   1.1326582431793213,
   1.10307776927948
]
