[
   4.5392303466796875,
   4.5492701530456543,
   4.5360679626464844,
   4.5515799522399902,
   4.5319738388061523,
   4.5484771728515625,
   4.527195930480957,
   4.5341506004333496,
   4.5352334976196289,
   4.5282382965087891,
   4.5155200958251953,
   4.4939498901367188,
   4.4733562469482422,
   4.4518604278564453,
   4.4453840255737305,
   4.4210720062255859,
   4.419212818145752,
   4.3959159851074219,
   4.3833279609680176,
   4.2553625106811523,
   4.1357512474060059,
   4.030705451965332,
   3.9646079540252686,
   3.8794779777526855,
   3.8081493377685547,
   3.7475483417510986,
   3.6990580558776855,
   3.6365985870361328,
   3.2173850536346436,
   2.9266512393951416,
   2.6798019409179688,
   2.4914975166320801,
   2.3379127979278564,
   2.1947193145751953,
   2.094306468963623,
   2.0086700916290283,
   1.9192711114883423,
   1.4731374979019165,
   1.2785892486572266,
   1.1605632305145264,
   1.1050997972488403,
   1.0860402584075928,
   1.0500288009643555,
   1.0601543188095093,
   1.0287368297576904,
   1.0381654500961304,
   1.0074267387390137,
   1.0091973543167114,
   0.97482109069824219,
   1.0092294216156006,
   0.96064472198486328,
   0.97737360000610352,
   0.99213516712188721,
   1.007150411605835,
   1.0155351161956787,
   0.98044282197952271,
   1.0268100500106812,
   1.0319569110870361,
   1.0112608671188354,
   0.93088710308074951,
   0.9957197904586792,
   0.98006075620651245,
   0.9533916711807251,
   0.93420779705047607
]
