[
   13.43328857421875,
   13.450790405273438,
   13.387616157531738,
   13.342353820800781,
   13.392890930175781,
   13.350689888000488,
   13.357579231262207,
   13.29291820526123,
   13.336294174194336,
   13.339958190917969,
   13.100313186645508,
   13.048219680786133,
   12.928703308105469,
   12.77544116973877,
   12.727523803710938,
   12.574119567871094,
   12.468873023986816,
   12.481796264648438,
   12.383173942565918,
   11.665950775146484,
   11.108522415161133,
   10.669509887695312,
   10.271822929382324,
   9.8958349227905273,
   9.5985422134399414,
   9.3620967864990234,
   8.9985198974609375,
   8.7757368087768555,
   6.9095687866210938,
   5.732999324798584,
   4.8183574676513672,
   4.246802806854248,
   3.8289763927459717,
   3.4662795066833496,
   3.1351780891418457,
   2.8324897289276123,
   2.6355447769165039,
   1.6410382986068726,
   1.3125622272491455,
   1.0953233242034912,
   1.0382195711135864,
   1.0881867408752441,
   1.0574948787689209,
   1.0785810947418213,
   1.0653978586196899,
   1.0955325365066528,
   0.94545876979827881,
   0.96960008144378662,
   0.9603617787361145,
   1.0052151679992676,
   1.0919740200042725,
   0.99975454807281494,
   0.94595324993133545,
   1.0359020233154297,
   0.98606663942337036,
   1.039604663848877,
   1.0964152812957764,
   1.0346176624298096,
   1.0271759033203125,
   0.84707194566726685,
   1.0018892288208008,
   0.93913078308105469,
   1.028838038444519,
   0.84151762723922729
]
