[
   23.465198516845703,
   23.468221664428711,
   23.462703704833984,
   23.533857345581055,
   23.605945587158203,
   23.448034286499023,
   23.315593719482422,
   23.385553359985352,
   23.341434478759766,
   23.250507354736328,
   22.916419982910156,
   22.713371276855469,
   22.425683975219727,
   22.026885986328125,
   21.826026916503906,
   21.537326812744141,
   21.294025421142578,
   21.310907363891602,
   21.106784820556641,
   19.556325912475586,
   18.34526252746582,
   17.513813018798828,
   16.680423736572266,
   15.771946907043457,
   15.023158073425293,
   14.46318531036377,
   14.053380012512207,
   13.468768119812012,
   9.5734806060791016,
   7.2856111526489258,
   5.950373649597168,
   5.0580296516418457,
   4.444882869720459,
   4.0414614677429199,
   3.5113539695739746,
   3.2622921466827393,
   2.8447506427764893,
   1.6928510665893555,
   1.3667089939117432,
   1.2766427993774414,
   1.231484055519104,
   1.1424133777618408,
   1.2170940637588501,
   1.3547611236572266,
   1.1698310375213623,
   1.1022722721099854,
   1.0903289318084717,
   1.0461975336074829,
   0.88178807497024536,
   1.0739648342132568,
   0.9609370231628418,
   0.91822081804275513,
   1.0663206577301025,
   1.0121963024139404,
   0.9455951452255249,
   0.9683874249458313,
   0.81272757053375244,
   0.84975653886795044,
   0.95299482345581055,
   1.0718016624450684,
   0.88290989398956299,
   1.0292527675628662,
   1.1006052494049072,
   1.090971827507019
]
