[
   1.7597841024398804,
   1.7616455554962158,
   1.7590811252593994,
   1.7607342004776001,
   1.7601745128631592,
   1.7587751150131226,
   1.7616510391235352,
   1.7596256732940674,
   1.756633996963501,
   1.7581819295883179,
   1.7574138641357422,
   1.7553997039794922,
   1.7530186176300049,
   1.7512586116790771,
   1.7504036426544189,
   1.749889612197876,
   1.7463223934173584,
   1.7431221008300781,
   1.7432667016983032,
   1.7287315130233765,
   1.7144718170166016,
   1.6999576091766357,
   1.6871885061264038,
   1.6740630865097046,
   1.6616958379745483,
   1.6527763605117798,
   1.6438207626342773,
   1.6313393115997314,
   1.5591709613800049,
   1.5056346654891968,
   1.4605300426483154,
   1.4266082048416138,
   1.3945950269699097,
   1.3698043823242188,
   1.3455835580825806,
   1.3262462615966797,
   1.3053410053253174,
   1.1795833110809326,
   1.1216593980789185,
   1.0850015878677368,
   1.0618271827697754,
   1.0420809984207153,
   1.0256111621856689,
   1.0192840099334717,
   1.0159094333648682,
   1.0116322040557861,
   1.0022499561309814,
   0.9973028302192688,
   0.99649029970169067,
   0.98803120851516724,
   0.99680262804031372,
   0.99940615892410278,
   1.0012665987014771,
   1.0042728185653687,
   0.99087542295455933,
   0.99521428346633911,
   1.0137733221054077,
   1.0003844499588013,
   1.0103366374969482,
   1.0065233707427979,
   1.0023871660232544,
   0.9557727575302124,
   0.98041713237762451,
   0.97223460674285889
]
