[
   1.6717662811279297,
   1.6704502105712891,
   1.6695396900177002,
   1.6704992055892944,
   1.6694486141204834,
   1.6679551601409912,
   1.6694581508636475,
   1.6709601879119873,
   1.6712596416473389,
   1.6681585311889648,
   1.666034460067749,
   1.6671333312988281,
   1.6659858226776123,
   1.6637907028198242,
   1.6613199710845947,
   1.6633819341659546,
   1.6608947515487671,
   1.6570241451263428,
   1.6565494537353516,
   1.6428581476211548,
   1.6293697357177734,
   1.6195390224456787,
   1.6095836162567139,
   1.5992019176483154,
   1.5878984928131104,
   1.581457257270813,
   1.5723773241043091,
   1.5632069110870361,
   1.4983456134796143,
   1.4516713619232178,
   1.4130971431732178,
   1.3833173513412476,
   1.3579058647155762,
   1.3331761360168457,
   1.3146052360534668,
   1.2946220636367798,
   1.2783256769180298,
   1.1671473979949951,
   1.1098859310150146,
   1.0764436721801758,
   1.0559868812561035,
   1.0392136573791504,
   1.0286309719085693,
   1.023611307144165,
   1.0218523740768433,
   1.0186262130737305,
   0.98907983303070068,
   0.99515801668167114,
   0.99459517002105713,
   0.99086809158325195,
   0.98781329393386841,
   0.99526417255401611,
   1.0095248222351074,
   0.9971882700920105,
   0.99447411298751831,
   0.98977422714233398,
   0.98618441820144653,
   1.0040450096130371,
   0.99347811937332153,
   0.99511384963989258,
   1.0181467533111572,
   0.996998131275177,
   1.0312464237213135,
   1.0374352931976318
]
