[
   3.4261848926544189,
   3.431760311126709,
   3.4225292205810547,
   3.4312539100646973,
   3.4327247142791748,
   3.4261059761047363,
   3.4247086048126221,
   3.4186961650848389,
   3.4198346138000488,
   3.4207034111022949,
   3.4126091003417969,
   3.4006772041320801,
   3.3917851448059082,
   3.3845095634460449,
   3.3597321510314941,
   3.3610115051269531,
   3.3463814258575439,
   3.3449203968048096,
   3.3297531604766846,
   3.2476394176483154,
   3.1842720508575439,
   3.1197848320007324,
   3.0644669532775879,
   3.0162539482116699,
   2.9749550819396973,
   2.9319460391998291,
   2.89687180519104,
   2.8609724044799805,
   2.5832734107971191,
   2.3931255340576172,
   2.2345752716064453,
   2.1116611957550049,
   1.9998728036880493,
   1.9036232233047485,
   1.8285509347915649,
   1.7539039850234985,
   1.6967172622680664,
   1.3415436744689941,
   1.2174879312515259,
   1.1571590900421143,
   1.0910847187042236,
   1.0682088136672974,
   1.0549397468566895,
   1.0517475605010986,
   1.0368400812149048,
   1.0429638624191284,
   0.99183213710784912,
   0.98451977968215942,
   1.0153063535690308,
   1.000818133354187,
   1.0296089649200439,
   1.0085229873657227,
   0.9972611665725708,
   0.98230773210525513,
   0.97213029861450195,
   1.0038726329803467,
   0.9870341420173645,
   0.98476552963256836,
   1.0300318002700806,
   0.97920000553131104,
   0.95404261350631714,
   0.95789605379104614,
   0.97368991374969482,
   0.92301857471466064
]
