[
   1.6181033849716187,
   1.6172444820404053,
   1.6166751384735107,
   1.6198136806488037,
   1.6177513599395752,
   1.6167007684707642,
   1.6168930530548096,
   1.6166303157806396,
   1.6179071664810181,
   1.6159923076629639,
   1.6160793304443359,
   1.6136490106582642,
   1.613408088684082,
   1.6112766265869141,
   1.6105731725692749,
   1.6094419956207275,
   1.6084591150283813,
   1.6070791482925415,
   1.60538649559021,
   1.5952261686325073,
   1.5855226516723633,
   1.5755653381347656,
   1.5662825107574463,
   1.557560920715332,
   1.5500352382659912,
   1.5429837703704834,
   1.5342806577682495,
   1.5266494750976562,
   1.4714361429214478,
   1.4300813674926758,
   1.3970085382461548,
   1.3689496517181396,
   1.3450543880462646,
   1.3237435817718506,
   1.307903528213501,
   1.2888987064361572,
   1.2746899127960205,
   1.172472357749939,
   1.1151621341705322,
   1.080695629119873,
   1.056565523147583,
   1.0437724590301514,
   1.033644437789917,
   1.0260218381881714,
   1.0187020301818848,
   1.0153255462646484,
   0.99837905168533325,
   0.98732388019561768,
   0.99833488464355469,
   0.99228990077972412,
   0.99478471279144287,
   1.0000535249710083,
   0.99996912479400635,
   1.0020935535430908,
   0.99936044216156006,
   0.99522417783737183,
   0.99359548091888428,
   0.99463731050491333,
   0.98477774858474731,
   0.99294739961624146,
   0.99378061294555664,
   1.0157337188720703,
   0.99623662233352661,
   1.0381309986114502
]
