[
   1.8820463418960571,
   1.8809925317764282,
   1.8810634613037109,
   1.8814903497695923,
   1.8822962045669556,
   1.8800475597381592,
   1.8793550729751587,
   1.8795274496078491,
   1.8810007572174072,
   1.8808231353759766,
   1.8762611150741577,
   1.8763240575790405,
   1.8727257251739502,
   1.8724572658538818,
   1.866080641746521,
   1.8663227558135986,
   1.8661206960678101,
   1.8640496730804443,
   1.8621876239776611,
   1.8390662670135498,
   1.8222997188568115,
   1.8066202402114868,
   1.7887332439422607,
   1.7761169672012329,
   1.7615149021148682,
   1.7500928640365601,
   1.7357927560806274,
   1.7274335622787476,
   1.6386680603027344,
   1.5718661546707153,
   1.5229289531707764,
   1.4840365648269653,
   1.44877028465271,
   1.4149845838546753,
   1.3872922658920288,
   1.3655846118927002,
   1.3416593074798584,
   1.2012085914611816,
   1.1321811676025391,
   1.0888725519180298,
   1.0625770092010498,
   1.0421469211578369,
   1.0356009006500244,
   1.0375531911849976,
   1.0308780670166016,
   1.0190441608428955,
   0.98555928468704224,
   0.99722462892532349,
   0.98809969425201416,
   1.0086146593093872,
   1.0093135833740234,
   1.0144586563110352,
   0.99540072679519653,
   1.0033800601959229,
   0.99755513668060303,
   0.99268591403961182,
   1.0012948513031006,
   1.0023485422134399,
   0.98639285564422607,
   1.0075953006744385,
   0.98749160766601562,
   0.98367977142333984,
   0.9752354621887207,
   1.0013430118560791
]
