[
   2.5023856163024902,
   2.5002875328063965,
   2.5008454322814941,
   2.4952213764190674,
   2.4973082542419434,
   2.4941015243530273,
   2.4958264827728271,
   2.4997806549072266,
   2.4953231811523438,
   2.4963629245758057,
   2.4934587478637695,
   2.4809951782226562,
   2.4802608489990234,
   2.4755682945251465,
   2.4684338569641113,
   2.4635396003723145,
   2.4640586376190186,
   2.4592831134796143,
   2.4529423713684082,
   2.4109857082366943,
   2.3736741542816162,
   2.3384730815887451,
   2.3104419708251953,
   2.2841408252716064,
   2.2588343620300293,
   2.2293577194213867,
   2.2116146087646484,
   2.1917564868927002,
   2.0270450115203857,
   1.9149191379547119,
   1.8254073858261108,
   1.7508375644683838,
   1.6834360361099243,
   1.6254112720489502,
   1.5761872529983521,
   1.5283215045928955,
   1.493680477142334,
   1.2618939876556396,
   1.1574406623840332,
   1.1078604459762573,
   1.0678722858428955,
   1.040043830871582,
   1.0294351577758789,
   1.0251854658126831,
   1.0191237926483154,
   1.0247312784194946,
   1.0110175609588623,
   1.0166187286376953,
   1.0084336996078491,
   1.0017408132553101,
   1.0017744302749634,
   1.0008057355880737,
   0.99224627017974854,
   1.0068378448486328,
   0.99701738357543945,
   0.99157238006591797,
   0.99478167295455933,
   1.0059921741485596,
   0.99475562572479248,
   1.0018248558044434,
   0.9676240086555481,
   0.97376585006713867,
   0.9790722131729126,
   0.93218386173248291
]
