[
   1.7169277667999268,
   1.7161458730697632,
   1.7137415409088135,
   1.7137066125869751,
   1.7151520252227783,
   1.7143821716308594,
   1.7132946252822876,
   1.7154693603515625,
   1.7152299880981445,
   1.7126191854476929,
   1.7123187780380249,
   1.7092688083648682,
   1.7097374200820923,
   1.7094017267227173,
   1.7070322036743164,
   1.7048351764678955,
   1.7040170431137085,
   1.7023547887802124,
   1.7007205486297607,
   1.688454270362854,
   1.6746002435684204,
   1.6615359783172607,
   1.6506633758544922,
   1.6382757425308228,
   1.6270128488540649,
   1.6186107397079468,
   1.6066219806671143,
   1.600777268409729,
   1.5217901468276978,
   1.4641506671905518,
   1.4226878881454468,
   1.3813196420669556,
   1.3499674797058105,
   1.3230127096176147,
   1.301763653755188,
   1.2800502777099609,
   1.2623226642608643,
   1.1535845994949341,
   1.0991079807281494,
   1.0661628246307373,
   1.0485923290252686,
   1.0402038097381592,
   1.0328757762908936,
   1.0253808498382568,
   1.0246192216873169,
   1.0202357769012451,
   0.99870473146438599,
   0.99564635753631592,
   0.99812060594558716,
   0.99709165096282959,
   1.0006860494613647,
   1.0025602579116821,
   1.0021712779998779,
   1.0001871585845947,
   1.0033074617385864,
   1.0098187923431396,
   1.0036818981170654,
   0.99974048137664795,
   0.99859082698822021,
   0.98432636260986328,
   0.99472874402999878,
   0.95505344867706299,
   0.95377618074417114,
   0.95299321413040161
]
