[
   2.5618467330932617,
   2.5634086132049561,
   2.5601904392242432,
   2.5580039024353027,
   2.5560812950134277,
   2.5566632747650146,
   2.5594735145568848,
   2.5584781169891357,
   2.5565989017486572,
   2.5559103488922119,
   2.5530757904052734,
   2.5479092597961426,
   2.5408265590667725,
   2.535414457321167,
   2.5276248455047607,
   2.5214095115661621,
   2.5220046043395996,
   2.5132288932800293,
   2.5081098079681396,
   2.4629786014556885,
   2.4264366626739502,
   2.3867812156677246,
   2.352379322052002,
   2.3154683113098145,
   2.2864608764648438,
   2.2555787563323975,
   2.2335381507873535,
   2.2022421360015869,
   2.0066113471984863,
   1.8734102249145508,
   1.7661972045898438,
   1.6792228221893311,
   1.6124107837677002,
   1.5531127452850342,
   1.5002461671829224,
   1.4577515125274658,
   1.4233925342559814,
   1.2279083728790283,
   1.1476178169250488,
   1.0965253114700317,
   1.0757001638412476,
   1.0632466077804565,
   1.0548113584518433,
   1.0471028089523315,
   1.0343048572540283,
   1.0352838039398193,
   1.0030018091201782,
   0.98203659057617188,
   0.99338436126708984,
   0.97718459367752075,
   0.98382347822189331,
   0.97910356521606445,
   0.98446577787399292,
   1.0011723041534424,
   1.0008821487426758,
   0.98779088258743286,
   0.98136520385742188,
   1.0005737543106079,
   0.98047721385955811,
   1.0031634569168091,
   1.0196899175643921,
   1.0571565628051758,
   1.0340162515640259,
   1.028923511505127
]
