[
   26.699291229248047,
   26.701526641845703,
   26.550693511962891,
   26.616708755493164,
   26.706737518310547,
   26.907413482666016,
   26.380306243896484,
   26.579214096069336,
   26.230754852294922,
   26.398609161376953,
   25.887546539306641,
   25.560436248779297,
   25.212303161621094,
   24.668752670288086,
   24.1646728515625,
   23.952219009399414,
   23.556905746459961,
   23.346523284912109,
   23.000528335571289,
   20.458036422729492,
   18.656595230102539,
   17.121843338012695,
   15.881414413452148,
   14.567248344421387,
   13.558387756347656,
   12.843648910522461,
   12.087030410766602,
   11.400012969970703,
   7.3089637756347656,
   5.3049674034118652,
   4.288975715637207,
   3.5394320487976074,
   3.1770598888397217,
   2.7769484519958496,
   2.5256636142730713,
   2.4213426113128662,
   2.2879321575164795,
   1.553061842918396,
   1.1778119802474976,
   1.1393660306930542,
   1.1431626081466675,
   1.0168468952178955,
   1.0546596050262451,
   1.0493061542510986,
   0.96494770050048828,
   0.97534066438674927,
   0.998291015625,
   0.98208731412887573,
   0.93461769819259644,
   1.1805722713470459,
   0.93347710371017456,
   1.0282536745071411,
   1.0062582492828369,
   0.96010476350784302,
   0.97878539562225342,
   0.87757682800292969,
   0.94454795122146606,
   1.0022599697113037,
   0.95904409885406494,
   0.8787415623664856,
   0.95987921953201294,
   0.81615591049194336,
   0.86082661151885986,
   1.1351370811462402
]
