[
   2.120438814163208,
   2.1221370697021484,
   2.1203262805938721,
   2.1218104362487793,
   2.1196231842041016,
   2.1221714019775391,
   2.1173210144042969,
   2.1179981231689453,
   2.1196305751800537,
   2.1190438270568848,
   2.1173326969146729,
   2.1141374111175537,
   2.1100614070892334,
   2.104567289352417,
   2.1041622161865234,
   2.1024479866027832,
   2.096219539642334,
   2.0962886810302734,
   2.0937354564666748,
   2.0677876472473145,
   2.0392286777496338,
   2.0188970565795898,
   1.9954307079315186,
   1.972848653793335,
   1.9566303491592407,
   1.9391677379608154,
   1.9199345111846924,
   1.903670072555542,
   1.773751974105835,
   1.6780999898910522,
   1.6022634506225586,
   1.5427558422088623,
   1.4963563680648804,
   1.452164888381958,
   1.420209527015686,
   1.3852633237838745,
   1.357968807220459,
   1.1981649398803711,
   1.1290851831436157,
   1.0935742855072021,
   1.0786306858062744,
   1.0586984157562256,
   1.0391629934310913,
   1.0209453105926514,
   1.0188456773757935,
   1.0142834186553955,
   1.0007236003875732,
   1.0055066347122192,
   0.99950933456420898,
   1.0136289596557617,
   0.99736672639846802,
   0.99939805269241333,
   0.99870997667312622,
   1.0153975486755371,
   1.0082497596740723,
   1.0010918378829956,
   0.99932765960693359,
   0.99611490964889526,
   0.98570489883422852,
   1.0125694274902344,
   1.0131665468215942,
   0.97771817445755005,
   0.98932427167892456,
   0.94797801971435547
]
