[
   9.5056381225585938,
   9.5430402755737305,
   9.5250082015991211,
   9.4882040023803711,
   9.4543027877807617,
   9.4916162490844727,
   9.4488697052001953,
   9.4474163055419922,
   9.4358806610107422,
   9.4524517059326172,
   9.3515148162841797,
   9.2939538955688477,
   9.2267589569091797,
   9.1477861404418945,
   9.0533962249755859,
   9.0061130523681641,
   8.9140548706054688,
   8.8881158828735352,
   8.8083696365356445,
   8.2120466232299805,
   7.7011785507202148,
   7.2799997329711914,
   6.8363327980041504,
   6.5204381942749023,
   6.2010498046875,
   5.9164342880249023,
   5.658287525177002,
   5.4746255874633789,
   3.9747822284698486,
   3.2112197875976562,
   2.8018379211425781,
   2.5107376575469971,
   2.2953100204467773,
   2.1546874046325684,
   1.999306321144104,
   1.8845977783203125,
   1.8268352746963501,
   1.4077280759811401,
   1.2158094644546509,
   1.1875239610671997,
   1.1204478740692139,
   1.0838007926940918,
   1.125852108001709,
   1.0615625381469727,
   1.0871225595474243,
   1.0595995187759399,
   0.98306542634963989,
   1.0236977338790894,
   1.0149266719818115,
   0.99908256530761719,
   0.98997795581817627,
   0.98751717805862427,
   0.97184276580810547,
   0.99589109420776367,
   1.0313079357147217,
   0.9924086332321167,
   1.0302727222442627,
   1.0600783824920654,
   0.99689877033233643,
   0.98328399658203125,
   0.95267152786254883,
   0.97300702333450317,
   1.0251133441925049,
   1.1396116018295288
]
