[
   6.1255931854248047,
   6.1561269760131836,
   6.1524362564086914,
   6.1627368927001953,
   6.1444292068481445,
   6.1664981842041016,
   6.127960205078125,
   6.1519918441772461,
   6.1422123908996582,
   6.1089377403259277,
   6.0985398292541504,
   6.0585908889770508,
   6.0100088119506836,
   6.0111455917358398,
   5.958925724029541,
   5.924980640411377,
   5.9106359481811523,
   5.8928976058959961,
   5.8563175201416016,
   5.6233291625976562,
   5.3981165885925293,
   5.1876435279846191,
   5.0305757522583008,
   4.8584413528442383,
   4.7093920707702637,
   4.5478987693786621,
   4.4371075630187988,
   4.331061840057373,
   3.4290416240692139,
   2.8808350563049316,
   2.5379736423492432,
   2.2922873497009277,
   2.1202645301818848,
   1.9715683460235596,
   1.8704303503036499,
   1.7768230438232422,
   1.6987349987030029,
   1.3475253582000732,
   1.2115745544433594,
   1.1620329618453979,
   1.0988163948059082,
   1.0997530221939087,
   1.0785505771636963,
   1.0885608196258545,
   1.0553702116012573,
   1.0791172981262207,
   0.97108137607574463,
   1.016157865524292,
   0.97406882047653198,
   1.0085270404815674,
   1.0111591815948486,
   0.99963873624801636,
   0.99615669250488281,
   1.0211495161056519,
   0.98343908786773682,
   0.98479193449020386,
   0.97483217716217041,
   0.97305202484130859,
   0.97802078723907471,
   1.0149350166320801,
   1.0675880908966064,
   1.0167771577835083,
   1.1319040060043335,
   0.83890151977539062
]
