[
   1.3878371715545654,
   1.3864954710006714,
   1.3869073390960693,
   1.3865576982498169,
   1.3871455192565918,
   1.3873639106750488,
   1.3872051239013672,
   1.3861565589904785,
   1.3869259357452393,
   1.3865611553192139,
   1.3863124847412109,
   1.3860853910446167,
   1.3854146003723145,
   1.3856023550033569,
   1.3857873678207397,
   1.3846333026885986,
   1.3843942880630493,
   1.3845088481903076,
   1.3842947483062744,
   1.3808183670043945,
   1.3777073621749878,
   1.375072717666626,
   1.3728165626525879,
   1.3699996471405029,
   1.3681080341339111,
   1.3656105995178223,
   1.3625359535217285,
   1.3609544038772583,
   1.3401587009429932,
   1.3227250576019287,
   1.307797908782959,
   1.2934750318527222,
   1.281429648399353,
   1.2705062627792358,
   1.2592313289642334,
   1.2493098974227905,
   1.2391457557678223,
   1.1726044416427612,
   1.1328575611114502,
   1.1078405380249023,
   1.091988205909729,
   1.0781484842300415,
   1.0659030675888062,
   1.0566383600234985,
   1.0490193367004395,
   1.0452630519866943,
   1.0122148990631104,
   1.0104873180389404,
   1.0071355104446411,
   0.99659597873687744,
   0.99385863542556763,
   0.99486047029495239,
   1.0004720687866211,
   1.001962423324585,
   1.0031511783599854,
   1.0131299495697021,
   1.0050226449966431,
   0.99942934513092041,
   0.98863565921783447,
   0.99642324447631836,
   0.99454653263092041,
   0.98563241958618164,
   0.95478278398513794,
   0.97003203630447388
]
