[
   1.8458760976791382,
   1.8459705114364624,
   1.8459746837615967,
   1.846752405166626,
   1.8449344635009766,
   1.845503568649292,
   1.8456795215606689,
   1.8434826135635376,
   1.8451528549194336,
   1.8446000814437866,
   1.8443063497543335,
   1.8431345224380493,
   1.8420088291168213,
   1.8409614562988281,
   1.8392410278320312,
   1.8403841257095337,
   1.8375856876373291,
   1.8368170261383057,
   1.8353744745254517,
   1.8247280120849609,
   1.8171278238296509,
   1.805095911026001,
   1.7950084209442139,
   1.7872316837310791,
   1.7784576416015625,
   1.7701928615570068,
   1.7625703811645508,
   1.7532336711883545,
   1.6884622573852539,
   1.6369959115982056,
   1.5881383419036865,
   1.5477018356323242,
   1.5139694213867188,
   1.484421968460083,
   1.4557799100875854,
   1.4330756664276123,
   1.4096536636352539,
   1.2635065317153931,
   1.1841596364974976,
   1.1351741552352905,
   1.1065486669540405,
   1.0891958475112915,
   1.0720885992050171,
   1.0640199184417725,
   1.050366997718811,
   1.0348131656646729,
   1.0063316822052002,
   1.0031899213790894,
   0.99723213911056519,
   0.99457108974456787,
   0.98945748805999756,
   1.0084673166275024,
   1.0090798139572144,
   0.99520713090896606,
   0.98408687114715576,
   0.96728688478469849,
   0.99190711975097656,
   0.97126787900924683,
   0.99409580230712891,
   1.0029736757278442,
   1.0256311893463135,
   1.0317426919937134,
   1.0405744314193726,
   0.99860209226608276
]
