[
   3.6188454627990723,
   3.6210360527038574,
   3.6155734062194824,
   3.6121401786804199,
   3.6240105628967285,
   3.6131827831268311,
   3.6123404502868652,
   3.6154217720031738,
   3.6070380210876465,
   3.6130974292755127,
   3.6025340557098389,
   3.5955612659454346,
   3.5805983543395996,
   3.5731003284454346,
   3.5719573497772217,
   3.5589828491210938,
   3.553739070892334,
   3.5391173362731934,
   3.534705638885498,
   3.4592556953430176,
   3.3972077369689941,
   3.3395881652832031,
   3.2732117176055908,
   3.2173550128936768,
   3.169212818145752,
   3.112694263458252,
   3.0663065910339355,
   3.0300734043121338,
   2.6639983654022217,
   2.4150736331939697,
   2.2339253425598145,
   2.0876615047454834,
   1.9674495458602905,
   1.8730520009994507,
   1.7842013835906982,
   1.7250375747680664,
   1.6623255014419556,
   1.3707495927810669,
   1.2575507164001465,
   1.2120399475097656,
   1.169929027557373,
   1.1328394412994385,
   1.105457067489624,
   1.074845552444458,
   1.0612307786941528,
   1.054658055305481,
   0.99727660417556763,
   1.0163733959197998,
   1.0208698511123657,
   0.97927701473236084,
   1.000960111618042,
   1.0126852989196777,
   0.97547757625579834,
   1.0013329982757568,
   0.98079061508178711,
   0.97441864013671875,
   1.0053484439849854,
   1.0129760503768921,
   1.0136129856109619,
   0.96774643659591675,
   0.99254435300827026,
   0.94714033603668213,
   0.99091607332229614,
   0.96793508529663086
]
