[
   33.545894622802734,
   33.156806945800781,
   32.657398223876953,
   32.971450805664062,
   32.916103363037109,
   32.700466156005859,
   32.718036651611328,
   32.69805908203125,
   32.596092224121094,
   32.389820098876953,
   31.547863006591797,
   30.724929809570312,
   30.092937469482422,
   29.208881378173828,
   28.298656463623047,
   27.671258926391602,
   27.192722320556641,
   26.823007583618164,
   26.214406967163086,
   20.828638076782227,
   17.917098999023438,
   15.715616226196289,
   13.98036003112793,
   12.768256187438965,
   11.456657409667969,
   10.537644386291504,
   9.669550895690918,
   9.0881471633911133,
   5.3873200416564941,
   4.0239477157592773,
   3.3774228096008301,
   2.9537291526794434,
   2.6803278923034668,
   2.333904504776001,
   2.1232609748840332,
   1.9924898147583008,
   1.9211248159408569,
   1.46742844581604,
   1.3193767070770264,
   1.1227585077285767,
   1.2693548202514648,
   1.2579200267791748,
   1.1320011615753174,
   1.0721869468688965,
   1.141406774520874,
   1.1137560606002808,
   0.86829245090484619,
   1.0427290201187134,
   0.97693997621536255,
   0.86065453290939331,
   0.90267485380172729,
   0.9027746319770813,
   1.0890125036239624,
   0.91459476947784424,
   1.017359733581543,
   1.065176248550415,
   1.0044310092926025,
   0.97943270206451416,
   0.99775171279907227,
   1.1007401943206787,
   0.88826388120651245,
   0.98498821258544922,
   1.134350061416626,
   0.67187672853469849
]
