[
   1.4768874645233154,
   1.4757080078125,
   1.4758906364440918,
   1.475619912147522,
   1.4765926599502563,
   1.4762511253356934,
   1.4760217666625977,
   1.4747647047042847,
   1.4758044481277466,
   1.4758046865463257,
   1.4752781391143799,
   1.4747505187988281,
   1.4743213653564453,
   1.4739384651184082,
   1.47408127784729,
   1.4729256629943848,
   1.4729478359222412,
   1.4726088047027588,
   1.4724133014678955,
   1.4679803848266602,
   1.4631221294403076,
   1.4595309495925903,
   1.4566173553466797,
   1.4530383348464966,
   1.4499694108963013,
   1.4461946487426758,
   1.4427200555801392,
   1.4401017427444458,
   1.4121454954147339,
   1.388480544090271,
   1.3688113689422607,
   1.3497036695480347,
   1.333082914352417,
   1.3186876773834229,
   1.3044043779373169,
   1.2914750576019287,
   1.2786881923675537,
   1.1948931217193604,
   1.1477782726287842,
   1.1198685169219971,
   1.0977193117141724,
   1.0823471546173096,
   1.0688762664794922,
   1.0595461130142212,
   1.0514287948608398,
   1.0478026866912842,
   1.010249137878418,
   1.0111364126205444,
   1.0078247785568237,
   0.99637377262115479,
   0.99116277694702148,
   0.99497354030609131,
   1.0004394054412842,
   1.001352071762085,
   1.0006265640258789,
   1.0128777027130127,
   1.0037543773651123,
   0.99984681606292725,
   0.98751556873321533,
   0.99633228778839111,
   0.99439525604248047,
   0.98642539978027344,
   0.95368289947509766,
   0.97173500061035156
]
