[
   1.6009509563446045,
   1.6006412506103516,
   1.600360631942749,
   1.5993587970733643,
   1.5998920202255249,
   1.600206732749939,
   1.5990402698516846,
   1.5996050834655762,
   1.5998618602752686,
   1.5992915630340576,
   1.6003789901733398,
   1.5980801582336426,
   1.5978329181671143,
   1.598139762878418,
   1.5964456796646118,
   1.5961744785308838,
   1.5951449871063232,
   1.5941907167434692,
   1.5936861038208008,
   1.5881521701812744,
   1.5807676315307617,
   1.5755040645599365,
   1.5717384815216064,
   1.5647895336151123,
   1.5616104602813721,
   1.5557377338409424,
   1.5504758358001709,
   1.5456351041793823,
   1.5050294399261475,
   1.4708002805709839,
   1.4423556327819824,
   1.4152333736419678,
   1.3930226564407349,
   1.371593713760376,
   1.3516441583633423,
   1.3340469598770142,
   1.3191702365875244,
   1.2111161947250366,
   1.1499854326248169,
   1.1087279319763184,
   1.0832387208938599,
   1.0634764432907104,
   1.0508953332901001,
   1.0431898832321167,
   1.036346435546875,
   1.037520170211792,
   1.0052350759506226,
   1.0142060518264771,
   1.010736346244812,
   1.0091803073883057,
   1.0097547769546509,
   1.0089399814605713,
   1.0042906999588013,
   1.004629373550415,
   1.00398850440979,
   0.99543869495391846,
   1.0122268199920654,
   1.011221170425415,
   0.99568116664886475,
   0.99650716781616211,
   0.98613101243972778,
   0.95807123184204102,
   0.97760170698165894,
   0.90376555919647217
]
