[
   1.5331342220306396,
   1.5339252948760986,
   1.533960223197937,
   1.5337719917297363,
   1.5337176322937012,
   1.533794641494751,
   1.5335520505905151,
   1.533191442489624,
   1.5328717231750488,
   1.5333194732666016,
   1.5325285196304321,
   1.5311274528503418,
   1.531948447227478,
   1.5319089889526367,
   1.5311568975448608,
   1.5316643714904785,
   1.5307996273040771,
   1.5309109687805176,
   1.5308442115783691,
   1.5274937152862549,
   1.5239740610122681,
   1.522696852684021,
   1.5189840793609619,
   1.5163710117340088,
   1.5136721134185791,
   1.5120924711227417,
   1.5072999000549316,
   1.5074366331100464,
   1.4835129976272583,
   1.4627002477645874,
   1.4446127414703369,
   1.4284740686416626,
   1.4104856252670288,
   1.3961256742477417,
   1.3807672262191772,
   1.3676540851593018,
   1.3566558361053467,
   1.2643909454345703,
   1.2069464921951294,
   1.1691586971282959,
   1.1415640115737915,
   1.1266275644302368,
   1.1134822368621826,
   1.1012556552886963,
   1.0898234844207764,
   1.0847929716110229,
   1.0491780042648315,
   1.0319010019302368,
   1.0191841125488281,
   1.0006613731384277,
   1.0092084407806396,
   1.0036420822143555,
   0.99568939208984375,
   1.0004409551620483,
   0.99471026659011841,
   0.98309862613677979,
   0.98796975612640381,
   0.97658270597457886,
   1.0047401189804077,
   0.98200827836990356,
   1.0201430320739746,
   1.0194089412689209,
   0.9647786021232605,
   0.99238091707229614
]
