[
   3.1340768337249756,
   3.1300735473632812,
   3.1374921798706055,
   3.1300604343414307,
   3.131793737411499,
   3.1313424110412598,
   3.1325063705444336,
   3.1333029270172119,
   3.128389835357666,
   3.1280977725982666,
   3.1241066455841064,
   3.1253366470336914,
   3.1142640113830566,
   3.1112868785858154,
   3.1040329933166504,
   3.1067526340484619,
   3.1023619174957275,
   3.1021761894226074,
   3.0944418907165527,
   3.0561699867248535,
   3.0209555625915527,
   2.9886603355407715,
   2.9552197456359863,
   2.9235239028930664,
   2.888859748840332,
   2.8681175708770752,
   2.832770824432373,
   2.8089795112609863,
   2.5730721950531006,
   2.388765811920166,
   2.2499511241912842,
   2.12538743019104,
   2.0331645011901855,
   1.9498029947280884,
   1.8844270706176758,
   1.8221288919448853,
   1.7644875049591064,
   1.4511502981185913,
   1.3173995018005371,
   1.2407832145690918,
   1.2030180692672729,
   1.1653943061828613,
   1.1280753612518311,
   1.0999147891998291,
   1.0846902132034302,
   1.0649577379226685,
   1.0408174991607666,
   1.0152174234390259,
   1.0175950527191162,
   0.9929463267326355,
   1.0164237022399902,
   1.009732723236084,
   1.0122745037078857,
   1.0279092788696289,
   1.0082032680511475,
   1.0034146308898926,
   1.028679370880127,
   0.99527913331985474,
   1.0222440958023071,
   0.95908468961715698,
   0.95189130306243896,
   0.88188105821609497,
   0.94335019588470459,
   0.86840260028839111
]
