[
   2.4363751411437988,
   2.4365189075469971,
   2.4346404075622559,
   2.4337153434753418,
   2.4331328868865967,
   2.4362978935241699,
   2.4316103458404541,
   2.4345176219940186,
   2.43300461769104,
   2.435246467590332,
   2.4313230514526367,
   2.4278850555419922,
   2.4268767833709717,
   2.4258570671081543,
   2.4233865737915039,
   2.4202980995178223,
   2.4214828014373779,
   2.4185054302215576,
   2.4138951301574707,
   2.39743971824646,
   2.3807368278503418,
   2.3625426292419434,
   2.3536770343780518,
   2.3369472026824951,
   2.3269867897033691,
   2.3072597980499268,
   2.2920188903808594,
   2.27864670753479,
   2.1625580787658691,
   2.0592942237854004,
   1.9754438400268555,
   1.8996760845184326,
   1.8343725204467773,
   1.778251051902771,
   1.7289479970932007,
   1.6852620840072632,
   1.6471168994903564,
   1.4166271686553955,
   1.2922579050064087,
   1.2206419706344604,
   1.1726464033126831,
   1.1483194828033447,
   1.1255471706390381,
   1.1119034290313721,
   1.0999835729598999,
   1.0862158536911011,
   1.0272274017333984,
   1.0176315307617188,
   0.99944508075714111,
   0.99312955141067505,
   1.000690221786499,
   1.0094804763793945,
   0.99604594707489014,
   0.99731194972991943,
   1.0131536722183228,
   1.0139760971069336,
   0.98879337310791016,
   1.0334911346435547,
   1.0175096988677979,
   0.9809001088142395,
   0.97926634550094604,
   0.94151574373245239,
   0.90295207500457764,
   0.85336130857467651
]
