[
   2.0666601657867432,
   2.0682213306427002,
   2.0651707649230957,
   2.0676157474517822,
   2.0663187503814697,
   2.0672729015350342,
   2.0675690174102783,
   2.0668549537658691,
   2.0676016807556152,
   2.0671720504760742,
   2.0650362968444824,
   2.0660216808319092,
   2.0633726119995117,
   2.0646135807037354,
   2.060429573059082,
   2.062502384185791,
   2.0604591369628906,
   2.0560646057128906,
   2.0599098205566406,
   2.0453517436981201,
   2.0370926856994629,
   2.0278162956237793,
   2.0198943614959717,
   2.0081229209899902,
   1.9986708164215088,
   1.989876389503479,
   1.9820712804794312,
   1.9721155166625977,
   1.8994554281234741,
   1.8361775875091553,
   1.7801328897476196,
   1.7278674840927124,
   1.6873395442962646,
   1.6486068964004517,
   1.6135663986206055,
   1.580863356590271,
   1.5518790483474731,
   1.372333288192749,
   1.2718486785888672,
   1.2070136070251465,
   1.1593149900436401,
   1.1351065635681152,
   1.1114517450332642,
   1.0924664735794067,
   1.0742403268814087,
   1.0645473003387451,
   1.0400333404541016,
   1.0126496553421021,
   1.0033944845199585,
   1.0041041374206543,
   1.0022354125976562,
   0.98499172925949097,
   0.98414850234985352,
   0.98276960849761963,
   0.97723245620727539,
   1.0146644115447998,
   0.99163568019866943,
   0.97787588834762573,
   0.99921047687530518,
   0.98323327302932739,
   1.0085660219192505,
   0.99008274078369141,
   1.0367918014526367,
   1.1547300815582275
]
