[
   3.450838565826416,
   3.4585888385772705,
   3.4532077312469482,
   3.4595527648925781,
   3.4509932994842529,
   3.453249454498291,
   3.4554939270019531,
   3.4499778747558594,
   3.452369213104248,
   3.4495673179626465,
   3.4494235515594482,
   3.4299015998840332,
   3.4294960498809814,
   3.4099438190460205,
   3.4149525165557861,
   3.4029850959777832,
   3.3988831043243408,
   3.3837447166442871,
   3.3868110179901123,
   3.3134365081787109,
   3.2467689514160156,
   3.1898314952850342,
   3.1339459419250488,
   3.0765118598937988,
   3.0199620723724365,
   2.9746930599212646,
   2.9282703399658203,
   2.8835048675537109,
   2.5272262096405029,
   2.2906479835510254,
   2.1150522232055664,
   1.9856488704681396,
   1.8810850381851196,
   1.7952697277069092,
   1.7202863693237305,
   1.6643472909927368,
   1.6097729206085205,
   1.3349109888076782,
   1.22718346118927,
   1.167027473449707,
   1.124225378036499,
   1.0842075347900391,
   1.0842819213867188,
   1.0800374746322632,
   1.0664737224578857,
   1.0586583614349365,
   1.0244070291519165,
   1.014377236366272,
   0.997048020362854,
   1.0106618404388428,
   0.99416017532348633,
   0.99808424711227417,
   0.99891805648803711,
   1.0020773410797119,
   0.99018365144729614,
   0.97216826677322388,
   0.96589469909667969,
   0.98492544889450073,
   0.95130395889282227,
   0.99832457304000854,
   1.0098569393157959,
   1.0480730533599854,
   0.94054520130157471,
   0.91273772716522217
]
