[
   1.6630970239639282,
   1.662798285484314,
   1.6616872549057007,
   1.662920355796814,
   1.6613184213638306,
   1.6620626449584961,
   1.6628038883209229,
   1.6632058620452881,
   1.6627880334854126,
   1.6617844104766846,
   1.6612991094589233,
   1.6607406139373779,
   1.6592118740081787,
   1.6591870784759521,
   1.6587213277816772,
   1.6565799713134766,
   1.6560786962509155,
   1.6553242206573486,
   1.6561100482940674,
   1.650317907333374,
   1.6420202255249023,
   1.6356128454208374,
   1.6279102563858032,
   1.6228780746459961,
   1.6160844564437866,
   1.6116254329681396,
   1.6065006256103516,
   1.5993602275848389,
   1.5519704818725586,
   1.5107686519622803,
   1.4768446683883667,
   1.4453991651535034,
   1.4199982881546021,
   1.3975315093994141,
   1.3760888576507568,
   1.3575100898742676,
   1.3390887975692749,
   1.2246854305267334,
   1.1625474691390991,
   1.1253094673156738,
   1.1001551151275635,
   1.082890510559082,
   1.0656917095184326,
   1.057897686958313,
   1.0500226020812988,
   1.0488128662109375,
   1.0112931728363037,
   1.0082513093948364,
   1.0001318454742432,
   0.99667263031005859,
   1.0112333297729492,
   1.0151959657669067,
   1.0142046213150024,
   1.0119699239730835,
   1.0074795484542847,
   1.0209190845489502,
   1.0002039670944214,
   0.99275445938110352,
   1.011277437210083,
   0.99440032243728638,
   0.98430889844894409,
   0.97100067138671875,
   0.9430425763130188,
   0.86195439100265503
]
