[
   1.9292608499526978,
   1.9314918518066406,
   1.9286845922470093,
   1.9289827346801758,
   1.9312212467193604,
   1.9309675693511963,
   1.9330141544342041,
   1.9294052124023438,
   1.9292148351669312,
   1.9303487539291382,
   1.9295566082000732,
   1.9274839162826538,
   1.9254627227783203,
   1.924555778503418,
   1.921522855758667,
   1.9222759008407593,
   1.9215829372406006,
   1.917802095413208,
   1.9175117015838623,
   1.90543532371521,
   1.8924334049224854,
   1.8802617788314819,
   1.869063138961792,
   1.8569905757904053,
   1.8491261005401611,
   1.8385629653930664,
   1.8297504186630249,
   1.8184341192245483,
   1.7383606433868408,
   1.6690547466278076,
   1.6143834590911865,
   1.568242073059082,
   1.5276122093200684,
   1.4934064149856567,
   1.4619354009628296,
   1.4351851940155029,
   1.410685658454895,
   1.2675032615661621,
   1.1859272718429565,
   1.1373734474182129,
   1.1036937236785889,
   1.0867063999176025,
   1.0741704702377319,
   1.0618407726287842,
   1.0610963106155396,
   1.0514945983886719,
   1.0297106504440308,
   1.0197056531906128,
   1.0151126384735107,
   0.99416524171829224,
   1.0028282403945923,
   1.010676383972168,
   0.99594676494598389,
   1.0013468265533447,
   1.0052316188812256,
   1.0053684711456299,
   0.98646247386932373,
   0.99179744720458984,
   0.98927384614944458,
   0.98313301801681519,
   1.0025973320007324,
   0.98422634601593018,
   0.98015224933624268,
   0.90380525588989258
]
