[
   1.3108063936233521,
   1.3110126256942749,
   1.3109381198883057,
   1.3112785816192627,
   1.3111722469329834,
   1.3106772899627686,
   1.3106467723846436,
   1.3106640577316284,
   1.311410665512085,
   1.3109967708587646,
   1.3108998537063599,
   1.3102508783340454,
   1.3103564977645874,
   1.3099844455718994,
   1.3102208375930786,
   1.3096612691879272,
   1.3092918395996094,
   1.3091340065002441,
   1.3086073398590088,
   1.3076368570327759,
   1.3056536912918091,
   1.3039096593856812,
   1.3022578954696655,
   1.3004157543182373,
   1.2992719411849976,
   1.2970129251480103,
   1.2953200340270996,
   1.2942097187042236,
   1.2790906429290771,
   1.2665736675262451,
   1.2563369274139404,
   1.2460657358169556,
   1.2362420558929443,
   1.2273621559143066,
   1.2194012403488159,
   1.211211085319519,
   1.2043558359146118,
   1.1493189334869385,
   1.1155378818511963,
   1.0908324718475342,
   1.0857187509536743,
   1.0726100206375122,
   1.0627213716506958,
   1.0548532009124756,
   1.0480029582977295,
   1.0454201698303223,
   1.0175284147262573,
   1.0052098035812378,
   1.0054216384887695,
   1.0046439170837402,
   1.0093693733215332,
   1.0038912296295166,
   0.99906885623931885,
   0.99815595149993896,
   1.0048387050628662,
   1.0025651454925537,
   1.0049331188201904,
   0.97856712341308594,
   0.98840582370758057,
   1.0029494762420654,
   1.0137660503387451,
   1.0045990943908691,
   0.98248732089996338,
   0.95927393436431885
]
