[
   5.8784208297729492,
   5.8720712661743164,
   5.8752827644348145,
   5.8854260444641113,
   5.8732266426086426,
   5.8709754943847656,
   5.8618173599243164,
   5.8705177307128906,
   5.8430032730102539,
   5.8389806747436523,
   5.8285627365112305,
   5.8056344985961914,
   5.7798590660095215,
   5.7426309585571289,
   5.709589958190918,
   5.6980199813842773,
   5.6731405258178711,
   5.6509008407592773,
   5.6170649528503418,
   5.3784613609313965,
   5.1738839149475098,
   4.9592208862304688,
   4.7922983169555664,
   4.6282253265380859,
   4.4949698448181152,
   4.3524703979492188,
   4.2376208305358887,
   4.0996103286743164,
   3.2757668495178223,
   2.7753722667694092,
   2.4715816974639893,
   2.2503323554992676,
   2.0760807991027832,
   1.9560350179672241,
   1.8474743366241455,
   1.77107834815979,
   1.6946300268173218,
   1.3456385135650635,
   1.2246582508087158,
   1.1720969676971436,
   1.1142871379852295,
   1.0966742038726807,
   1.0944067239761353,
   1.0758932828903198,
   1.0770225524902344,
   1.0516353845596313,
   1.0522468090057373,
   1.0122214555740356,
   0.99708908796310425,
   0.97532463073730469,
   0.99567288160324097,
   0.9990692138671875,
   0.96490204334259033,
   0.982918381690979,
   1.015939474105835,
   0.99179422855377197,
   1.0084478855133057,
   0.96207141876220703,
   0.99561995267868042,
   1.0142990350723267,
   1.0542947053909302,
   0.89888495206832886,
   0.96937638521194458,
   0.89399176836013794
]
