[
   29.925754547119141,
   29.807415008544922,
   29.781894683837891,
   29.609289169311523,
   29.644535064697266,
   29.592336654663086,
   29.655780792236328,
   29.369104385375977,
   29.390777587890625,
   29.02923583984375,
   28.333332061767578,
   27.471271514892578,
   26.602025985717773,
   25.902414321899414,
   25.420455932617188,
   24.56096076965332,
   23.939601898193359,
   23.617389678955078,
   22.894878387451172,
   18.728054046630859,
   15.706291198730469,
   13.531244277954102,
   12.136011123657227,
   10.804874420166016,
   9.8884067535400391,
   9.0908164978027344,
   8.3856906890869141,
   7.6931166648864746,
   4.8665800094604492,
   3.6355576515197754,
   3.0598371028900146,
   2.6453487873077393,
   2.3795216083526611,
   2.1854543685913086,
   1.9757953882217407,
   1.8775694370269775,
   1.8737156391143799,
   1.3203698396682739,
   1.1749897003173828,
   1.2293972969055176,
   1.1156022548675537,
   1.1642104387283325,
   1.1432555913925171,
   1.0190733671188354,
   1.059307336807251,
   1.0458953380584717,
   0.89540624618530273,
   0.96821081638336182,
   1.0509692430496216,
   1.0149890184402466,
   0.92442303895950317,
   1.0738018751144409,
   1.0705335140228271,
   1.0272115468978882,
   1.0477585792541504,
   0.9438902735710144,
   0.97467833757400513,
   0.98179930448532104,
   1.0686702728271484,
   0.97539311647415161,
   1.0413286685943604,
   1.33164381980896,
   0.99608409404754639,
   1.125890851020813
]
