[
   2.5760881900787354,
   2.5733311176300049,
   2.5752410888671875,
   2.5736324787139893,
   2.5716078281402588,
   2.572887659072876,
   2.5715813636779785,
   2.5734868049621582,
   2.5746903419494629,
   2.5707962512969971,
   2.5666089057922363,
   2.5643839836120605,
   2.561403751373291,
   2.5551989078521729,
   2.5499265193939209,
   2.553419828414917,
   2.5454366207122803,
   2.5443615913391113,
   2.5415215492248535,
   2.5049920082092285,
   2.4755294322967529,
   2.4495327472686768,
   2.4206111431121826,
   2.3930907249450684,
   2.3641800880432129,
   2.3432457447052002,
   2.3195085525512695,
   2.2991366386413574,
   2.1151711940765381,
   1.9730304479598999,
   1.8642845153808594,
   1.7797101736068726,
   1.7087488174438477,
   1.6452322006225586,
   1.5929553508758545,
   1.5514200925827026,
   1.5090487003326416,
   1.293720006942749,
   1.2063921689987183,
   1.1516660451889038,
   1.1123270988464355,
   1.0942766666412354,
   1.06526780128479,
   1.0592448711395264,
   1.0474522113800049,
   1.0498543977737427,
   1.0175161361694336,
   1.0020781755447388,
   1.0115636587142944,
   0.99202936887741089,
   0.99073523283004761,
   1.0121167898178101,
   0.99004757404327393,
   0.99233037233352661,
   0.9872279167175293,
   1.001408576965332,
   0.98002701997756958,
   0.97508656978607178,
   1.0330832004547119,
   0.97906696796417236,
   1.0082069635391235,
   1.01429283618927,
   0.9693150520324707,
   0.94799959659576416
]
