[
   2.2111175060272217,
   2.2091336250305176,
   2.2103896141052246,
   2.2091836929321289,
   2.2094149589538574,
   2.2103791236877441,
   2.2068095207214355,
   2.2077178955078125,
   2.2084174156188965,
   2.204352855682373,
   2.2043294906616211,
   2.202106237411499,
   2.2006926536560059,
   2.1995055675506592,
   2.1992702484130859,
   2.1934340000152588,
   2.1909375190734863,
   2.1907584667205811,
   2.1885247230529785,
   2.1709158420562744,
   2.1516509056091309,
   2.1336307525634766,
   2.1174712181091309,
   2.1050806045532227,
   2.088491678237915,
   2.0727813243865967,
   2.0564370155334473,
   2.043018102645874,
   1.9284406900405884,
   1.8319714069366455,
   1.7540498971939087,
   1.6872775554656982,
   1.6333872079849243,
   1.5890128612518311,
   1.5481932163238525,
   1.5128334760665894,
   1.4811081886291504,
   1.2887396812438965,
   1.2022066116333008,
   1.1581145524978638,
   1.1282756328582764,
   1.106574535369873,
   1.0936906337738037,
   1.0824313163757324,
   1.0641175508499146,
   1.0599865913391113,
   1.0131527185440063,
   1.0110646486282349,
   0.99387532472610474,
   0.98256599903106689,
   0.99083405733108521,
   0.99105089902877808,
   0.99510478973388672,
   1.0117741823196411,
   0.99026691913604736,
   0.97849094867706299,
   0.98246705532073975,
   0.99321126937866211,
   0.99336445331573486,
   1.0087326765060425,
   1.0248434543609619,
   0.99529373645782471,
   1.1270492076873779,
   1.082352876663208
]
