[
   122.08058166503906,
   120.33329772949219,
   123.1595458984375,
   119.4638671875,
   117.77199554443359,
   120.29859924316406,
   118.16984558105469,
   115.57344055175781,
   116.95320892333984,
   116.15850830078125,
   107.86958312988281,
   103.37215423583984,
   97.7476806640625,
   96.983436584472656,
   91.735382080078125,
   91.090980529785156,
   87.528518676757812,
   83.194496154785156,
   81.688980102539062,
   63.679351806640625,
   49.264480590820312,
   40.863426208496094,
   35.545341491699219,
   31.4886474609375,
   29.145055770874023,
   25.806003570556641,
   23.907436370849609,
   21.425699234008789,
   11.157604217529297,
   7.0171270370483398,
   5.4714818000793457,
   4.0480136871337891,
   3.3442893028259277,
   2.9226953983306885,
   2.8073344230651855,
   2.9359161853790283,
   2.3518791198730469,
   1.4567809104919434,
   0.9150654673576355,
   0.85231435298919678,
   1.2391655445098877,
   0.99486953020095825,
   1.2516782283782959,
   0.8293156623840332,
   0.77640450000762939,
   0.96977978944778442,
   1.1136398315429688,
   1.1313817501068115,
   0.55060350894927979,
   1.2589977979660034,
   0.79854023456573486,
   0.83356082439422607,
   0.74007821083068848,
   0.73967760801315308,
   0.70267164707183838,
   1.1487249135971069,
   0.7674599289894104,
   0.82163631916046143,
   0.63788330554962158,
   1.0960370302200317,
   0.99941730499267578,
   1.3435018062591553,
   0.77037537097930908,
   0.17100664973258972
]
