[
   3.1364858150482178,
   3.1316375732421875,
   3.1292142868041992,
   3.1295080184936523,
   3.1279001235961914,
   3.1304464340209961,
   3.1213204860687256,
   3.1294238567352295,
   3.1241834163665771,
   3.124793529510498,
   3.100853443145752,
   3.0972664356231689,
   3.0869126319885254,
   3.0694913864135742,
   3.059791088104248,
   3.0517210960388184,
   3.0407934188842773,
   3.0366277694702148,
   3.0181312561035156,
   2.9271957874298096,
   2.8409276008605957,
   2.765709400177002,
   2.7019112110137939,
   2.6428036689758301,
   2.5932035446166992,
   2.533505916595459,
   2.4826931953430176,
   2.4430155754089355,
   2.1271045207977295,
   1.9242057800292969,
   1.7727663516998291,
   1.6593015193939209,
   1.5815432071685791,
   1.5102897882461548,
   1.4636200666427612,
   1.4141582250595093,
   1.3739416599273682,
   1.16107177734375,
   1.0959017276763916,
   1.0637962818145752,
   1.0414489507675171,
   1.0387445688247681,
   1.0224529504776001,
   1.0207202434539795,
   1.0301859378814697,
   1.0069659948348999,
   0.99497997760772705,
   0.99566030502319336,
   0.98754847049713135,
   0.97704839706420898,
   0.97595226764678955,
   1.0104401111602783,
   1.0010510683059692,
   0.99089717864990234,
   0.99329471588134766,
   0.99160975217819214,
   0.98285800218582153,
   1.0000927448272705,
   0.98349940776824951,
   1.0133473873138428,
   0.99682891368865967,
   1.0418506860733032,
   0.98959559202194214,
   1.0425783395767212
]
