[
   1.7894645929336548,
   1.7895934581756592,
   1.7883285284042358,
   1.7865597009658813,
   1.7889182567596436,
   1.7893245220184326,
   1.7877250909805298,
   1.7875039577484131,
   1.7875934839248657,
   1.7878271341323853,
   1.7876758575439453,
   1.782418966293335,
   1.7817051410675049,
   1.780056357383728,
   1.7800391912460327,
   1.776942253112793,
   1.7756884098052979,
   1.7717097997665405,
   1.7715930938720703,
   1.75266432762146,
   1.73409104347229,
   1.7193151712417603,
   1.7033113241195679,
   1.6927531957626343,
   1.6774860620498657,
   1.6666948795318604,
   1.6543792486190796,
   1.64253830909729,
   1.5576245784759521,
   1.4956400394439697,
   1.4445186853408813,
   1.4049198627471924,
   1.3708963394165039,
   1.3399074077606201,
   1.3129421472549438,
   1.2923417091369629,
   1.2742547988891602,
   1.1573655605316162,
   1.1012283563613892,
   1.0714051723480225,
   1.0576446056365967,
   1.0427161455154419,
   1.0325913429260254,
   1.0227465629577637,
   1.0215425491333008,
   1.0138882398605347,
   1.0105147361755371,
   0.9974435567855835,
   0.99100416898727417,
   1.0026823282241821,
   1.0047328472137451,
   1.0003401041030884,
   0.99634075164794922,
   0.99297761917114258,
   0.99844801425933838,
   1.0138171911239624,
   1.0005840063095093,
   1.0040671825408936,
   1.0040969848632812,
   0.9971388578414917,
   0.98653209209442139,
   0.99472236633300781,
   0.97207546234130859,
   0.96904850006103516
]
