[
   97.046150207519531,
   96.96685791015625,
   97.146774291992188,
   96.61053466796875,
   96.755538940429688,
   94.553550720214844,
   95.040206909179688,
   93.122024536132812,
   94.131813049316406,
   92.539543151855469,
   91.556976318359375,
   85.357803344726562,
   84.608131408691406,
   81.466934204101562,
   78.276176452636719,
   75.983299255371094,
   75.18243408203125,
   71.445930480957031,
   71.514564514160156,
   57.218463897705078,
   47.591384887695312,
   42.409233093261719,
   35.018665313720703,
   32.332412719726562,
   29.199396133422852,
   26.901996612548828,
   24.940174102783203,
   22.752080917358398,
   13.171937942504883,
   8.7993068695068359,
   7.1183443069458008,
   5.5628480911254883,
   4.3795404434204102,
   3.8674232959747314,
   3.7252407073974609,
   3.1346728801727295,
   3.2037632465362549,
   1.3251962661743164,
   1.0241425037384033,
   1.1497918367385864,
   1.2840168476104736,
   1.0992710590362549,
   1.0632247924804688,
   0.69728022813796997,
   1.2159172296524048,
   0.76178288459777832,
   0.76655793190002441,
   1.0398811101913452,
   1.1834565401077271,
   0.75689232349395752,
   1.1584460735321045,
   0.83622992038726807,
   0.95654088258743286,
   0.92332303524017334,
   0.80524986982345581,
   0.66626179218292236,
   0.97634649276733398,
   0.7702176570892334,
   1.4076379537582397,
   1.0850040912628174,
   1.2072670459747314,
   1.020982027053833,
   1.6357481479644775,
   0.60078859329223633
]
