[
   4.6329522132873535,
   4.631828784942627,
   4.6380295753479004,
   4.6347293853759766,
   4.639277458190918,
   4.6467747688293457,
   4.6301059722900391,
   4.6248650550842285,
   4.6162905693054199,
   4.6124615669250488,
   4.5971555709838867,
   4.5737247467041016,
   4.5609121322631836,
   4.5417470932006836,
   4.5148100852966309,
   4.5048327445983887,
   4.4884395599365234,
   4.4679536819458008,
   4.4521441459655762,
   4.2705535888671875,
   4.1347589492797852,
   4.032740592956543,
   3.9351603984832764,
   3.8375363349914551,
   3.7432541847229004,
   3.6706833839416504,
   3.5784175395965576,
   3.5212631225585938,
   3.0306973457336426,
   2.6707832813262939,
   2.4243736267089844,
   2.2269587516784668,
   2.0779252052307129,
   1.95377516746521,
   1.8478997945785522,
   1.7570711374282837,
   1.6895253658294678,
   1.3335134983062744,
   1.2190482616424561,
   1.1384069919586182,
   1.0792944431304932,
   1.0691201686859131,
   1.0625628232955933,
   1.0601934194564819,
   1.0258104801177979,
   1.0344558954238892,
   0.99790143966674805,
   1.0254366397857666,
   1.0331860780715942,
   1.0105847120285034,
   1.0170297622680664,
   0.98965466022491455,
   1.0064795017242432,
   1.0171897411346436,
   0.97583591938018799,
   0.98610907793045044,
   1.0216113328933716,
   0.98999595642089844,
   1.0029290914535522,
   0.98838216066360474,
   0.99649810791015625,
   0.98792469501495361,
   0.91474705934524536,
   0.90770608186721802
]
