[
   2.0439600944519043,
   2.0405540466308594,
   2.0440449714660645,
   2.0407204627990723,
   2.0415008068084717,
   2.0411300659179688,
   2.0380148887634277,
   2.0396921634674072,
   2.0387566089630127,
   2.0401887893676758,
   2.0337157249450684,
   2.0322158336639404,
   2.0286595821380615,
   2.0266909599304199,
   2.0210394859313965,
   2.0188484191894531,
   2.0154602527618408,
   2.0171771049499512,
   2.016364574432373,
   1.9834535121917725,
   1.9601819515228271,
   1.9364382028579712,
   1.9164756536483765,
   1.8949368000030518,
   1.877854585647583,
   1.860621452331543,
   1.8422731161117554,
   1.8306758403778076,
   1.7086080312728882,
   1.6259952783584595,
   1.5574922561645508,
   1.5003231763839722,
   1.4536950588226318,
   1.414982795715332,
   1.3789455890655518,
   1.3523867130279541,
   1.3244178295135498,
   1.1776406764984131,
   1.1162943840026855,
   1.0833234786987305,
   1.0573511123657227,
   1.0404403209686279,
   1.0311276912689209,
   1.0233657360076904,
   1.0192391872406006,
   1.0195014476776123,
   0.99305039644241333,
   1.0026340484619141,
   0.99108916521072388,
   0.98489207029342651,
   0.98798525333404541,
   0.99245661497116089,
   0.99662238359451294,
   1.0001652240753174,
   1.002623438835144,
   0.98775607347488403,
   0.97860872745513916,
   0.994270920753479,
   1.0113757848739624,
   0.99838382005691528,
   1.0039206743240356,
   1.0032292604446411,
   1.0255863666534424,
   1.0025808811187744
]
