[
   1.902906060218811,
   1.9007093906402588,
   1.898842453956604,
   1.9013020992279053,
   1.8963062763214111,
   1.8967063426971436,
   1.9022910594940186,
   1.8978536128997803,
   1.8998295068740845,
   1.8960056304931641,
   1.897361159324646,
   1.8919206857681274,
   1.8914121389389038,
   1.8925628662109375,
   1.8873519897460938,
   1.8843953609466553,
   1.8801259994506836,
   1.8779611587524414,
   1.8758188486099243,
   1.8528703451156616,
   1.8347904682159424,
   1.8151448965072632,
   1.8017019033432007,
   1.7848129272460938,
   1.7677847146987915,
   1.755653977394104,
   1.7411298751831055,
   1.7274725437164307,
   1.6277215480804443,
   1.5575218200683594,
   1.5019028186798096,
   1.4571394920349121,
   1.4173513650894165,
   1.3814510107040405,
   1.3511133193969727,
   1.3248547315597534,
   1.3010421991348267,
   1.1681344509124756,
   1.1076360940933228,
   1.0652624368667603,
   1.0524338483810425,
   1.0407516956329346,
   1.0269534587860107,
   1.025536060333252,
   1.0144662857055664,
   1.0108585357666016,
   1.0053446292877197,
   0.99486792087554932,
   0.99524271488189697,
   1.0077987909317017,
   1.0080312490463257,
   1.014540433883667,
   1.0026400089263916,
   1.0049799680709839,
   0.99569261074066162,
   1.0154044628143311,
   0.99968826770782471,
   0.98768788576126099,
   0.98072350025177002,
   1.013690710067749,
   1.0128288269042969,
   1.0018188953399658,
   0.97405493259429932,
   0.94947880506515503
]
