[
   24.943655014038086,
   24.974559783935547,
   24.783077239990234,
   24.864536285400391,
   24.510189056396484,
   24.749923706054688,
   24.678335189819336,
   24.629180908203125,
   24.411571502685547,
   24.450021743774414,
   24.138820648193359,
   23.815502166748047,
   23.336355209350586,
   22.90977668762207,
   22.739358901977539,
   22.466365814208984,
   22.183902740478516,
   21.894582748413086,
   21.663278579711914,
   19.674205780029297,
   18.118610382080078,
   16.822284698486328,
   15.665040969848633,
   14.816296577453613,
   13.945218086242676,
   13.247790336608887,
   12.534599304199219,
   11.89995002746582,
   7.966433048248291,
   6.1441116333007812,
   5.0116844177246094,
   3.956850528717041,
   3.4220454692840576,
   3.0813062191009521,
   2.6518208980560303,
   2.4465374946594238,
   2.2509293556213379,
   1.5283613204956055,
   1.2048213481903076,
   1.1446647644042969,
   1.1285507678985596,
   1.0266739130020142,
   0.99803972244262695,
   0.90798938274383545,
   0.97700846195220947,
   0.99183082580566406,
   0.9260638952255249,
   1.0528303384780884,
   1.0470914840698242,
   1.0120065212249756,
   1.0178291797637939,
   1.0052427053451538,
   0.93941032886505127,
   0.88042938709259033,
   0.84194499254226685,
   1.0289982557296753,
   0.96978461742401123,
   1.1516731977462769,
   0.90972292423248291,
   1.0129361152648926,
   0.9356149435043335,
   1.0080982446670532,
   0.90169161558151245,
   0.61709922552108765
]
