[
   2.4238898754119873,
   2.4286026954650879,
   2.4282176494598389,
   2.4264082908630371,
   2.4255859851837158,
   2.4291119575500488,
   2.4241046905517578,
   2.4227850437164307,
   2.4247431755065918,
   2.4206063747406006,
   2.4260554313659668,
   2.4197163581848145,
   2.4216127395629883,
   2.4169468879699707,
   2.4167332649230957,
   2.409989595413208,
   2.4091920852661133,
   2.4069943428039551,
   2.4041275978088379,
   2.3839750289916992,
   2.3617954254150391,
   2.3485174179077148,
   2.3305909633636475,
   2.3141739368438721,
   2.2956423759460449,
   2.2890088558197021,
   2.2742972373962402,
   2.2608823776245117,
   2.1581737995147705,
   2.0783002376556396,
   2.0049936771392822,
   1.9426698684692383,
   1.8872842788696289,
   1.842262864112854,
   1.7982902526855469,
   1.7571175098419189,
   1.7185537815093994,
   1.4657936096191406,
   1.3400388956069946,
   1.2620078325271606,
   1.1972324848175049,
   1.1605532169342041,
   1.1375488042831421,
   1.1119787693023682,
   1.1018965244293213,
   1.0903356075286865,
   1.0320038795471191,
   1.0158295631408691,
   0.99187278747558594,
   0.99333655834197998,
   0.97174680233001709,
   1.0083444118499756,
   0.99631327390670776,
   1.0171706676483154,
   0.9880250096321106,
   0.95736885070800781,
   0.98881596326828003,
   0.98233401775360107,
   1.0068252086639404,
   0.98234140872955322,
   1.0177338123321533,
   1.0461399555206299,
   1.126700758934021,
   0.94420874118804932
]
