[
   2.8459596633911133,
   2.8472304344177246,
   2.8446152210235596,
   2.8500838279724121,
   2.8460102081298828,
   2.8423049449920654,
   2.8439202308654785,
   2.8483395576477051,
   2.8412938117980957,
   2.8496682643890381,
   2.8468184471130371,
   2.8361239433288574,
   2.8333842754364014,
   2.8267362117767334,
   2.8263163566589355,
   2.8244311809539795,
   2.8179855346679688,
   2.8151626586914062,
   2.8106284141540527,
   2.783717155456543,
   2.7561228275299072,
   2.7297863960266113,
   2.7042202949523926,
   2.6809003353118896,
   2.6683454513549805,
   2.642341136932373,
   2.6259961128234863,
   2.6108250617980957,
   2.4621524810791016,
   2.3435516357421875,
   2.2573580741882324,
   2.1703445911407471,
   2.0976650714874268,
   2.0273058414459229,
   1.9625918865203857,
   1.9055227041244507,
   1.8544683456420898,
   1.5352979898452759,
   1.3608716726303101,
   1.2625892162322998,
   1.2142566442489624,
   1.1723111867904663,
   1.130658745765686,
   1.1080811023712158,
   1.0909826755523682,
   1.0677133798599243,
   1.0270316600799561,
   1.0119262933731079,
   1.0308840274810791,
   0.97920864820480347,
   0.99773502349853516,
   0.97102659940719604,
   0.97106504440307617,
   0.96884185075759888,
   0.99025249481201172,
   0.97115850448608398,
   0.96177351474761963,
   0.95635426044464111,
   0.95387238264083862,
   1.0255942344665527,
   1.0325887203216553,
   1.0775567293167114,
   1.1104953289031982,
   1.2200305461883545
]
