[
   1.6427628993988037,
   1.6436374187469482,
   1.6418278217315674,
   1.643756628036499,
   1.6435495615005493,
   1.6417768001556396,
   1.6421178579330444,
   1.642825722694397,
   1.6421434879302979,
   1.6431112289428711,
   1.6416943073272705,
   1.6414108276367188,
   1.6400721073150635,
   1.6383101940155029,
   1.6382032632827759,
   1.6369003057479858,
   1.6372066736221313,
   1.6368186473846436,
   1.6356006860733032,
   1.6298478841781616,
   1.6232569217681885,
   1.6180384159088135,
   1.6123298406600952,
   1.6089046001434326,
   1.602054238319397,
   1.5972926616668701,
   1.5943672657012939,
   1.5894026756286621,
   1.5529876947402954,
   1.5248446464538574,
   1.4999276399612427,
   1.4784890413284302,
   1.4592797756195068,
   1.4410967826843262,
   1.4246329069137573,
   1.4098581075668335,
   1.3939143419265747,
   1.2915347814559937,
   1.2246770858764648,
   1.178132176399231,
   1.1418392658233643,
   1.1180422306060791,
   1.0988308191299438,
   1.0845323801040649,
   1.0698741674423218,
   1.0610772371292114,
   1.0093437433242798,
   0.99462765455245972,
   0.99800127744674683,
   0.99394309520721436,
   0.99434119462966919,
   0.99786698818206787,
   0.98200857639312744,
   0.99554938077926636,
   0.98293179273605347,
   1.0083053112030029,
   0.99125832319259644,
   0.97255533933639526,
   0.96902549266815186,
   1.0046145915985107,
   1.024075984954834,
   1.0185517072677612,
   1.0196530818939209,
   0.99870508909225464
]
