[
   9.3380556106567383,
   9.3220949172973633,
   9.3260278701782227,
   9.2953195571899414,
   9.3340368270874023,
   9.3181943893432617,
   9.2734823226928711,
   9.3007602691650391,
   9.3210649490356445,
   9.2830944061279297,
   9.2324924468994141,
   9.2134571075439453,
   9.1748771667480469,
   9.1463823318481445,
   9.1030168533325195,
   9.0661039352416992,
   9.0196638107299805,
   8.9862823486328125,
   8.9780206680297852,
   8.6913623809814453,
   8.4802827835083008,
   8.2623748779296875,
   8.090601921081543,
   7.9041051864624023,
   7.6956853866577148,
   7.5758872032165527,
   7.4401359558105469,
   7.256955623626709,
   6.1107702255249023,
   5.3278264999389648,
   4.670170783996582,
   4.2151675224304199,
   3.8464698791503906,
   3.5346107482910156,
   3.2889542579650879,
   3.0561978816986084,
   2.8951950073242188,
   2.0006957054138184,
   1.5443506240844727,
   1.3498448133468628,
   1.2544199228286743,
   1.2448780536651611,
   1.1798734664916992,
   1.1337945461273193,
   1.080087423324585,
   1.105688214302063,
   1.0071346759796143,
   1.0173418521881104,
   0.93045967817306519,
   1.0576472282409668,
   0.92081719636917114,
   1.0160994529724121,
   1.0147743225097656,
   0.94481468200683594,
   0.94299095869064331,
   0.98504209518432617,
   0.93843615055084229,
   0.99345904588699341,
   0.91228485107421875,
   0.94262820482254028,
   1.0683491230010986,
   0.89484274387359619,
   1.1082366704940796,
   1.1713972091674805
]
