[
   5.1590127944946289,
   5.1647539138793945,
   5.1589574813842773,
   5.1505618095397949,
   5.1550049781799316,
   5.1549696922302246,
   5.1569128036499023,
   5.1470327377319336,
   5.1480531692504883,
   5.1656255722045898,
   5.1329331398010254,
   5.1412754058837891,
   5.1109843254089355,
   5.1032528877258301,
   5.0897607803344727,
   5.0645055770874023,
   5.0665035247802734,
   5.0511932373046875,
   5.0468850135803223,
   4.9425673484802246,
   4.8655862808227539,
   4.7855572700500488,
   4.704106330871582,
   4.6550440788269043,
   4.5919609069824219,
   4.5096216201782227,
   4.468226432800293,
   4.4140725135803223,
   3.9873013496398926,
   3.6275737285614014,
   3.3654990196228027,
   3.1280179023742676,
   2.9368829727172852,
   2.7711119651794434,
   2.6367745399475098,
   2.5112416744232178,
   2.4072306156158447,
   1.7575191259384155,
   1.4754976034164429,
   1.3654903173446655,
   1.2594183683395386,
   1.2069199085235596,
   1.152146577835083,
   1.1197165250778198,
   1.0802880525588989,
   1.102125883102417,
   0.96469783782958984,
   0.99323827028274536,
   0.96987378597259521,
   0.98296898603439331,
   0.94637882709503174,
   0.99350845813751221,
   1.0017229318618774,
   1.0323637723922729,
   0.97235786914825439,
   0.95156419277191162,
   0.96792519092559814,
   1.0177932977676392,
   1.032428503036499,
   0.93778067827224731,
   0.91462182998657227,
   0.97763156890869141,
   0.98065793514251709,
   0.84161949157714844
]
