[
   17.264591217041016,
   17.243980407714844,
   17.159940719604492,
   17.106235504150391,
   17.076274871826172,
   17.165538787841797,
   17.19114875793457,
   17.160200119018555,
   17.049236297607422,
   17.099514007568359,
   16.986600875854492,
   16.797130584716797,
   16.777877807617188,
   16.715156555175781,
   16.554859161376953,
   16.415372848510742,
   16.281078338623047,
   16.254377365112305,
   16.205789566040039,
   15.39753532409668,
   14.785852432250977,
   14.354693412780762,
   13.778635025024414,
   13.28764533996582,
   12.787029266357422,
   12.456400871276855,
   12.014883995056152,
   11.68193244934082,
   8.9499549865722656,
   7.3271017074584961,
   6.1006402969360352,
   5.3246984481811523,
   4.661311149597168,
   4.2127766609191895,
   3.7843613624572754,
   3.5340943336486816,
   3.2967903614044189,
   2.0126070976257324,
   1.6669647693634033,
   1.37225341796875,
   1.3553181886672974,
   1.2310225963592529,
   1.2611130475997925,
   1.0675870180130005,
   1.0103738307952881,
   1.0557425022125244,
   1.0314090251922607,
   1.0007092952728271,
   1.0297636985778809,
   1.0239075422286987,
   0.91642969846725464,
   0.99770146608352661,
   1.0178142786026001,
   0.91631013154983521,
   0.93315905332565308,
   1.0223585367202759,
   1.1096631288528442,
   0.90187418460845947,
   0.99894177913665771,
   0.98954313993453979,
   1.1119613647460938,
   0.99550831317901611,
   0.72166955471038818,
   1.2961580753326416
]
