[
   1.5139008760452271,
   1.513386607170105,
   1.5121841430664062,
   1.5140228271484375,
   1.5129266977310181,
   1.5133348703384399,
   1.5122778415679932,
   1.5124025344848633,
   1.5122435092926025,
   1.5124412775039673,
   1.5124104022979736,
   1.5095876455307007,
   1.5089347362518311,
   1.5069680213928223,
   1.5078516006469727,
   1.5060471296310425,
   1.504003643989563,
   1.5035868883132935,
   1.5023252964019775,
   1.4916700124740601,
   1.4819904565811157,
   1.4732291698455811,
   1.4664204120635986,
   1.4563417434692383,
   1.4491016864776611,
   1.4413548707962036,
   1.4347137212753296,
   1.4293591976165771,
   1.3777701854705811,
   1.341888427734375,
   1.3134658336639404,
   1.2898316383361816,
   1.2702943086624146,
   1.2533578872680664,
   1.2373532056808472,
   1.2242263555526733,
   1.2116315364837646,
   1.1263687610626221,
   1.0831879377365112,
   1.0561120510101318,
   1.0406379699707031,
   1.0299067497253418,
   1.021991491317749,
   1.0169676542282104,
   1.0145518779754639,
   1.0113521814346313,
   0.99994289875030518,
   0.98964023590087891,
   1.0007598400115967,
   0.99463194608688354,
   0.99568003416061401,
   1.0016381740570068,
   0.9966246485710144,
   0.99743872880935669,
   1.0011929273605347,
   0.99360811710357666,
   0.99136841297149658,
   0.97801512479782104,
   0.9901655912399292,
   1.0063351392745972,
   1.0175409317016602,
   1.0125257968902588,
   1.031973123550415,
   0.97712230682373047
]
