[
   25.528131484985352,
   25.485633850097656,
   25.323585510253906,
   25.294050216674805,
   25.200712203979492,
   25.071857452392578,
   25.380878448486328,
   25.233180999755859,
   25.105314254760742,
   25.221538543701172,
   24.761020660400391,
   24.188579559326172,
   23.95439338684082,
   23.445577621459961,
   23.533435821533203,
   23.141025543212891,
   22.854038238525391,
   22.680448532104492,
   22.563121795654297,
   20.814458847045898,
   19.834377288818359,
   18.716663360595703,
   17.986324310302734,
   17.253604888916016,
   16.362085342407227,
   15.833755493164062,
   15.207493782043457,
   14.734965324401855,
   10.332952499389648,
   7.9127335548400879,
   6.2342348098754883,
   5.1049818992614746,
   4.4248228073120117,
   3.8852047920227051,
   3.4340977668762207,
   3.0294337272644043,
   2.7224352359771729,
   1.5557128190994263,
   1.1551387310028076,
   1.1168920993804932,
   1.0679669380187988,
   1.0383435487747192,
   1.0140612125396729,
   0.84391230344772339,
   1.1496069431304932,
   1.0371335744857788,
   0.95164650678634644,
   0.93832796812057495,
   0.89220654964447021,
   1.1544163227081299,
   1.0632288455963135,
   1.0193867683410645,
   1.0200368165969849,
   0.99876976013183594,
   1.0930007696151733,
   0.859649658203125,
   1.1616199016571045,
   1.1571500301361084,
   1.0109533071517944,
   0.94559067487716675,
   1.0975005626678467,
   0.78224718570709229,
   0.89195621013641357,
   0.73768520355224609
]
