[
   1.7059831619262695,
   1.7026700973510742,
   1.7036174535751343,
   1.7032852172851562,
   1.702899694442749,
   1.7023922204971313,
   1.7017042636871338,
   1.7028270959854126,
   1.7017934322357178,
   1.7039943933486938,
   1.6999679803848267,
   1.6974306106567383,
   1.6960134506225586,
   1.6927993297576904,
   1.6926238536834717,
   1.6905845403671265,
   1.6875877380371094,
   1.6858589649200439,
   1.6841036081314087,
   1.6671005487442017,
   1.6511728763580322,
   1.6350904703140259,
   1.62190842628479,
   1.6082725524902344,
   1.5968105792999268,
   1.5867087841033936,
   1.5775231122970581,
   1.567740797996521,
   1.4929666519165039,
   1.4420406818389893,
   1.4019725322723389,
   1.3684297800064087,
   1.3400882482528687,
   1.312302827835083,
   1.2916090488433838,
   1.2720104455947876,
   1.2543513774871826,
   1.143075704574585,
   1.0854642391204834,
   1.0493754148483276,
   1.0311777591705322,
   1.0222510099411011,
   1.0162818431854248,
   1.0102803707122803,
   1.0069476366043091,
   1.003242015838623,
   1.0009483098983765,
   1.0032036304473877,
   1.0048227310180664,
   1.0084297657012939,
   1.0036342144012451,
   0.99864828586578369,
   1.0006235837936401,
   1.0056924819946289,
   1.0031734704971313,
   1.0044510364532471,
   1.0144360065460205,
   0.99665367603302002,
   0.99183189868927002,
   0.99160623550415039,
   0.98544532060623169,
   0.96530830860137939,
   0.94304972887039185,
   0.96223533153533936
]
