[
   2.058530330657959,
   2.0629079341888428,
   2.0589582920074463,
   2.0596320629119873,
   2.0607738494873047,
   2.05934739112854,
   2.05696702003479,
   2.0562894344329834,
   2.0597732067108154,
   2.0567929744720459,
   2.0543324947357178,
   2.0516281127929688,
   2.0478229522705078,
   2.0432579517364502,
   2.0414910316467285,
   2.035524845123291,
   2.0309798717498779,
   2.0312292575836182,
   2.0250749588012695,
   1.995011568069458,
   1.9656753540039062,
   1.9410715103149414,
   1.9177525043487549,
   1.896991491317749,
   1.8775560855865479,
   1.863147497177124,
   1.8476865291595459,
   1.8286079168319702,
   1.7165454626083374,
   1.6360235214233398,
   1.5739688873291016,
   1.5242725610733032,
   1.4808558225631714,
   1.4422576427459717,
   1.4055233001708984,
   1.3756906986236572,
   1.3489553928375244,
   1.1863372325897217,
   1.1095424890518188,
   1.0674806833267212,
   1.0444738864898682,
   1.0334560871124268,
   1.031044602394104,
   1.0272185802459717,
   1.0218240022659302,
   1.0187493562698364,
   1.0086221694946289,
   1.008855938911438,
   1.0106468200683594,
   1.0007679462432861,
   0.99232137203216553,
   0.99763810634613037,
   0.99991291761398315,
   1.000575065612793,
   1.0081396102905273,
   1.0137765407562256,
   1.0056765079498291,
   1.0107762813568115,
   0.99056607484817505,
   1.0023376941680908,
   1.0022530555725098,
   0.99112015962600708,
   0.95824909210205078,
   0.94297921657562256
]
