[
   2.2862765789031982,
   2.2831494808197021,
   2.2846078872680664,
   2.2803339958190918,
   2.2807166576385498,
   2.2823834419250488,
   2.2786374092102051,
   2.2772040367126465,
   2.2800383567810059,
   2.2771742343902588,
   2.2736063003540039,
   2.2701919078826904,
   2.2666678428649902,
   2.2606334686279297,
   2.2548956871032715,
   2.251378059387207,
   2.2514739036560059,
   2.2433037757873535,
   2.2397735118865967,
   2.197059154510498,
   2.1596283912658691,
   2.1315352916717529,
   2.1027507781982422,
   2.0801117420196533,
   2.058591365814209,
   2.0375161170959473,
   2.0135476589202881,
   1.9940097332000732,
   1.855457067489624,
   1.760654091835022,
   1.6852279901504517,
   1.6246154308319092,
   1.5721229314804077,
   1.5258551836013794,
   1.4867216348648071,
   1.4494082927703857,
   1.4137755632400513,
   1.208351731300354,
   1.1327130794525146,
   1.090965747833252,
   1.0552370548248291,
   1.037614107131958,
   1.0317928791046143,
   1.0303720235824585,
   1.0235096216201782,
   1.0119879245758057,
   1.0090601444244385,
   0.99430590867996216,
   0.99036502838134766,
   1.0038444995880127,
   0.99636495113372803,
   0.99260556697845459,
   1.0081028938293457,
   1.0003097057342529,
   1.0100458860397339,
   1.0028879642486572,
   1.0148904323577881,
   0.99014872312545776,
   0.98945796489715576,
   0.99452972412109375,
   0.9607502818107605,
   0.97619980573654175,
   0.98658037185668945,
   0.97114312648773193
]
