[
   1.6219453811645508,
   1.6211302280426025,
   1.6221529245376587,
   1.6219027042388916,
   1.6201515197753906,
   1.6203731298446655,
   1.6219050884246826,
   1.6221160888671875,
   1.6223886013031006,
   1.6193965673446655,
   1.6179850101470947,
   1.6156923770904541,
   1.6161623001098633,
   1.6155649423599243,
   1.6130974292755127,
   1.6114078760147095,
   1.6070772409439087,
   1.6077165603637695,
   1.60603928565979,
   1.5927413702011108,
   1.5788160562515259,
   1.5661331415176392,
   1.5558376312255859,
   1.54584801197052,
   1.5343596935272217,
   1.5256626605987549,
   1.51578688621521,
   1.508658766746521,
   1.4466590881347656,
   1.4013729095458984,
   1.365347146987915,
   1.3355468511581421,
   1.3117363452911377,
   1.2891790866851807,
   1.2712424993515015,
   1.2532306909561157,
   1.2366043329238892,
   1.1357390880584717,
   1.0789963006973267,
   1.0504056215286255,
   1.0340366363525391,
   1.0231494903564453,
   1.0214242935180664,
   1.0157784223556519,
   1.0146415233612061,
   1.01494300365448,
   1.001701831817627,
   1.0024497509002686,
   0.99918043613433838,
   0.99905407428741455,
   1.0057075023651123,
   0.99772816896438599,
   1.0008206367492676,
   0.99053287506103516,
   0.996407151222229,
   1.0027365684509277,
   0.99808847904205322,
   1.0001382827758789,
   0.98941266536712646,
   0.99320113658905029,
   1.0087389945983887,
   1.0126552581787109,
   1.0050711631774902,
   0.97274178266525269
]
