[
   14.597869873046875,
   14.710757255554199,
   14.682310104370117,
   14.569221496582031,
   14.554178237915039,
   14.574737548828125,
   14.566099166870117,
   14.51653003692627,
   14.568723678588867,
   14.446078300476074,
   14.162210464477539,
   14.145388603210449,
   13.97465991973877,
   13.817581176757812,
   13.71141529083252,
   13.596606254577637,
   13.370832443237305,
   13.324643135070801,
   13.22187328338623,
   12.529748916625977,
   11.910492897033691,
   11.423673629760742,
   11.033453941345215,
   10.673566818237305,
   10.285365104675293,
   9.9556713104248047,
   9.6777095794677734,
   9.3981599807739258,
   7.2743887901306152,
   5.9260015487670898,
   4.9880328178405762,
   4.2708406448364258,
   3.793856143951416,
   3.3598086833953857,
   3.061882495880127,
   2.7962164878845215,
   2.6259124279022217,
   1.62386155128479,
   1.2989376783370972,
   1.0969399213790894,
   1.0840306282043457,
   1.1285214424133301,
   1.1159875392913818,
   1.0985749959945679,
   1.099109411239624,
   1.0843659639358521,
   0.95989197492599487,
   0.98451054096221924,
   0.91823017597198486,
   0.99318993091583252,
   1.0217779874801636,
   0.98032796382904053,
   1.0108925104141235,
   0.87103140354156494,
   0.98467665910720825,
   0.88151693344116211,
   1.1092126369476318,
   1.0895534753799438,
   0.94845855236053467,
   1.0521054267883301,
   0.95867407321929932,
   0.97778415679931641,
   0.84727543592453003,
   1.0264778137207031
]
