[
   5.9008383750915527,
   5.8901686668395996,
   5.8997507095336914,
   5.8845257759094238,
   5.8695077896118164,
   5.8723726272583008,
   5.8756670951843262,
   5.862419605255127,
   5.8748979568481445,
   5.8694519996643066,
   5.8434343338012695,
   5.8160619735717773,
   5.836298942565918,
   5.7806339263916016,
   5.7608218193054199,
   5.7628231048583984,
   5.7415213584899902,
   5.711359977722168,
   5.6967043876647949,
   5.5685229301452637,
   5.3852510452270508,
   5.2776188850402832,
   5.1478738784790039,
   5.0212440490722656,
   4.9238028526306152,
   4.8086409568786621,
   4.714167594909668,
   4.6287293434143066,
   3.8880882263183594,
   3.4015400409698486,
   3.0316910743713379,
   2.7694330215454102,
   2.565864086151123,
   2.3892905712127686,
   2.2616772651672363,
   2.1402087211608887,
   2.0637431144714355,
   1.5564409494400024,
   1.3646094799041748,
   1.235090970993042,
   1.1704897880554199,
   1.1682909727096558,
   1.1456782817840576,
   1.0944335460662842,
   1.093762993812561,
   1.0617104768753052,
   1.0548660755157471,
   1.0079001188278198,
   0.97096347808837891,
   1.0197389125823975,
   0.98972618579864502,
   0.99720877408981323,
   0.94152653217315674,
   0.99752950668334961,
   0.96967470645904541,
   0.96125525236129761,
   0.97244328260421753,
   0.98659598827362061,
   0.93492329120635986,
   0.98940515518188477,
   1.0350136756896973,
   0.95574820041656494,
   0.93460690975189209,
   0.95848846435546875
]
