[
   30.834369659423828,
   30.673126220703125,
   30.699029922485352,
   30.706371307373047,
   30.475738525390625,
   30.501653671264648,
   30.33807373046875,
   30.370594024658203,
   30.202877044677734,
   30.104770660400391,
   29.475509643554688,
   28.974277496337891,
   28.611124038696289,
   28.125469207763672,
   27.771728515625,
   27.187444686889648,
   26.766912460327148,
   26.410547256469727,
   26.020441055297852,
   22.444494247436523,
   19.854572296142578,
   17.653295516967773,
   16.075092315673828,
   14.760180473327637,
   13.509272575378418,
   12.61988639831543,
   11.647860527038574,
   11.094797134399414,
   6.8372611999511719,
   5.0225319862365723,
   4.2570466995239258,
   3.5598857402801514,
   3.1940951347351074,
   2.8549554347991943,
   2.5119197368621826,
   2.4597880840301514,
   2.2492082118988037,
   1.6805760860443115,
   1.4262335300445557,
   1.1962608098983765,
   1.2140052318572998,
   1.2055824995040894,
   1.0988920927047729,
   1.0933500528335571,
   1.179741382598877,
   1.1567844152450562,
   1.0007432699203491,
   1.0426050424575806,
   1.2522618770599365,
   0.89260739088058472,
   0.98880308866500854,
   0.98976916074752808,
   0.95512664318084717,
   1.0840328931808472,
   1.0115307569503784,
   0.9092901349067688,
   0.96270722150802612,
   0.98345661163330078,
   0.93192988634109497,
   0.95873725414276123,
   1.0941747426986694,
   0.90276795625686646,
   0.6024436354637146,
   0.63204371929168701
]
