[
   1.7916152477264404,
   1.7915836572647095,
   1.7905781269073486,
   1.7905136346817017,
   1.7921791076660156,
   1.791126012802124,
   1.7895298004150391,
   1.7919944524765015,
   1.789290189743042,
   1.7903969287872314,
   1.7900890111923218,
   1.7887904644012451,
   1.7884595394134521,
   1.7880903482437134,
   1.7878996133804321,
   1.7860202789306641,
   1.7858028411865234,
   1.7859570980072021,
   1.7836796045303345,
   1.7782061100006104,
   1.7715002298355103,
   1.7674347162246704,
   1.7593936920166016,
   1.7550647258758545,
   1.7491710186004639,
   1.7446905374526978,
   1.7377274036407471,
   1.7350984811782837,
   1.6906015872955322,
   1.6499474048614502,
   1.6168352365493774,
   1.5849056243896484,
   1.5560534000396729,
   1.5287667512893677,
   1.5057542324066162,
   1.4806673526763916,
   1.4636712074279785,
   1.3212535381317139,
   1.2355742454528809,
   1.1797438859939575,
   1.1452722549438477,
   1.1266940832138062,
   1.1117913722991943,
   1.0960440635681152,
   1.0843770503997803,
   1.0760475397109985,
   1.015852689743042,
   1.0110938549041748,
   0.98746955394744873,
   0.98358500003814697,
   0.99604159593582153,
   0.9987109899520874,
   1.0051770210266113,
   0.99058514833450317,
   0.99774253368377686,
   1.0099943876266479,
   1.0027763843536377,
   0.99388790130615234,
   1.0176608562469482,
   0.97536641359329224,
   0.99913710355758667,
   0.96713733673095703,
   0.90409660339355469,
   0.92026901245117188
]
