[
   1.3632487058639526,
   1.3632862567901611,
   1.3635258674621582,
   1.3631987571716309,
   1.3634593486785889,
   1.3636362552642822,
   1.3628580570220947,
   1.3627804517745972,
   1.3633239269256592,
   1.3631669282913208,
   1.3624458312988281,
   1.3627477884292603,
   1.3627016544342041,
   1.3625891208648682,
   1.3625588417053223,
   1.3620787858963013,
   1.3617877960205078,
   1.3612852096557617,
   1.3614051342010498,
   1.3594455718994141,
   1.3579615354537964,
   1.3558714389801025,
   1.353843092918396,
   1.3529736995697021,
   1.3507490158081055,
   1.3488574028015137,
   1.3485682010650635,
   1.3453576564788818,
   1.3329209089279175,
   1.3214951753616333,
   1.3107445240020752,
   1.3011882305145264,
   1.2926795482635498,
   1.2837537527084351,
   1.2755441665649414,
   1.2669708728790283,
   1.2606220245361328,
   1.2028993368148804,
   1.164667010307312,
   1.135022759437561,
   1.1191070079803467,
   1.1021236181259155,
   1.0867079496383667,
   1.076596736907959,
   1.0673363208770752,
   1.0618278980255127,
   1.0303590297698975,
   1.0088465213775635,
   1.0044143199920654,
   0.99279272556304932,
   0.99302494525909424,
   0.98737490177154541,
   0.99418944120407104,
   0.99540150165557861,
   1.005570650100708,
   1.0039832592010498,
   0.99152547121047974,
   0.99187862873077393,
   1.0027835369110107,
   1.00067138671875,
   1.0095100402832031,
   0.98916977643966675,
   0.95311576128005981,
   0.95344781875610352
]
