[
   2.20816969871521,
   2.2072913646697998,
   2.2026591300964355,
   2.2053594589233398,
   2.2037768363952637,
   2.2070157527923584,
   2.2061877250671387,
   2.2036805152893066,
   2.203885555267334,
   2.2056753635406494,
   2.2055826187133789,
   2.2009930610656738,
   2.2002208232879639,
   2.1982817649841309,
   2.1993041038513184,
   2.1976466178894043,
   2.1940228939056396,
   2.1949684619903564,
   2.1917591094970703,
   2.1819005012512207,
   2.1652340888977051,
   2.1531345844268799,
   2.1425416469573975,
   2.1298184394836426,
   2.1186468601226807,
   2.1123340129852295,
   2.1002686023712158,
   2.0902707576751709,
   2.0056509971618652,
   1.9283924102783203,
   1.8610708713531494,
   1.8083457946777344,
   1.7609436511993408,
   1.7160030603408813,
   1.6750447750091553,
   1.6409931182861328,
   1.6090590953826904,
   1.3944835662841797,
   1.2850239276885986,
   1.2242765426635742,
   1.1720278263092041,
   1.1449198722839355,
   1.1153759956359863,
   1.095022439956665,
   1.080338716506958,
   1.0785629749298096,
   1.0084036588668823,
   1.0044558048248291,
   0.99781543016433716,
   0.99313962459564209,
   0.97972047328948975,
   0.99658811092376709,
   1.016746997833252,
   1.0040677785873413,
   0.9965519905090332,
   1.0012171268463135,
   1.0123758316040039,
   1.0529124736785889,
   1.0053431987762451,
   0.95742064714431763,
   0.96735018491744995,
   0.94999301433563232,
   0.96659243106842041,
   0.96146619319915771
]
