[
   2.5746302604675293,
   2.5684611797332764,
   2.5704336166381836,
   2.5687174797058105,
   2.5683941841125488,
   2.5723795890808105,
   2.5657980442047119,
   2.5688169002532959,
   2.5664193630218506,
   2.5733342170715332,
   2.570178747177124,
   2.5627744197845459,
   2.5598766803741455,
   2.5595364570617676,
   2.5529327392578125,
   2.5525467395782471,
   2.5502753257751465,
   2.5497117042541504,
   2.5467262268066406,
   2.5258307456970215,
   2.5049855709075928,
   2.4881837368011475,
   2.4710314273834229,
   2.4497089385986328,
   2.4346923828125,
   2.4194433689117432,
   2.4012069702148438,
   2.3883283138275146,
   2.2556939125061035,
   2.1448850631713867,
   2.0499284267425537,
   1.9714361429214478,
   1.9074808359146118,
   1.8433126211166382,
   1.7914047241210938,
   1.7503430843353271,
   1.7060501575469971,
   1.4494168758392334,
   1.3396971225738525,
   1.2595945596694946,
   1.217192530632019,
   1.1825064420700073,
   1.1445876359939575,
   1.138951301574707,
   1.1273953914642334,
   1.110276460647583,
   1.0073868036270142,
   1.0007369518280029,
   1.0045777559280396,
   1.0122877359390259,
   1.0179575681686401,
   0.98347032070159912,
   0.97938978672027588,
   0.9803234338760376,
   0.97639989852905273,
   0.98336583375930786,
   0.98832112550735474,
   0.96272724866867065,
   0.94665682315826416,
   1.0346770286560059,
   0.98751485347747803,
   1.035595178604126,
   1.0427145957946777,
   1.1038690805435181
]
