[
   1.6597936153411865,
   1.6609141826629639,
   1.6604541540145874,
   1.6591231822967529,
   1.6594851016998291,
   1.6592772006988525,
   1.6588573455810547,
   1.6593891382217407,
   1.6594997644424438,
   1.6594365835189819,
   1.6569544076919556,
   1.6581073999404907,
   1.6568524837493896,
   1.6587139368057251,
   1.6567608118057251,
   1.6562459468841553,
   1.6563751697540283,
   1.6556600332260132,
   1.6545591354370117,
   1.6509742736816406,
   1.6448167562484741,
   1.6404578685760498,
   1.6357762813568115,
   1.6313396692276001,
   1.6289087533950806,
   1.6232407093048096,
   1.6208988428115845,
   1.6165397167205811,
   1.5824190378189087,
   1.5534518957138062,
   1.5282036066055298,
   1.5029207468032837,
   1.4803301095962524,
   1.4618535041809082,
   1.4426934719085693,
   1.4233280420303345,
   1.4068458080291748,
   1.2916280031204224,
   1.2203729152679443,
   1.1782112121582031,
   1.1462869644165039,
   1.1227538585662842,
   1.104825496673584,
   1.0959728956222534,
   1.0851045846939087,
   1.07425856590271,
   1.0381125211715698,
   1.00519859790802,
   1.0068099498748779,
   1.0075746774673462,
   1.0037100315093994,
   1.0086346864700317,
   1.0008981227874756,
   1.0089701414108276,
   1.0007582902908325,
   1.0275505781173706,
   0.98525315523147583,
   1.0140835046768188,
   0.99757403135299683,
   0.99125540256500244,
   0.98072206974029541,
   0.98426085710525513,
   0.94308567047119141,
   0.95409166812896729
]
