[
   1.6391938924789429,
   1.6400384902954102,
   1.6397860050201416,
   1.6384856700897217,
   1.6383336782455444,
   1.6375391483306885,
   1.6381429433822632,
   1.6394603252410889,
   1.6388652324676514,
   1.6375936269760132,
   1.6365076303482056,
   1.634441614151001,
   1.6340261697769165,
   1.6311029195785522,
   1.6306169033050537,
   1.6293935775756836,
   1.627791166305542,
   1.6251081228256226,
   1.6249294281005859,
   1.6104112863540649,
   1.5943143367767334,
   1.5850293636322021,
   1.5708606243133545,
   1.5610183477401733,
   1.5503084659576416,
   1.5396074056625366,
   1.5294786691665649,
   1.52141273021698,
   1.4476958513259888,
   1.3954212665557861,
   1.3525421619415283,
   1.3195654153823853,
   1.2918826341629028,
   1.2681475877761841,
   1.245768666267395,
   1.2293550968170166,
   1.2130517959594727,
   1.119013786315918,
   1.0713889598846436,
   1.0518317222595215,
   1.0377951860427856,
   1.0287072658538818,
   1.0178008079528809,
   1.0114535093307495,
   1.0084459781646729,
   1.0093555450439453,
   0.99717026948928833,
   0.99003708362579346,
   0.99340903759002686,
   1.0020139217376709,
   0.9945799708366394,
   0.99463033676147461,
   0.99964302778244019,
   0.99627476930618286,
   0.99415862560272217,
   0.99426287412643433,
   0.99458664655685425,
   0.99428766965866089,
   0.99891966581344604,
   0.99628698825836182,
   1.0155713558197021,
   1.0124726295471191,
   1.0520391464233398,
   1.0352036952972412
]
