[
   1.7123724222183228,
   1.7110894918441772,
   1.7113516330718994,
   1.7114979028701782,
   1.7115980386734009,
   1.7124583721160889,
   1.7131935358047485,
   1.7120193243026733,
   1.7111265659332275,
   1.7118051052093506,
   1.7111842632293701,
   1.7093673944473267,
   1.7050825357437134,
   1.7035967111587524,
   1.7018085718154907,
   1.6998990774154663,
   1.6976554393768311,
   1.6966787576675415,
   1.6942269802093506,
   1.6757466793060303,
   1.661808967590332,
   1.6463682651519775,
   1.6310625076293945,
   1.6184858083724976,
   1.6061958074569702,
   1.594780445098877,
   1.5833346843719482,
   1.5724107027053833,
   1.490357518196106,
   1.4292744398117065,
   1.3837230205535889,
   1.3489549160003662,
   1.316409707069397,
   1.2880948781967163,
   1.26518714427948,
   1.2439965009689331,
   1.2256090641021729,
   1.1218156814575195,
   1.0729321241378784,
   1.0447903871536255,
   1.0339812040328979,
   1.0248053073883057,
   1.0217567682266235,
   1.0176928043365479,
   1.0109832286834717,
   1.0055173635482788,
   1.0002983808517456,
   0.99216020107269287,
   1.0021431446075439,
   1.0031787157058716,
   0.99208498001098633,
   0.9923781156539917,
   0.99059855937957764,
   0.99141693115234375,
   0.9955521821975708,
   0.9981456995010376,
   1.0038344860076904,
   0.99843847751617432,
   1.0098793506622314,
   0.99866116046905518,
   1.0068116188049316,
   0.97902899980545044,
   1.0100539922714233,
   1.0439602136611938
]
