[
   2.1094262599945068,
   2.1101202964782715,
   2.1079604625701904,
   2.1106860637664795,
   2.1069388389587402,
   2.1076099872589111,
   2.111325740814209,
   2.1090462207794189,
   2.1074461936950684,
   2.1076066493988037,
   2.1069388389587402,
   2.103055477142334,
   2.0962364673614502,
   2.0902879238128662,
   2.0874910354614258,
   2.0856814384460449,
   2.0819756984710693,
   2.0777626037597656,
   2.0734932422637939,
   2.0412576198577881,
   2.0086843967437744,
   1.9845041036605835,
   1.9555774927139282,
   1.9341113567352295,
   1.9116365909576416,
   1.8920695781707764,
   1.8719717264175415,
   1.8544543981552124,
   1.71164870262146,
   1.616887092590332,
   1.5441350936889648,
   1.4820454120635986,
   1.4319026470184326,
   1.3927096128463745,
   1.3576520681381226,
   1.3288750648498535,
   1.3023471832275391,
   1.1537673473358154,
   1.0958640575408936,
   1.0657641887664795,
   1.0421839952468872,
   1.0302469730377197,
   1.0302455425262451,
   1.0240379571914673,
   1.0102595090866089,
   1.0108190774917603,
   1.0004627704620361,
   0.99982231855392456,
   1.0032875537872314,
   1.0139122009277344,
   0.99676525592803955,
   1.005947470664978,
   0.99932944774627686,
   1.0000276565551758,
   1.0014539957046509,
   0.99210101366043091,
   1.0025595426559448,
   0.99999761581420898,
   1.0017180442810059,
   1.0037422180175781,
   0.98171693086624146,
   1.014122486114502,
   0.98844671249389648,
   0.92969262599945068
]
