[
   5.0014777183532715,
   5.0131182670593262,
   4.9940462112426758,
   4.9962196350097656,
   4.9968538284301758,
   4.9976487159729004,
   4.9862022399902344,
   4.9962387084960938,
   4.9835171699523926,
   4.9817824363708496,
   4.9490690231323242,
   4.9386072158813477,
   4.9015054702758789,
   4.8732376098632812,
   4.8375215530395508,
   4.8187274932861328,
   4.8000674247741699,
   4.7797455787658691,
   4.7609257698059082,
   4.5466852188110352,
   4.3761029243469238,
   4.2429227828979492,
   4.0994253158569336,
   3.9849567413330078,
   3.8965620994567871,
   3.7831528186798096,
   3.6962306499481201,
   3.621842622756958,
   3.0203251838684082,
   2.6355957984924316,
   2.343273401260376,
   2.1479382514953613,
   1.9916614294052124,
   1.8662275075912476,
   1.7767717838287354,
   1.6827316284179688,
   1.6214001178741455,
   1.2483127117156982,
   1.1310296058654785,
   1.077418327331543,
   1.05277419090271,
   1.0719119310379028,
   1.0384767055511475,
   1.0593193769454956,
   1.0423169136047363,
   1.0075304508209229,
   0.97934627532958984,
   0.98155725002288818,
   1.0065680742263794,
   1.0121290683746338,
   0.97885304689407349,
   0.98452556133270264,
   0.97746455669403076,
   0.97286003828048706,
   0.98079872131347656,
   1.0016343593597412,
   1.0067063570022583,
   0.99236518144607544,
   1.0158317089080811,
   0.99924170970916748,
   1.0570665597915649,
   0.9891936182975769,
   1.0701649188995361,
   1.096434473991394
]
