[
   116.42026519775391,
   115.54899597167969,
   113.51027679443359,
   112.3848876953125,
   113.3131103515625,
   111.03627014160156,
   111.02012634277344,
   110.61956787109375,
   108.51043701171875,
   109.70680999755859,
   103.7333984375,
   101.1365966796875,
   97.491127014160156,
   93.111587524414062,
   91.176841735839844,
   86.989761352539062,
   84.906532287597656,
   82.735565185546875,
   81.234817504882812,
   63.038200378417969,
   53.311084747314453,
   44.032329559326172,
   38.207054138183594,
   32.897487640380859,
   31.200893402099609,
   27.452280044555664,
   25.34033203125,
   23.463014602661133,
   12.093851089477539,
   8.657383918762207,
   5.8342642784118652,
   4.5406508445739746,
   3.8139705657958984,
   2.7036795616149902,
   2.2748434543609619,
   1.9648745059967041,
   2.6521940231323242,
   1.4390918016433716,
   1.3072030544281006,
   1.1289681196212769,
   1.2996540069580078,
   0.86302793025970459,
   1.1989181041717529,
   1.4656524658203125,
   1.3312455415725708,
   0.88557702302932739,
   0.8450387716293335,
   1.0106363296508789,
   1.0036863088607788,
   0.78965151309967041,
   0.95624083280563354,
   0.85124653577804565,
   1.0898268222808838,
   0.90266168117523193,
   1.1405347585678101,
   0.69701302051544189,
   1.0423859357833862,
   1.2627501487731934,
   1.0688755512237549,
   0.78212863206863403,
   0.86555463075637817,
   0.52915555238723755,
   1.2634618282318115,
   0.54540115594863892
]
