[
   2.3387947082519531,
   2.3399739265441895,
   2.3414089679718018,
   2.3414411544799805,
   2.3386249542236328,
   2.3398036956787109,
   2.3390336036682129,
   2.3369276523590088,
   2.3382370471954346,
   2.3382935523986816,
   2.330315113067627,
   2.3289847373962402,
   2.3228030204772949,
   2.3172850608825684,
   2.3145289421081543,
   2.3089029788970947,
   2.302833080291748,
   2.3050200939178467,
   2.2940905094146729,
   2.2487764358520508,
   2.2102968692779541,
   2.171532154083252,
   2.139988899230957,
   2.1110870838165283,
   2.0828075408935547,
   2.0604102611541748,
   2.0327634811401367,
   2.0104069709777832,
   1.8380298614501953,
   1.7157682180404663,
   1.6250190734863281,
   1.5503370761871338,
   1.4903415441513062,
   1.4472212791442871,
   1.4052298069000244,
   1.3692247867584229,
   1.337871789932251,
   1.1729052066802979,
   1.1080243587493896,
   1.0711019039154053,
   1.0493948459625244,
   1.0347334146499634,
   1.0138770341873169,
   1.0101125240325928,
   1.0137542486190796,
   1.0098640918731689,
   1.0010709762573242,
   0.9941253662109375,
   0.99049234390258789,
   0.97849959135055542,
   0.99036580324172974,
   0.98853462934494019,
   0.99024307727813721,
   0.99306201934814453,
   0.9935528039932251,
   1.0050965547561646,
   1.002219557762146,
   1.0001424551010132,
   1.004960298538208,
   0.97166603803634644,
   0.97546321153640747,
   0.9827122688293457,
   1.0146411657333374,
   1.1136689186096191
]
