[
   1.5320267677307129,
   1.5316745042800903,
   1.5310541391372681,
   1.5315316915512085,
   1.530001163482666,
   1.5312501192092896,
   1.5316201448440552,
   1.5306545495986938,
   1.5307332277297974,
   1.5305955410003662,
   1.5296865701675415,
   1.5296027660369873,
   1.5303899049758911,
   1.5289719104766846,
   1.5296076536178589,
   1.5293958187103271,
   1.5279730558395386,
   1.5269536972045898,
   1.526439905166626,
   1.5230338573455811,
   1.5183554887771606,
   1.5146368741989136,
   1.5104897022247314,
   1.5072898864746094,
   1.5019772052764893,
   1.4995578527450562,
   1.4939838647842407,
   1.4909942150115967,
   1.4602560997009277,
   1.4309046268463135,
   1.406193733215332,
   1.3840911388397217,
   1.3654862642288208,
   1.3462065458297729,
   1.3301870822906494,
   1.3155412673950195,
   1.30156409740448,
   1.2090022563934326,
   1.1562061309814453,
   1.125408411026001,
   1.1037255525588989,
   1.0885672569274902,
   1.0701174736022949,
   1.0597385168075562,
   1.05218505859375,
   1.0492826700210571,
   1.0185451507568359,
   1.005653977394104,
   0.99706095457077026,
   0.99675780534744263,
   0.99584835767745972,
   1.0016860961914062,
   0.99755370616912842,
   0.99041491746902466,
   0.99936562776565552,
   0.99423617124557495,
   0.98314553499221802,
   1.0038007497787476,
   1.000004768371582,
   0.99063622951507568,
   0.96715450286865234,
   0.99971497058868408,
   1.0039941072463989,
   1.0467902421951294
]
