[
   1.7294725179672241,
   1.729336142539978,
   1.7291545867919922,
   1.728192925453186,
   1.7293657064437866,
   1.7281532287597656,
   1.7278649806976318,
   1.7272241115570068,
   1.7297146320343018,
   1.7286255359649658,
   1.7273756265640259,
   1.7271381616592407,
   1.7246726751327515,
   1.7237364053726196,
   1.7234201431274414,
   1.7260450124740601,
   1.7248319387435913,
   1.7231619358062744,
   1.7213156223297119,
   1.7125084400177002,
   1.7067315578460693,
   1.7000335454940796,
   1.6939976215362549,
   1.686771035194397,
   1.6819156408309937,
   1.6729867458343506,
   1.666709303855896,
   1.661892294883728,
   1.6070703268051147,
   1.5599985122680664,
   1.5209845304489136,
   1.4857141971588135,
   1.4552979469299316,
   1.4293882846832275,
   1.4050736427307129,
   1.3839770555496216,
   1.3637202978134155,
   1.2378337383270264,
   1.1725615262985229,
   1.139930248260498,
   1.117203950881958,
   1.1016899347305298,
   1.0884984731674194,
   1.078648567199707,
   1.0682299137115479,
   1.0588985681533813,
   1.0188032388687134,
   1.0005500316619873,
   1.0093733072280884,
   1.0012375116348267,
   0.99946069717407227,
   0.99389660358428955,
   0.98928642272949219,
   1.0001572370529175,
   1.0020139217376709,
   0.99728423357009888,
   0.97577363252639771,
   0.99958401918411255,
   1.006510853767395,
   0.99948930740356445,
   0.98186081647872925,
   1.012805700302124,
   1.0124181509017944,
   0.95841997861862183
]
