[
   1.462727427482605,
   1.4626864194869995,
   1.4633314609527588,
   1.4634286165237427,
   1.4625906944274902,
   1.4634578227996826,
   1.4624433517456055,
   1.4627854824066162,
   1.4626524448394775,
   1.4633429050445557,
   1.4624042510986328,
   1.4623709917068481,
   1.4614381790161133,
   1.4623074531555176,
   1.4612107276916504,
   1.460955023765564,
   1.4606310129165649,
   1.4597699642181396,
   1.4598096609115601,
   1.4562232494354248,
   1.453099250793457,
   1.4505703449249268,
   1.4467443227767944,
   1.443102240562439,
   1.4416744709014893,
   1.437835693359375,
   1.4350403547286987,
   1.43227219581604,
   1.4066280126571655,
   1.3838397264480591,
   1.3633601665496826,
   1.3459900617599487,
   1.3297474384307861,
   1.3144532442092896,
   1.3005492687225342,
   1.2887917757034302,
   1.2770383358001709,
   1.1963350772857666,
   1.1481790542602539,
   1.1132705211639404,
   1.0905829668045044,
   1.0743496417999268,
   1.0611544847488403,
   1.0548210144042969,
   1.0487301349639893,
   1.046735405921936,
   1.0229345560073853,
   1.0105564594268799,
   1.0085101127624512,
   1.0115746259689331,
   1.0065507888793945,
   1.01203453540802,
   1.0064266920089722,
   1.0058822631835938,
   1.0054388046264648,
   1.0013575553894043,
   0.99927663803100586,
   0.98058861494064331,
   0.98809242248535156,
   0.9940643310546875,
   1.0231269598007202,
   1.0204708576202393,
   0.9667811393737793,
   0.94014137983322144
]
