[
   1.2932053804397583,
   1.2933981418609619,
   1.2938414812088013,
   1.2935225963592529,
   1.29262375831604,
   1.2929091453552246,
   1.2931443452835083,
   1.2931762933731079,
   1.2923872470855713,
   1.2930500507354736,
   1.2930610179901123,
   1.2927830219268799,
   1.2926706075668335,
   1.2926421165466309,
   1.2921395301818848,
   1.2918471097946167,
   1.292081356048584,
   1.2918672561645508,
   1.2925078868865967,
   1.2904001474380493,
   1.2886514663696289,
   1.2877833843231201,
   1.286166787147522,
   1.2852020263671875,
   1.2828992605209351,
   1.2821419239044189,
   1.2813041210174561,
   1.2796804904937744,
   1.2679698467254639,
   1.2566303014755249,
   1.246986985206604,
   1.2381411790847778,
   1.2297426462173462,
   1.2223274707794189,
   1.2149204015731812,
   1.2080665826797485,
   1.2016570568084717,
   1.153035044670105,
   1.1209118366241455,
   1.0983937978744507,
   1.0934375524520874,
   1.0818969011306763,
   1.0733519792556763,
   1.0644814968109131,
   1.0577939748764038,
   1.0528018474578857,
   1.0216150283813477,
   1.0052424669265747,
   0.99895364046096802,
   0.99621427059173584,
   0.99754494428634644,
   0.99461203813552856,
   0.99717152118682861,
   1.0061575174331665,
   1.0051097869873047,
   1.0040507316589355,
   1.0068546533584595,
   0.99638384580612183,
   0.98435592651367188,
   1.015242338180542,
   0.99087506532669067,
   0.96744978427886963,
   0.9713398814201355,
   0.95671665668487549
]
