[
   3.2276668548583984,
   3.2213757038116455,
   3.2257366180419922,
   3.228813648223877,
   3.2244949340820312,
   3.2235424518585205,
   3.2248287200927734,
   3.220430850982666,
   3.2162690162658691,
   3.223463773727417,
   3.2168242931365967,
   3.2093997001647949,
   3.2006034851074219,
   3.1934359073638916,
   3.1881775856018066,
   3.1830334663391113,
   3.1708931922912598,
   3.1694598197937012,
   3.1654925346374512,
   3.0998377799987793,
   3.0491824150085449,
   2.9986233711242676,
   2.9506649971008301,
   2.904545783996582,
   2.8581643104553223,
   2.8135838508605957,
   2.7811059951782227,
   2.7426536083221436,
   2.4281113147735596,
   2.2118239402770996,
   2.0512256622314453,
   1.9267460107803345,
   1.8267414569854736,
   1.7459640502929688,
   1.6855796575546265,
   1.6288894414901733,
   1.5724880695343018,
   1.3143007755279541,
   1.2103722095489502,
   1.165663480758667,
   1.1312555074691772,
   1.1210986375808716,
   1.0968208312988281,
   1.0824706554412842,
   1.0545464754104614,
   1.0518957376480103,
   1.0132991075515747,
   1.0075877904891968,
   1.0166977643966675,
   1.0069049596786499,
   1.0064082145690918,
   0.99002265930175781,
   1.013582706451416,
   0.99619472026824951,
   0.99124020338058472,
   1.0047721862792969,
   1.0040583610534668,
   1.0112152099609375,
   1.0099513530731201,
   0.95908057689666748,
   0.94707757234573364,
   0.94214248657226562,
   0.87460249662399292,
   0.941597580909729
]
