[
   8.3423728942871094,
   8.3010015487670898,
   8.2738571166992188,
   8.3151092529296875,
   8.2876720428466797,
   8.3083438873291016,
   8.2544889450073242,
   8.2562065124511719,
   8.2544040679931641,
   8.2504119873046875,
   8.183746337890625,
   8.1312160491943359,
   8.0670366287231445,
   7.999567985534668,
   7.9109716415405273,
   7.871492862701416,
   7.8303046226501465,
   7.7492766380310059,
   7.6933164596557617,
   7.1885766983032227,
   6.7668266296386719,
   6.3482837677001953,
   6.031315803527832,
   5.7522096633911133,
   5.5086860656738281,
   5.2755084037780762,
   5.0675702095031738,
   4.876976490020752,
   3.5958945751190186,
   2.9661800861358643,
   2.5348031520843506,
   2.3010463714599609,
   2.1355428695678711,
   2.0155487060546875,
   1.9233572483062744,
   1.8295885324478149,
   1.7601757049560547,
   1.3886955976486206,
   1.2719123363494873,
   1.2342617511749268,
   1.2095271348953247,
   1.1092085838317871,
   1.0782287120819092,
   1.0835270881652832,
   1.0542656183242798,
   1.0618225336074829,
   1.0223747491836548,
   1.0250821113586426,
   1.0402266979217529,
   1.0171974897384644,
   0.98547887802124023,
   0.96735543012619019,
   0.96309125423431396,
   0.97018927335739136,
   1.0082623958587646,
   0.9565775990486145,
   0.99986058473587036,
   1.0159021615982056,
   1.0333094596862793,
   0.99735164642333984,
   0.93595647811889648,
   0.92379361391067505,
   0.91274726390838623,
   0.92534911632537842
]
