[
   5.4073424339294434,
   5.4100828170776367,
   5.4090681076049805,
   5.4107046127319336,
   5.4001808166503906,
   5.3862004280090332,
   5.3854174613952637,
   5.3829479217529297,
   5.3884434700012207,
   5.387969970703125,
   5.3574633598327637,
   5.3277006149291992,
   5.2956194877624512,
   5.2783689498901367,
   5.2535028457641602,
   5.2329597473144531,
   5.2008256912231445,
   5.1731376647949219,
   5.1531448364257812,
   4.9354038238525391,
   4.7192883491516113,
   4.5363612174987793,
   4.3670878410339355,
   4.207423210144043,
   4.0917558670043945,
   3.9589672088623047,
   3.8236446380615234,
   3.7353076934814453,
   2.9529461860656738,
   2.5085232257843018,
   2.2583389282226562,
   2.0782239437103271,
   1.9407293796539307,
   1.823489785194397,
   1.7413145303726196,
   1.6740385293960571,
   1.6140104532241821,
   1.3296363353729248,
   1.2046264410018921,
   1.1418503522872925,
   1.1408355236053467,
   1.0997484922409058,
   1.0730264186859131,
   1.0810282230377197,
   1.0810376405715942,
   1.0927635431289673,
   1.0555717945098877,
   1.0428338050842285,
   1.0301786661148071,
   0.98291242122650146,
   1.0029429197311401,
   1.0214157104492188,
   0.9991338849067688,
   0.97815620899200439,
   0.97631967067718506,
   1.010125994682312,
   0.98296439647674561,
   0.96396827697753906,
   0.99738568067550659,
   1.0040808916091919,
   0.99610674381256104,
   0.95469218492507935,
   0.90420329570770264,
   0.96859616041183472
]
