[
   2.094933032989502,
   2.0933470726013184,
   2.0917017459869385,
   2.0950198173522949,
   2.0914909839630127,
   2.0903379917144775,
   2.091325044631958,
   2.0913615226745605,
   2.0924241542816162,
   2.0904309749603271,
   2.0915765762329102,
   2.0879957675933838,
   2.0877127647399902,
   2.0826942920684814,
   2.0791451930999756,
   2.0775272846221924,
   2.0778279304504395,
   2.0764174461364746,
   2.0734343528747559,
   2.0552420616149902,
   2.0397531986236572,
   2.0193772315979004,
   2.007035493850708,
   1.9926201105117798,
   1.9748585224151611,
   1.9607744216918945,
   1.9502182006835938,
   1.9361766576766968,
   1.822138786315918,
   1.7342678308486938,
   1.6598503589630127,
   1.5993807315826416,
   1.5516649484634399,
   1.5089715719223022,
   1.4724801778793335,
   1.4381054639816284,
   1.4090298414230347,
   1.2297494411468506,
   1.1549627780914307,
   1.1226756572723389,
   1.0919712781906128,
   1.0709922313690186,
   1.0624407529830933,
   1.0629839897155762,
   1.0587480068206787,
   1.0400221347808838,
   1.0117955207824707,
   1.0060470104217529,
   1.0021207332611084,
   1.0066406726837158,
   1.0056217908859253,
   0.99398195743560791,
   0.99612104892730713,
   0.98945045471191406,
   1.0022255182266235,
   0.97608864307403564,
   0.99477612972259521,
   0.9956822395324707,
   0.99551457166671753,
   0.98222959041595459,
   1.0187357664108276,
   1.0399323701858521,
   1.0422539710998535,
   1.0023649930953979
]
