[
   1.3083289861679077,
   1.3085789680480957,
   1.3087103366851807,
   1.3090313673019409,
   1.3088653087615967,
   1.3083539009094238,
   1.3084056377410889,
   1.3086754083633423,
   1.308459997177124,
   1.3088641166687012,
   1.3087272644042969,
   1.3077808618545532,
   1.3078734874725342,
   1.3077163696289062,
   1.3080654144287109,
   1.3071513175964355,
   1.3077609539031982,
   1.3073792457580566,
   1.306771993637085,
   1.3058723211288452,
   1.3036620616912842,
   1.3026926517486572,
   1.30098557472229,
   1.2990257740020752,
   1.2975267171859741,
   1.2959692478179932,
   1.294617772102356,
   1.2930629253387451,
   1.2802509069442749,
   1.2677439451217651,
   1.2567331790924072,
   1.2469972372055054,
   1.2365486621856689,
   1.2277100086212158,
   1.2201162576675415,
   1.2129513025283813,
   1.2065602540969849,
   1.1544346809387207,
   1.120128870010376,
   1.0955783128738403,
   1.0907304286956787,
   1.0775896310806274,
   1.0671565532684326,
   1.0583326816558838,
   1.0513684749603271,
   1.0468035936355591,
   1.014984130859375,
   0.99576902389526367,
   0.98848217725753784,
   0.9926910400390625,
   1.0022103786468506,
   0.99722564220428467,
   0.9943963885307312,
   0.99522626399993896,
   0.99011194705963135,
   1.0031989812850952,
   0.99699783325195312,
   0.98643684387207031,
   1.0015900135040283,
   0.98135966062545776,
   0.99282586574554443,
   1.0129020214080811,
   1.033147931098938,
   1.0283606052398682
]
