[
   1.5541706085205078,
   1.5539968013763428,
   1.5533527135848999,
   1.5531495809555054,
   1.5537134408950806,
   1.553834080696106,
   1.5537723302841187,
   1.5537862777709961,
   1.5537097454071045,
   1.5533334016799927,
   1.5532330274581909,
   1.5526163578033447,
   1.5512955188751221,
   1.5508848428726196,
   1.5510003566741943,
   1.5501211881637573,
   1.5502350330352783,
   1.5494102239608765,
   1.5474131107330322,
   1.5438085794448853,
   1.5391695499420166,
   1.5345829725265503,
   1.5308977365493774,
   1.5257076025009155,
   1.5213284492492676,
   1.5165566205978394,
   1.5129191875457764,
   1.5090460777282715,
   1.4712578058242798,
   1.4385700225830078,
   1.4113097190856934,
   1.3858586549758911,
   1.3631043434143066,
   1.3434449434280396,
   1.3247017860412598,
   1.3098876476287842,
   1.2955800294876099,
   1.1997041702270508,
   1.147519588470459,
   1.1139318943023682,
   1.0881719589233398,
   1.0736125707626343,
   1.0600929260253906,
   1.0497564077377319,
   1.0441579818725586,
   1.0457093715667725,
   1.0123676061630249,
   0.99856501817703247,
   0.99378550052642822,
   1.000217080116272,
   0.99482661485671997,
   0.99333459138870239,
   1.0034912824630737,
   1.0113281011581421,
   1.0181707143783569,
   0.99634915590286255,
   1.0011336803436279,
   0.98009377717971802,
   1.0036584138870239,
   0.97965556383132935,
   0.97606295347213745,
   0.98834449052810669,
   0.97133415937423706,
   0.919880211353302
]
