[
   3.2676749229431152,
   3.2648727893829346,
   3.2635998725891113,
   3.266024112701416,
   3.2724480628967285,
   3.2674682140350342,
   3.2603511810302734,
   3.2527306079864502,
   3.2560837268829346,
   3.2596993446350098,
   3.2506492137908936,
   3.2437806129455566,
   3.235349178314209,
   3.2300930023193359,
   3.2276148796081543,
   3.2168517112731934,
   3.209489107131958,
   3.2017319202423096,
   3.1970658302307129,
   3.1298232078552246,
   3.0632734298706055,
   3.0017955303192139,
   2.9540081024169922,
   2.8921856880187988,
   2.8422636985778809,
   2.7956786155700684,
   2.7494935989379883,
   2.7145256996154785,
   2.3701281547546387,
   2.1357948780059814,
   1.9688917398452759,
   1.8449687957763672,
   1.7453199625015259,
   1.6702533960342407,
   1.6096693277359009,
   1.5627806186676025,
   1.5192034244537354,
   1.2804510593414307,
   1.1785209178924561,
   1.1398687362670898,
   1.1074060201644897,
   1.0851625204086304,
   1.0567858219146729,
   1.0412124395370483,
   1.0427687168121338,
   1.0345450639724731,
   1.0079213380813599,
   1.0061661005020142,
   0.96083247661590576,
   1.0078079700469971,
   1.0030028820037842,
   0.98808926343917847,
   1.0084865093231201,
   0.96966254711151123,
   1.0053961277008057,
   0.98006808757781982,
   0.99526280164718628,
   0.99965476989746094,
   0.996673583984375,
   0.95870620012283325,
   1.0586816072463989,
   1.0041579008102417,
   1.0815403461456299,
   1.04634690284729
]
