[
   1.3775398731231689,
   1.3779269456863403,
   1.3770618438720703,
   1.3776116371154785,
   1.3779129981994629,
   1.3774592876434326,
   1.3783447742462158,
   1.3784090280532837,
   1.3783760070800781,
   1.3775646686553955,
   1.3769617080688477,
   1.3770917654037476,
   1.3763176202774048,
   1.3759936094284058,
   1.3763307332992554,
   1.3764042854309082,
   1.3748401403427124,
   1.3757688999176025,
   1.3742332458496094,
   1.3718411922454834,
   1.369532585144043,
   1.3671375513076782,
   1.3639875650405884,
   1.3621563911437988,
   1.3594814538955688,
   1.3580666780471802,
   1.3556783199310303,
   1.3542006015777588,
   1.3362666368484497,
   1.3206733465194702,
   1.308305025100708,
   1.2961651086807251,
   1.2854974269866943,
   1.2759295701980591,
   1.2668061256408691,
   1.2580502033233643,
   1.2489675283432007,
   1.1855056285858154,
   1.1433562040328979,
   1.1154887676239014,
   1.0966947078704834,
   1.0803173780441284,
   1.0666952133178711,
   1.0586230754852295,
   1.0491032600402832,
   1.0451419353485107,
   1.0113610029220581,
   0.99525701999664307,
   0.99954432249069214,
   0.99118345975875854,
   0.99312275648117065,
   0.98910284042358398,
   0.99194735288619995,
   0.98536586761474609,
   0.99283075332641602,
   0.98319673538208008,
   0.97984582185745239,
   0.98469650745391846,
   0.98338490724563599,
   0.99537819623947144,
   1.0159139633178711,
   1.018390417098999,
   1.0554211139678955,
   1.1028807163238525
]
