[
   1.3512203693389893,
   1.3516972064971924,
   1.3511707782745361,
   1.351794958114624,
   1.3517100811004639,
   1.3515322208404541,
   1.3519591093063354,
   1.3521567583084106,
   1.3516011238098145,
   1.3518574237823486,
   1.3508613109588623,
   1.3513010740280151,
   1.3505303859710693,
   1.3507152795791626,
   1.3496353626251221,
   1.3500137329101562,
   1.3502743244171143,
   1.3499071598052979,
   1.3491194248199463,
   1.3469130992889404,
   1.3446204662322998,
   1.3421940803527832,
   1.3401857614517212,
   1.3385450839996338,
   1.3373668193817139,
   1.3342998027801514,
   1.3328291177749634,
   1.3315994739532471,
   1.3150043487548828,
   1.302176833152771,
   1.2893047332763672,
   1.2791644334793091,
   1.2697985172271729,
   1.2612053155899048,
   1.2522032260894775,
   1.2442572116851807,
   1.237618088722229,
   1.1811645030975342,
   1.1435892581939697,
   1.1187366247177124,
   1.1062231063842773,
   1.0896279811859131,
   1.0746896266937256,
   1.0647951364517212,
   1.0557994842529297,
   1.0504891872406006,
   1.0168973207473755,
   1.0043306350708008,
   1.000499963760376,
   1.0028960704803467,
   1.0046335458755493,
   1.0026017427444458,
   1.0034095048904419,
   1.0058722496032715,
   1.0026795864105225,
   1.0069658756256104,
   0.99854028224945068,
   0.98812180757522583,
   0.98907965421676636,
   1.0230751037597656,
   0.99863958358764648,
   0.99808108806610107,
   0.96234023571014404,
   0.89386719465255737
]
