[
   1.5154198408126831,
   1.5163991451263428,
   1.5160858631134033,
   1.5161209106445312,
   1.5150887966156006,
   1.5160670280456543,
   1.5157941579818726,
   1.5165525674819946,
   1.514702320098877,
   1.5150735378265381,
   1.5147712230682373,
   1.5151925086975098,
   1.513136625289917,
   1.5133625268936157,
   1.5137320756912231,
   1.5127665996551514,
   1.5110049247741699,
   1.511216402053833,
   1.5115730762481689,
   1.506508469581604,
   1.5024882555007935,
   1.4985120296478271,
   1.4955185651779175,
   1.4913957118988037,
   1.4878718852996826,
   1.4855071306228638,
   1.4821281433105469,
   1.4794356822967529,
   1.4517470598220825,
   1.4284043312072754,
   1.4074318408966064,
   1.3899605274200439,
   1.37418532371521,
   1.3595767021179199,
   1.3459736108779907,
   1.3323571681976318,
   1.3203861713409424,
   1.2326815128326416,
   1.1793526411056519,
   1.1405849456787109,
   1.1140593290328979,
   1.0931313037872314,
   1.0753332376480103,
   1.0628910064697266,
   1.0536973476409912,
   1.0518776178359985,
   1.0198366641998291,
   1.0060281753540039,
   1.0059541463851929,
   1.009764552116394,
   0.99694842100143433,
   0.99915027618408203,
   1.0114299058914185,
   1.0015671253204346,
   1.000454306602478,
   0.99787342548370361,
   1.0159847736358643,
   1.0045334100723267,
   1.0001696348190308,
   0.99172335863113403,
   0.98438942432403564,
   0.96648150682449341,
   0.9537774920463562,
   0.96280938386917114
]
