[
   1.9211094379425049,
   1.9229834079742432,
   1.9194349050521851,
   1.9217183589935303,
   1.9209152460098267,
   1.9237525463104248,
   1.9207853078842163,
   1.922416090965271,
   1.9192407131195068,
   1.9203450679779053,
   1.9191610813140869,
   1.9180467128753662,
   1.9184881448745728,
   1.918601393699646,
   1.9163137674331665,
   1.9120165109634399,
   1.9116137027740479,
   1.9130561351776123,
   1.9095112085342407,
   1.9013843536376953,
   1.8902400732040405,
   1.8784916400909424,
   1.8703577518463135,
   1.8633177280426025,
   1.8542728424072266,
   1.8479804992675781,
   1.8397554159164429,
   1.8329484462738037,
   1.7694978713989258,
   1.7174007892608643,
   1.6722404956817627,
   1.6320890188217163,
   1.5970160961151123,
   1.5644028186798096,
   1.5356190204620361,
   1.5113279819488525,
   1.4864299297332764,
   1.3287180662155151,
   1.2466096878051758,
   1.1906113624572754,
   1.1427018642425537,
   1.1124788522720337,
   1.0933218002319336,
   1.0719919204711914,
   1.0553691387176514,
   1.0431464910507202,
   1.0144058465957642,
   1.0053219795227051,
   0.99721258878707886,
   0.98536080121994019,
   0.98957955837249756,
   0.97974967956542969,
   1.0095173120498657,
   0.99190789461135864,
   0.98512494564056396,
   0.9639514684677124,
   0.98950880765914917,
   0.98673772811889648,
   0.99287319183349609,
   0.99129009246826172,
   0.96597892045974731,
   1.0483767986297607,
   1.0934545993804932,
   1.0338339805603027
]
