[
   2.084092378616333,
   2.0845270156860352,
   2.0853219032287598,
   2.0834774971008301,
   2.0830950736999512,
   2.0840151309967041,
   2.0887100696563721,
   2.0837421417236328,
   2.0850098133087158,
   2.0848832130432129,
   2.0814568996429443,
   2.0782465934753418,
   2.0798966884613037,
   2.0788471698760986,
   2.0759074687957764,
   2.076573371887207,
   2.0761096477508545,
   2.0729835033416748,
   2.071213960647583,
   2.0560324192047119,
   2.044478178024292,
   2.0320746898651123,
   2.0186495780944824,
   2.0070309638977051,
   1.997362494468689,
   1.9873454570770264,
   1.9747480154037476,
   1.9649693965911865,
   1.8874390125274658,
   1.8138153553009033,
   1.7583398818969727,
   1.7050352096557617,
   1.6605062484741211,
   1.619717001914978,
   1.5853118896484375,
   1.5539547204971313,
   1.5242489576339722,
   1.3326895236968994,
   1.2276467084884644,
   1.169690728187561,
   1.1378610134124756,
   1.1139020919799805,
   1.0949069261550903,
   1.0800354480743408,
   1.0678403377532959,
   1.0603182315826416,
   1.0065748691558838,
   0.98949688673019409,
   0.98148030042648315,
   0.98195534944534302,
   0.9845128059387207,
   0.99321240186691284,
   0.99364489316940308,
   0.9801824688911438,
   0.98376446962356567,
   1.0113036632537842,
   0.99360561370849609,
   0.99887877702713013,
   0.99284666776657104,
   0.97853457927703857,
   1.0238732099533081,
   1.0091307163238525,
   1.0069042444229126,
   0.97210961580276489
]
