[
   37.462272644042969,
   37.514354705810547,
   37.476234436035156,
   37.449832916259766,
   37.368118286132812,
   37.176109313964844,
   36.922584533691406,
   37.135749816894531,
   36.727607727050781,
   37.241722106933594,
   36.004241943359375,
   35.4219970703125,
   34.875614166259766,
   34.172550201416016,
   33.131477355957031,
   33.030902862548828,
   32.099273681640625,
   31.599990844726562,
   31.150699615478516,
   26.220272064208984,
   23.158693313598633,
   20.353973388671875,
   18.288112640380859,
   16.636510848999023,
   15.096168518066406,
   13.981657028198242,
   12.907415390014648,
   12.242053985595703,
   7.4457826614379883,
   5.342803955078125,
   4.3117899894714355,
   3.7561721801757812,
   3.2670047283172607,
   2.9359695911407471,
   2.8691887855529785,
   2.5733582973480225,
   2.486647367477417,
   1.6915889978408813,
   1.4189304113388062,
   1.1665902137756348,
   1.1743589639663696,
   1.0406469106674194,
   1.0315486192703247,
   1.19624924659729,
   1.0635210275650024,
   1.0407748222351074,
   1.0575982332229614,
   0.9990571141242981,
   1.0641674995422363,
   0.94298255443572998,
   1.0371915102005005,
   0.95047855377197266,
   0.9726751446723938,
   0.91689872741699219,
   1.0354706048965454,
   0.97085696458816528,
   1.100131630897522,
   0.82445764541625977,
   1.0615688562393188,
   0.86786472797393799,
   1.0377686023712158,
   0.70405477285385132,
   0.84370481967926025,
   0.64629024267196655
]
