[
   11.535160064697266,
   11.479824066162109,
   11.495849609375,
   11.470769882202148,
   11.467179298400879,
   11.462531089782715,
   11.425512313842773,
   11.431192398071289,
   11.511229515075684,
   11.401238441467285,
   11.377083778381348,
   11.218274116516113,
   11.179619789123535,
   11.165811538696289,
   11.035943984985352,
   11.001321792602539,
   10.935845375061035,
   10.86674976348877,
   10.80845832824707,
   10.163049697875977,
   9.6740970611572266,
   9.1853046417236328,
   8.7700653076171875,
   8.4512825012207031,
   8.1347503662109375,
   7.8519439697265625,
   7.5217690467834473,
   7.2815656661987305,
   5.4531903266906738,
   4.4531207084655762,
   3.7711360454559326,
   3.3041329383850098,
   2.9488232135772705,
   2.6805641651153564,
   2.4702820777893066,
   2.2755193710327148,
   2.1482930183410645,
   1.5687997341156006,
   1.3315656185150146,
   1.2368372678756714,
   1.1840064525604248,
   1.1442756652832031,
   1.1386752128601074,
   1.0642465353012085,
   1.0514684915542603,
   1.0161334276199341,
   1.0091856718063354,
   0.91696423292160034,
   1.0280840396881104,
   0.98864191770553589,
   0.96804869174957275,
   0.94951760768890381,
   0.98075312376022339,
   1.013668417930603,
   1.0391038656234741,
   1.0994350910186768,
   0.99438554048538208,
   0.97949343919754028,
   1.0170924663543701,
   0.97194671630859375,
   0.9597550630569458,
   0.85792207717895508,
   0.9391447901725769,
   0.93810665607452393
]
