[
   4.2602109909057617,
   4.2525262832641602,
   4.2560687065124512,
   4.2531404495239258,
   4.2444987297058105,
   4.2472090721130371,
   4.2344112396240234,
   4.2418103218078613,
   4.2399106025695801,
   4.238192081451416,
   4.2381596565246582,
   4.2018790245056152,
   4.1895394325256348,
   4.1824507713317871,
   4.1676139831542969,
   4.138730525970459,
   4.1245856285095215,
   4.1195583343505859,
   4.1036520004272461,
   3.9710471630096436,
   3.8691425323486328,
   3.7660136222839355,
   3.6625926494598389,
   3.5909614562988281,
   3.503068208694458,
   3.4310736656188965,
   3.3561844825744629,
   3.2929954528808594,
   2.7946515083312988,
   2.4601671695709229,
   2.2258574962615967,
   2.057924747467041,
   1.9233957529067993,
   1.8254721164703369,
   1.7470585107803345,
   1.6740977764129639,
   1.6091420650482178,
   1.2938051223754883,
   1.1743085384368896,
   1.1316859722137451,
   1.1044849157333374,
   1.096610426902771,
   1.0909132957458496,
   1.0559971332550049,
   1.0228312015533447,
   1.0185240507125854,
   1.0054764747619629,
   0.99326848983764648,
   0.97871696949005127,
   1.0033185482025146,
   0.9876214861869812,
   0.97468280792236328,
   0.97378569841384888,
   0.98142498731613159,
   0.99333161115646362,
   0.99792033433914185,
   1.040453314781189,
   0.98895168304443359,
   0.95887434482574463,
   0.99784457683563232,
   0.96394598484039307,
   1.0002336502075195,
   0.92734163999557495,
   1.0144282579421997
]
