[
   2.0455975532531738,
   2.0431408882141113,
   2.0420405864715576,
   2.0437846183776855,
   2.0429565906524658,
   2.039379358291626,
   2.0427978038787842,
   2.038888692855835,
   2.0398046970367432,
   2.0430574417114258,
   2.0381865501403809,
   2.0371503829956055,
   2.0343890190124512,
   2.0319797992706299,
   2.0282716751098633,
   2.029170036315918,
   2.0249857902526855,
   2.0229909420013428,
   2.0210015773773193,
   1.9993560314178467,
   1.9821884632110596,
   1.9636609554290771,
   1.952347993850708,
   1.9350064992904663,
   1.9211633205413818,
   1.9066007137298584,
   1.8950620889663696,
   1.8809268474578857,
   1.7819182872772217,
   1.6990025043487549,
   1.6336942911148071,
   1.579217791557312,
   1.5305038690567017,
   1.4868199825286865,
   1.4521243572235107,
   1.4208204746246338,
   1.3900570869445801,
   1.2312412261962891,
   1.1564778089523315,
   1.1069414615631104,
   1.0723683834075928,
   1.0549770593643188,
   1.0442469120025635,
   1.0396271944046021,
   1.025601863861084,
   1.0217050313949585,
   0.99064648151397705,
   0.99466007947921753,
   0.98666256666183472,
   0.98445308208465576,
   1.0007398128509521,
   0.99398297071456909,
   0.99624758958816528,
   0.98901909589767456,
   1.0028227567672729,
   1.0102672576904297,
   0.97791492938995361,
   1.0072342157363892,
   0.98517340421676636,
   1.0102654695510864,
   0.99358749389648438,
   1.0161271095275879,
   0.98709917068481445,
   0.98136681318283081
]
