[
   42.944263458251953,
   42.587196350097656,
   43.017265319824219,
   42.527610778808594,
   42.522369384765625,
   42.200843811035156,
   42.123176574707031,
   41.881950378417969,
   41.924968719482422,
   41.560863494873047,
   40.192481994628906,
   38.474311828613281,
   37.332962036132812,
   36.190750122070312,
   34.971988677978516,
   34.041896820068359,
   33.165512084960938,
   32.153400421142578,
   31.222427368164062,
   24.611988067626953,
   20.483810424804688,
   17.266576766967773,
   15.3717041015625,
   13.558298110961914,
   12.428925514221191,
   11.198437690734863,
   10.307703971862793,
   9.6264495849609375,
   5.4271755218505859,
   4.0409965515136719,
   3.1820812225341797,
   2.7140998840332031,
   2.415440559387207,
   2.2379260063171387,
   2.0668792724609375,
   2.0682859420776367,
   1.9446067810058594,
   1.3258082866668701,
   1.2998412847518921,
   1.2035320997238159,
   1.1048668622970581,
   1.2302769422531128,
   1.0894478559494019,
   1.0374190807342529,
   1.0722706317901611,
   0.88245546817779541,
   0.94939994812011719,
   1.1139616966247559,
   0.99849379062652588,
   0.97859412431716919,
   0.9456939697265625,
   1.0309098958969116,
   1.1295502185821533,
   0.79750418663024902,
   1.0294994115829468,
   0.9381028413772583,
   1.0514817237854004,
   0.98028916120529175,
   1.1112444400787354,
   1.0805150270462036,
   1.0962984561920166,
   1.0967695713043213,
   1.308330774307251,
   1.1559484004974365
]
