[
   3.1470255851745605,
   3.1419796943664551,
   3.143190860748291,
   3.1371915340423584,
   3.1418910026550293,
   3.1393833160400391,
   3.1339912414550781,
   3.1352949142456055,
   3.1319797039031982,
   3.134150505065918,
   3.1276106834411621,
   3.1173224449157715,
   3.1165380477905273,
   3.1035771369934082,
   3.094691276550293,
   3.0911562442779541,
   3.0860428810119629,
   3.0756773948669434,
   3.069089412689209,
   3.0052943229675293,
   2.9422178268432617,
   2.8887069225311279,
   2.8437619209289551,
   2.7932219505310059,
   2.752373218536377,
   2.7186379432678223,
   2.6792612075805664,
   2.64640212059021,
   2.3540968894958496,
   2.1501851081848145,
   1.9954773187637329,
   1.8745863437652588,
   1.7823126316070557,
   1.7015880346298218,
   1.6377384662628174,
   1.5882289409637451,
   1.5421241521835327,
   1.2873107194900513,
   1.1914213895797729,
   1.1225912570953369,
   1.1013013124465942,
   1.0758837461471558,
   1.0702221393585205,
   1.0495760440826416,
   1.0361984968185425,
   1.026797890663147,
   1.0233089923858643,
   1.0135695934295654,
   0.99687939882278442,
   1.0136244297027588,
   1.002771258354187,
   0.99475556612014771,
   1.0111105442047119,
   0.98955744504928589,
   0.98147678375244141,
   0.98291999101638794,
   0.97207391262054443,
   1.0203857421875,
   1.0007234811782837,
   1.0040450096130371,
   0.99853068590164185,
   1.0222821235656738,
   1.0336683988571167,
   0.95034945011138916
]
