[
   1.550592303276062,
   1.5518176555633545,
   1.5515133142471313,
   1.5510749816894531,
   1.5508527755737305,
   1.5501658916473389,
   1.5500727891921997,
   1.5509382486343384,
   1.5496662855148315,
   1.5505534410476685,
   1.5485904216766357,
   1.5490541458129883,
   1.5481324195861816,
   1.5462023019790649,
   1.547183632850647,
   1.5453765392303467,
   1.5445835590362549,
   1.5439912080764771,
   1.5424717664718628,
   1.5350475311279297,
   1.5275709629058838,
   1.5210511684417725,
   1.5150505304336548,
   1.5097146034240723,
   1.5025101900100708,
   1.4960825443267822,
   1.4910182952880859,
   1.4865149259567261,
   1.4433777332305908,
   1.4068681001663208,
   1.3755021095275879,
   1.3496499061584473,
   1.3281854391098022,
   1.3069015741348267,
   1.2900547981262207,
   1.2736843824386597,
   1.2580121755599976,
   1.1641582250595093,
   1.1186461448669434,
   1.0871560573577881,
   1.0684150457382202,
   1.0533325672149658,
   1.0390510559082031,
   1.0337718725204468,
   1.0296217203140259,
   1.0294750928878784,
   1.0000921487808228,
   0.99177932739257812,
   0.99515515565872192,
   1.0010898113250732,
   1.0006799697875977,
   1.0006182193756104,
   0.99253618717193604,
   0.98973369598388672,
   0.9963415265083313,
   1.0131871700286865,
   1.0054548978805542,
   1.009102463722229,
   0.99774825572967529,
   1.0086879730224609,
   1.0001555681228638,
   0.96844053268432617,
   0.95058536529541016,
   0.96302950382232666
]
