[
   7.6775617599487305,
   7.6477499008178711,
   7.6519632339477539,
   7.6247320175170898,
   7.6019773483276367,
   7.6351637840270996,
   7.5943803787231445,
   7.5940971374511719,
   7.5970687866210938,
   7.5894136428833008,
   7.5742621421813965,
   7.500920295715332,
   7.4349656105041504,
   7.3894500732421875,
   7.3143243789672852,
   7.2621803283691406,
   7.2398977279663086,
   7.1933541297912598,
   7.150782585144043,
   6.7295784950256348,
   6.4006586074829102,
   6.0965652465820312,
   5.8352079391479492,
   5.6117911338806152,
   5.3883123397827148,
   5.1803770065307617,
   5.0047049522399902,
   4.8417873382568359,
   3.6977646350860596,
   3.0478062629699707,
   2.6483511924743652,
   2.3751540184020996,
   2.1675293445587158,
   1.9941835403442383,
   1.8723695278167725,
   1.7511088848114014,
   1.6853210926055908,
   1.3209453821182251,
   1.1726248264312744,
   1.1123400926589966,
   1.0360910892486572,
   1.0285953283309937,
   1.0688278675079346,
   1.0735094547271729,
   1.0544596910476685,
   1.0797703266143799,
   1.0032888650894165,
   0.97069454193115234,
   1.0077745914459229,
   0.98225384950637817,
   0.97966384887695312,
   1.0124450922012329,
   0.98952722549438477,
   1.0117977857589722,
   0.93951874971389771,
   0.96986401081085205,
   0.968658447265625,
   0.9671204686164856,
   1.0075932741165161,
   0.96223992109298706,
   0.95695269107818604,
   1.0225282907485962,
   1.0482127666473389,
   1.1063019037246704
]
