[
   1.4161202907562256,
   1.4155669212341309,
   1.4145588874816895,
   1.415164589881897,
   1.4153087139129639,
   1.4145950078964233,
   1.4142825603485107,
   1.4146625995635986,
   1.413398265838623,
   1.4148277044296265,
   1.4138929843902588,
   1.4139606952667236,
   1.413169264793396,
   1.4123181104660034,
   1.4123191833496094,
   1.4121458530426025,
   1.4110522270202637,
   1.4104152917861938,
   1.4102298021316528,
   1.4053733348846436,
   1.4003714323043823,
   1.3964521884918213,
   1.3910688161849976,
   1.387955904006958,
   1.384271502494812,
   1.3804717063903809,
   1.3762032985687256,
   1.3731980323791504,
   1.3440161943435669,
   1.3210303783416748,
   1.3007817268371582,
   1.2832070589065552,
   1.2673254013061523,
   1.2538212537765503,
   1.2414309978485107,
   1.2294315099716187,
   1.2184334993362427,
   1.1449421644210815,
   1.101872444152832,
   1.073871374130249,
   1.0559797286987305,
   1.0431921482086182,
   1.0383960008621216,
   1.0308425426483154,
   1.0251511335372925,
   1.0230885744094849,
   1.0067365169525146,
   0.99895113706588745,
   0.9996148943901062,
   1.0029385089874268,
   1.0070736408233643,
   1.0081373453140259,
   1.0036846399307251,
   1.0058813095092773,
   1.0004169940948486,
   1.0020426511764526,
   1.0064114332199097,
   1.0032832622528076,
   1.0096167325973511,
   0.99401175975799561,
   0.98461705446243286,
   0.96058642864227295,
   0.9865955114364624,
   0.92198294401168823
]
