[
   1.5440348386764526,
   1.5440518856048584,
   1.5440018177032471,
   1.5439562797546387,
   1.5433698892593384,
   1.5455944538116455,
   1.5434800386428833,
   1.5431455373764038,
   1.5434300899505615,
   1.5441099405288696,
   1.5434534549713135,
   1.5437778234481812,
   1.5427438020706177,
   1.5423047542572021,
   1.5428769588470459,
   1.5424759387969971,
   1.5418804883956909,
   1.5407629013061523,
   1.5413666963577271,
   1.5392330884933472,
   1.5378162860870361,
   1.5329955816268921,
   1.531660795211792,
   1.5310032367706299,
   1.5290725231170654,
   1.5257807970046997,
   1.5240564346313477,
   1.5224788188934326,
   1.5049690008163452,
   1.4899140596389771,
   1.4766730070114136,
   1.4624258279800415,
   1.4511631727218628,
   1.4385316371917725,
   1.427112340927124,
   1.416528582572937,
   1.4078817367553711,
   1.326174259185791,
   1.2711142301559448,
   1.2291743755340576,
   1.1940516233444214,
   1.1685749292373657,
   1.1474237442016602,
   1.1335685253143311,
   1.1219327449798584,
   1.1131227016448975,
   1.0404415130615234,
   1.0187516212463379,
   1.0161975622177124,
   1.0017049312591553,
   1.0108261108398438,
   1.0213462114334106,
   1.0093114376068115,
   1.0014960765838623,
   1.0039900541305542,
   1.0039082765579224,
   0.99663656949996948,
   0.98944127559661865,
   1.0015500783920288,
   0.99820166826248169,
   0.97832095623016357,
   0.97727584838867188,
   0.94136112928390503,
   0.89676207304000854
]
