[
   1.3513867855072021,
   1.3510656356811523,
   1.3514773845672607,
   1.3507155179977417,
   1.3508548736572266,
   1.3512471914291382,
   1.3512202501296997,
   1.3506418466567993,
   1.3510210514068604,
   1.3511545658111572,
   1.3509376049041748,
   1.3509242534637451,
   1.3510339260101318,
   1.3507376909255981,
   1.3510013818740845,
   1.3505873680114746,
   1.3496730327606201,
   1.3502577543258667,
   1.3496648073196411,
   1.348044753074646,
   1.3477780818939209,
   1.346881628036499,
   1.3454458713531494,
   1.3444870710372925,
   1.3436204195022583,
   1.3426501750946045,
   1.3412647247314453,
   1.3397871255874634,
   1.3326079845428467,
   1.3247251510620117,
   1.3172318935394287,
   1.3102123737335205,
   1.3041214942932129,
   1.2983450889587402,
   1.2924630641937256,
   1.2871701717376709,
   1.2819304466247559,
   1.2383002042770386,
   1.2047890424728394,
   1.1772917509078979,
   1.1641658544540405,
   1.1466234922409058,
   1.1308004856109619,
   1.118396520614624,
   1.1073527336120605,
   1.1004091501235962,
   1.0515580177307129,
   1.0332467555999756,
   1.0234336853027344,
   1.0150376558303833,
   1.0118606090545654,
   0.99717378616333008,
   1.0019881725311279,
   1.0006401538848877,
   0.9941142201423645,
   0.97632646560668945,
   0.98308074474334717,
   0.96415340900421143,
   1.0011173486709595,
   0.98887616395950317,
   1.0003327131271362,
   1.047893762588501,
   1.0641862154006958,
   1.0568279027938843
]
