[
   1.8130273818969727,
   1.8142826557159424,
   1.811435341835022,
   1.8123775720596313,
   1.8133885860443115,
   1.8108360767364502,
   1.8106784820556641,
   1.8138351440429688,
   1.8121229410171509,
   1.8141266107559204,
   1.8123180866241455,
   1.8128858804702759,
   1.8129113912582397,
   1.8089336156845093,
   1.8128964900970459,
   1.8096873760223389,
   1.8116964101791382,
   1.808725118637085,
   1.8087581396102905,
   1.8019825220108032,
   1.7995681762695312,
   1.7964105606079102,
   1.7925841808319092,
   1.789562463760376,
   1.785487174987793,
   1.7820885181427002,
   1.7791837453842163,
   1.7769348621368408,
   1.7448288202285767,
   1.7175614833831787,
   1.6922280788421631,
   1.6712461709976196,
   1.6485544443130493,
   1.6274211406707764,
   1.609034538269043,
   1.591083288192749,
   1.574917197227478,
   1.4423177242279053,
   1.353635311126709,
   1.2914198637008667,
   1.2512047290802002,
   1.2199611663818359,
   1.192516565322876,
   1.1726846694946289,
   1.1530641317367554,
   1.1343350410461426,
   1.0549867153167725,
   1.0367196798324585,
   1.0108358860015869,
   1.0160690546035767,
   1.0047198534011841,
   1.028040885925293,
   1.0049031972885132,
   0.99743735790252686,
   1.009661078453064,
   0.97279012203216553,
   0.98315972089767456,
   0.95038717985153198,
   0.95834332704544067,
   1.00612473487854,
   1.050942063331604,
   1.0356199741363525,
   1.0580680370330811,
   0.98878324031829834
]
