[
   1.6190458536148071,
   1.6172208786010742,
   1.6194387674331665,
   1.6181204319000244,
   1.6162227392196655,
   1.6178019046783447,
   1.6184670925140381,
   1.6177170276641846,
   1.6179599761962891,
   1.6185003519058228,
   1.6179660558700562,
   1.6169917583465576,
   1.6167370080947876,
   1.6163078546524048,
   1.6156660318374634,
   1.6165405511856079,
   1.6158838272094727,
   1.6151638031005859,
   1.6159855127334595,
   1.6127693653106689,
   1.6100972890853882,
   1.6059364080429077,
   1.6046384572982788,
   1.6008154153823853,
   1.598099946975708,
   1.5968872308731079,
   1.5935287475585938,
   1.5916119813919067,
   1.5701920986175537,
   1.5497044324874878,
   1.5317224264144897,
   1.5146639347076416,
   1.4985146522521973,
   1.4835832118988037,
   1.4696013927459717,
   1.4581338167190552,
   1.4447988271713257,
   1.3461066484451294,
   1.2793514728546143,
   1.2334600687026978,
   1.1992337703704834,
   1.1709339618682861,
   1.1489083766937256,
   1.1327996253967285,
   1.1208782196044922,
   1.1102530956268311,
   1.0471961498260498,
   1.0242710113525391,
   1.000901460647583,
   0.99630069732666016,
   1.0004851818084717,
   0.99122536182403564,
   0.99148225784301758,
   0.97913038730621338,
   0.98755186796188354,
   0.98350918292999268,
   0.97607100009918213,
   0.99348020553588867,
   0.974590003490448,
   0.99472224712371826,
   0.97170174121856689,
   1.0626742839813232,
   1.0300366878509521,
   1.1307731866836548
]
