[
   18.8023681640625,
   18.782390594482422,
   18.710912704467773,
   18.656476974487305,
   18.620048522949219,
   18.559909820556641,
   18.684144973754883,
   18.52130126953125,
   18.458187103271484,
   18.416919708251953,
   18.188644409179688,
   17.798837661743164,
   17.748809814453125,
   17.329553604125977,
   16.996589660644531,
   16.787853240966797,
   16.622453689575195,
   16.370136260986328,
   16.272283554077148,
   14.724794387817383,
   13.362436294555664,
   12.397603988647461,
   11.450935363769531,
   10.87923526763916,
   10.249177932739258,
   9.6963787078857422,
   9.2026128768920898,
   8.8041191101074219,
   5.9195427894592285,
   4.4003686904907227,
   3.5466122627258301,
   2.9246041774749756,
   2.5478968620300293,
   2.2788956165313721,
   2.053546667098999,
   1.8988660573959351,
   1.8642406463623047,
   1.3201521635055542,
   1.1324740648269653,
   1.0960736274719238,
   1.0706771612167358,
   1.0276691913604736,
   1.0068957805633545,
   1.0278143882751465,
   0.92017972469329834,
   0.91398650407791138,
   0.97052443027496338,
   0.97420632839202881,
   1.0053102970123291,
   0.99935877323150635,
   0.92757987976074219,
   0.99449670314788818,
   1.0173615217208862,
   1.0084536075592041,
   1.0374114513397217,
   0.99410736560821533,
   0.91413038969039917,
   1.0134292840957642,
   1.0236046314239502,
   1.1094315052032471,
   1.0121030807495117,
   0.94471806287765503,
   1.3237841129302979,
   0.942943274974823
]
