[
   1.7698307037353516,
   1.7700636386871338,
   1.769396185874939,
   1.7693593502044678,
   1.767905592918396,
   1.7688248157501221,
   1.7685552835464478,
   1.7686564922332764,
   1.7698150873184204,
   1.7685680389404297,
   1.7645313739776611,
   1.7636629343032837,
   1.7600250244140625,
   1.7572034597396851,
   1.7547719478607178,
   1.7547155618667603,
   1.751700758934021,
   1.7497463226318359,
   1.7462238073348999,
   1.7215038537979126,
   1.7036173343658447,
   1.6842244863510132,
   1.6651322841644287,
   1.6491645574569702,
   1.633963942527771,
   1.6189076900482178,
   1.6025584936141968,
   1.5906364917755127,
   1.4869239330291748,
   1.4170868396759033,
   1.3669580221176147,
   1.3223640918731689,
   1.2880094051361084,
   1.2629004716873169,
   1.2354849576950073,
   1.2161343097686768,
   1.1953743696212769,
   1.0963947772979736,
   1.0524702072143555,
   1.0306906700134277,
   1.0216596126556396,
   1.0205689668655396,
   1.0199520587921143,
   1.0138218402862549,
   1.0056190490722656,
   1.0055996179580688,
   0.99623239040374756,
   1.0000166893005371,
   0.99660098552703857,
   1.0039870738983154,
   1.0056521892547607,
   1.0030814409255981,
   1.0071359872817993,
   1.0074889659881592,
   1.010903000831604,
   1.0108994245529175,
   1.0106009244918823,
   0.99730348587036133,
   1.0025519132614136,
   0.993827223777771,
   0.99198609590530396,
   0.9843791127204895,
   0.95477390289306641,
   0.94020640850067139
]
