[
   1.5455988645553589,
   1.5454990863800049,
   1.5446619987487793,
   1.5450159311294556,
   1.5444296598434448,
   1.5449252128601074,
   1.5453245639801025,
   1.5431549549102783,
   1.5448938608169556,
   1.5431684255599976,
   1.5425469875335693,
   1.5410956144332886,
   1.5397789478302002,
   1.5390616655349731,
   1.5364296436309814,
   1.5351517200469971,
   1.5339618921279907,
   1.5331871509552002,
   1.5318261384963989,
   1.5177993774414062,
   1.5063037872314453,
   1.4937131404876709,
   1.4827911853790283,
   1.4723465442657471,
   1.4612700939178467,
   1.4511121511459351,
   1.4432520866394043,
   1.434699535369873,
   1.3642005920410156,
   1.3150744438171387,
   1.2772725820541382,
   1.2469677925109863,
   1.2220492362976074,
   1.2026882171630859,
   1.184999942779541,
   1.1692397594451904,
   1.1558325290679932,
   1.0831978321075439,
   1.0510190725326538,
   1.032761812210083,
   1.020875096321106,
   1.0169346332550049,
   1.0121550559997559,
   1.0078723430633545,
   1.007866382598877,
   1.0049083232879639,
   0.99774473905563354,
   0.9946630597114563,
   0.99557626247406006,
   0.9942891001701355,
   0.99569761753082275,
   0.99986040592193604,
   0.99580162763595581,
   0.99372804164886475,
   1.0034658908843994,
   1.0032659769058228,
   1.0064499378204346,
   1.005640983581543,
   0.98873221874237061,
   1.013142466545105,
   1.0017733573913574,
   0.99521559476852417,
   0.97028172016143799,
   0.99137574434280396
]
