[
   1.6030657291412354,
   1.6030820608139038,
   1.6023565530776978,
   1.6028976440429688,
   1.6023156642913818,
   1.6023622751235962,
   1.6029980182647705,
   1.6009120941162109,
   1.6018111705780029,
   1.6001641750335693,
   1.59903883934021,
   1.5981824398040771,
   1.5961188077926636,
   1.5954159498214722,
   1.5928828716278076,
   1.5915480852127075,
   1.5894778966903687,
   1.5886969566345215,
   1.5865092277526855,
   1.5707738399505615,
   1.5573133230209351,
   1.5425306558609009,
   1.5298894643783569,
   1.518114447593689,
   1.5049722194671631,
   1.4936338663101196,
   1.4844520092010498,
   1.4755709171295166,
   1.3956300020217896,
   1.3411492109298706,
   1.2992613315582275,
   1.2659803628921509,
   1.238112211227417,
   1.2170306444168091,
   1.1975219249725342,
   1.1804394721984863,
   1.1658756732940674,
   1.0879201889038086,
   1.0538543462753296,
   1.0347679853439331,
   1.0220682621002197,
   1.0182068347930908,
   1.0129876136779785,
   1.0092524290084839,
   1.0085327625274658,
   1.0049251317977905,
   0.99851828813552856,
   0.99490833282470703,
   0.99517756700515747,
   0.9942326545715332,
   0.99568206071853638,
   1.0004996061325073,
   0.99558001756668091,
   0.99385917186737061,
   1.0041576623916626,
   1.0033247470855713,
   1.0070396661758423,
   1.006359338760376,
   0.98806667327880859,
   1.013433575630188,
   1.0017447471618652,
   0.99538201093673706,
   0.9686201810836792,
   0.99025231599807739
]
