[
   151.09552001953125,
   151.63323974609375,
   153.43362426757812,
   152.03390502929688,
   146.68045043945312,
   149.18788146972656,
   151.09304809570312,
   149.32762145996094,
   144.56681823730469,
   141.21249389648438,
   132.63845825195312,
   132.43449401855469,
   125.26566314697266,
   122.60910797119141,
   116.53739166259766,
   113.17031097412109,
   110.17977142333984,
   105.58286285400391,
   104.59401702880859,
   78.86322021484375,
   64.822647094726562,
   52.471351623535156,
   44.937137603759766,
   38.248157501220703,
   32.067951202392578,
   30.166387557983398,
   26.229120254516602,
   25.351100921630859,
   10.447998046875,
   8.0767126083374023,
   5.3577146530151367,
   4.6577558517456055,
   2.9911339282989502,
   2.250403881072998,
   1.9033584594726562,
   1.9912271499633789,
   1.8078527450561523,
   1.4963148832321167,
   1.4172631502151489,
   0.80202162265777588,
   1.2631875276565552,
   1.6765453815460205,
   1.1039820909500122,
   1.0761494636535645,
   0.43369737267494202,
   0.82098865509033203,
   0.99205225706100464,
   0.75586020946502686,
   0.67596167325973511,
   1.0601387023925781,
   0.78523552417755127,
   0.61759740114212036,
   0.95368897914886475,
   0.88596856594085693,
   1.605914831161499,
   0.78782212734222412,
   0.86646634340286255,
   1.1175544261932373,
   0.45163965225219727,
   1.552593469619751,
   0.73737210035324097,
   0.82644498348236084,
   0.21059253811836243,
   0.70897972583770752
]
