[
   8.6025047302246094,
   8.5865030288696289,
   8.5588712692260742,
   8.5543556213378906,
   8.5362558364868164,
   8.5473966598510742,
   8.5151643753051758,
   8.5260848999023438,
   8.4996471405029297,
   8.4952888488769531,
   8.3877277374267578,
   8.3439388275146484,
   8.2058620452880859,
   8.1848592758178711,
   8.1080093383789062,
   8.0189313888549805,
   7.954707145690918,
   7.8979439735412598,
   7.8181886672973633,
   7.2796144485473633,
   6.801485538482666,
   6.4409041404724121,
   6.128201961517334,
   5.8699283599853516,
   5.6290335655212402,
   5.4249229431152344,
   5.2134332656860352,
   5.0378322601318359,
   3.8165085315704346,
   3.1121306419372559,
   2.6871910095214844,
   2.37345290184021,
   2.1431035995483398,
   1.944347620010376,
   1.8136537075042725,
   1.7102286815643311,
   1.6045116186141968,
   1.2313631772994995,
   1.1160576343536377,
   1.0760430097579956,
   1.0483618974685669,
   1.0115933418273926,
   1.0405813455581665,
   0.99419766664505005,
   0.97633600234985352,
   1.0046064853668213,
   0.97799795866012573,
   0.98149985074996948,
   1.0137782096862793,
   1.0146682262420654,
   0.95282202959060669,
   1.0243918895721436,
   0.96781527996063232,
   0.97914189100265503,
   1.0010124444961548,
   0.94892203807830811,
   1.0120941400527954,
   0.95594632625579834,
   0.98094481229782104,
   1.0186817646026611,
   0.93450003862380981,
   0.90850323438644409,
   0.91537046432495117,
   1.07161545753479
]
