[
   17.739490509033203,
   17.718746185302734,
   17.634836196899414,
   17.669441223144531,
   17.550682067871094,
   17.555309295654297,
   17.580476760864258,
   17.436702728271484,
   17.487770080566406,
   17.353509902954102,
   17.217460632324219,
   16.988340377807617,
   16.773826599121094,
   16.564395904541016,
   16.361116409301758,
   16.21160888671875,
   16.157382965087891,
   15.82896614074707,
   15.565649032592773,
   14.457380294799805,
   13.472267150878906,
   12.732588768005371,
   12.075799942016602,
   11.436148643493652,
   10.979913711547852,
   10.54206657409668,
   10.143491744995117,
   9.6694698333740234,
   6.9776763916015625,
   5.3319792747497559,
   4.3550362586975098,
   3.6870620250701904,
   3.2199795246124268,
   2.8017559051513672,
   2.5226843357086182,
   2.3449177742004395,
   2.1596105098724365,
   1.4467790126800537,
   1.2708230018615723,
   1.0220988988876343,
   1.0255945920944214,
   1.0329375267028809,
   0.98967856168746948,
   1.0701322555541992,
   0.94276553392410278,
   0.99424552917480469,
   0.94606733322143555,
   0.90569412708282471,
   0.97184449434280396,
   0.92737877368927002,
   1.0538830757141113,
   0.88775175809860229,
   0.92367076873779297,
   1.0056202411651611,
   0.9933050274848938,
   0.90412729978561401,
   1.0050473213195801,
   0.93557417392730713,
   1.1644442081451416,
   1.017587423324585,
   1.0461081266403198,
   0.92412585020065308,
   1.1188355684280396,
   1.2802228927612305
]
