[
   1.6046816110610962,
   1.604806661605835,
   1.6051079034805298,
   1.60416579246521,
   1.6042299270629883,
   1.604182243347168,
   1.6037038564682007,
   1.6051275730133057,
   1.604752779006958,
   1.6037420034408569,
   1.6036033630371094,
   1.6021308898925781,
   1.5983861684799194,
   1.5974680185317993,
   1.5971171855926514,
   1.5947345495223999,
   1.5939400196075439,
   1.5927317142486572,
   1.5902726650238037,
   1.5754950046539307,
   1.5643932819366455,
   1.5514763593673706,
   1.5416233539581299,
   1.5315573215484619,
   1.5205053091049194,
   1.510915994644165,
   1.5002137422561646,
   1.4936325550079346,
   1.4207077026367188,
   1.37010657787323,
   1.3295271396636963,
   1.2960741519927979,
   1.2696048021316528,
   1.2476071119308472,
   1.2289987802505493,
   1.2116067409515381,
   1.1950969696044922,
   1.1078188419342041,
   1.0684814453125,
   1.0483695268630981,
   1.0300405025482178,
   1.0215179920196533,
   1.0177285671234131,
   1.0129282474517822,
   1.0093663930892944,
   1.0083529949188232,
   1.0005682706832886,
   0.99489223957061768,
   0.99364078044891357,
   0.99964427947998047,
   0.99638491868972778,
   1.0006279945373535,
   1.0031759738922119,
   1.0004458427429199,
   0.99517679214477539,
   1.0044667720794678,
   0.99430596828460693,
   1.0099761486053467,
   0.99423772096633911,
   1.0044575929641724,
   0.99126559495925903,
   0.97908896207809448,
   0.97832739353179932,
   1.015223503112793
]
