[
   1.749253511428833,
   1.7497256994247437,
   1.7492939233779907,
   1.7482001781463623,
   1.7486722469329834,
   1.7479655742645264,
   1.7491171360015869,
   1.7475637197494507,
   1.7482343912124634,
   1.7483799457550049,
   1.7460349798202515,
   1.7443473339080811,
   1.7415097951889038,
   1.7398229837417603,
   1.7379951477050781,
   1.7352994680404663,
   1.7339941263198853,
   1.731967568397522,
   1.7287695407867432,
   1.7117700576782227,
   1.6932294368743896,
   1.6752735376358032,
   1.6598867177963257,
   1.6468061208724976,
   1.6345107555389404,
   1.6217288970947266,
   1.6065843105316162,
   1.5970888137817383,
   1.5065536499023438,
   1.4417426586151123,
   1.3932907581329346,
   1.3512032032012939,
   1.3180205821990967,
   1.2900394201278687,
   1.2675074338912964,
   1.2468481063842773,
   1.2304892539978027,
   1.127393364906311,
   1.0785278081893921,
   1.0501242876052856,
   1.0306030511856079,
   1.0242558717727661,
   1.020409107208252,
   1.0199556350708008,
   1.0203498601913452,
   1.0154441595077515,
   1.0008189678192139,
   1.0030519962310791,
   0.99125111103057861,
   0.99181956052780151,
   0.99108302593231201,
   0.99361002445220947,
   1.0018436908721924,
   0.99702435731887817,
   1.0009833574295044,
   0.99113559722900391,
   0.98893707990646362,
   0.98832428455352783,
   0.98231935501098633,
   1.0059012174606323,
   1.0144922733306885,
   1.0023454427719116,
   0.99264460802078247,
   0.96469700336456299
]
