[
   3.2082054615020752,
   3.2050426006317139,
   3.2021877765655518,
   3.1988940238952637,
   3.2055041790008545,
   3.1946709156036377,
   3.200376033782959,
   3.1939458847045898,
   3.1937403678894043,
   3.1994776725769043,
   3.1829020977020264,
   3.1705746650695801,
   3.164395809173584,
   3.1558070182800293,
   3.1386713981628418,
   3.1352438926696777,
   3.1223416328430176,
   3.1107783317565918,
   3.1094233989715576,
   3.0139386653900146,
   2.9390263557434082,
   2.8735673427581787,
   2.8069677352905273,
   2.7513961791992188,
   2.7112181186676025,
   2.6490402221679688,
   2.6104996204376221,
   2.5677847862243652,
   2.2736160755157471,
   2.0720677375793457,
   1.9266363382339478,
   1.8019673824310303,
   1.705544114112854,
   1.620164155960083,
   1.5518977642059326,
   1.5018956661224365,
   1.4483845233917236,
   1.197669506072998,
   1.1212966442108154,
   1.0760862827301025,
   1.0700806379318237,
   1.0491411685943604,
   1.0375045537948608,
   1.0270192623138428,
   1.0149375200271606,
   0.98815488815307617,
   0.98225653171539307,
   0.99354088306427002,
   1.0035345554351807,
   0.97397506237030029,
   0.99457025527954102,
   0.9840627908706665,
   0.98117923736572266,
   0.98451805114746094,
   0.97258198261260986,
   1.0299720764160156,
   0.98588788509368896,
   1.0201760530471802,
   0.99790477752685547,
   0.99724400043487549,
   0.99290817975997925,
   0.98506957292556763,
   0.98813217878341675,
   1.0476492643356323
]
