[
   2.0049290657043457,
   2.0061321258544922,
   2.0027787685394287,
   2.0031592845916748,
   2.0053915977478027,
   2.0047628879547119,
   2.0033125877380371,
   2.0033385753631592,
   2.0054903030395508,
   2.0026650428771973,
   1.9999058246612549,
   1.9980428218841553,
   1.9942744970321655,
   1.9903799295425415,
   1.9844329357147217,
   1.9851386547088623,
   1.9812142848968506,
   1.9789857864379883,
   1.9750280380249023,
   1.9472100734710693,
   1.921394944190979,
   1.8948132991790771,
   1.8747274875640869,
   1.8538544178009033,
   1.8325961828231812,
   1.815777063369751,
   1.7989791631698608,
   1.7823841571807861,
   1.6590909957885742,
   1.570523738861084,
   1.5045784711837769,
   1.448672890663147,
   1.4045846462249756,
   1.3671162128448486,
   1.3332843780517578,
   1.3065930604934692,
   1.2837892770767212,
   1.1436918973922729,
   1.0855573415756226,
   1.0511085987091064,
   1.0413815975189209,
   1.0311484336853027,
   1.0174251794815063,
   1.0156764984130859,
   1.0185647010803223,
   1.0124112367630005,
   0.99867641925811768,
   1.0025433301925659,
   0.98096483945846558,
   0.99062603712081909,
   0.98762714862823486,
   0.98997509479522705,
   0.98779118061065674,
   0.987434983253479,
   0.99571073055267334,
   0.99102103710174561,
   0.99072897434234619,
   0.9841078519821167,
   0.99212396144866943,
   1.0031311511993408,
   1.0079689025878906,
   1.0106234550476074,
   1.0022342205047607,
   1.1027505397796631
]
