[
   2.4338676929473877,
   2.429877758026123,
   2.4318597316741943,
   2.4304108619689941,
   2.4294779300689697,
   2.4297800064086914,
   2.4284412860870361,
   2.4280765056610107,
   2.429969310760498,
   2.4256265163421631,
   2.4186310768127441,
   2.4148852825164795,
   2.4088449478149414,
   2.4060659408569336,
   2.4018912315368652,
   2.3940424919128418,
   2.3890261650085449,
   2.3836760520935059,
   2.378293514251709,
   2.3308072090148926,
   2.2867913246154785,
   2.2488303184509277,
   2.2141561508178711,
   2.1823418140411377,
   2.1467907428741455,
   2.1197373867034912,
   2.0945334434509277,
   2.0735080242156982,
   1.8777506351470947,
   1.7482494115829468,
   1.6545082330703735,
   1.5789694786071777,
   1.509992241859436,
   1.4586279392242432,
   1.4172956943511963,
   1.3774988651275635,
   1.3488610982894897,
   1.1609067916870117,
   1.102858304977417,
   1.0686658620834351,
   1.0563033819198608,
   1.0516818761825562,
   1.0274255275726318,
   1.0123786926269531,
   1.0069410800933838,
   1.0156738758087158,
   0.9961014986038208,
   0.99875485897064209,
   0.99998843669891357,
   0.98715174198150635,
   0.99888789653778076,
   0.988506019115448,
   0.99497491121292114,
   0.99123936891555786,
   0.99379521608352661,
   1.0013282299041748,
   0.99083340167999268,
   1.0078399181365967,
   0.99582892656326294,
   1.0154378414154053,
   0.99907875061035156,
   0.98508673906326294,
   0.93325614929199219,
   0.98074519634246826
]
