[
   33.460517883300781,
   33.579383850097656,
   33.461849212646484,
   33.261135101318359,
   32.913013458251953,
   33.077617645263672,
   32.671489715576172,
   32.884559631347656,
   32.658535003662109,
   32.759372711181641,
   32.172111511230469,
   31.107776641845703,
   31.007827758789062,
   30.285724639892578,
   30.023868560791016,
   29.056777954101562,
   28.769338607788086,
   28.823617935180664,
   28.297632217407227,
   25.362636566162109,
   23.026403427124023,
   21.419977188110352,
   19.994558334350586,
   18.770441055297852,
   17.506416320800781,
   16.654788970947266,
   15.966509819030762,
   15.072843551635742,
   9.2248191833496094,
   6.7964768409729004,
   5.258854866027832,
   4.2527589797973633,
   3.3788542747497559,
   2.8802132606506348,
   2.6698908805847168,
   2.3796861171722412,
   2.2730600833892822,
   1.2451350688934326,
   1.216744065284729,
   0.93472850322723389,
   0.99656343460083008,
   1.0978448390960693,
   0.98943030834197998,
   0.96284788846969604,
   0.98748445510864258,
   1.0269339084625244,
   1.0039964914321899,
   0.82941800355911255,
   0.9768904447555542,
   1.0314280986785889,
   1.0805625915527344,
   0.99718225002288818,
   0.96180009841918945,
   0.99852621555328369,
   0.89550763368606567,
   0.87790858745574951,
   0.84453725814819336,
   1.0144695043563843,
   1.0198103189468384,
   0.83642119169235229,
   0.86032235622406006,
   1.1808326244354248,
   0.93277943134307861,
   1.2663102149963379
]
