[
   2.1716921329498291,
   2.1692883968353271,
   2.1701512336730957,
   2.1718277931213379,
   2.1677327156066895,
   2.1707940101623535,
   2.1699831485748291,
   2.1672396659851074,
   2.1698126792907715,
   2.1675963401794434,
   2.1678159236907959,
   2.1611838340759277,
   2.1586067676544189,
   2.1549990177154541,
   2.1531243324279785,
   2.1510260105133057,
   2.1467645168304443,
   2.1434547901153564,
   2.1400623321533203,
   2.1117973327636719,
   2.0867881774902344,
   2.0642614364624023,
   2.0439639091491699,
   2.0262556076049805,
   2.0050637722015381,
   1.9898185729980469,
   1.9745899438858032,
   1.9637374877929688,
   1.8426580429077148,
   1.7550680637359619,
   1.6889781951904297,
   1.6273876428604126,
   1.5741263628005981,
   1.5349452495574951,
   1.4961352348327637,
   1.4639221429824829,
   1.432408332824707,
   1.2529950141906738,
   1.175815224647522,
   1.1206197738647461,
   1.0872046947479248,
   1.0631563663482666,
   1.0421018600463867,
   1.0292830467224121,
   1.0276166200637817,
   1.0214574337005615,
   1.0023257732391357,
   1.0087554454803467,
   1.0025769472122192,
   1.0062315464019775,
   0.99069368839263916,
   0.99793511629104614,
   1.0098066329956055,
   1.0188747644424438,
   0.99927794933319092,
   0.99003565311431885,
   0.98893487453460693,
   1.0009220838546753,
   1.004550576210022,
   0.99846255779266357,
   0.99315279722213745,
   0.98023957014083862,
   0.95348846912384033,
   0.89068686962127686
]
