[
   17.322921752929688,
   17.283737182617188,
   17.283517837524414,
   17.219266891479492,
   17.207798004150391,
   17.22467041015625,
   17.129081726074219,
   17.042789459228516,
   17.042985916137695,
   16.95489501953125,
   16.812404632568359,
   16.704013824462891,
   16.496164321899414,
   16.161642074584961,
   16.10993766784668,
   15.91356086730957,
   15.752187728881836,
   15.517080307006836,
   15.502321243286133,
   14.017694473266602,
   12.934211730957031,
   12.081758499145508,
   11.264375686645508,
   10.637111663818359,
   10.07819938659668,
   9.5629405975341797,
   9.1029863357543945,
   8.6830806732177734,
   6.0130643844604492,
   4.7132782936096191,
   3.9427075386047363,
   3.4194331169128418,
   3.1437594890594482,
   2.823976993560791,
   2.6296412944793701,
   2.437666654586792,
   2.2940173149108887,
   1.5785291194915771,
   1.3385108709335327,
   1.2658841609954834,
   1.1057697534561157,
   1.0817492008209229,
   1.1477248668670654,
   1.0161206722259521,
   1.0074751377105713,
   1.0242918729782104,
   1.0438154935836792,
   0.97063857316970825,
   0.98749828338623047,
   0.93666410446166992,
   1.024500846862793,
   1.0246011018753052,
   0.95290166139602661,
   0.96052104234695435,
   0.9599946141242981,
   0.99450892210006714,
   0.98958265781402588,
   0.90975749492645264,
   0.87510490417480469,
   1.0315117835998535,
   0.96596670150756836,
   0.9730151891708374,
   1.1005284786224365,
   0.94524210691452026
]
