[
   2.4997258186340332,
   2.4974660873413086,
   2.5071158409118652,
   2.4980998039245605,
   2.5015747547149658,
   2.5016615390777588,
   2.4998106956481934,
   2.4987225532531738,
   2.5024538040161133,
   2.5004363059997559,
   2.4938902854919434,
   2.4889366626739502,
   2.4853720664978027,
   2.4771745204925537,
   2.4750823974609375,
   2.4700148105621338,
   2.4638352394104004,
   2.4652185440063477,
   2.4587743282318115,
   2.4190306663513184,
   2.3832948207855225,
   2.3591229915618896,
   2.3262064456939697,
   2.3004496097564697,
   2.2770926952362061,
   2.2522311210632324,
   2.2351698875427246,
   2.2128937244415283,
   2.0548782348632812,
   1.9416096210479736,
   1.855158805847168,
   1.7751016616821289,
   1.7113802433013916,
   1.654492974281311,
   1.6093000173568726,
   1.5684963464736938,
   1.5253022909164429,
   1.3036578893661499,
   1.1995524168014526,
   1.1432120800018311,
   1.1047362089157104,
   1.0705063343048096,
   1.0638899803161621,
   1.0584063529968262,
   1.0488846302032471,
   1.0446135997772217,
   1.0170235633850098,
   0.99388158321380615,
   1.0026229619979858,
   0.9922979474067688,
   1.0046021938323975,
   0.98113280534744263,
   0.98824131488800049,
   0.970325767993927,
   0.97150307893753052,
   0.98339176177978516,
   1.0008383989334106,
   0.98751240968704224,
   0.98493307828903198,
   0.99212443828582764,
   0.99274861812591553,
   1.0320675373077393,
   0.96013039350509644,
   1.0369365215301514
]
