[
   1.5337358713150024,
   1.5347229242324829,
   1.5346343517303467,
   1.5326803922653198,
   1.5330303907394409,
   1.5342520475387573,
   1.5349441766738892,
   1.533771276473999,
   1.5330109596252441,
   1.5321254730224609,
   1.5326110124588013,
   1.5317288637161255,
   1.5294345617294312,
   1.5299751758575439,
   1.5280086994171143,
   1.5272048711776733,
   1.527759313583374,
   1.5271580219268799,
   1.5255588293075562,
   1.5171622037887573,
   1.5086953639984131,
   1.5019131898880005,
   1.4957054853439331,
   1.4875953197479248,
   1.4819040298461914,
   1.4754166603088379,
   1.470187783241272,
   1.4652729034423828,
   1.4231557846069336,
   1.3913396596908569,
   1.36472487449646,
   1.3428295850753784,
   1.3243356943130493,
   1.3079055547714233,
   1.2915540933609009,
   1.2783069610595703,
   1.2655086517333984,
   1.1786295175552368,
   1.1281598806381226,
   1.0957953929901123,
   1.0742180347442627,
   1.0586942434310913,
   1.0470035076141357,
   1.0393636226654053,
   1.0329351425170898,
   1.0287173986434937,
   1.0098922252655029,
   1.0102875232696533,
   0.99924057722091675,
   0.99741232395172119,
   0.99160319566726685,
   0.99554699659347534,
   0.99792605638504028,
   0.99039393663406372,
   0.99643784761428833,
   0.98875749111175537,
   0.99020576477050781,
   0.9821513295173645,
   0.99258214235305786,
   1.0121041536331177,
   1.0152914524078369,
   1.0117003917694092,
   1.0265344381332397,
   0.99215620756149292
]
