[
   1.4838236570358276,
   1.4827901124954224,
   1.4824831485748291,
   1.4812133312225342,
   1.4828778505325317,
   1.4820730686187744,
   1.4817827939987183,
   1.4820901155471802,
   1.482896089553833,
   1.4816247224807739,
   1.4805610179901123,
   1.480015754699707,
   1.4796904325485229,
   1.4799526929855347,
   1.478463888168335,
   1.4766781330108643,
   1.4772433042526245,
   1.4756947755813599,
   1.474372386932373,
   1.4677406549453735,
   1.4602000713348389,
   1.4551297426223755,
   1.4483562707901001,
   1.4426397085189819,
   1.4374029636383057,
   1.4324253797531128,
   1.4272154569625854,
   1.4227135181427002,
   1.3850213289260864,
   1.3573524951934814,
   1.3331015110015869,
   1.3134796619415283,
   1.2973543405532837,
   1.2808173894882202,
   1.2676903009414673,
   1.2551530599594116,
   1.2438313961029053,
   1.1648637056350708,
   1.1179664134979248,
   1.0868936777114868,
   1.0681600570678711,
   1.0576797723770142,
   1.0474945306777954,
   1.0410392284393311,
   1.0321822166442871,
   1.0317143201828003,
   1.004855751991272,
   1.0061547756195068,
   0.99731522798538208,
   0.99548929929733276,
   1.0048562288284302,
   1.009574294090271,
   1.0007393360137939,
   0.99912345409393311,
   1.0015614032745361,
   1.0043342113494873,
   1.0118018388748169,
   0.99888837337493896,
   1.0055170059204102,
   0.99766981601715088,
   0.9947744607925415,
   0.9552379846572876,
   0.98302143812179565,
   0.97677421569824219
]
