[
   12.744415283203125,
   12.673368453979492,
   12.760776519775391,
   12.684121131896973,
   12.747993469238281,
   12.682332992553711,
   12.649025917053223,
   12.673074722290039,
   12.660728454589844,
   12.742277145385742,
   12.546832084655762,
   12.419363021850586,
   12.367483139038086,
   12.278573989868164,
   12.090078353881836,
   12.096445083618164,
   11.979227066040039,
   11.868746757507324,
   11.851583480834961,
   11.102720260620117,
   10.604837417602539,
   10.184953689575195,
   9.7911872863769531,
   9.3931999206542969,
   9.0370626449584961,
   8.8196315765380859,
   8.4643344879150391,
   8.2654047012329102,
   6.2146787643432617,
   5.055178165435791,
   4.2637739181518555,
   3.6608600616455078,
   3.2763500213623047,
   2.9420261383056641,
   2.6767387390136719,
   2.4516689777374268,
   2.3423571586608887,
   1.6856544017791748,
   1.3627890348434448,
   1.3155901432037354,
   1.1739223003387451,
   1.1223080158233643,
   1.0697814226150513,
   1.0705100297927856,
   0.99887436628341675,
   1.01059889793396,
   0.950611412525177,
   1.0742998123168945,
   1.0092182159423828,
   0.93080824613571167,
   0.96632111072540283,
   1.0053229331970215,
   0.94714230298995972,
   0.98542946577072144,
   0.96450614929199219,
   0.99492454528808594,
   0.98870384693145752,
   1.0310885906219482,
   0.97698384523391724,
   1.1094845533370972,
   1.0061048269271851,
   0.90952575206756592,
   0.94941425323486328,
   1.1546595096588135
]
