[
   1.4803082942962646,
   1.4784564971923828,
   1.4794449806213379,
   1.4785572290420532,
   1.4782626628875732,
   1.4778201580047607,
   1.4788082838058472,
   1.4784660339355469,
   1.4790060520172119,
   1.4787856340408325,
   1.4780266284942627,
   1.4769054651260376,
   1.4758461713790894,
   1.4754005670547485,
   1.476667046546936,
   1.4736720323562622,
   1.4735194444656372,
   1.4726145267486572,
   1.4722774028778076,
   1.4650779962539673,
   1.4574829339981079,
   1.4501920938491821,
   1.4446202516555786,
   1.438706636428833,
   1.4327318668365479,
   1.4277957677841187,
   1.4222887754440308,
   1.4178181886672974,
   1.3755979537963867,
   1.3441545963287354,
   1.3183302879333496,
   1.2966699600219727,
   1.277611255645752,
   1.2608041763305664,
   1.2466925382614136,
   1.233826756477356,
   1.2223803997039795,
   1.1454594135284424,
   1.0988516807556152,
   1.0721698999404907,
   1.0520663261413574,
   1.0396444797515869,
   1.0289684534072876,
   1.02193284034729,
   1.0163072347640991,
   1.015571117401123,
   0.99789315462112427,
   1.0061008930206299,
   0.99723708629608154,
   0.99722796678543091,
   0.99808615446090698,
   0.99826347827911377,
   0.99583470821380615,
   0.99612855911254883,
   0.99013912677764893,
   1.0027555227279663,
   1.0026495456695557,
   1.0005128383636475,
   1.004751443862915,
   0.99052178859710693,
   0.98243129253387451,
   0.95975190401077271,
   0.96623307466506958,
   0.98390740156173706
]
