[
   6.463043212890625,
   6.4593682289123535,
   6.4538431167602539,
   6.4681801795959473,
   6.4504790306091309,
   6.4845719337463379,
   6.4484848976135254,
   6.4448990821838379,
   6.4203996658325195,
   6.4413414001464844,
   6.4326767921447754,
   6.406494140625,
   6.3485946655273438,
   6.3214197158813477,
   6.2971582412719727,
   6.2660398483276367,
   6.2291712760925293,
   6.1887216567993164,
   6.155247688293457,
   5.9523568153381348,
   5.7274899482727051,
   5.538475513458252,
   5.4022226333618164,
   5.283815860748291,
   5.1633906364440918,
   5.0429058074951172,
   4.9417366981506348,
   4.8051056861877441,
   4.0453324317932129,
   3.4959969520568848,
   3.1115241050720215,
   2.8181099891662598,
   2.5692648887634277,
   2.4042751789093018,
   2.2672410011291504,
   2.1362223625183105,
   2.0342593193054199,
   1.4641778469085693,
   1.2202615737915039,
   1.1807246208190918,
   1.1202290058135986,
   1.1095817089080811,
   1.0411454439163208,
   1.0165411233901978,
   1.0047699213027954,
   1.030152440071106,
   1.0102776288986206,
   0.98503339290618896,
   1.0117690563201904,
   0.96161824464797974,
   0.97199422121047974,
   1.0318597555160522,
   1.0034481287002563,
   0.98856484889984131,
   0.95691967010498047,
   0.98157453536987305,
   1.0255029201507568,
   1.0165644884109497,
   0.96733653545379639,
   0.95175647735595703,
   0.99494349956512451,
   1.0361840724945068,
   0.93239700794219971,
   1.0779609680175781
]
