[
   2.7959449291229248,
   2.7959563732147217,
   2.79827880859375,
   2.7964048385620117,
   2.7928197383880615,
   2.7947945594787598,
   2.7918505668640137,
   2.790656566619873,
   2.7941994667053223,
   2.7961726188659668,
   2.7851331233978271,
   2.7773642539978027,
   2.7763514518737793,
   2.7627108097076416,
   2.7638187408447266,
   2.7548632621765137,
   2.7512269020080566,
   2.7445785999298096,
   2.7446310520172119,
   2.6916844844818115,
   2.6443109512329102,
   2.6084094047546387,
   2.5708184242248535,
   2.5414533615112305,
   2.504310131072998,
   2.4747896194458008,
   2.449852466583252,
   2.4212203025817871,
   2.2218770980834961,
   2.0800538063049316,
   1.9630136489868164,
   1.8714296817779541,
   1.7933681011199951,
   1.7191823720932007,
   1.6616809368133545,
   1.6088424921035767,
   1.5608804225921631,
   1.3115290403366089,
   1.2030869722366333,
   1.1335239410400391,
   1.0999326705932617,
   1.0672608613967896,
   1.056632399559021,
   1.0554440021514893,
   1.0339702367782593,
   1.0284887552261353,
   1.0136363506317139,
   0.99359911680221558,
   0.98584669828414917,
   1.0020148754119873,
   0.98745375871658325,
   0.99724483489990234,
   0.99203073978424072,
   0.98359405994415283,
   0.99309748411178589,
   0.99256294965744019,
   1.000981330871582,
   0.98778867721557617,
   1.0146048069000244,
   1.0127401351928711,
   1.0200031995773315,
   0.9810408353805542,
   0.96732217073440552,
   1.0087891817092896
]
