[
   35.640476226806641,
   35.709716796875,
   35.621086120605469,
   35.533000946044922,
   35.216030120849609,
   35.468082427978516,
   35.067012786865234,
   35.222770690917969,
   35.309516906738281,
   34.831619262695312,
   33.61639404296875,
   32.60906982421875,
   31.840600967407227,
   30.688516616821289,
   30.044692993164062,
   29.087127685546875,
   28.332118988037109,
   27.270862579345703,
   27.160852432250977,
   21.403270721435547,
   18.072711944580078,
   15.531515121459961,
   13.684915542602539,
   12.058218002319336,
   10.973050117492676,
   10.040298461914062,
   9.2024469375610352,
   8.7006711959838867,
   5.2927064895629883,
   3.979628324508667,
   3.3326797485351562,
   2.7508034706115723,
   2.4602396488189697,
   2.2990937232971191,
   2.1874613761901855,
   1.9730303287506104,
   1.8810514211654663,
   1.2675149440765381,
   1.2399748563766479,
   1.2424107789993286,
   1.0874825716018677,
   1.1331373453140259,
   1.1351675987243652,
   1.0484693050384521,
   1.124301552772522,
   0.97417879104614258,
   1.0058739185333252,
   0.93608129024505615,
   0.93538933992385864,
   1.0205265283584595,
   0.95951384305953979,
   0.89053946733474731,
   0.91519927978515625,
   0.93834447860717773,
   0.92175084352493286,
   0.96765774488449097,
   1.0796884298324585,
   1.0689646005630493,
   0.92709732055664062,
   1.0222247838973999,
   0.96008777618408203,
   0.89812147617340088,
   0.94090813398361206,
   1.1948189735412598
]
