[
   3.8830559253692627,
   3.8794074058532715,
   3.8927321434020996,
   3.8845763206481934,
   3.8875172138214111,
   3.8775761127471924,
   3.8820281028747559,
   3.87835693359375,
   3.8780303001403809,
   3.8804805278778076,
   3.8645241260528564,
   3.8543503284454346,
   3.8393006324768066,
   3.8389675617218018,
   3.8249287605285645,
   3.813845157623291,
   3.8003928661346436,
   3.7999587059020996,
   3.7809262275695801,
   3.6919472217559814,
   3.5983786582946777,
   3.5224184989929199,
   3.4517006874084473,
   3.3863635063171387,
   3.3228416442871094,
   3.2540652751922607,
   3.2026119232177734,
   3.1518924236297607,
   2.7345266342163086,
   2.4468700885772705,
   2.2364468574523926,
   2.0742456912994385,
   1.9316041469573975,
   1.8374109268188477,
   1.7557051181793213,
   1.6896156072616577,
   1.6375248432159424,
   1.3195163011550903,
   1.2229478359222412,
   1.1699368953704834,
   1.1307274103164673,
   1.0907199382781982,
   1.0720146894454956,
   1.0679386854171753,
   1.049328088760376,
   1.0361443758010864,
   0.98643273115158081,
   1.0208243131637573,
   1.0197354555130005,
   0.99548947811126709,
   0.98481351137161255,
   1.0047471523284912,
   1.0038286447525024,
   1.0016140937805176,
   1.0159577131271362,
   1.0419852733612061,
   0.99913483858108521,
   0.9838632345199585,
   1.0102537870407104,
   1.0068864822387695,
   0.94480639696121216,
   0.92488557100296021,
   1.0737956762313843,
   1.0236200094223022
]
