[
   1.666653037071228,
   1.666857123374939,
   1.665919303894043,
   1.6667299270629883,
   1.6655553579330444,
   1.6664447784423828,
   1.6666452884674072,
   1.6637223958969116,
   1.6652123928070068,
   1.6650526523590088,
   1.6644359827041626,
   1.6636488437652588,
   1.663440465927124,
   1.6613471508026123,
   1.6612968444824219,
   1.6604163646697998,
   1.6592448949813843,
   1.658273458480835,
   1.6587117910385132,
   1.6480104923248291,
   1.6427186727523804,
   1.635310173034668,
   1.6263201236724854,
   1.6216529607772827,
   1.6148214340209961,
   1.6081697940826416,
   1.6031672954559326,
   1.5956389904022217,
   1.5472716093063354,
   1.5062119960784912,
   1.4708610773086548,
   1.4408206939697266,
   1.4137133359909058,
   1.3896868228912354,
   1.3671424388885498,
   1.3486090898513794,
   1.3305836915969849,
   1.2157833576202393,
   1.1592819690704346,
   1.1282460689544678,
   1.1050074100494385,
   1.085854172706604,
   1.070298433303833,
   1.0592833757400513,
   1.0534036159515381,
   1.048734188079834,
   1.0121867656707764,
   1.0071544647216797,
   1.0003210306167603,
   0.99870669841766357,
   1.0070548057556152,
   1.007177472114563,
   1.0094075202941895,
   1.0058490037918091,
   0.99746453762054443,
   1.0060857534408569,
   1.0023304224014282,
   1.0044665336608887,
   1.0116379261016846,
   0.98526239395141602,
   0.99318039417266846,
   0.99425995349884033,
   0.95403116941452026,
   0.93694925308227539
]
