[
   2.0810670852661133,
   2.086280345916748,
   2.0809407234191895,
   2.0841536521911621,
   2.0791904926300049,
   2.083167552947998,
   2.0792553424835205,
   2.0801248550415039,
   2.0806756019592285,
   2.0816764831542969,
   2.0778346061706543,
   2.0769495964050293,
   2.0783898830413818,
   2.0736067295074463,
   2.0690345764160156,
   2.0689208507537842,
   2.0644009113311768,
   2.0682003498077393,
   2.0624172687530518,
   2.0452585220336914,
   2.0255913734436035,
   2.0119402408599854,
   1.9963690042495728,
   1.9819952249526978,
   1.9676883220672607,
   1.9535462856292725,
   1.9406172037124634,
   1.9275398254394531,
   1.8215059041976929,
   1.7400753498077393,
   1.6706173419952393,
   1.612209677696228,
   1.5631303787231445,
   1.5193239450454712,
   1.4828423261642456,
   1.4520270824432373,
   1.4235188961029053,
   1.2547433376312256,
   1.1759803295135498,
   1.1329444646835327,
   1.1017510890960693,
   1.0761852264404297,
   1.0609018802642822,
   1.0534787178039551,
   1.0486288070678711,
   1.0379238128662109,
   0.99554890394210815,
   1.0123811960220337,
   1.010357141494751,
   0.99892312288284302,
   0.99224168062210083,
   1.01111900806427,
   0.99606245756149292,
   0.99056321382522583,
   0.99689799547195435,
   0.9859309196472168,
   0.99180585145950317,
   0.99502593278884888,
   0.99458026885986328,
   0.98837029933929443,
   0.99458521604537964,
   1.0265848636627197,
   1.0366580486297607,
   0.92569637298583984
]
