[
   6.9605875015258789,
   6.9752225875854492,
   6.963193416595459,
   6.9717154502868652,
   6.9405641555786133,
   6.9561195373535156,
   6.9523992538452148,
   6.9455652236938477,
   6.9723715782165527,
   6.9325475692749023,
   6.8947844505310059,
   6.848017692565918,
   6.8217682838439941,
   6.7754106521606445,
   6.7516379356384277,
   6.6955275535583496,
   6.674713134765625,
   6.6168832778930664,
   6.5943779945373535,
   6.2317590713500977,
   5.9664192199707031,
   5.7435598373413086,
   5.5015058517456055,
   5.3063302040100098,
   5.1257987022399902,
   4.9500284194946289,
   4.7906923294067383,
   4.67681884765625,
   3.6477928161621094,
   3.0699975490570068,
   2.702545166015625,
   2.4391143321990967,
   2.2516741752624512,
   2.072606086730957,
   1.9509096145629883,
   1.8664487600326538,
   1.7795791625976562,
   1.3875648975372314,
   1.26994788646698,
   1.2082775831222534,
   1.1712343692779541,
   1.1081264019012451,
   1.0820130109786987,
   1.1315720081329346,
   1.0805578231811523,
   1.0824640989303589,
   1.0332615375518799,
   0.9962652325630188,
   0.9795536994934082,
   0.95478075742721558,
   0.96762675046920776,
   0.98026436567306519,
   0.98979663848876953,
   0.98806780576705933,
   0.99329900741577148,
   0.93485033512115479,
   0.97466146945953369,
   1.0303595066070557,
   1.0026419162750244,
   1.0018942356109619,
   0.99433469772338867,
   1.005030632019043,
   0.94571894407272339,
   0.96913224458694458
]
