[
   1.5956639051437378,
   1.5946329832077026,
   1.5956685543060303,
   1.5938824415206909,
   1.5949140787124634,
   1.595308780670166,
   1.5961333513259888,
   1.5955705642700195,
   1.5957274436950684,
   1.5959173440933228,
   1.5950109958648682,
   1.5934996604919434,
   1.5914609432220459,
   1.5918668508529663,
   1.5918101072311401,
   1.5901806354522705,
   1.5902159214019775,
   1.5887610912322998,
   1.5881698131561279,
   1.5819600820541382,
   1.5759049654006958,
   1.5689195394515991,
   1.5632941722869873,
   1.5577648878097534,
   1.5527368783950806,
   1.5488400459289551,
   1.5413334369659424,
   1.537334680557251,
   1.4957902431488037,
   1.4613891839981079,
   1.4313937425613403,
   1.4047784805297852,
   1.380964994430542,
   1.3601516485214233,
   1.3402712345123291,
   1.3238588571548462,
   1.3077640533447266,
   1.2032288312911987,
   1.1536478996276855,
   1.1200530529022217,
   1.0990521907806396,
   1.081579327583313,
   1.0650660991668701,
   1.0547537803649902,
   1.0429974794387817,
   1.0370198488235474,
   1.0062642097473145,
   0.99672871828079224,
   0.99084126949310303,
   0.99288338422775269,
   0.99114066362380981,
   0.99547290802001953,
   0.99722832441329956,
   0.99925887584686279,
   0.9923175573348999,
   1.004133939743042,
   1.0175507068634033,
   1.016179084777832,
   0.99258041381835938,
   0.99554044008255005,
   0.97912657260894775,
   0.95667904615402222,
   0.98354923725128174,
   0.9550471305847168
]
