[
   1.5163817405700684,
   1.5161149501800537,
   1.5167404413223267,
   1.5169864892959595,
   1.5171884298324585,
   1.5173056125640869,
   1.5166265964508057,
   1.5166851282119751,
   1.5152155160903931,
   1.5165408849716187,
   1.5147440433502197,
   1.515310525894165,
   1.5130666494369507,
   1.5144546031951904,
   1.5134158134460449,
   1.5120795965194702,
   1.5118230581283569,
   1.5111109018325806,
   1.5101544857025146,
   1.50493323802948,
   1.500038743019104,
   1.4954546689987183,
   1.4901096820831299,
   1.4856129884719849,
   1.4798238277435303,
   1.4760806560516357,
   1.4723606109619141,
   1.4683756828308105,
   1.43129563331604,
   1.4016851186752319,
   1.3777568340301514,
   1.3564023971557617,
   1.336016058921814,
   1.3186131715774536,
   1.3014880418777466,
   1.2873656749725342,
   1.2736475467681885,
   1.180993914604187,
   1.1308096647262573,
   1.1006267070770264,
   1.07955002784729,
   1.0674570798873901,
   1.0552414655685425,
   1.0455447435379028,
   1.0350929498672485,
   1.0317428112030029,
   1.0170352458953857,
   0.99538838863372803,
   0.99388951063156128,
   0.99872076511383057,
   0.99786156415939331,
   1.0036996603012085,
   1.0049270391464233,
   0.99149388074874878,
   0.99432289600372314,
   0.9806513786315918,
   0.97707062959671021,
   0.97906696796417236,
   1.000490665435791,
   0.99732321500778198,
   1.0237071514129639,
   1.0433617830276489,
   1.0244697332382202,
   1.0154291391372681
]
