[
   1.9359699487686157,
   1.9372761249542236,
   1.9378811120986938,
   1.9392158985137939,
   1.9345111846923828,
   1.9372680187225342,
   1.9356615543365479,
   1.9350302219390869,
   1.9390398263931274,
   1.9371500015258789,
   1.933039665222168,
   1.9317214488983154,
   1.9295318126678467,
   1.9297075271606445,
   1.9283027648925781,
   1.9279340505599976,
   1.924364447593689,
   1.9242610931396484,
   1.9219586849212646,
   1.9085595607757568,
   1.8955757617950439,
   1.8830219507217407,
   1.8738269805908203,
   1.8606946468353271,
   1.848315954208374,
   1.838331937789917,
   1.8292944431304932,
   1.8208925724029541,
   1.7387630939483643,
   1.6721408367156982,
   1.6172411441802979,
   1.5705713033676147,
   1.529104471206665,
   1.4933345317840576,
   1.4637941122055054,
   1.4374556541442871,
   1.4115490913391113,
   1.2552564144134521,
   1.1700031757354736,
   1.1240942478179932,
   1.1062812805175781,
   1.0892412662506104,
   1.0751557350158691,
   1.057099461555481,
   1.0439960956573486,
   1.0426455736160278,
   1.008103609085083,
   0.99714601039886475,
   0.99391430616378784,
   0.99297267198562622,
   0.99393701553344727,
   0.99518889188766479,
   0.99972295761108398,
   1.0011718273162842,
   0.99743062257766724,
   0.99341773986816406,
   0.99254500865936279,
   0.99575746059417725,
   0.96386939287185669,
   1.0062552690505981,
   1.0140254497528076,
   1.0194625854492188,
   1.0073831081390381,
   0.99020165205001831
]
