[
   1.7195718288421631,
   1.7218271493911743,
   1.720280647277832,
   1.7195794582366943,
   1.7216517925262451,
   1.7204383611679077,
   1.7210975885391235,
   1.7193889617919922,
   1.7204214334487915,
   1.7199990749359131,
   1.7166116237640381,
   1.7177488803863525,
   1.7174829244613647,
   1.7158660888671875,
   1.7158505916595459,
   1.7145862579345703,
   1.7139421701431274,
   1.7132270336151123,
   1.7118343114852905,
   1.702646017074585,
   1.6954177618026733,
   1.6879571676254272,
   1.6816734075546265,
   1.6731870174407959,
   1.6670296192169189,
   1.6606073379516602,
   1.6534979343414307,
   1.6474494934082031,
   1.5933129787445068,
   1.5484331846237183,
   1.5107014179229736,
   1.4785225391387939,
   1.4491482973098755,
   1.4238986968994141,
   1.4003862142562866,
   1.379888653755188,
   1.3609751462936401,
   1.2400579452514648,
   1.169757604598999,
   1.1268892288208008,
   1.0989364385604858,
   1.0801088809967041,
   1.0675026178359985,
   1.0577985048294067,
   1.0448886156082153,
   1.0360682010650635,
   1.0107710361480713,
   1.0029551982879639,
   0.99891340732574463,
   0.9959787130355835,
   0.98725759983062744,
   0.99108803272247314,
   1.0013914108276367,
   0.99851858615875244,
   0.98704278469085693,
   0.99031811952590942,
   0.98988944292068481,
   0.97894841432571411,
   0.9745715856552124,
   1.0050075054168701,
   1.0344173908233643,
   1.0120084285736084,
   1.0309998989105225,
   0.99668818712234497
]
