[
   6.3757576942443848,
   6.3866891860961914,
   6.3729047775268555,
   6.3923091888427734,
   6.3686823844909668,
   6.3709936141967773,
   6.3702936172485352,
   6.3698430061340332,
   6.3708391189575195,
   6.3612613677978516,
   6.3149881362915039,
   6.3034601211547852,
   6.2425904273986816,
   6.2161068916320801,
   6.1706719398498535,
   6.1498532295227051,
   6.1353440284729004,
   6.0800485610961914,
   6.0700316429138184,
   5.799896240234375,
   5.5529069900512695,
   5.3660006523132324,
   5.1816244125366211,
   4.9799695014953613,
   4.7907853126525879,
   4.6589345932006836,
   4.5454769134521484,
   4.4003801345825195,
   3.4961559772491455,
   2.9504854679107666,
   2.6115686893463135,
   2.3630020618438721,
   2.1758196353912354,
   2.0164589881896973,
   1.9031765460968018,
   1.8081550598144531,
   1.7296168804168701,
   1.3597288131713867,
   1.1882129907608032,
   1.1234567165374756,
   1.0884816646575928,
   1.0780031681060791,
   1.080593466758728,
   1.0888415575027466,
   1.0254207849502563,
   0.99678105115890503,
   1.0068666934967041,
   1.0482726097106934,
   0.99330347776412964,
   0.96008473634719849,
   1.0188744068145752,
   1.0397754907608032,
   0.98006069660186768,
   0.97170341014862061,
   0.97999793291091919,
   0.95860004425048828,
   1.0099301338195801,
   0.96314561367034912,
   0.9886816143989563,
   0.96208637952804565,
   1.0521484613418579,
   0.98952454328536987,
   1.0795316696166992,
   0.8901335597038269
]
