[
   1.4421687126159668,
   1.4425859451293945,
   1.4420104026794434,
   1.441320538520813,
   1.441906213760376,
   1.4423120021820068,
   1.4417240619659424,
   1.4423884153366089,
   1.4417436122894287,
   1.4418855905532837,
   1.4418278932571411,
   1.441347599029541,
   1.4405742883682251,
   1.4399505853652954,
   1.4404914379119873,
   1.4397133588790894,
   1.4391450881958008,
   1.4393126964569092,
   1.43855881690979,
   1.4339895248413086,
   1.4313119649887085,
   1.4273021221160889,
   1.4245188236236572,
   1.4207216501235962,
   1.4171037673950195,
   1.4138591289520264,
   1.4102537631988525,
   1.4083762168884277,
   1.3820399045944214,
   1.3597307205200195,
   1.3401857614517212,
   1.3234440088272095,
   1.3085663318634033,
   1.2949340343475342,
   1.2815887928009033,
   1.2701963186264038,
   1.259777307510376,
   1.1845741271972656,
   1.1395213603973389,
   1.1082748174667358,
   1.0840269327163696,
   1.0669596195220947,
   1.0548994541168213,
   1.045732855796814,
   1.0363346338272095,
   1.0323512554168701,
   1.005868673324585,
   0.99720752239227295,
   1.0028946399688721,
   1.0005724430084229,
   0.99210798740386963,
   0.99241316318511963,
   0.99581384658813477,
   0.98561173677444458,
   0.99111336469650269,
   0.99614065885543823,
   1.0078607797622681,
   0.99625790119171143,
   1.0043761730194092,
   0.9920724630355835,
   0.97977674007415771,
   1.0090348720550537,
   1.0622285604476929,
   0.99410992860794067
]
