[
   2.8183331489562988,
   2.8169112205505371,
   2.8145127296447754,
   2.8179740905761719,
   2.8136920928955078,
   2.8173556327819824,
   2.8169643878936768,
   2.8134410381317139,
   2.8127176761627197,
   2.816490650177002,
   2.8059792518615723,
   2.8087592124938965,
   2.7984457015991211,
   2.790891170501709,
   2.7893931865692139,
   2.7924020290374756,
   2.7846570014953613,
   2.7793679237365723,
   2.7735562324523926,
   2.7343523502349854,
   2.7012245655059814,
   2.6622886657714844,
   2.6307611465454102,
   2.5985100269317627,
   2.5604205131530762,
   2.5349195003509521,
   2.5109190940856934,
   2.4857025146484375,
   2.2695755958557129,
   2.1051220893859863,
   1.9812326431274414,
   1.8808704614639282,
   1.7990608215332031,
   1.7258360385894775,
   1.6706346273422241,
   1.6136257648468018,
   1.57404625415802,
   1.3162589073181152,
   1.2260847091674805,
   1.1635173559188843,
   1.1219966411590576,
   1.1074597835540771,
   1.0805176496505737,
   1.0685341358184814,
   1.0527429580688477,
   1.0584847927093506,
   1.0200573205947876,
   1.0286015272140503,
   0.97667759656906128,
   0.99461984634399414,
   0.99950885772705078,
   1.021699070930481,
   0.99373656511306763,
   1.000046968460083,
   1.0070133209228516,
   1.0142848491668701,
   0.99981182813644409,
   1.0305781364440918,
   1.0262418985366821,
   1.0132143497467041,
   0.95001524686813354,
   0.98837870359420776,
   0.89772593975067139,
   0.88590538501739502
]
