[
   35.287765502929688,
   35.248653411865234,
   34.997425079345703,
   34.891159057617188,
   34.789173126220703,
   34.723804473876953,
   34.794551849365234,
   34.498004913330078,
   34.244308471679688,
   34.445499420166016,
   33.264427185058594,
   32.547687530517578,
   31.382923126220703,
   30.468852996826172,
   29.822198867797852,
   29.041711807250977,
   28.084552764892578,
   27.519598007202148,
   27.138864517211914,
   21.705104827880859,
   18.466640472412109,
   15.86768913269043,
   14.140325546264648,
   12.773322105407715,
   11.412749290466309,
   10.319162368774414,
   9.3867111206054688,
   8.8164310455322266,
   5.4307475090026855,
   4.1009922027587891,
   3.4435710906982422,
   2.9725093841552734,
   2.6948394775390625,
   2.4245104789733887,
   2.1238231658935547,
   1.9960120916366577,
   1.902309775352478,
   1.4917380809783936,
   1.2673566341400146,
   1.2524487972259521,
   1.1973639726638794,
   1.084763765335083,
   1.1956498622894287,
   1.0880258083343506,
   1.1436605453491211,
   1.0078917741775513,
   1.0197405815124512,
   0.84930151700973511,
   0.98628914356231689,
   0.885234534740448,
   0.97521239519119263,
   0.94771605730056763,
   1.0172315835952759,
   0.88555848598480225,
   0.91580647230148315,
   1.1027002334594727,
   0.95859497785568237,
   0.97232264280319214,
   1.1003761291503906,
   0.9966353178024292,
   1.1047571897506714,
   1.1157914400100708,
   1.3246066570281982,
   1.1731351613998413
]
