[
   1.4944698810577393,
   1.4926716089248657,
   1.4935214519500732,
   1.4938656091690063,
   1.49372398853302,
   1.4926662445068359,
   1.4932140111923218,
   1.4930464029312134,
   1.4930436611175537,
   1.4928369522094727,
   1.49204421043396,
   1.4923206567764282,
   1.4915106296539307,
   1.4912204742431641,
   1.4902377128601074,
   1.4894863367080688,
   1.490225076675415,
   1.4899013042449951,
   1.4889742136001587,
   1.4844297170639038,
   1.479683518409729,
   1.4766147136688232,
   1.4719870090484619,
   1.4683685302734375,
   1.4646532535552979,
   1.4605391025543213,
   1.4577308893203735,
   1.4544346332550049,
   1.4237462282180786,
   1.3985815048217773,
   1.3762890100479126,
   1.3573257923126221,
   1.3388642072677612,
   1.3227694034576416,
   1.3086541891098022,
   1.2957874536514282,
   1.2829452753067017,
   1.2044628858566284,
   1.1538927555084229,
   1.1206600666046143,
   1.0976108312606812,
   1.0808790922164917,
   1.0684478282928467,
   1.0608762502670288,
   1.0507144927978516,
   1.047304630279541,
   1.00441575050354,
   1.0019634962081909,
   0.99559050798416138,
   0.99171513319015503,
   0.98863232135772705,
   1.006676197052002,
   1.0099823474884033,
   1.0017044544219971,
   0.99885571002960205,
   0.99207907915115356,
   0.98785161972045898,
   1.0005620718002319,
   0.99980068206787109,
   0.99098145961761475,
   1.0004010200500488,
   1.0130894184112549,
   1.0158885717391968,
   0.98500984907150269
]
