[
   1.5731425285339355,
   1.5725120306015015,
   1.5738128423690796,
   1.5723695755004883,
   1.5723040103912354,
   1.5732517242431641,
   1.5744471549987793,
   1.5714387893676758,
   1.5727536678314209,
   1.5728365182876587,
   1.5716925859451294,
   1.5711908340454102,
   1.5710619688034058,
   1.5702039003372192,
   1.5701426267623901,
   1.56876540184021,
   1.5683009624481201,
   1.5681278705596924,
   1.5676348209381104,
   1.5626190900802612,
   1.5568535327911377,
   1.5514481067657471,
   1.5457847118377686,
   1.5418721437454224,
   1.538068413734436,
   1.5333607196807861,
   1.5290956497192383,
   1.5256513357162476,
   1.4877606630325317,
   1.4560800790786743,
   1.4305508136749268,
   1.4061131477355957,
   1.386742115020752,
   1.3670628070831299,
   1.3506791591644287,
   1.3348720073699951,
   1.3209602832794189,
   1.2227579355239868,
   1.1661463975906372,
   1.1250942945480347,
   1.0962969064712524,
   1.0785485506057739,
   1.0661804676055908,
   1.0602587461471558,
   1.0547764301300049,
   1.0523731708526611,
   1.0228904485702515,
   1.0069023370742798,
   1.0002267360687256,
   0.99225139617919922,
   0.9887884259223938,
   0.98725545406341553,
   0.99294120073318481,
   0.99148881435394287,
   0.99274748563766479,
   1.0062549114227295,
   0.9935871958732605,
   1.0195713043212891,
   0.995796799659729,
   0.99523705244064331,
   0.97181308269500732,
   1.0129151344299316,
   0.97762548923492432,
   0.94976204633712769
]
