[
   3.7596714496612549,
   3.761354923248291,
   3.7550976276397705,
   3.7538485527038574,
   3.7597858905792236,
   3.7622890472412109,
   3.7546887397766113,
   3.7583038806915283,
   3.7674756050109863,
   3.7470970153808594,
   3.742215633392334,
   3.744340181350708,
   3.7188878059387207,
   3.7173926830291748,
   3.7072505950927734,
   3.6923415660858154,
   3.6982109546661377,
   3.6755988597869873,
   3.6733660697937012,
   3.5840644836425781,
   3.5107796192169189,
   3.4426517486572266,
   3.3743762969970703,
   3.3081119060516357,
   3.2528271675109863,
   3.2009227275848389,
   3.1500744819641113,
   3.093116283416748,
   2.6952593326568604,
   2.4329228401184082,
   2.2293288707733154,
   2.0860910415649414,
   1.9584987163543701,
   1.8662278652191162,
   1.78224778175354,
   1.7139087915420532,
   1.6561956405639648,
   1.3362247943878174,
   1.2262660264968872,
   1.1624102592468262,
   1.1148808002471924,
   1.0968610048294067,
   1.0799020528793335,
   1.062396764755249,
   1.0463745594024658,
   1.0448846817016602,
   1.0053474903106689,
   0.98227787017822266,
   0.99566268920898438,
   1.0048606395721436,
   0.98622703552246094,
   0.99177300930023193,
   1.0156981945037842,
   0.98101884126663208,
   0.97928255796432495,
   0.99334430694580078,
   0.99068641662597656,
   0.97970497608184814,
   1.0239933729171753,
   0.98203003406524658,
   0.98189753293991089,
   0.97625100612640381,
   0.95820629596710205,
   0.94867336750030518
]
