[
   2.3313839435577393,
   2.3318657875061035,
   2.332085132598877,
   2.3339474201202393,
   2.328453540802002,
   2.3326065540313721,
   2.3317575454711914,
   2.326885461807251,
   2.3286623954772949,
   2.3296608924865723,
   2.3244595527648926,
   2.3255002498626709,
   2.3202595710754395,
   2.3160610198974609,
   2.3160183429718018,
   2.3106818199157715,
   2.3090033531188965,
   2.3030645847320557,
   2.2978940010070801,
   2.2708430290222168,
   2.2484946250915527,
   2.2275986671447754,
   2.2067928314208984,
   2.1856653690338135,
   2.1646499633789062,
   2.148125171661377,
   2.1316184997558594,
   2.1142773628234863,
   1.9991276264190674,
   1.9093723297119141,
   1.8360512256622314,
   1.7718979120254517,
   1.719901442527771,
   1.6673215627670288,
   1.6228479146957397,
   1.5827271938323975,
   1.5492757558822632,
   1.3190460205078125,
   1.2233234643936157,
   1.1600759029388428,
   1.1224534511566162,
   1.1007417440414429,
   1.0740365982055664,
   1.0556892156600952,
   1.049360990524292,
   1.0363801717758179,
   0.9940725564956665,
   1.0093392133712769,
   1.0078508853912354,
   0.99906855821609497,
   0.99488365650177002,
   1.0016541481018066,
   0.99780386686325073,
   1.001694917678833,
   1.001293420791626,
   0.97936028242111206,
   0.97904407978057861,
   0.99537307024002075,
   0.98725765943527222,
   1.0000479221343994,
   0.98306721448898315,
   1.0037451982498169,
   1.0452866554260254,
   0.96766245365142822
]
