[
   4.072962760925293,
   4.0763082504272461,
   4.072171688079834,
   4.0682840347290039,
   4.0691771507263184,
   4.0706062316894531,
   4.0733671188354492,
   4.0611352920532227,
   4.0698537826538086,
   4.0733537673950195,
   4.0549664497375488,
   4.0418806076049805,
   4.0360116958618164,
   4.0158958435058594,
   4.0028738975524902,
   3.9958844184875488,
   3.9802308082580566,
   3.9802126884460449,
   3.9634926319122314,
   3.8696353435516357,
   3.7969346046447754,
   3.735715389251709,
   3.6867301464080811,
   3.627657413482666,
   3.5707213878631592,
   3.5372834205627441,
   3.4903233051300049,
   3.449669361114502,
   3.118783712387085,
   2.8748354911804199,
   2.6768450736999512,
   2.5055027008056641,
   2.3606901168823242,
   2.236499547958374,
   2.12898850440979,
   2.0363469123840332,
   1.9490764141082764,
   1.4840824604034424,
   1.285999059677124,
   1.1989759206771851,
   1.1209819316864014,
   1.0856595039367676,
   1.0576658248901367,
   1.0349140167236328,
   1.0299837589263916,
   1.0405780076980591,
   0.99396848678588867,
   0.974892258644104,
   0.97381532192230225,
   0.97577935457229614,
   0.99255335330963135,
   0.97462528944015503,
   1.0069043636322021,
   0.99936759471893311,
   0.97785484790802002,
   0.98729211091995239,
   1.0198025703430176,
   1.0098270177841187,
   1.0455833673477173,
   1.023105263710022,
   0.96618348360061646,
   1.001868724822998,
   0.96109294891357422,
   1.0281187295913696
]
