[
   5.703580379486084,
   5.6717653274536133,
   5.6925005912780762,
   5.6782197952270508,
   5.6539764404296875,
   5.6903986930847168,
   5.6761236190795898,
   5.6527848243713379,
   5.6658411026000977,
   5.6721296310424805,
   5.6393747329711914,
   5.6195459365844727,
   5.6202664375305176,
   5.5854544639587402,
   5.5545148849487305,
   5.5349259376525879,
   5.5166139602661133,
   5.4834499359130859,
   5.4795112609863281,
   5.2940630912780762,
   5.1756815910339355,
   5.0843343734741211,
   4.9578590393066406,
   4.8928818702697754,
   4.7862095832824707,
   4.7112131118774414,
   4.6249856948852539,
   4.5641908645629883,
   3.9901478290557861,
   3.5694065093994141,
   3.2333629131317139,
   2.9491620063781738,
   2.7525300979614258,
   2.5691280364990234,
   2.4058575630187988,
   2.2593238353729248,
   2.1510138511657715,
   1.5599572658538818,
   1.2992074489593506,
   1.1539384126663208,
   1.1073201894760132,
   1.0919578075408936,
   1.0745804309844971,
   1.0568525791168213,
   1.0448062419891357,
   0.99283629655838013,
   0.97926092147827148,
   0.94931936264038086,
   1.0068749189376831,
   0.99772453308105469,
   0.99653750658035278,
   0.97959649562835693,
   0.9301568865776062,
   0.97400027513504028,
   0.96385419368743896,
   1.0001852512359619,
   0.99675083160400391,
   1.0061758756637573,
   0.97485125064849854,
   0.95123785734176636,
   1.0746086835861206,
   0.91223013401031494,
   0.99140489101409912,
   0.98711478710174561
]
