[
   1.4643059968948364,
   1.4646646976470947,
   1.4629414081573486,
   1.4640209674835205,
   1.4647603034973145,
   1.4639227390289307,
   1.4640394449234009,
   1.4646385908126831,
   1.4640552997589111,
   1.4641308784484863,
   1.4617705345153809,
   1.4623056650161743,
   1.4617202281951904,
   1.4616868495941162,
   1.4605844020843506,
   1.4594269990921021,
   1.4597151279449463,
   1.4575076103210449,
   1.458325982093811,
   1.4526704549789429,
   1.4458656311035156,
   1.43989098072052,
   1.4353691339492798,
   1.430858850479126,
   1.4254976511001587,
   1.421718955039978,
   1.4173638820648193,
   1.4136598110198975,
   1.379352331161499,
   1.3526203632354736,
   1.3309108018875122,
   1.3117448091506958,
   1.2956551313400269,
   1.2809407711029053,
   1.2681245803833008,
   1.2555599212646484,
   1.2448724508285522,
   1.1637446880340576,
   1.1168607473373413,
   1.0877894163131714,
   1.0649222135543823,
   1.050228476524353,
   1.0393739938735962,
   1.0327800512313843,
   1.0228973627090454,
   1.0220212936401367,
   1.0031667947769165,
   0.99726521968841553,
   0.99864399433135986,
   0.99628227949142456,
   0.99242770671844482,
   0.98902595043182373,
   0.99293708801269531,
   0.98744553327560425,
   0.98953706026077271,
   0.99292361736297607,
   0.98631924390792847,
   0.97107207775115967,
   0.984943687915802,
   0.99700850248336792,
   1.0279504060745239,
   1.0195862054824829,
   1.0056412220001221,
   1.0523183345794678
]
