[
   1.7026485204696655,
   1.7025501728057861,
   1.6991360187530518,
   1.7012481689453125,
   1.6989692449569702,
   1.7009890079498291,
   1.7002674341201782,
   1.7005672454833984,
   1.7003748416900635,
   1.6997349262237549,
   1.6978660821914673,
   1.6957356929779053,
   1.695845365524292,
   1.6943607330322266,
   1.6947437524795532,
   1.6933629512786865,
   1.690934419631958,
   1.691051721572876,
   1.6880439519882202,
   1.6776630878448486,
   1.6675403118133545,
   1.6580978631973267,
   1.6461894512176514,
   1.6404733657836914,
   1.6319169998168945,
   1.6248115301132202,
   1.6163953542709351,
   1.6099122762680054,
   1.5532909631729126,
   1.5105181932449341,
   1.475441575050354,
   1.445141077041626,
   1.4190380573272705,
   1.3961290121078491,
   1.3740471601486206,
   1.3550925254821777,
   1.3349589109420776,
   1.2179939746856689,
   1.1529946327209473,
   1.11090087890625,
   1.0786756277084351,
   1.0617797374725342,
   1.048311710357666,
   1.0388369560241699,
   1.0330688953399658,
   1.0264979600906372,
   1.0043185949325562,
   0.99753540754318237,
   0.99648571014404297,
   1.0031012296676636,
   1.0110960006713867,
   0.99604034423828125,
   1.0091558694839478,
   1.0046768188476562,
   0.98970109224319458,
   0.99166887998580933,
   1.0043115615844727,
   1.0139619112014771,
   1.0015223026275635,
   0.98709952831268311,
   0.95948868989944458,
   0.98314416408538818,
   1.0249629020690918,
   1.0465030670166016
]
