[
   2.0995731353759766,
   2.1012101173400879,
   2.099348783493042,
   2.1017444133758545,
   2.0994181632995605,
   2.1001946926116943,
   2.0999867916107178,
   2.1028120517730713,
   2.0976309776306152,
   2.0995681285858154,
   2.0983824729919434,
   2.0953459739685059,
   2.0924005508422852,
   2.0910041332244873,
   2.0850601196289062,
   2.0856397151947021,
   2.0803573131561279,
   2.0802206993103027,
   2.0758085250854492,
   2.0567400455474854,
   2.0351457595825195,
   2.0231938362121582,
   2.0044422149658203,
   1.9898570775985718,
   1.9749695062637329,
   1.9591619968414307,
   1.946890115737915,
   1.9367243051528931,
   1.8425182104110718,
   1.7681710720062256,
   1.7080110311508179,
   1.6549246311187744,
   1.6099300384521484,
   1.5730744600296021,
   1.5345437526702881,
   1.504356861114502,
   1.4734796285629272,
   1.2831072807312012,
   1.1863160133361816,
   1.1382507085800171,
   1.0976196527481079,
   1.0718715190887451,
   1.0506618022918701,
   1.0302757024765015,
   1.021781325340271,
   1.0149909257888794,
   1.0004141330718994,
   1.0034639835357666,
   0.99984902143478394,
   1.0032265186309814,
   1.0032720565795898,
   1.0045430660247803,
   0.99640738964080811,
   1.0117237567901611,
   1.0000265836715698,
   1.0129712820053101,
   0.98647689819335938,
   0.99738264083862305,
   0.99676954746246338,
   1.0135452747344971,
   0.99884063005447388,
   1.0046409368515015,
   0.936207115650177,
   0.97347009181976318
]
