[
   1.5395897626876831,
   1.5382134914398193,
   1.538823127746582,
   1.5387775897979736,
   1.5395046472549438,
   1.5390594005584717,
   1.5387909412384033,
   1.5396406650543213,
   1.537999153137207,
   1.5380982160568237,
   1.5362991094589233,
   1.5360715389251709,
   1.5349959135055542,
   1.5332046747207642,
   1.5337799787521362,
   1.531464695930481,
   1.5300178527832031,
   1.5289632081985474,
   1.5276234149932861,
   1.5167363882064819,
   1.5065262317657471,
   1.4977338314056396,
   1.4878402948379517,
   1.479404091835022,
   1.4717681407928467,
   1.4647544622421265,
   1.4574451446533203,
   1.4503656625747681,
   1.4003088474273682,
   1.3629915714263916,
   1.3357635736465454,
   1.3119857311248779,
   1.2914164066314697,
   1.2755434513092041,
   1.2616244554519653,
   1.248761773109436,
   1.2367719411849976,
   1.1531915664672852,
   1.1091122627258301,
   1.0777947902679443,
   1.0608774423599243,
   1.0466016530990601,
   1.0356501340866089,
   1.0264871120452881,
   1.0207617282867432,
   1.0196795463562012,
   1.0003650188446045,
   1.0035603046417236,
   1.0026706457138062,
   0.99387311935424805,
   0.99013423919677734,
   0.98833096027374268,
   0.99406158924102783,
   1.0003101825714111,
   0.99728071689605713,
   1.0001622438430786,
   0.99286574125289917,
   1.0063124895095825,
   1.007560133934021,
   0.99426299333572388,
   0.97827261686325073,
   1.0051921606063843,
   0.98534262180328369,
   0.97281426191329956
]
