[
   3.4225223064422607,
   3.4147334098815918,
   3.4112045764923096,
   3.4171261787414551,
   3.4137225151062012,
   3.4084610939025879,
   3.4123930931091309,
   3.4125411510467529,
   3.4033463001251221,
   3.4093818664550781,
   3.3982391357421875,
   3.3884673118591309,
   3.3773422241210938,
   3.3595790863037109,
   3.348726749420166,
   3.3377425670623779,
   3.3350167274475098,
   3.3181920051574707,
   3.3110003471374512,
   3.2244434356689453,
   3.1340963840484619,
   3.0756278038024902,
   3.0198407173156738,
   2.9746279716491699,
   2.924548864364624,
   2.8885188102722168,
   2.8505148887634277,
   2.815326452255249,
   2.5484151840209961,
   2.3709101676940918,
   2.2348628044128418,
   2.1251192092895508,
   2.0288383960723877,
   1.9414503574371338,
   1.8701431751251221,
   1.8057359457015991,
   1.7529569864273071,
   1.4026103019714355,
   1.2534207105636597,
   1.1839958429336548,
   1.137462854385376,
   1.0943453311920166,
   1.0720467567443848,
   1.0680462121963501,
   1.0485900640487671,
   1.0363547801971436,
   0.99312174320220947,
   0.98816174268722534,
   0.97534430027008057,
   0.96723240613937378,
   0.99234551191329956,
   1.0086433887481689,
   0.98989009857177734,
   0.99963903427124023,
   1.0047832727432251,
   0.99786746501922607,
   0.99491560459136963,
   0.998695969581604,
   0.99265992641448975,
   0.98256045579910278,
   0.98538744449615479,
   0.95837914943695068,
   0.93463438749313354,
   0.89801633358001709
]
