[
   13.150090217590332,
   13.185635566711426,
   13.152284622192383,
   13.17512035369873,
   13.158658981323242,
   13.120755195617676,
   13.129777908325195,
   13.122861862182617,
   13.035207748413086,
   13.049970626831055,
   12.83387279510498,
   12.796819686889648,
   12.669431686401367,
   12.53291130065918,
   12.485836029052734,
   12.298122406005859,
   12.256405830383301,
   12.121156692504883,
   11.969751358032227,
   11.421014785766602,
   10.706455230712891,
   10.287135124206543,
   9.9012928009033203,
   9.4457502365112305,
   9.2006587982177734,
   8.9911565780639648,
   8.6838092803955078,
   8.4753656387329102,
   6.540708065032959,
   5.4076848030090332,
   4.6188545227050781,
   4.1046090126037598,
   3.6947512626647949,
   3.3154110908508301,
   3.0486352443695068,
   2.8110232353210449,
   2.6521453857421875,
   1.7422549724578857,
   1.4240477085113525,
   1.3059661388397217,
   1.1914142370223999,
   1.0679662227630615,
   1.0737797021865845,
   1.1228448152542114,
   1.1537845134735107,
   1.0983904600143433,
   0.97219771146774292,
   0.97567909955978394,
   0.91937792301177979,
   0.89879292249679565,
   1.0083733797073364,
   1.0356910228729248,
   0.99388581514358521,
   1.02705979347229,
   1.0184892416000366,
   0.92915743589401245,
   1.0382860898971558,
   0.98220336437225342,
   0.9761011004447937,
   1.0069310665130615,
   0.98967540264129639,
   0.85978376865386963,
   0.80553781986236572,
   0.92166393995285034
]
