[
   6.5733985900878906,
   6.5816230773925781,
   6.5795044898986816,
   6.5865187644958496,
   6.5714402198791504,
   6.5729727745056152,
   6.5841293334960938,
   6.5612168312072754,
   6.5263338088989258,
   6.5562758445739746,
   6.4938840866088867,
   6.4584627151489258,
   6.4446310997009277,
   6.3800725936889648,
   6.3592405319213867,
   6.3201141357421875,
   6.296104907989502,
   6.226860523223877,
   6.2104606628417969,
   5.980466365814209,
   5.7041206359863281,
   5.5483951568603516,
   5.400996208190918,
   5.2548074722290039,
   5.1447138786315918,
   5.0700235366821289,
   4.9623756408691406,
   4.8603382110595703,
   4.1278185844421387,
   3.6529548168182373,
   3.2926170825958252,
   3.0098979473114014,
   2.7982330322265625,
   2.5999588966369629,
   2.4538264274597168,
   2.3215973377227783,
   2.2058882713317871,
   1.577622652053833,
   1.3457553386688232,
   1.2509709596633911,
   1.1663103103637695,
   1.0902491807937622,
   1.0830578804016113,
   1.0973029136657715,
   1.0805058479309082,
   1.0677663087844849,
   0.99230754375457764,
   0.98554277420043945,
   0.95220983028411865,
   0.94125825166702271,
   0.98931264877319336,
   1.0146327018737793,
   0.99630892276763916,
   0.99668610095977783,
   0.99840831756591797,
   0.99036484956741333,
   1.0018606185913086,
   0.98473250865936279,
   0.96014177799224854,
   0.9850698709487915,
   0.97946071624755859,
   0.9253535270690918,
   0.86749964952468872,
   0.92044639587402344
]
