[
   1.8893625736236572,
   1.888153076171875,
   1.8855626583099365,
   1.8880926370620728,
   1.8881700038909912,
   1.8846263885498047,
   1.8841953277587891,
   1.8843454122543335,
   1.8869283199310303,
   1.8857605457305908,
   1.8832376003265381,
   1.8809388875961304,
   1.8750302791595459,
   1.8745052814483643,
   1.8720299005508423,
   1.8700647354125977,
   1.8680791854858398,
   1.862911581993103,
   1.862949013710022,
   1.8405698537826538,
   1.8230984210968018,
   1.8021476268768311,
   1.7859798669815063,
   1.7721712589263916,
   1.7580016851425171,
   1.7425771951675415,
   1.7332195043563843,
   1.7220537662506104,
   1.6365493535995483,
   1.5755902528762817,
   1.5323748588562012,
   1.4946101903915405,
   1.4608203172683716,
   1.4297592639923096,
   1.4021247625350952,
   1.3798353672027588,
   1.3617837429046631,
   1.2208724021911621,
   1.1599540710449219,
   1.1187087297439575,
   1.0943101644515991,
   1.0710593461990356,
   1.0496271848678589,
   1.0371469259262085,
   1.0323829650878906,
   1.0251178741455078,
   0.99811792373657227,
   1.0010859966278076,
   1.0023154020309448,
   0.99148368835449219,
   0.99183225631713867,
   1.0123018026351929,
   0.99400508403778076,
   1.0004444122314453,
   0.99822646379470825,
   1.0051290988922119,
   0.96703565120697021,
   0.99471604824066162,
   0.98673093318939209,
   1.0027446746826172,
   1.0042574405670166,
   1.0215291976928711,
   1.0392026901245117,
   1.0178899765014648
]
