[
   2.4124562740325928,
   2.4101417064666748,
   2.410456657409668,
   2.4103612899780273,
   2.4087803363800049,
   2.4070889949798584,
   2.4098684787750244,
   2.4052281379699707,
   2.4069151878356934,
   2.4049942493438721,
   2.3971467018127441,
   2.3925600051879883,
   2.387951135635376,
   2.3779394626617432,
   2.3741734027862549,
   2.3670995235443115,
   2.3603799343109131,
   2.3572359085083008,
   2.353766918182373,
   2.2983520030975342,
   2.2461006641387939,
   2.2056078910827637,
   2.1708447933197021,
   2.1364703178405762,
   2.101259708404541,
   2.0795488357543945,
   2.0497217178344727,
   2.0249409675598145,
   1.8549340963363647,
   1.7463935613632202,
   1.6579856872558594,
   1.5932483673095703,
   1.5405786037445068,
   1.4946402311325073,
   1.4503535032272339,
   1.4122047424316406,
   1.3831862211227417,
   1.1938557624816895,
   1.0990357398986816,
   1.0591417551040649,
   1.0310875177383423,
   1.0210716724395752,
   1.0113682746887207,
   1.0014959573745728,
   0.99561882019042969,
   1.0026061534881592,
   1.0001852512359619,
   1.0044618844985962,
   1.0089683532714844,
   0.98713892698287964,
   0.98584651947021484,
   1.0027731657028198,
   0.99623072147369385,
   0.98730790615081787,
   1.003232479095459,
   0.99287700653076172,
   0.99432355165481567,
   1.0020827054977417,
   0.99796640872955322,
   1.0047305822372437,
   1.0171502828598022,
   1.0298380851745605,
   1.0088249444961548,
   1.0381700992584229
]
