[
   5.1907434463500977,
   5.2009215354919434,
   5.1847109794616699,
   5.1824541091918945,
   5.1785640716552734,
   5.1876001358032227,
   5.1602544784545898,
   5.1762290000915527,
   5.1669607162475586,
   5.1569304466247559,
   5.1328926086425781,
   5.1120190620422363,
   5.0543222427368164,
   5.0271754264831543,
   5.003687858581543,
   4.9873805046081543,
   4.9451494216918945,
   4.9051971435546875,
   4.8907346725463867,
   4.6552214622497559,
   4.4590005874633789,
   4.342076301574707,
   4.2034597396850586,
   4.093968391418457,
   3.991225004196167,
   3.9096240997314453,
   3.8289551734924316,
   3.7616057395935059,
   3.254364013671875,
   2.9367532730102539,
   2.6693003177642822,
   2.4612495899200439,
   2.2994942665100098,
   2.1654090881347656,
   2.0516848564147949,
   1.9440555572509766,
   1.8676426410675049,
   1.3359230756759644,
   1.204216480255127,
   1.115573525428772,
   1.0599243640899658,
   1.0293800830841064,
   1.0249772071838379,
   1.0309364795684814,
   1.0119466781616211,
   1.0014445781707764,
   0.96503221988677979,
   1.0119930505752563,
   0.98354166746139526,
   0.93700885772705078,
   1.0011392831802368,
   0.97142380475997925,
   0.96829253435134888,
   1.0159839391708374,
   1.0079009532928467,
   0.97767466306686401,
   1.0056458711624146,
   0.97217357158660889,
   1.0043255090713501,
   1.0157835483551025,
   0.92677611112594604,
   1.0532044172286987,
   1.0543534755706787,
   1.0505902767181396
]
