[
   8.5283088684082031,
   8.5032157897949219,
   8.5004405975341797,
   8.451838493347168,
   8.4619808197021484,
   8.4774417877197266,
   8.4875354766845703,
   8.4600400924682617,
   8.4540395736694336,
   8.4421253204345703,
   8.332921028137207,
   8.2877101898193359,
   8.2082710266113281,
   8.1378116607666016,
   8.0648412704467773,
   7.9977807998657227,
   7.9085397720336914,
   7.8176217079162598,
   7.7654900550842285,
   7.3014740943908691,
   6.9188766479492188,
   6.6407599449157715,
   6.4295525550842285,
   6.2280397415161133,
   6.0229578018188477,
   5.8800287246704102,
   5.7331247329711914,
   5.6053895950317383,
   4.7133474349975586,
   4.0940055847167969,
   3.6784210205078125,
   3.3407421112060547,
   3.0433173179626465,
   2.8088033199310303,
   2.6115078926086426,
   2.4309453964233398,
   2.3129127025604248,
   1.5295474529266357,
   1.2812540531158447,
   1.1428825855255127,
   1.0791984796524048,
   1.0231120586395264,
   1.0058796405792236,
   1.0308243036270142,
   0.99327486753463745,
   1.0028356313705444,
   0.94695299863815308,
   1.0039987564086914,
   1.0081040859222412,
   1.0209524631500244,
   0.9719732403755188,
   1.0275143384933472,
   0.99766749143600464,
   0.98341667652130127,
   1.0161169767379761,
   0.96608626842498779,
   0.96071082353591919,
   1.0577386617660522,
   0.95105618238449097,
   1.0710653066635132,
   1.058788537979126,
   0.95755255222320557,
   0.95976752042770386,
   0.98459368944168091
]
