[
   144.22166442871094,
   144.79463195800781,
   143.74105834960938,
   143.34867858886719,
   141.11102294921875,
   142.10641479492188,
   141.47454833984375,
   135.62825012207031,
   136.74508666992188,
   136.61717224121094,
   129.26821899414062,
   125.16510009765625,
   121.2178955078125,
   118.32798767089844,
   114.20259857177734,
   113.20650482177734,
   113.45944976806641,
   109.54746246337891,
   109.23187255859375,
   95.087226867675781,
   81.407402038574219,
   74.937835693359375,
   70.491188049316406,
   62.837493896484375,
   56.660606384277344,
   51.845985412597656,
   49.823848724365234,
   46.418071746826172,
   25.330463409423828,
   20.648052215576172,
   14.727819442749023,
   10.238001823425293,
   7.6667122840881348,
   8.0737037658691406,
   7.228297233581543,
   5.2139344215393066,
   4.922238826751709,
   1.4107937812805176,
   1.1660628318786621,
   1.5806045532226562,
   1.1040947437286377,
   0.81903541088104248,
   1.4365901947021484,
   0.79998213052749634,
   0.73984867334365845,
   0.92541325092315674,
   0.8514103889465332,
   1.2746102809906006,
   0.56168985366821289,
   1.45102858543396,
   0.80092781782150269,
   0.59881478548049927,
   1.1817927360534668,
   0.64156150817871094,
   0.96784275770187378,
   0.68613183498382568,
   0.94940871000289917,
   1.61936354637146,
   1.0771597623825073,
   0.80313360691070557,
   0.31113982200622559,
   1.3035945892333984,
   1.1053277254104614,
   1.9216512441635132
]
