[
   3.2338886260986328,
   3.2393646240234375,
   3.2281620502471924,
   3.2221131324768066,
   3.2194149494171143,
   3.2307441234588623,
   3.2175624370574951,
   3.2238764762878418,
   3.2264740467071533,
   3.2274150848388672,
   3.2039706707000732,
   3.1919054985046387,
   3.1930582523345947,
   3.1754992008209229,
   3.1568193435668945,
   3.1462802886962891,
   3.1359560489654541,
   3.1224460601806641,
   3.1115119457244873,
   3.0101656913757324,
   2.9241673946380615,
   2.8540768623352051,
   2.7835063934326172,
   2.7280433177947998,
   2.6740434169769287,
   2.6230871677398682,
   2.5894246101379395,
   2.5438404083251953,
   2.2838702201843262,
   2.1013574600219727,
   1.9755274057388306,
   1.8714029788970947,
   1.7744309902191162,
   1.7092587947845459,
   1.6418412923812866,
   1.5902292728424072,
   1.543628454208374,
   1.26466965675354,
   1.1585457324981689,
   1.1103246212005615,
   1.0642753839492798,
   1.0382043123245239,
   1.0306433439254761,
   1.0222764015197754,
   1.0336483716964722,
   1.0227473974227905,
   1.0089088678359985,
   0.98576450347900391,
   0.98384970426559448,
   0.99785059690475464,
   0.98167836666107178,
   1.0070111751556396,
   0.99391728639602661,
   0.96804350614547729,
   1.0044167041778564,
   0.99304884672164917,
   0.98346269130706787,
   1.007128119468689,
   1.0035245418548584,
   0.99988824129104614,
   0.95692968368530273,
   1.0268428325653076,
   0.98801791667938232,
   1.0635818243026733
]
