[
   2.196690559387207,
   2.1970162391662598,
   2.1923432350158691,
   2.1915903091430664,
   2.1923139095306396,
   2.1896126270294189,
   2.1937601566314697,
   2.1896305084228516,
   2.1893026828765869,
   2.1938774585723877,
   2.184312105178833,
   2.1797037124633789,
   2.1758732795715332,
   2.1700563430786133,
   2.166736364364624,
   2.1589300632476807,
   2.159198522567749,
   2.1532015800476074,
   2.149540901184082,
   2.1066293716430664,
   2.066387414932251,
   2.0329225063323975,
   1.9998862743377686,
   1.9764759540557861,
   1.9506324529647827,
   1.9284251928329468,
   1.9051120281219482,
   1.8870502710342407,
   1.7391757965087891,
   1.6460533142089844,
   1.5788592100143433,
   1.5225300788879395,
   1.4761967658996582,
   1.4362778663635254,
   1.4052383899688721,
   1.3735867738723755,
   1.3475593328475952,
   1.1854565143585205,
   1.1129236221313477,
   1.0749913454055786,
   1.046952486038208,
   1.0337009429931641,
   1.0296976566314697,
   1.0249189138412476,
   1.0184084177017212,
   1.0147912502288818,
   0.99989253282546997,
   0.99044817686080933,
   1.0068272352218628,
   0.99988269805908203,
   1.0019652843475342,
   0.99423140287399292,
   1.0056236982345581,
   0.99709808826446533,
   0.9932292103767395,
   1.001150369644165,
   0.98771476745605469,
   0.98128938674926758,
   0.98467826843261719,
   0.98936253786087036,
   0.99327707290649414,
   1.0590155124664307,
   1.0440585613250732,
   1.0060193538665771
]
