[
   1.3337980508804321,
   1.3337749242782593,
   1.3333380222320557,
   1.3334634304046631,
   1.3336236476898193,
   1.3332622051239014,
   1.3329540491104126,
   1.333106517791748,
   1.3339231014251709,
   1.3339344263076782,
   1.3335015773773193,
   1.3328773975372314,
   1.3329746723175049,
   1.3322770595550537,
   1.3321641683578491,
   1.3326089382171631,
   1.3325588703155518,
   1.3319271802902222,
   1.3320945501327515,
   1.3303978443145752,
   1.3289650678634644,
   1.3278394937515259,
   1.3261847496032715,
   1.3245031833648682,
   1.3230420351028442,
   1.3215501308441162,
   1.3210790157318115,
   1.3192660808563232,
   1.3080769777297974,
   1.2979404926300049,
   1.2888600826263428,
   1.2807726860046387,
   1.2727744579315186,
   1.2655508518218994,
   1.2584834098815918,
   1.2512941360473633,
   1.244318962097168,
   1.1947543621063232,
   1.1608753204345703,
   1.1352256536483765,
   1.1277115345001221,
   1.110187292098999,
   1.0959689617156982,
   1.0844012498855591,
   1.0738381147384644,
   1.0660929679870605,
   1.0246944427490234,
   1.0145156383514404,
   1.0073807239532471,
   1.0185190439224243,
   1.0113717317581177,
   1.0033704042434692,
   0.99346792697906494,
   0.99158841371536255,
   0.99633562564849854,
   0.98486196994781494,
   0.98369663953781128,
   0.99726879596710205,
   0.9900280237197876,
   1.0014184713363647,
   0.99166905879974365,
   1.0240679979324341,
   1.0373470783233643,
   1.0533974170684814
]
