[
   1.647081732749939,
   1.6474078893661499,
   1.6475321054458618,
   1.6480153799057007,
   1.6471891403198242,
   1.6477581262588501,
   1.6475464105606079,
   1.6480367183685303,
   1.6472269296646118,
   1.6467355489730835,
   1.6452643871307373,
   1.6441042423248291,
   1.6453506946563721,
   1.6451402902603149,
   1.6444785594940186,
   1.643429160118103,
   1.6423895359039307,
   1.6423517465591431,
   1.6422481536865234,
   1.6380608081817627,
   1.6323511600494385,
   1.6270797252655029,
   1.6238170862197876,
   1.6199369430541992,
   1.6155107021331787,
   1.611437201499939,
   1.6077804565429688,
   1.6032650470733643,
   1.5698573589324951,
   1.5392727851867676,
   1.5118680000305176,
   1.4879171848297119,
   1.4666184186935425,
   1.4443334341049194,
   1.425262451171875,
   1.4090108871459961,
   1.3945971727371216,
   1.2778416872024536,
   1.2089414596557617,
   1.1680269241333008,
   1.137157678604126,
   1.1143167018890381,
   1.0958826541900635,
   1.0833264589309692,
   1.0729234218597412,
   1.0614759922027588,
   1.01991868019104,
   1.0153515338897705,
   1.006145715713501,
   1.0042029619216919,
   0.99009811878204346,
   0.99426746368408203,
   1.003470778465271,
   0.98983651399612427,
   0.99262142181396484,
   1.0060608386993408,
   0.99890315532684326,
   0.98713570833206177,
   1.0164980888366699,
   0.98899328708648682,
   1.0220267772674561,
   0.98976260423660278,
   0.98890626430511475,
   1.0652816295623779
]
