[
   9.4212026596069336,
   9.3837490081787109,
   9.4022426605224609,
   9.3988895416259766,
   9.3679094314575195,
   9.4043025970458984,
   9.3653564453125,
   9.3440380096435547,
   9.3357009887695312,
   9.3482084274291992,
   9.3024969100952148,
   9.2410984039306641,
   9.1692256927490234,
   9.1298408508300781,
   9.0863246917724609,
   9.0346288681030273,
   8.9823331832885742,
   8.9556007385253906,
   8.8823690414428711,
   8.5103063583374023,
   8.0605354309082031,
   7.7342138290405273,
   7.4086127281188965,
   7.1536149978637695,
   6.8905425071716309,
   6.6328086853027344,
   6.3943476676940918,
   6.2357606887817383,
   4.7412352561950684,
   3.8897750377655029,
   3.3850197792053223,
   3.0104286670684814,
   2.7563459873199463,
   2.5542349815368652,
   2.4002299308776855,
   2.252241849899292,
   2.1807565689086914,
   1.5438799858093262,
   1.3278329372406006,
   1.1993858814239502,
   1.1620650291442871,
   1.1304569244384766,
   1.1137398481369019,
   1.0783132314682007,
   1.0885173082351685,
   1.0214811563491821,
   0.98456418514251709,
   1.0112040042877197,
   1.00141441822052,
   0.96920222043991089,
   1.0177561044692993,
   0.95978879928588867,
   1.0228497982025146,
   0.99240237474441528,
   0.98790395259857178,
   1.0438148975372314,
   0.87533581256866455,
   0.93419551849365234,
   0.92640084028244019,
   0.9470595121383667,
   1.0367695093154907,
   1.0652743577957153,
   1.0906380414962769,
   1.0574644804000854
]
