[
   1.5634479522705078,
   1.56160569190979,
   1.5620641708374023,
   1.5620721578598022,
   1.5624352693557739,
   1.5632984638214111,
   1.5624288320541382,
   1.5646021366119385,
   1.5629036426544189,
   1.562084436416626,
   1.5620962381362915,
   1.5617038011550903,
   1.5611535310745239,
   1.5611478090286255,
   1.5602691173553467,
   1.5597469806671143,
   1.5604588985443115,
   1.5593167543411255,
   1.5583347082138062,
   1.5558249950408936,
   1.5509665012359619,
   1.5484402179718018,
   1.5446131229400635,
   1.5419363975524902,
   1.5383443832397461,
   1.5351134538650513,
   1.5318481922149658,
   1.527988076210022,
   1.5018866062164307,
   1.4777240753173828,
   1.4553649425506592,
   1.437619686126709,
   1.4194341897964478,
   1.4032450914382935,
   1.3881642818450928,
   1.3724315166473389,
   1.3595306873321533,
   1.2655049562454224,
   1.2046792507171631,
   1.1644768714904785,
   1.1352717876434326,
   1.1128957271575928,
   1.0948289632797241,
   1.0813486576080322,
   1.0692923069000244,
   1.0618996620178223,
   1.0209695100784302,
   1.0076843500137329,
   0.99986445903778076,
   0.99984824657440186,
   0.99914425611495972,
   1.0007880926132202,
   0.99325704574584961,
   0.99108821153640747,
   0.98501789569854736,
   0.99442321062088013,
   0.98590362071990967,
   0.98962116241455078,
   0.99413424730300903,
   1.0122414827346802,
   1.0079338550567627,
   1.0075253248214722,
   1.0231783390045166,
   1.0278326272964478
]
