[
   1.8048193454742432,
   1.8062553405761719,
   1.8061542510986328,
   1.804949164390564,
   1.804823637008667,
   1.8057506084442139,
   1.8045723438262939,
   1.8045469522476196,
   1.8056566715240479,
   1.8044255971908569,
   1.8038803339004517,
   1.8045456409454346,
   1.8022760152816772,
   1.8029897212982178,
   1.8027187585830688,
   1.7995592355728149,
   1.7994371652603149,
   1.7978338003158569,
   1.7988736629486084,
   1.7920751571655273,
   1.7849538326263428,
   1.779832124710083,
   1.774852991104126,
   1.7675399780273438,
   1.7628192901611328,
   1.7570934295654297,
   1.7521623373031616,
   1.7475324869155884,
   1.7017972469329834,
   1.6606695652008057,
   1.6278451681137085,
   1.5968608856201172,
   1.5683956146240234,
   1.5406148433685303,
   1.5158631801605225,
   1.49371337890625,
   1.4745301008224487,
   1.333930492401123,
   1.2591983079910278,
   1.2101285457611084,
   1.1752325296401978,
   1.1425149440765381,
   1.1255557537078857,
   1.1111522912979126,
   1.0988681316375732,
   1.0875742435455322,
   1.0453536510467529,
   1.0248763561248779,
   1.0247806310653687,
   1.0098799467086792,
   1.012495756149292,
   1.0054587125778198,
   1.0102255344390869,
   0.99543368816375732,
   0.99467837810516357,
   0.98456543684005737,
   0.98028028011322021,
   0.99177014827728271,
   0.99245560169219971,
   1.0182262659072876,
   1.0029206275939941,
   1.0343612432479858,
   1.013512134552002,
   0.95587939023971558
]
