[
   3.348710298538208,
   3.3423035144805908,
   3.3530833721160889,
   3.3495426177978516,
   3.3496875762939453,
   3.348513126373291,
   3.3520750999450684,
   3.3485729694366455,
   3.3444430828094482,
   3.3421311378479004,
   3.3366019725799561,
   3.3290774822235107,
   3.329460620880127,
   3.3262221813201904,
   3.3166718482971191,
   3.3123695850372314,
   3.3072295188903809,
   3.3032708168029785,
   3.2940726280212402,
   3.2604267597198486,
   3.2157139778137207,
   3.1738126277923584,
   3.1318404674530029,
   3.1007370948791504,
   3.0657439231872559,
   3.027794361114502,
   2.9927487373352051,
   2.9658269882202148,
   2.7040793895721436,
   2.4945907592773438,
   2.3371562957763672,
   2.2049236297607422,
   2.0883009433746338,
   2.0022120475769043,
   1.922041654586792,
   1.8480592966079712,
   1.7939186096191406,
   1.4385312795639038,
   1.2996983528137207,
   1.2269905805587769,
   1.1897056102752686,
   1.1420247554779053,
   1.1275569200515747,
   1.0973268747329712,
   1.0934327840805054,
   1.0986258983612061,
   1.0143954753875732,
   1.0443195104598999,
   1.012001633644104,
   1.008493185043335,
   0.99872511625289917,
   0.99367082118988037,
   0.99214613437652588,
   0.98226994276046753,
   1.01910400390625,
   1.0175467729568481,
   0.9762190580368042,
   0.94174039363861084,
   1.0314319133758545,
   0.98062753677368164,
   0.98741137981414795,
   1.019328236579895,
   0.95394706726074219,
   0.92511481046676636
]
