[
   1.3653287887573242,
   1.3648626804351807,
   1.3645164966583252,
   1.3647446632385254,
   1.3652399778366089,
   1.3647496700286865,
   1.3641438484191895,
   1.3640639781951904,
   1.3653408288955688,
   1.3652669191360474,
   1.3646979331970215,
   1.364112377166748,
   1.3641183376312256,
   1.3634817600250244,
   1.3634058237075806,
   1.3638088703155518,
   1.3635430335998535,
   1.3631155490875244,
   1.3628871440887451,
   1.361270546913147,
   1.3594039678573608,
   1.3581418991088867,
   1.3563177585601807,
   1.3542718887329102,
   1.3527965545654297,
   1.3509424924850464,
   1.3503404855728149,
   1.3484780788421631,
   1.3358200788497925,
   1.3238036632537842,
   1.3136380910873413,
   1.3043420314788818,
   1.295331597328186,
   1.2868238687515259,
   1.2788017988204956,
   1.2707043886184692,
   1.2631180286407471,
   1.2079223394393921,
   1.1708810329437256,
   1.1435669660568237,
   1.1317484378814697,
   1.1132346391677856,
   1.098034143447876,
   1.0859296321868896,
   1.0747679471969604,
   1.0670530796051025,
   1.0242369174957275,
   1.0148298740386963,
   1.0081624984741211,
   1.0180510282516479,
   1.011587381362915,
   1.0033814907073975,
   0.99412745237350464,
   0.98995143175125122,
   0.99590504169464111,
   0.98410016298294067,
   0.98192250728607178,
   0.99749535322189331,
   0.988494873046875,
   1.0012942552566528,
   0.99124753475189209,
   1.0243260860443115,
   1.0371285676956177,
   1.0545108318328857
]
