[
   2.184208869934082,
   2.1779642105102539,
   2.1781306266784668,
   2.1799366474151611,
   2.1792645454406738,
   2.1766138076782227,
   2.1777963638305664,
   2.179011344909668,
   2.1787295341491699,
   2.1777892112731934,
   2.175142765045166,
   2.1764135360717773,
   2.1718478202819824,
   2.1684651374816895,
   2.1686387062072754,
   2.1649925708770752,
   2.1651825904846191,
   2.1623311042785645,
   2.1600046157836914,
   2.1414306163787842,
   2.1257948875427246,
   2.1086461544036865,
   2.0924868583679199,
   2.0779147148132324,
   2.0653426647186279,
   2.0495414733886719,
   2.0340194702148438,
   2.0232019424438477,
   1.9113152027130127,
   1.8270254135131836,
   1.7519973516464233,
   1.6972591876983643,
   1.6446993350982666,
   1.5971938371658325,
   1.5610141754150391,
   1.5286431312561035,
   1.4967471361160278,
   1.3018798828125,
   1.2081162929534912,
   1.1567478179931641,
   1.1237423419952393,
   1.1019512414932251,
   1.0751655101776123,
   1.0672092437744141,
   1.0598047971725464,
   1.0511568784713745,
   1.0197899341583252,
   0.99949139356613159,
   0.98922395706176758,
   0.99616307020187378,
   1.0035250186920166,
   0.98245012760162354,
   0.9870980978012085,
   0.98488616943359375,
   0.98808801174163818,
   1.0012733936309814,
   1.0127042531967163,
   0.98023021221160889,
   0.98834401369094849,
   0.9949677586555481,
   0.98934972286224365,
   0.98707878589630127,
   0.99552744626998901,
   0.99448662996292114
]
