[
   12.145596504211426,
   12.132795333862305,
   12.103982925415039,
   12.085315704345703,
   12.03753662109375,
   12.123617172241211,
   12.073736190795898,
   11.97047233581543,
   12.041499137878418,
   11.950649261474609,
   11.892805099487305,
   11.781722068786621,
   11.592622756958008,
   11.65457820892334,
   11.470446586608887,
   11.369631767272949,
   11.251900672912598,
   11.22114372253418,
   11.152853012084961,
   10.326615333557129,
   9.6303396224975586,
   9.0517549514770508,
   8.4758367538452148,
   8.0469837188720703,
   7.6516199111938477,
   7.2901411056518555,
   6.9651932716369629,
   6.6734328269958496,
   4.8159942626953125,
   3.8531863689422607,
   3.2207748889923096,
   2.8232400417327881,
   2.5849497318267822,
   2.356088399887085,
   2.2372062206268311,
   2.0664200782775879,
   1.9194463491439819,
   1.4026789665222168,
   1.2393097877502441,
   1.2123210430145264,
   1.173560619354248,
   1.1257129907608032,
   1.1569923162460327,
   1.0675094127655029,
   1.0866518020629883,
   1.0848293304443359,
   1.0000005960464478,
   0.97015190124511719,
   1.0211721658706665,
   0.97986727952957153,
   1.0164948701858521,
   1.0310269594192505,
   0.96455895900726318,
   1.0325586795806885,
   0.98000705242156982,
   0.99181574583053589,
   1.0702484846115112,
   1.0630567073822021,
   1.0203261375427246,
   0.96107864379882812,
   0.98542273044586182,
   1.0005573034286499,
   0.88893973827362061,
   0.95227348804473877
]
