[
   1.8397922515869141,
   1.8381401300430298,
   1.8377807140350342,
   1.8380031585693359,
   1.8404161930084229,
   1.8415262699127197,
   1.8404680490493774,
   1.8396511077880859,
   1.8378293514251709,
   1.8397200107574463,
   1.8394536972045898,
   1.8378483057022095,
   1.8350969552993774,
   1.8337379693984985,
   1.8341783285140991,
   1.8324778079986572,
   1.8313537836074829,
   1.8289428949356079,
   1.8285354375839233,
   1.816910982131958,
   1.8100427389144897,
   1.800546407699585,
   1.7906429767608643,
   1.7827739715576172,
   1.7739620208740234,
   1.7661068439483643,
   1.7586748600006104,
   1.7515876293182373,
   1.6893084049224854,
   1.6374849081039429,
   1.5917084217071533,
   1.5569828748703003,
   1.521947979927063,
   1.4906070232391357,
   1.4665906429290771,
   1.4403371810913086,
   1.4187171459197998,
   1.2781020402908325,
   1.1985794305801392,
   1.1548564434051514,
   1.1244155168533325,
   1.1009682416915894,
   1.0802657604217529,
   1.0695505142211914,
   1.0582094192504883,
   1.0464990139007568,
   1.0112442970275879,
   1.003656268119812,
   1.0068445205688477,
   1.001570463180542,
   0.9945443868637085,
   1.010614275932312,
   1.000230073928833,
   0.99511957168579102,
   0.99889123439788818,
   0.98145103454589844,
   0.99269837141036987,
   0.99983024597167969,
   1.0230598449707031,
   0.9879186749458313,
   0.97190982103347778,
   0.98412549495697021,
   0.99121904373168945,
   0.97605800628662109
]
