[
   1.974442720413208,
   1.9758609533309937,
   1.9748094081878662,
   1.971697211265564,
   1.9730398654937744,
   1.9740844964981079,
   1.9736125469207764,
   1.9733186960220337,
   1.9721704721450806,
   1.9721647500991821,
   1.9715009927749634,
   1.9699752330780029,
   1.9691555500030518,
   1.966705322265625,
   1.9676281213760376,
   1.9643446207046509,
   1.9631826877593994,
   1.960544228553772,
   1.9593855142593384,
   1.9445940256118774,
   1.9339812994003296,
   1.9193928241729736,
   1.9082874059677124,
   1.8985221385955811,
   1.8838789463043213,
   1.8739652633666992,
   1.8671820163726807,
   1.8589702844619751,
   1.7753274440765381,
   1.7081518173217773,
   1.6502863168716431,
   1.6039777994155884,
   1.5630064010620117,
   1.5265871286392212,
   1.494213342666626,
   1.4681578874588013,
   1.4404019117355347,
   1.2830698490142822,
   1.2038724422454834,
   1.1615782976150513,
   1.1278840303421021,
   1.1035052537918091,
   1.0848665237426758,
   1.0697453022003174,
   1.0589337348937988,
   1.0455203056335449,
   1.0102546215057373,
   1.009005069732666,
   0.9991302490234375,
   0.99606066942214966,
   0.98073303699493408,
   0.98903626203536987,
   0.97103464603424072,
   0.98856198787689209,
   0.98646926879882812,
   0.9944838285446167,
   0.98647105693817139,
   0.9972686767578125,
   0.98022377490997314,
   0.99224245548248291,
   0.99643975496292114,
   0.99840819835662842,
   1.0571082830429077,
   1.1322944164276123
]
