[
   6.5734930038452148,
   6.5267157554626465,
   6.5412392616271973,
   6.5449056625366211,
   6.5431432723999023,
   6.5152487754821777,
   6.5427603721618652,
   6.5496482849121094,
   6.5203084945678711,
   6.527125358581543,
   6.4998321533203125,
   6.4573225975036621,
   6.4160652160644531,
   6.3819184303283691,
   6.3362798690795898,
   6.322749137878418,
   6.2805824279785156,
   6.2446632385253906,
   6.209442138671875,
   5.9252519607543945,
   5.6617207527160645,
   5.4527111053466797,
   5.2417125701904297,
   5.0686993598937988,
   4.8823509216308594,
   4.7485833168029785,
   4.5864400863647461,
   4.4603815078735352,
   3.5034282207489014,
   2.9513983726501465,
   2.5932202339172363,
   2.3391954898834229,
   2.1840665340423584,
   2.0330519676208496,
   1.9569337368011475,
   1.8461967706680298,
   1.7657495737075806,
   1.3809446096420288,
   1.2488501071929932,
   1.1768604516983032,
   1.1564288139343262,
   1.1341712474822998,
   1.0811809301376343,
   1.0457903146743774,
   1.0343508720397949,
   1.0487654209136963,
   1.0115562677383423,
   0.98460322618484497,
   0.95757883787155151,
   0.97934520244598389,
   0.99616271257400513,
   0.98211383819580078,
   1.0190427303314209,
   0.98687618970870972,
   0.96151953935623169,
   0.94994050264358521,
   1.0184340476989746,
   1.0060348510742188,
   1.0195988416671753,
   0.97178852558135986,
   1.0159646272659302,
   0.94362294673919678,
   1.0135881900787354,
   0.94064158201217651
]
