[
   1.3760735988616943,
   1.3760219812393188,
   1.3757021427154541,
   1.3756378889083862,
   1.3758594989776611,
   1.375542163848877,
   1.3762602806091309,
   1.3757303953170776,
   1.3762710094451904,
   1.3760020732879639,
   1.3754491806030273,
   1.3750423192977905,
   1.374876856803894,
   1.3742860555648804,
   1.3740214109420776,
   1.3738820552825928,
   1.3733322620391846,
   1.3731011152267456,
   1.3725765943527222,
   1.3697407245635986,
   1.3667590618133545,
   1.363808274269104,
   1.3612630367279053,
   1.3577052354812622,
   1.355284571647644,
   1.3527953624725342,
   1.3495481014251709,
   1.3477160930633545,
   1.3257853984832764,
   1.3082447052001953,
   1.2920385599136353,
   1.2778172492980957,
   1.2650058269500732,
   1.25319504737854,
   1.2426060438156128,
   1.2333298921585083,
   1.2241503000259399,
   1.1568124294281006,
   1.117978572845459,
   1.0930582284927368,
   1.0803914070129395,
   1.0660873651504517,
   1.0560379028320312,
   1.0478553771972656,
   1.0384305715560913,
   1.0354655981063843,
   1.008155345916748,
   0.99106848239898682,
   0.99025183916091919,
   0.99602687358856201,
   0.99629294872283936,
   0.98763501644134521,
   0.99156999588012695,
   0.99039852619171143,
   0.99685752391815186,
   1.0025638341903687,
   1.0179078578948975,
   1.0024421215057373,
   0.9944833517074585,
   1.0027420520782471,
   0.99881660938262939,
   0.99912101030349731,
   0.98242199420928955,
   1.0868574380874634
]
