[
   1.7653024196624756,
   1.7635114192962646,
   1.7646973133087158,
   1.764298677444458,
   1.7648975849151611,
   1.7652114629745483,
   1.7626470327377319,
   1.76413893699646,
   1.7628942728042603,
   1.7635473012924194,
   1.7616094350814819,
   1.7622578144073486,
   1.7614427804946899,
   1.7597999572753906,
   1.7583634853363037,
   1.757244348526001,
   1.7554680109024048,
   1.7552493810653687,
   1.7542340755462646,
   1.7440700531005859,
   1.7333751916885376,
   1.7249228954315186,
   1.7165756225585938,
   1.7105333805084229,
   1.7016451358795166,
   1.6935226917266846,
   1.6870968341827393,
   1.6778190135955811,
   1.6182323694229126,
   1.569155216217041,
   1.5255801677703857,
   1.4900720119476318,
   1.4564540386199951,
   1.4300581216812134,
   1.403856635093689,
   1.3829919099807739,
   1.3607927560806274,
   1.2331840991973877,
   1.1680799722671509,
   1.1247332096099854,
   1.0928294658660889,
   1.0770434141159058,
   1.0601284503936768,
   1.0494471788406372,
   1.0409667491912842,
   1.0344648361206055,
   1.0143063068389893,
   1.0146875381469727,
   1.0018185377120972,
   0.99134624004364014,
   0.98579323291778564,
   0.98625373840332031,
   0.97845470905303955,
   0.97855651378631592,
   0.98117524385452271,
   0.98629319667816162,
   0.99670648574829102,
   0.98450738191604614,
   0.99240273237228394,
   0.99124908447265625,
   1.0109709501266479,
   1.0236141681671143,
   1.0266393423080444,
   1.1238353252410889
]
