[
   1.6511142253875732,
   1.6496589183807373,
   1.6511064767837524,
   1.6516292095184326,
   1.6513551473617554,
   1.6517575979232788,
   1.6495250463485718,
   1.6519063711166382,
   1.6510452032089233,
   1.6493771076202393,
   1.6493581533432007,
   1.6502053737640381,
   1.6490339040756226,
   1.6475658416748047,
   1.6453406810760498,
   1.6459509134292603,
   1.6447391510009766,
   1.6436151266098022,
   1.6433556079864502,
   1.636465311050415,
   1.6279119253158569,
   1.6217374801635742,
   1.6133079528808594,
   1.6070629358291626,
   1.6006882190704346,
   1.5973045825958252,
   1.5917057991027832,
   1.5856654644012451,
   1.5389963388442993,
   1.4988511800765991,
   1.4635913372039795,
   1.4348654747009277,
   1.4088689088821411,
   1.3859809637069702,
   1.3654763698577881,
   1.3476161956787109,
   1.3321371078491211,
   1.2207801342010498,
   1.1607393026351929,
   1.1220855712890625,
   1.0960874557495117,
   1.0729742050170898,
   1.0553354024887085,
   1.043964147567749,
   1.0367848873138428,
   1.0330359935760498,
   1.0122803449630737,
   1.0031543970108032,
   0.98516291379928589,
   1.0005509853363037,
   0.9876067042350769,
   0.99704438447952271,
   0.99788391590118408,
   0.99469053745269775,
   0.99942672252655029,
   0.99179732799530029,
   0.97415906190872192,
   0.99114692211151123,
   0.98014384508132935,
   1.0117270946502686,
   0.99624937772750854,
   1.0331950187683105,
   1.0126278400421143,
   1.0376949310302734
]
