[
   3.824676513671875,
   3.8148396015167236,
   3.8224098682403564,
   3.8140780925750732,
   3.8113117218017578,
   3.8195743560791016,
   3.8101773262023926,
   3.8101487159729004,
   3.8060753345489502,
   3.8184750080108643,
   3.8029263019561768,
   3.7900357246398926,
   3.776547908782959,
   3.7714431285858154,
   3.7672562599182129,
   3.7560272216796875,
   3.7449207305908203,
   3.7291674613952637,
   3.7328498363494873,
   3.6410126686096191,
   3.5547175407409668,
   3.4801833629608154,
   3.3978507518768311,
   3.3400592803955078,
   3.2811284065246582,
   3.2217490673065186,
   3.1647896766662598,
   3.1148381233215332,
   2.7037413120269775,
   2.4289302825927734,
   2.2280614376068115,
   2.0855908393859863,
   1.9605348110198975,
   1.8645646572113037,
   1.7839663028717041,
   1.711721658706665,
   1.6605535745620728,
   1.360487699508667,
   1.2318733930587769,
   1.1628049612045288,
   1.1346880197525024,
   1.1110315322875977,
   1.0858975648880005,
   1.0669196844100952,
   1.0712223052978516,
   1.0644328594207764,
   1.0102407932281494,
   1.0029184818267822,
   0.99519079923629761,
   0.97092276811599731,
   0.98351466655731201,
   0.99830847978591919,
   0.95529347658157349,
   0.99367046356201172,
   0.98056662082672119,
   0.98780250549316406,
   0.99063730239868164,
   1.0129908323287964,
   0.97015267610549927,
   0.95530140399932861,
   0.96872633695602417,
   0.97419929504394531,
   0.9975159764289856,
   1.0807555913925171
]
