[
   2.0816330909729004,
   2.0795977115631104,
   2.082841157913208,
   2.0818676948547363,
   2.0786142349243164,
   2.0788893699645996,
   2.0797181129455566,
   2.0798423290252686,
   2.0791599750518799,
   2.0774655342102051,
   2.075629711151123,
   2.0683600902557373,
   2.0636157989501953,
   2.064140796661377,
   2.0585975646972656,
   2.0522289276123047,
   2.0527541637420654,
   2.0462336540222168,
   2.0406405925750732,
   2.0070195198059082,
   1.9791300296783447,
   1.9457147121429443,
   1.9202884435653687,
   1.9010311365127563,
   1.8782129287719727,
   1.8586094379425049,
   1.8373641967773438,
   1.821597695350647,
   1.6865218877792358,
   1.5944826602935791,
   1.5216405391693115,
   1.4646189212799072,
   1.4201534986495972,
   1.3797223567962646,
   1.3486331701278687,
   1.321070671081543,
   1.2943170070648193,
   1.1413875818252563,
   1.0874419212341309,
   1.0594742298126221,
   1.0430600643157959,
   1.0414166450500488,
   1.0341702699661255,
   1.0265871286392212,
   1.0080435276031494,
   1.0088579654693604,
   1.0013763904571533,
   1.0044434070587158,
   0.99761664867401123,
   1.0000536441802979,
   0.99911797046661377,
   0.99361991882324219,
   0.9836421012878418,
   0.99826449155807495,
   0.99873971939086914,
   0.98674428462982178,
   0.98571330308914185,
   1.0005295276641846,
   1.0124179124832153,
   0.99091851711273193,
   1.0071094036102295,
   1.0059640407562256,
   1.0328869819641113,
   1.0448668003082275
]
