[
   3.6270613670349121,
   3.6157753467559814,
   3.6206812858581543,
   3.6220748424530029,
   3.6242308616638184,
   3.6146476268768311,
   3.6147472858428955,
   3.6166999340057373,
   3.6149005889892578,
   3.6057636737823486,
   3.5963916778564453,
   3.5787034034729004,
   3.5633029937744141,
   3.5459499359130859,
   3.533668041229248,
   3.5184299945831299,
   3.4995503425598145,
   3.4910430908203125,
   3.4769406318664551,
   3.3564243316650391,
   3.2508175373077393,
   3.163078784942627,
   3.0768656730651855,
   3.0018942356109619,
   2.9448349475860596,
   2.8919363021850586,
   2.8261563777923584,
   2.7840666770935059,
   2.3992788791656494,
   2.1624681949615479,
   1.9927917718887329,
   1.8538520336151123,
   1.7443721294403076,
   1.6639770269393921,
   1.5955357551574707,
   1.5362479686737061,
   1.4809277057647705,
   1.2218537330627441,
   1.1380783319473267,
   1.0836722850799561,
   1.0612136125564575,
   1.0463218688964844,
   1.0434383153915405,
   1.0156514644622803,
   0.99856936931610107,
   1.003704309463501,
   1.0017955303192139,
   0.98957669734954834,
   1.0016099214553833,
   1.0071669816970825,
   0.99742543697357178,
   1.003038763999939,
   0.99965542554855347,
   0.97586756944656372,
   0.99385678768157959,
   0.98233109712600708,
   0.988475501537323,
   0.99938094615936279,
   0.96566915512084961,
   1.0122526884078979,
   1.008039116859436,
   0.9980769157409668,
   1.0037658214569092,
   1.0994954109191895
]
