[
   7.2132101058959961,
   7.2109489440917969,
   7.1902170181274414,
   7.1651177406311035,
   7.1906280517578125,
   7.1639928817749023,
   7.1507673263549805,
   7.1382246017456055,
   7.1412262916564941,
   7.144012451171875,
   7.0558309555053711,
   6.9655861854553223,
   6.9272370338439941,
   6.8897371292114258,
   6.8236250877380371,
   6.7958450317382812,
   6.7265481948852539,
   6.6649489402770996,
   6.6564435958862305,
   6.2115869522094727,
   5.9199604988098145,
   5.6164560317993164,
   5.393681526184082,
   5.2105474472045898,
   5.0138282775878906,
   4.8518929481506348,
   4.6919102668762207,
   4.5506916046142578,
   3.5502314567565918,
   2.9477167129516602,
   2.5959236621856689,
   2.35298752784729,
   2.1350173950195312,
   1.9844646453857422,
   1.8614190816879272,
   1.7598743438720703,
   1.6702810525894165,
   1.2775756120681763,
   1.1587393283843994,
   1.1156837940216064,
   1.0455209016799927,
   1.0440034866333008,
   1.0058505535125732,
   0.99777060747146606,
   1.0007616281509399,
   0.967598557472229,
   0.9961470365524292,
   0.96948349475860596,
   1.0033782720565796,
   1.013757586479187,
   1.0036056041717529,
   0.95790183544158936,
   1.0018348693847656,
   1.0148516893386841,
   1.0055477619171143,
   1.0160452127456665,
   1.0128685235977173,
   0.9238734245300293,
   0.90594327449798584,
   0.96047955751419067,
   1.0346719026565552,
   1.0374704599380493,
   1.0567286014556885,
   0.82247388362884521
]
