[
   2.5666511058807373,
   2.5686399936676025,
   2.5653910636901855,
   2.5651283264160156,
   2.5687007904052734,
   2.5653932094573975,
   2.5618386268615723,
   2.5577352046966553,
   2.5625021457672119,
   2.5577514171600342,
   2.5520179271697998,
   2.5489790439605713,
   2.5390186309814453,
   2.5339493751525879,
   2.5232322216033936,
   2.5166959762573242,
   2.5124311447143555,
   2.5029065608978271,
   2.5002763271331787,
   2.4412102699279785,
   2.3884251117706299,
   2.3371243476867676,
   2.2982592582702637,
   2.2574436664581299,
   2.2250189781188965,
   2.1921572685241699,
   2.1627488136291504,
   2.1360406875610352,
   1.9242217540740967,
   1.7827243804931641,
   1.6803598403930664,
   1.5988931655883789,
   1.5300877094268799,
   1.4736559391021729,
   1.4208810329437256,
   1.3794575929641724,
   1.3440120220184326,
   1.1601214408874512,
   1.0994564294815063,
   1.0660098791122437,
   1.0426527261734009,
   1.0297664403915405,
   1.0275084972381592,
   1.0227323770523071,
   1.0168100595474243,
   1.018723726272583,
   1.0024211406707764,
   0.98924398422241211,
   0.99318397045135498,
   0.98340070247650146,
   1.0010178089141846,
   0.99533301591873169,
   0.98062115907669067,
   1.0082314014434814,
   0.99705994129180908,
   1.0044724941253662,
   1.0160524845123291,
   1.0002105236053467,
   1.0396707057952881,
   1.002095103263855,
   0.97348719835281372,
   0.9755173921585083,
   1.0333529710769653,
   1.0931041240692139
]
