[
   2.2831606864929199,
   2.2799501419067383,
   2.2803921699523926,
   2.2842402458190918,
   2.2863318920135498,
   2.2823793888092041,
   2.2803580760955811,
   2.2780318260192871,
   2.2798147201538086,
   2.2775032520294189,
   2.2727494239807129,
   2.2665235996246338,
   2.2592630386352539,
   2.2577898502349854,
   2.2498059272766113,
   2.2486042976379395,
   2.2440447807312012,
   2.2350373268127441,
   2.2342591285705566,
   2.1883022785186768,
   2.1480073928833008,
   2.1133110523223877,
   2.0794186592102051,
   2.0499274730682373,
   2.0235123634338379,
   1.9984207153320312,
   1.9709478616714478,
   1.9482904672622681,
   1.7898731231689453,
   1.675518274307251,
   1.5888054370880127,
   1.5216537714004517,
   1.4688045978546143,
   1.4194037914276123,
   1.3788621425628662,
   1.3477010726928711,
   1.3199785947799683,
   1.1692701578140259,
   1.1037266254425049,
   1.0741279125213623,
   1.0560349225997925,
   1.0401527881622314,
   1.0267432928085327,
   1.0149161815643311,
   1.0015013217926025,
   1.0002731084823608,
   0.99984216690063477,
   0.99829369783401489,
   1.0063554048538208,
   0.9947240948677063,
   0.98084986209869385,
   1.0068303346633911,
   1.0031759738922119,
   0.99625873565673828,
   1.0020825862884521,
   0.98913305997848511,
   0.99209082126617432,
   0.99463796615600586,
   0.98674917221069336,
   1.0022457838058472,
   1.0241683721542358,
   0.99808722734451294,
   1.037068247795105,
   1.0089832544326782
]
