[
   1.473514199256897,
   1.4746453762054443,
   1.4735783338546753,
   1.4726717472076416,
   1.4730510711669922,
   1.4729044437408447,
   1.4748672246932983,
   1.4734406471252441,
   1.4736543893814087,
   1.473319411277771,
   1.4722919464111328,
   1.4722833633422852,
   1.4704128503799438,
   1.4702631235122681,
   1.4688684940338135,
   1.4680049419403076,
   1.4679714441299438,
   1.4680575132369995,
   1.4660811424255371,
   1.4594600200653076,
   1.4536780118942261,
   1.4478697776794434,
   1.4416753053665161,
   1.4363847970962524,
   1.4311497211456299,
   1.4252941608428955,
   1.4198427200317383,
   1.416413426399231,
   1.3778259754180908,
   1.349326491355896,
   1.325671911239624,
   1.3055698871612549,
   1.2883098125457764,
   1.2738240957260132,
   1.2599575519561768,
   1.2469645738601685,
   1.2344093322753906,
   1.1535553932189941,
   1.1061639785766602,
   1.07651686668396,
   1.0598553419113159,
   1.0464099645614624,
   1.0362192392349243,
   1.0303057432174683,
   1.0253232717514038,
   1.0225677490234375,
   0.99713629484176636,
   1.0014200210571289,
   1.0038958787918091,
   0.99912869930267334,
   0.99759232997894287,
   0.99297630786895752,
   0.99778604507446289,
   0.99909752607345581,
   0.99963456392288208,
   0.9870641827583313,
   0.98998278379440308,
   0.99816817045211792,
   0.99458587169647217,
   0.99675416946411133,
   1.0173032283782959,
   1.0314533710479736,
   1.0177738666534424,
   1.036304235458374
]
