[
   1.9666833877563477,
   1.9640176296234131,
   1.9653472900390625,
   1.9672238826751709,
   1.9649333953857422,
   1.9643243551254272,
   1.9645497798919678,
   1.9661083221435547,
   1.964038610458374,
   1.9639297723770142,
   1.9602804183959961,
   1.9585120677947998,
   1.9581079483032227,
   1.9563976526260376,
   1.9547011852264404,
   1.9501588344573975,
   1.9472436904907227,
   1.9469845294952393,
   1.945155143737793,
   1.9258161783218384,
   1.9079587459564209,
   1.890933632850647,
   1.8764736652374268,
   1.8642404079437256,
   1.8510173559188843,
   1.8361858129501343,
   1.8243662118911743,
   1.8180558681488037,
   1.7291793823242188,
   1.6686351299285889,
   1.6159391403198242,
   1.5718424320220947,
   1.5333542823791504,
   1.4986522197723389,
   1.4693830013275146,
   1.4398739337921143,
   1.4149771928787231,
   1.2530108690261841,
   1.1748802661895752,
   1.1275551319122314,
   1.0903371572494507,
   1.0673589706420898,
   1.0526139736175537,
   1.0410507917404175,
   1.0326125621795654,
   1.0285518169403076,
   1.0004744529724121,
   0.98938417434692383,
   0.99638605117797852,
   1.0099691152572632,
   1.0070760250091553,
   0.99538403749465942,
   1.0143316984176636,
   1.0004442930221558,
   1.0014417171478271,
   1.003064751625061,
   1.0008976459503174,
   0.99764597415924072,
   0.99710655212402344,
   0.99612247943878174,
   0.98370999097824097,
   0.94213521480560303,
   0.91038864850997925,
   0.91883933544158936
]
