[
   6.1511244773864746,
   6.151735782623291,
   6.1492109298706055,
   6.1466093063354492,
   6.1372804641723633,
   6.1410408020019531,
   6.1395325660705566,
   6.1240043640136719,
   6.1120128631591797,
   6.1387343406677246,
   6.1055045127868652,
   6.073005199432373,
   6.052891731262207,
   6.0217089653015137,
   5.99334716796875,
   5.9474554061889648,
   5.9303631782531738,
   5.9133124351501465,
   5.8964338302612305,
   5.7029047012329102,
   5.5418057441711426,
   5.4203290939331055,
   5.3166947364807129,
   5.2014956474304199,
   5.0841217041015625,
   5.0170292854309082,
   4.927556037902832,
   4.8419623374938965,
   4.224461555480957,
   3.7619621753692627,
   3.3773989677429199,
   3.1097037792205811,
   2.8681213855743408,
   2.6678259372711182,
   2.5214753150939941,
   2.3695616722106934,
   2.2473528385162354,
   1.5658400058746338,
   1.3533264398574829,
   1.2157018184661865,
   1.1689915657043457,
   1.1081016063690186,
   1.1072767972946167,
   1.0923649072647095,
   1.069432258605957,
   1.0857186317443848,
   0.95459163188934326,
   0.98970013856887817,
   0.91114789247512817,
   0.99869757890701294,
   0.977028489112854,
   0.99973410367965698,
   1.0260977745056152,
   0.94122457504272461,
   0.97493565082550049,
   0.93130743503570557,
   0.9787367582321167,
   0.9898950457572937,
   1.006369948387146,
   1.0725471973419189,
   0.90741556882858276,
   0.98853409290313721,
   0.91315507888793945,
   0.98295766115188599
]
