[
   1.3944293260574341,
   1.3940117359161377,
   1.3945968151092529,
   1.3950101137161255,
   1.3949620723724365,
   1.3942406177520752,
   1.3940622806549072,
   1.3949105739593506,
   1.3944336175918579,
   1.3942385911941528,
   1.3937691450119019,
   1.3936078548431396,
   1.3928263187408447,
   1.3920725584030151,
   1.3917768001556396,
   1.3914498090744019,
   1.3911863565444946,
   1.3899868726730347,
   1.390257716178894,
   1.3851498365402222,
   1.3814425468444824,
   1.3775184154510498,
   1.3745315074920654,
   1.3709530830383301,
   1.3682942390441895,
   1.3646938800811768,
   1.3617138862609863,
   1.3580954074859619,
   1.3327471017837524,
   1.3121850490570068,
   1.2955440282821655,
   1.2801495790481567,
   1.2669342756271362,
   1.2547533512115479,
   1.2432372570037842,
   1.2324059009552002,
   1.2235978841781616,
   1.157879114151001,
   1.1160258054733276,
   1.0903233289718628,
   1.0742595195770264,
   1.0604275465011597,
   1.0479862689971924,
   1.0400011539459229,
   1.0304974317550659,
   1.0262033939361572,
   1.0099228620529175,
   1.0001766681671143,
   0.99857509136199951,
   0.99648791551589966,
   0.99780416488647461,
   0.98627978563308716,
   0.98977166414260864,
   0.98540085554122925,
   0.98424404859542847,
   0.99613583087921143,
   0.99030190706253052,
   1.0070807933807373,
   0.98892992734909058,
   1.0031665563583374,
   0.98309421539306641,
   0.99913346767425537,
   1.0095607042312622,
   1.1222020387649536
]
