[
   1.4748480319976807,
   1.4752476215362549,
   1.4753379821777344,
   1.4756739139556885,
   1.4757940769195557,
   1.474790096282959,
   1.4745516777038574,
   1.4749122858047485,
   1.4748752117156982,
   1.4748638868331909,
   1.4744861125946045,
   1.4741815328598022,
   1.473291277885437,
   1.4717289209365845,
   1.471928596496582,
   1.4707326889038086,
   1.4707711935043335,
   1.4689836502075195,
   1.4695496559143066,
   1.462352991104126,
   1.4581248760223389,
   1.4526633024215698,
   1.4486691951751709,
   1.444123387336731,
   1.4407042264938354,
   1.4361469745635986,
   1.4324071407318115,
   1.4280115365982056,
   1.3957893848419189,
   1.3684449195861816,
   1.3478254079818726,
   1.3284052610397339,
   1.3110458850860596,
   1.2959412336349487,
   1.2814538478851318,
   1.2675018310546875,
   1.2568292617797852,
   1.1765789985656738,
   1.1283100843429565,
   1.0989441871643066,
   1.0799762010574341,
   1.0644371509552002,
   1.0515041351318359,
   1.0428708791732788,
   1.0326639413833618,
   1.028180718421936,
   1.0098923444747925,
   1.0014419555664062,
   0.99757373332977295,
   0.99647647142410278,
   0.99639606475830078,
   0.98482263088226318,
   0.98794972896575928,
   0.98476487398147583,
   0.98169881105422974,
   0.99370574951171875,
   0.98865127563476562,
   1.0068737268447876,
   0.98854464292526245,
   1.0041226148605347,
   0.98363590240478516,
   0.99954062700271606,
   1.0120583772659302,
   1.1258587837219238
]
