[
   1.5256187915802002,
   1.5263131856918335,
   1.5266295671463013,
   1.526714563369751,
   1.5269461870193481,
   1.5257172584533691,
   1.5255504846572876,
   1.5263968706130981,
   1.5260022878646851,
   1.5255429744720459,
   1.5254815816879272,
   1.5247299671173096,
   1.5239636898040771,
   1.5220075845718384,
   1.5222604274749756,
   1.5208208560943604,
   1.5209181308746338,
   1.5191401243209839,
   1.5192230939865112,
   1.5107678174972534,
   1.5061124563217163,
   1.4994323253631592,
   1.4951742887496948,
   1.4894822835922241,
   1.4858897924423218,
   1.4802871942520142,
   1.4762012958526611,
   1.4709696769714355,
   1.4337975978851318,
   1.40262770652771,
   1.3786584138870239,
   1.3563028573989868,
   1.3369050025939941,
   1.3195923566818237,
   1.303339958190918,
   1.2878116369247437,
   1.2756907939910889,
   1.1869901418685913,
   1.1343411207199097,
   1.1032999753952026,
   1.082700252532959,
   1.0673434734344482,
   1.0533868074417114,
   1.0447752475738525,
   1.0340287685394287,
   1.0294466018676758,
   1.0098640918731689,
   1.0022773742675781,
   0.99671661853790283,
   0.99680328369140625,
   0.99522686004638672,
   0.98390072584152222,
   0.98654794692993164,
   0.98453521728515625,
   0.98011648654937744,
   0.99229460954666138,
   0.98753231763839722,
   1.0065528154373169,
   0.9884721040725708,
   1.0049475431442261,
   0.98417270183563232,
   0.99962723255157471,
   1.014936089515686,
   1.1288225650787354
]
