[
   1.7646877765655518,
   1.7624359130859375,
   1.7619390487670898,
   1.761432409286499,
   1.7628633975982666,
   1.7609081268310547,
   1.7601600885391235,
   1.7616735696792603,
   1.7608964443206787,
   1.760175347328186,
   1.7615869045257568,
   1.7584307193756104,
   1.7583072185516357,
   1.75667405128479,
   1.7540876865386963,
   1.7542450428009033,
   1.7519025802612305,
   1.7511640787124634,
   1.7508754730224609,
   1.7384742498397827,
   1.7290941476821899,
   1.7162168025970459,
   1.7085063457489014,
   1.6980183124542236,
   1.6888515949249268,
   1.6845314502716064,
   1.6742137670516968,
   1.6682243347167969,
   1.6068003177642822,
   1.5575041770935059,
   1.5159587860107422,
   1.4838017225265503,
   1.4537985324859619,
   1.4237020015716553,
   1.4008524417877197,
   1.3784835338592529,
   1.3599631786346436,
   1.2351571321487427,
   1.1721274852752686,
   1.1313589811325073,
   1.1014882326126099,
   1.0833802223205566,
   1.0755630731582642,
   1.0657646656036377,
   1.0545985698699951,
   1.0485681295394897,
   1.0027716159820557,
   0.9994128942489624,
   1.0036239624023438,
   0.9910619854927063,
   0.99164122343063354,
   1.0006989240646362,
   1.0004942417144775,
   1.0037757158279419,
   0.99230021238327026,
   0.99001538753509521,
   0.98719865083694458,
   0.99850386381149292,
   0.99803179502487183,
   0.99963778257369995,
   0.97474443912506104,
   1.0116469860076904,
   1.0198137760162354,
   0.94251918792724609
]
