[
   1.8748184442520142,
   1.8750988245010376,
   1.8737258911132812,
   1.8732898235321045,
   1.8733495473861694,
   1.8759866952896118,
   1.8724887371063232,
   1.8737951517105103,
   1.8728023767471313,
   1.8719015121459961,
   1.8708372116088867,
   1.8699251413345337,
   1.8684158325195312,
   1.8695369958877563,
   1.8641335964202881,
   1.8642936944961548,
   1.8618952035903931,
   1.8602981567382812,
   1.8584709167480469,
   1.8439067602157593,
   1.8308084011077881,
   1.8202114105224609,
   1.8059488534927368,
   1.7946107387542725,
   1.7844812870025635,
   1.7756274938583374,
   1.7647479772567749,
   1.7552821636199951,
   1.6794178485870361,
   1.6222187280654907,
   1.5731852054595947,
   1.5317714214324951,
   1.4939839839935303,
   1.4632303714752197,
   1.4344969987869263,
   1.4105880260467529,
   1.3874959945678711,
   1.2456315755844116,
   1.1713448762893677,
   1.131044864654541,
   1.0990574359893799,
   1.0747206211090088,
   1.0635732412338257,
   1.0494379997253418,
   1.0430657863616943,
   1.0372714996337891,
   1.0126872062683105,
   1.0104320049285889,
   1.0107887983322144,
   0.99581640958786011,
   0.99430692195892334,
   0.99858301877975464,
   0.99905967712402344,
   1.0102661848068237,
   0.99760311841964722,
   0.99525946378707886,
   1.0007603168487549,
   0.99212485551834106,
   1.0006122589111328,
   1.0006095170974731,
   0.99347257614135742,
   0.95723152160644531,
   0.99043971300125122,
   0.91813820600509644
]
