[
   2.6391599178314209,
   2.6397690773010254,
   2.6393065452575684,
   2.6373298168182373,
   2.6394448280334473,
   2.6360630989074707,
   2.6371238231658936,
   2.6346964836120605,
   2.6361656188964844,
   2.6373181343078613,
   2.6285836696624756,
   2.6252777576446533,
   2.6221151351928711,
   2.6154215335845947,
   2.6068520545959473,
   2.6086835861206055,
   2.6038899421691895,
   2.6024320125579834,
   2.5979170799255371,
   2.5588469505310059,
   2.5189328193664551,
   2.4874670505523682,
   2.4629554748535156,
   2.4311695098876953,
   2.4052667617797852,
   2.37992262840271,
   2.3609580993652344,
   2.3339693546295166,
   2.1520485877990723,
   2.0152668952941895,
   1.9020235538482666,
   1.8132855892181396,
   1.7392536401748657,
   1.6794617176055908,
   1.6258354187011719,
   1.5858210325241089,
   1.5425420999526978,
   1.3137784004211426,
   1.207811713218689,
   1.1449099779129028,
   1.095309853553772,
   1.07585608959198,
   1.0599117279052734,
   1.053300142288208,
   1.0470373630523682,
   1.0441089868545532,
   1.0105884075164795,
   0.99358737468719482,
   0.99373400211334229,
   0.99459296464920044,
   1.0004284381866455,
   1.0046483278274536,
   0.97851657867431641,
   0.98205661773681641,
   0.98547381162643433,
   0.9997178316116333,
   0.98846828937530518,
   0.9967111349105835,
   0.96536195278167725,
   1.0202949047088623,
   0.9989241361618042,
   0.979012131690979,
   0.96470248699188232,
   1.1471450328826904
]
