[
   1.9740451574325562,
   1.9721918106079102,
   1.9711334705352783,
   1.9731495380401611,
   1.9718631505966187,
   1.9726550579071045,
   1.9700464010238647,
   1.9714925289154053,
   1.9713058471679688,
   1.9723774194717407,
   1.9696935415267944,
   1.9676744937896729,
   1.9655630588531494,
   1.9648691415786743,
   1.9611917734146118,
   1.9608043432235718,
   1.9572687149047852,
   1.9548946619033813,
   1.956608772277832,
   1.9360834360122681,
   1.9153579473495483,
   1.8996188640594482,
   1.8835537433624268,
   1.869563102722168,
   1.8527472019195557,
   1.8388540744781494,
   1.8295570611953735,
   1.8166316747665405,
   1.7216838598251343,
   1.653071403503418,
   1.596839427947998,
   1.5494892597198486,
   1.5059351921081543,
   1.4739847183227539,
   1.4423693418502808,
   1.4145418405532837,
   1.3899080753326416,
   1.2312332391738892,
   1.1532368659973145,
   1.1064296960830688,
   1.0736405849456787,
   1.0536848306655884,
   1.0427501201629639,
   1.032418966293335,
   1.0254669189453125,
   1.0184191465377808,
   0.99183827638626099,
   0.9821355938911438,
   0.99076259136199951,
   1.0142943859100342,
   0.99875533580780029,
   0.99781721830368042,
   0.98524332046508789,
   0.99491965770721436,
   0.9872812032699585,
   0.99057149887084961,
   0.99921113252639771,
   1.0052796602249146,
   1.0163331031799316,
   0.99783897399902344,
   0.99038946628570557,
   1.0141259431838989,
   1.0373737812042236,
   0.99494379758834839
]
