[
   1.5629887580871582,
   1.5622822046279907,
   1.5611476898193359,
   1.5629065036773682,
   1.5638248920440674,
   1.5633867979049683,
   1.5630372762680054,
   1.5631024837493896,
   1.5619528293609619,
   1.5612609386444092,
   1.561410665512085,
   1.5606527328491211,
   1.5589907169342041,
   1.5583751201629639,
   1.5577619075775146,
   1.5565075874328613,
   1.556290864944458,
   1.5541379451751709,
   1.5543758869171143,
   1.5448000431060791,
   1.5368397235870361,
   1.5301377773284912,
   1.5213747024536133,
   1.5152595043182373,
   1.5079452991485596,
   1.5035674571990967,
   1.4962022304534912,
   1.4902107715606689,
   1.4417451620101929,
   1.4040207862854004,
   1.3724286556243896,
   1.3472816944122314,
   1.3235342502593994,
   1.3053627014160156,
   1.2872991561889648,
   1.2698354721069336,
   1.254502534866333,
   1.1585776805877686,
   1.1096656322479248,
   1.0796076059341431,
   1.0588387250900269,
   1.0422995090484619,
   1.0348031520843506,
   1.0253348350524902,
   1.0216600894927979,
   1.0183826684951782,
   1.0020157098770142,
   0.99571621417999268,
   0.99423468112945557,
   0.98848187923431396,
   0.99385690689086914,
   1.0008432865142822,
   0.99897778034210205,
   0.99763089418411255,
   0.99834525585174561,
   0.99644124507904053,
   1.0020987987518311,
   0.99183785915374756,
   1.0037766695022583,
   1.0071065425872803,
   1.0003857612609863,
   0.99944800138473511,
   0.98256456851959229,
   0.93650549650192261
]
