[
   1.4855489730834961,
   1.4850955009460449,
   1.4853498935699463,
   1.4866652488708496,
   1.485325813293457,
   1.4866085052490234,
   1.4856710433959961,
   1.4864529371261597,
   1.4846603870391846,
   1.485984206199646,
   1.4837740659713745,
   1.4835696220397949,
   1.4844518899917603,
   1.481904149055481,
   1.4825150966644287,
   1.4814655780792236,
   1.479282021522522,
   1.4800733327865601,
   1.4795637130737305,
   1.4719775915145874,
   1.4661133289337158,
   1.4599602222442627,
   1.4546715021133423,
   1.4484264850616455,
   1.4439826011657715,
   1.4387209415435791,
   1.4336779117584229,
   1.4284095764160156,
   1.3901666402816772,
   1.3599438667297363,
   1.3352967500686646,
   1.3139665126800537,
   1.2941298484802246,
   1.2797119617462158,
   1.265088677406311,
   1.2516005039215088,
   1.2389308214187622,
   1.1576776504516602,
   1.1150264739990234,
   1.0842462778091431,
   1.0646650791168213,
   1.047810435295105,
   1.0362250804901123,
   1.0270564556121826,
   1.0191155672073364,
   1.0200823545455933,
   0.99715745449066162,
   0.99480354785919189,
   1.0028177499771118,
   0.99652183055877686,
   0.99408358335494995,
   0.99009674787521362,
   1.0038230419158936,
   1.0013145208358765,
   0.99203741550445557,
   1.0001627206802368,
   1.00175940990448,
   0.99292737245559692,
   0.99638843536376953,
   1.0009968280792236,
   1.0050982236862183,
   0.95379257202148438,
   0.98055875301361084,
   0.99549216032028198
]
