[
   1.6296907663345337,
   1.6291004419326782,
   1.627025842666626,
   1.6295702457427979,
   1.6299102306365967,
   1.6300709247589111,
   1.6293216943740845,
   1.6296142339706421,
   1.6284517049789429,
   1.6276613473892212,
   1.6271079778671265,
   1.6265342235565186,
   1.6244823932647705,
   1.6241004467010498,
   1.6234285831451416,
   1.6220228672027588,
   1.6213672161102295,
   1.6196243762969971,
   1.6194843053817749,
   1.6080490350723267,
   1.5982785224914551,
   1.5909231901168823,
   1.5811488628387451,
   1.5735393762588501,
   1.5653936862945557,
   1.5595260858535767,
   1.5513390302658081,
   1.5443180799484253,
   1.4882804155349731,
   1.4454694986343384,
   1.4096534252166748,
   1.3811529874801636,
   1.3546828031539917,
   1.3332078456878662,
   1.3132421970367432,
   1.2927877902984619,
   1.2756040096282959,
   1.1688797473907471,
   1.1167417764663696,
   1.0840657949447632,
   1.0613596439361572,
   1.0444824695587158,
   1.0365610122680664,
   1.0268806219100952,
   1.0228723287582397,
   1.0187127590179443,
   1.0023419857025146,
   0.99570560455322266,
   0.99388474225997925,
   0.98816317319869995,
   0.99380046129226685,
   1.0017827749252319,
   0.9995647668838501,
   0.99759674072265625,
   0.99846494197845459,
   0.99646568298339844,
   1.0024139881134033,
   0.99178999662399292,
   1.0042450428009033,
   1.0078704357147217,
   0.99944621324539185,
   0.99941074848175049,
   0.9811365008354187,
   0.93284434080123901
]
