[
   20.585372924804688,
   20.508607864379883,
   20.545583724975586,
   20.447488784790039,
   20.3187255859375,
   20.630033493041992,
   20.299591064453125,
   20.433416366577148,
   20.387241363525391,
   20.262311935424805,
   20.118288040161133,
   19.833038330078125,
   19.634269714355469,
   19.185731887817383,
   19.033054351806641,
   18.885112762451172,
   18.815164566040039,
   18.534528732299805,
   18.435457229614258,
   16.703594207763672,
   15.699566841125488,
   14.574661254882812,
   13.638999938964844,
   12.821614265441895,
   12.149477958679199,
   11.626148223876953,
   11.028043746948242,
   10.57176399230957,
   7.4345560073852539,
   5.7349252700805664,
   4.6937017440795898,
   4.0378594398498535,
   3.5466456413269043,
   3.1376223564147949,
   2.9436602592468262,
   2.7592470645904541,
   2.4509866237640381,
   1.6788284778594971,
   1.3948172330856323,
   1.3001019954681396,
   1.2699733972549438,
   1.1537463665008545,
   1.1066310405731201,
   1.1115998029708862,
   1.1145412921905518,
   1.0344836711883545,
   1.1186379194259644,
   1.0556470155715942,
   0.93008959293365479,
   0.94727069139480591,
   0.99456465244293213,
   1.0080603361129761,
   0.90197408199310303,
   0.97210484743118286,
   1.0531339645385742,
   0.99901628494262695,
   0.96517485380172729,
   0.96889936923980713,
   1.0531629323959351,
   1.0438257455825806,
   0.75567138195037842,
   1.3342013359069824,
   0.62518203258514404,
   0.80700987577438354
]
