[
   2.3796467781066895,
   2.3795335292816162,
   2.3809547424316406,
   2.3783957958221436,
   2.3749656677246094,
   2.3786449432373047,
   2.375105619430542,
   2.3748595714569092,
   2.3747420310974121,
   2.3754265308380127,
   2.3735048770904541,
   2.364013671875,
   2.3661744594573975,
   2.3603322505950928,
   2.3560519218444824,
   2.3555994033813477,
   2.3499960899353027,
   2.35011887550354,
   2.3449845314025879,
   2.3121685981750488,
   2.2785015106201172,
   2.2552826404571533,
   2.2274982929229736,
   2.2062876224517822,
   2.1893444061279297,
   2.1651146411895752,
   2.1451342105865479,
   2.1245965957641602,
   1.9805567264556885,
   1.8730064630508423,
   1.7892053127288818,
   1.7218339443206787,
   1.6624158620834351,
   1.6093037128448486,
   1.5626847743988037,
   1.5220006704330444,
   1.492969274520874,
   1.2879512310028076,
   1.1880413293838501,
   1.1335471868515015,
   1.1049215793609619,
   1.0851885080337524,
   1.0650680065155029,
   1.0405588150024414,
   1.0404870510101318,
   1.0421178340911865,
   1.0134879350662231,
   1.0004181861877441,
   0.99416285753250122,
   0.99173057079315186,
   0.99255114793777466,
   0.99219512939453125,
   0.99421042203903198,
   0.99106371402740479,
   1.0140609741210938,
   1.0069608688354492,
   1.0101025104522705,
   0.99258345365524292,
   0.99626696109771729,
   0.99253702163696289,
   0.97646987438201904,
   0.96672183275222778,
   0.96838510036468506,
   0.94188147783279419
]
