[
   2.6702706813812256,
   2.673377513885498,
   2.67325758934021,
   2.6670641899108887,
   2.6725876331329346,
   2.6732916831970215,
   2.6706454753875732,
   2.6713876724243164,
   2.669562816619873,
   2.6685433387756348,
   2.6671380996704102,
   2.664578914642334,
   2.6600167751312256,
   2.6556601524353027,
   2.6524031162261963,
   2.6505551338195801,
   2.645676851272583,
   2.6430046558380127,
   2.6400785446166992,
   2.6150133609771729,
   2.5883522033691406,
   2.5672478675842285,
   2.5427093505859375,
   2.516596794128418,
   2.499931812286377,
   2.4831902980804443,
   2.457256555557251,
   2.4447331428527832,
   2.2793240547180176,
   2.1514935493469238,
   2.0460400581359863,
   1.9581756591796875,
   1.8795061111450195,
   1.8108623027801514,
   1.7632081508636475,
   1.7102960348129272,
   1.6628563404083252,
   1.3949034214019775,
   1.2824081182479858,
   1.2225428819656372,
   1.1779730319976807,
   1.1470257043838501,
   1.1226875782012939,
   1.1046614646911621,
   1.0870605707168579,
   1.0785276889801025,
   1.0396138429641724,
   1.0356764793395996,
   0.99635517597198486,
   0.99169272184371948,
   1.0053311586380005,
   1.0185742378234863,
   1.0171161890029907,
   1.005786657333374,
   1.0176699161529541,
   1.0061795711517334,
   1.0128917694091797,
   1.0112221240997314,
   0.98021996021270752,
   0.9625619649887085,
   0.95013731718063354,
   0.92562741041183472,
   0.90012061595916748,
   0.82904309034347534
]
