[
   1.3439806699752808,
   1.3440760374069214,
   1.3435724973678589,
   1.3442078828811646,
   1.3437736034393311,
   1.3445737361907959,
   1.3438143730163574,
   1.3442143201828003,
   1.343859076499939,
   1.3435344696044922,
   1.3436627388000488,
   1.3432693481445312,
   1.3433725833892822,
   1.3427743911743164,
   1.342957615852356,
   1.3425886631011963,
   1.3418010473251343,
   1.3425202369689941,
   1.342362642288208,
   1.3392097949981689,
   1.3372213840484619,
   1.3358619213104248,
   1.333379864692688,
   1.3319747447967529,
   1.3299287557601929,
   1.3280203342437744,
   1.3267719745635986,
   1.3247969150543213,
   1.3108079433441162,
   1.2976481914520264,
   1.2866358757019043,
   1.276341438293457,
   1.2659900188446045,
   1.2579535245895386,
   1.2498948574066162,
   1.2419722080230713,
   1.233957052230835,
   1.17533278465271,
   1.1365591287612915,
   1.1075237989425659,
   1.0943294763565063,
   1.0790113210678101,
   1.0688080787658691,
   1.0607521533966064,
   1.0538349151611328,
   1.0495344400405884,
   1.0232717990875244,
   1.007443904876709,
   1.0019007921218872,
   0.9997711181640625,
   0.99350708723068237,
   0.99981462955474854,
   1.0003610849380493,
   0.99409407377243042,
   0.99340611696243286,
   1.0123428106307983,
   1.0001755952835083,
   0.99166011810302734,
   1.0043754577636719,
   1.009367823600769,
   1.0001341104507446,
   0.99418336153030396,
   0.96678322553634644,
   1.0099180936813354
]
