[
   1.377802848815918,
   1.3782484531402588,
   1.3775374889373779,
   1.3779580593109131,
   1.3775466680526733,
   1.3783670663833618,
   1.3777148723602295,
   1.3779046535491943,
   1.3777859210968018,
   1.3775714635848999,
   1.3773844242095947,
   1.3772346973419189,
   1.3770287036895752,
   1.3764313459396362,
   1.3765764236450195,
   1.3761618137359619,
   1.3755385875701904,
   1.3763729333877563,
   1.3758456707000732,
   1.3722121715545654,
   1.3704379796981812,
   1.3683466911315918,
   1.3657293319702148,
   1.3639824390411377,
   1.3614174127578735,
   1.3592197895050049,
   1.3579752445220947,
   1.3556487560272217,
   1.339629054069519,
   1.3247150182723999,
   1.3123971223831177,
   1.3005578517913818,
   1.2889779806137085,
   1.2799040079116821,
   1.2707089185714722,
   1.2614157199859619,
   1.2529549598693848,
   1.187558650970459,
   1.1453421115875244,
   1.1138131618499756,
   1.0959446430206299,
   1.0794732570648193,
   1.0695286989212036,
   1.0609643459320068,
   1.0538284778594971,
   1.0493075847625732,
   1.0230121612548828,
   1.0075414180755615,
   1.0026835203170776,
   0.99772912263870239,
   0.99240005016326904,
   1.0002273321151733,
   1.0015422105789185,
   0.99247819185256958,
   0.99271011352539062,
   1.0126717090606689,
   0.99877947568893433,
   0.99215209484100342,
   1.0043773651123047,
   1.0089042186737061,
   1.0002598762512207,
   0.99430572986602783,
   0.96653234958648682,
   1.0082123279571533
]
