[
   1.5243786573410034,
   1.5240598917007446,
   1.5236430168151855,
   1.5238825082778931,
   1.5233548879623413,
   1.5245438814163208,
   1.5235755443572998,
   1.5242041349411011,
   1.5235002040863037,
   1.5239841938018799,
   1.5226942300796509,
   1.522390604019165,
   1.5222365856170654,
   1.5212299823760986,
   1.5218141078948975,
   1.5218513011932373,
   1.5200470685958862,
   1.5208553075790405,
   1.5199069976806641,
   1.5149457454681396,
   1.5116806030273438,
   1.5077109336853027,
   1.5034103393554688,
   1.500982403755188,
   1.4967414140701294,
   1.4938571453094482,
   1.4908874034881592,
   1.487318754196167,
   1.460910439491272,
   1.4374817609786987,
   1.4173815250396729,
   1.3977221250534058,
   1.3809303045272827,
   1.3658360242843628,
   1.3513152599334717,
   1.3367388248443604,
   1.3245542049407959,
   1.2297844886779785,
   1.1732685565948486,
   1.1326234340667725,
   1.1049220561981201,
   1.0864338874816895,
   1.0757672786712646,
   1.0670268535614014,
   1.0587598085403442,
   1.0525467395782471,
   1.0215508937835693,
   1.0080833435058594,
   1.0009524822235107,
   0.99754112958908081,
   0.98761719465255737,
   1.0017944574356079,
   1.0018693208694458,
   0.99245339632034302,
   0.9905363917350769,
   1.0134956836700439,
   0.99699896574020386,
   0.99059551954269409,
   1.0087440013885498,
   1.0103142261505127,
   1.0013357400894165,
   0.99189150333404541,
   0.96389561891555786,
   1.0027205944061279
]
