[
   1.6885650157928467,
   1.690010666847229,
   1.6884123086929321,
   1.6885817050933838,
   1.6899477243423462,
   1.6864063739776611,
   1.6902898550033569,
   1.6901664733886719,
   1.6885532140731812,
   1.6893832683563232,
   1.6873840093612671,
   1.6862008571624756,
   1.6860694885253906,
   1.6844027042388916,
   1.6849584579467773,
   1.683826208114624,
   1.6826326847076416,
   1.6827617883682251,
   1.682090163230896,
   1.675479531288147,
   1.6712850332260132,
   1.663779616355896,
   1.6580245494842529,
   1.654279351234436,
   1.6480371952056885,
   1.6430454254150391,
   1.6390066146850586,
   1.6323219537734985,
   1.5932494401931763,
   1.5584304332733154,
   1.5294616222381592,
   1.5002120733261108,
   1.475405216217041,
   1.4533283710479736,
   1.4310977458953857,
   1.4124273061752319,
   1.3933055400848389,
   1.2682787179946899,
   1.1943376064300537,
   1.1478990316390991,
   1.1157488822937012,
   1.0971367359161377,
   1.0817388296127319,
   1.0720241069793701,
   1.0591423511505127,
   1.0514771938323975,
   1.0049989223480225,
   0.99709594249725342,
   1.0002138614654541,
   0.98941230773925781,
   0.99648392200469971,
   1.0008060932159424,
   0.99075061082839966,
   0.99204558134078979,
   0.9950224757194519,
   0.99427825212478638,
   1.0107065439224243,
   0.99302804470062256,
   0.98025119304656982,
   1.0148038864135742,
   1.0227956771850586,
   0.97008073329925537,
   1.0136617422103882,
   1.024785041809082
]
