[
   1.4671632051467896,
   1.4670488834381104,
   1.4664381742477417,
   1.4670861959457397,
   1.466638445854187,
   1.4675549268722534,
   1.4666069746017456,
   1.4672946929931641,
   1.4667766094207764,
   1.4666906595230103,
   1.4658268690109253,
   1.4659944772720337,
   1.4658702611923218,
   1.4644410610198975,
   1.4655057191848755,
   1.4652754068374634,
   1.4636900424957275,
   1.4647116661071777,
   1.4637695550918579,
   1.4595754146575928,
   1.4566524028778076,
   1.4536882638931274,
   1.4503223896026611,
   1.4479247331619263,
   1.4443572759628296,
   1.441781759262085,
   1.4396076202392578,
   1.436833381652832,
   1.4147157669067383,
   1.3950544595718384,
   1.3781481981277466,
   1.3617444038391113,
   1.3468248844146729,
   1.3341482877731323,
   1.3216707706451416,
   1.3096158504486084,
   1.2990018129348755,
   1.2150262594223022,
   1.163948655128479,
   1.1268184185028076,
   1.1012887954711914,
   1.0835322141647339,
   1.0729238986968994,
   1.0642611980438232,
   1.0565587282180786,
   1.0511009693145752,
   1.0222237110137939,
   1.007882833480835,
   1.0018718242645264,
   0.99737691879272461,
   0.98938542604446411,
   1.0011409521102905,
   1.0020136833190918,
   0.99179428815841675,
   0.99157822132110596,
   1.0132589340209961,
   0.99720001220703125,
   0.99142777919769287,
   1.0066947937011719,
   1.0092662572860718,
   1.0009514093399048,
   0.99275720119476318,
   0.96485203504562378,
   1.0054872035980225
]
