[
   1.8281227350234985,
   1.82928466796875,
   1.8286842107772827,
   1.8282616138458252,
   1.8257925510406494,
   1.8265987634658813,
   1.8284841775894165,
   1.828075647354126,
   1.8271322250366211,
   1.8276512622833252,
   1.8265678882598877,
   1.8276641368865967,
   1.8255083560943604,
   1.8254741430282593,
   1.8243005275726318,
   1.8216159343719482,
   1.8202483654022217,
   1.8211510181427002,
   1.8188005685806274,
   1.812230110168457,
   1.80179762840271,
   1.7928692102432251,
   1.7889721393585205,
   1.780559778213501,
   1.775351881980896,
   1.7673066854476929,
   1.7606045007705688,
   1.7556028366088867,
   1.7035815715789795,
   1.6566545963287354,
   1.6182544231414795,
   1.5836144685745239,
   1.5527929067611694,
   1.5242545604705811,
   1.4975302219390869,
   1.4736995697021484,
   1.4532040357589722,
   1.3024805784225464,
   1.2251508235931396,
   1.1786661148071289,
   1.1415997743606567,
   1.115736722946167,
   1.0925459861755371,
   1.0837664604187012,
   1.0776908397674561,
   1.0633766651153564,
   1.0181303024291992,
   0.99709624052047729,
   0.97937107086181641,
   0.99324923753738403,
   0.99200594425201416,
   0.9930608868598938,
   0.99752873182296753,
   0.99005067348480225,
   1.0036518573760986,
   0.99632120132446289,
   0.98398935794830322,
   0.97746169567108154,
   0.98904228210449219,
   0.99188631772994995,
   1.0437033176422119,
   1.0133068561553955,
   1.0105849504470825,
   0.97470581531524658
]
