[
   3.681088924407959,
   3.6843059062957764,
   3.6889927387237549,
   3.6806094646453857,
   3.686251163482666,
   3.6822762489318848,
   3.6738998889923096,
   3.6736526489257812,
   3.6800339221954346,
   3.6705536842346191,
   3.6507027149200439,
   3.6326625347137451,
   3.6273288726806641,
   3.6099114418029785,
   3.5925133228302002,
   3.574033260345459,
   3.5569660663604736,
   3.5472977161407471,
   3.5376651287078857,
   3.4081344604492188,
   3.3201479911804199,
   3.2271041870117188,
   3.1391324996948242,
   3.0795488357543945,
   3.0117483139038086,
   2.9568614959716797,
   2.900118350982666,
   2.8538429737091064,
   2.4834311008453369,
   2.2247202396392822,
   2.039395809173584,
   1.8945949077606201,
   1.7763299942016602,
   1.6853975057601929,
   1.5969629287719727,
   1.5318607091903687,
   1.4753007888793945,
   1.1907289028167725,
   1.1195305585861206,
   1.0699962377548218,
   1.0562925338745117,
   1.0356802940368652,
   1.0222609043121338,
   1.0039517879486084,
   1.0069272518157959,
   1.0113441944122314,
   1.0069254636764526,
   0.99066412448883057,
   1.0137693881988525,
   0.97324180603027344,
   0.99998551607131958,
   1.0253143310546875,
   1.0162827968597412,
   0.99843961000442505,
   1.0374910831451416,
   1.0211179256439209,
   0.99702852964401245,
   0.99811112880706787,
   1.0093590021133423,
   0.97408998012542725,
   0.99753987789154053,
   0.98652774095535278,
   0.92664510011672974,
   0.91156148910522461
]
