[
   1.9405033588409424,
   1.9356552362442017,
   1.9392197132110596,
   1.9384561777114868,
   1.9364227056503296,
   1.9370244741439819,
   1.9364573955535889,
   1.9361515045166016,
   1.9352414608001709,
   1.9370765686035156,
   1.9318145513534546,
   1.9296464920043945,
   1.9241659641265869,
   1.9230747222900391,
   1.9196888208389282,
   1.9167165756225586,
   1.9159612655639648,
   1.9113451242446899,
   1.906693696975708,
   1.8811981678009033,
   1.8538544178009033,
   1.8335902690887451,
   1.81083083152771,
   1.7910811901092529,
   1.7744512557983398,
   1.756717324256897,
   1.742658257484436,
   1.7271019220352173,
   1.6141579151153564,
   1.535959005355835,
   1.4746105670928955,
   1.4266750812530518,
   1.3860322237014771,
   1.3520773649215698,
   1.3216023445129395,
   1.2949663400650024,
   1.2718042135238647,
   1.1363317966461182,
   1.0800234079360962,
   1.0557224750518799,
   1.0447808504104614,
   1.0342055559158325,
   1.0251097679138184,
   1.0133140087127686,
   1.0108288526535034,
   1.0056495666503906,
   1.0062612295150757,
   1.0068105459213257,
   0.99288338422775269,
   1.0006084442138672,
   0.99597501754760742,
   1.0083791017532349,
   1.0001856088638306,
   0.9982304573059082,
   1.0003082752227783,
   1.0037578344345093,
   1.0011497735977173,
   0.99777138233184814,
   0.99824637174606323,
   0.99045431613922119,
   1.0199847221374512,
   1.0073115825653076,
   1.002937912940979,
   1.0059124231338501
]
