[
   1.5074149370193481,
   1.5074779987335205,
   1.5084534883499146,
   1.5070512294769287,
   1.5076806545257568,
   1.5070109367370605,
   1.5074359178543091,
   1.5062792301177979,
   1.5070705413818359,
   1.5067505836486816,
   1.5053273439407349,
   1.5031881332397461,
   1.5029758214950562,
   1.4998419284820557,
   1.4999790191650391,
   1.4986675977706909,
   1.4981790781021118,
   1.4971282482147217,
   1.4962625503540039,
   1.4832271337509155,
   1.4716939926147461,
   1.4627537727355957,
   1.4522335529327393,
   1.4438260793685913,
   1.4352195262908936,
   1.4268900156021118,
   1.4187172651290894,
   1.410879373550415,
   1.3526463508605957,
   1.3107426166534424,
   1.2778387069702148,
   1.2531483173370361,
   1.2281055450439453,
   1.2109791040420532,
   1.1944767236709595,
   1.1806850433349609,
   1.167191743850708,
   1.091139554977417,
   1.0591278076171875,
   1.0407062768936157,
   1.025143027305603,
   1.017997145652771,
   1.0113424062728882,
   1.0099279880523682,
   1.004320502281189,
   1.0063810348510742,
   1.0028412342071533,
   0.99652844667434692,
   1.0016283988952637,
   0.99984216690063477,
   1.0016506910324097,
   1.0033286809921265,
   0.99748611450195312,
   1.0029590129852295,
   1.0015928745269775,
   0.99725520610809326,
   1.0075122117996216,
   1.0046443939208984,
   0.99424409866333008,
   0.99604862928390503,
   0.99329054355621338,
   0.97752201557159424,
   0.99118232727050781,
   0.95985078811645508
]
