[
   1.7257099151611328,
   1.7267920970916748,
   1.7273452281951904,
   1.7266013622283936,
   1.7249244451522827,
   1.726348876953125,
   1.7256948947906494,
   1.7251913547515869,
   1.7245006561279297,
   1.7261474132537842,
   1.7240591049194336,
   1.7224193811416626,
   1.7186044454574585,
   1.7176328897476196,
   1.7147276401519775,
   1.7105123996734619,
   1.709786057472229,
   1.708156943321228,
   1.7071609497070312,
   1.6870349645614624,
   1.6691728830337524,
   1.6538110971450806,
   1.6373014450073242,
   1.623116135597229,
   1.6109600067138672,
   1.5979781150817871,
   1.58629310131073,
   1.5761983394622803,
   1.4885189533233643,
   1.4261950254440308,
   1.3784048557281494,
   1.3406499624252319,
   1.3099073171615601,
   1.2821477651596069,
   1.2572997808456421,
   1.2391864061355591,
   1.2219657897949219,
   1.1195151805877686,
   1.0752103328704834,
   1.0478705167770386,
   1.0299699306488037,
   1.0258365869522095,
   1.0190557241439819,
   1.0162767171859741,
   1.0176498889923096,
   1.0111426115036011,
   1.0052834749221802,
   0.99675780534744263,
   0.99827033281326294,
   1.0001071691513062,
   0.99650084972381592,
   0.99116438627243042,
   0.99453604221343994,
   0.99867069721221924,
   0.99235361814498901,
   1.0031305551528931,
   1.0002939701080322,
   0.99584102630615234,
   1.0141181945800781,
   0.99151593446731567,
   0.99257546663284302,
   0.99250394105911255,
   0.99049103260040283,
   1.037583589553833
]
