[
   1.8045318126678467,
   1.8046836853027344,
   1.8047111034393311,
   1.8058322668075562,
   1.804088830947876,
   1.8059698343276978,
   1.8055883646011353,
   1.8056230545043945,
   1.8041660785675049,
   1.8010950088500977,
   1.8009765148162842,
   1.7981662750244141,
   1.7942774295806885,
   1.7922267913818359,
   1.7914962768554688,
   1.7863219976425171,
   1.7847268581390381,
   1.7819223403930664,
   1.7801071405410767,
   1.7563196420669556,
   1.7367849349975586,
   1.7141802310943604,
   1.6990776062011719,
   1.681979775428772,
   1.6644796133041382,
   1.6517060995101929,
   1.6373475790023804,
   1.6247791051864624,
   1.5272948741912842,
   1.4582043886184692,
   1.4075708389282227,
   1.3631547689437866,
   1.3269531726837158,
   1.2970335483551025,
   1.2682536840438843,
   1.2480242252349854,
   1.2301160097122192,
   1.1207283735275269,
   1.0775179862976074,
   1.0484833717346191,
   1.0352760553359985,
   1.0233747959136963,
   1.0117374658584595,
   1.0055592060089111,
   1.0047938823699951,
   0.99823206663131714,
   1.0056650638580322,
   1.0007003545761108,
   0.99889373779296875,
   0.99355041980743408,
   1.0003194808959961,
   0.99944001436233521,
   0.99499350786209106,
   0.99182510375976562,
   1.0030851364135742,
   1.0022429227828979,
   1.0057016611099243,
   0.99515676498413086,
   1.0021371841430664,
   1.0177488327026367,
   0.99939954280853271,
   0.97545260190963745,
   0.97517567873001099,
   1.0055568218231201
]
