[
   15.550882339477539,
   15.579034805297852,
   15.619158744812012,
   15.365976333618164,
   15.577054977416992,
   15.514549255371094,
   15.463005065917969,
   15.417350769042969,
   15.360437393188477,
   15.359384536743164,
   15.161676406860352,
   14.981077194213867,
   14.821693420410156,
   14.539567947387695,
   14.410815238952637,
   14.208414077758789,
   14.127700805664062,
   13.930941581726074,
   13.80707836151123,
   12.737493515014648,
   11.91148567199707,
   11.219527244567871,
   10.600821495056152,
   10.117738723754883,
   9.6381587982177734,
   9.2798566818237305,
   8.8984155654907227,
   8.4937105178833008,
   6.0022883415222168,
   4.5808954238891602,
   3.7140979766845703,
   3.0376167297363281,
   2.6380431652069092,
   2.4120244979858398,
   2.2019104957580566,
   1.9839303493499756,
   1.8644224405288696,
   1.3140153884887695,
   1.1238422393798828,
   1.0951133966445923,
   1.0840433835983276,
   1.0925227403640747,
   0.99959099292755127,
   1.0115119218826294,
   0.99411040544509888,
   1.0702526569366455,
   1.0312677621841431,
   0.9865143895149231,
   0.98096227645874023,
   0.95780098438262939,
   1.01823890209198,
   1.0379743576049805,
   1.0447285175323486,
   1.0227019786834717,
   1.0474172830581665,
   1.0809935331344604,
   1.0124905109405518,
   1.0536429882049561,
   1.0002286434173584,
   1.1319785118103027,
   0.93733870983123779,
   0.96665734052658081,
   1.0227470397949219,
   0.92006409168243408
]
