[
   1.6360276937484741,
   1.6366117000579834,
   1.6386754512786865,
   1.6363512277603149,
   1.6384537220001221,
   1.6373113393783569,
   1.6363931894302368,
   1.6360496282577515,
   1.6379401683807373,
   1.6361973285675049,
   1.6332954168319702,
   1.6323925256729126,
   1.6296615600585938,
   1.6288940906524658,
   1.6268631219863892,
   1.6259260177612305,
   1.6231334209442139,
   1.6231416463851929,
   1.6211721897125244,
   1.6055189371109009,
   1.588520884513855,
   1.5760934352874756,
   1.5633915662765503,
   1.5500409603118896,
   1.5401108264923096,
   1.5288994312286377,
   1.5203274488449097,
   1.5088762044906616,
   1.4339916706085205,
   1.3802417516708374,
   1.3367395401000977,
   1.3060104846954346,
   1.2758439779281616,
   1.251200795173645,
   1.2303988933563232,
   1.209023118019104,
   1.1940443515777588,
   1.101465106010437,
   1.0628013610839844,
   1.0387566089630127,
   1.0269417762756348,
   1.0167255401611328,
   1.0101931095123291,
   1.0109959840774536,
   1.0096011161804199,
   1.0052002668380737,
   0.99113714694976807,
   0.99016845226287842,
   0.99134862422943115,
   1.0001357793807983,
   0.9934535026550293,
   0.9901922345161438,
   0.99203884601593018,
   0.9996570348739624,
   1.0057137012481689,
   0.99080264568328857,
   0.99098283052444458,
   1.0033243894577026,
   0.99007874727249146,
   1.0070524215698242,
   0.99379664659500122,
   1.0210796594619751,
   1.0434925556182861,
   0.99568367004394531
]
