[
   2.1160957813262939,
   2.1112840175628662,
   2.1144404411315918,
   2.1116929054260254,
   2.1130928993225098,
   2.1134171485900879,
   2.1120047569274902,
   2.1124567985534668,
   2.1106948852539062,
   2.1092429161071777,
   2.1050324440002441,
   2.1009538173675537,
   2.0988001823425293,
   2.0960984230041504,
   2.088691234588623,
   2.0860049724578857,
   2.0818138122558594,
   2.0769248008728027,
   2.0757904052734375,
   2.0390114784240723,
   2.0088317394256592,
   1.9805517196655273,
   1.9534553289413452,
   1.9280601739883423,
   1.9098451137542725,
   1.885562539100647,
   1.8675769567489624,
   1.8490440845489502,
   1.7118856906890869,
   1.6125719547271729,
   1.541041374206543,
   1.4820343255996704,
   1.4307181835174561,
   1.3877608776092529,
   1.3499938249588013,
   1.3203561305999756,
   1.2944920063018799,
   1.1479970216751099,
   1.0915882587432861,
   1.0610830783843994,
   1.0402859449386597,
   1.0220850706100464,
   1.0183991193771362,
   1.0196130275726318,
   1.015699028968811,
   1.0050787925720215,
   0.99415791034698486,
   0.99001312255859375,
   0.99471873044967651,
   0.99859225749969482,
   1.0042175054550171,
   0.99119728803634644,
   0.98350876569747925,
   0.98414266109466553,
   0.9887310266494751,
   0.99665993452072144,
   1.0026861429214478,
   1.000440239906311,
   0.99109172821044922,
   1.0069476366043091,
   1.0034313201904297,
   1.0078543424606323,
   0.99421453475952148,
   1.0646415948867798
]
