[
   1.6998288631439209,
   1.7027574777603149,
   1.7019813060760498,
   1.7017561197280884,
   1.7036905288696289,
   1.7017065286636353,
   1.7020819187164307,
   1.7015743255615234,
   1.6993448734283447,
   1.7004425525665283,
   1.6997959613800049,
   1.6982828378677368,
   1.698012113571167,
   1.6965404748916626,
   1.6945587396621704,
   1.6957648992538452,
   1.691655158996582,
   1.6916723251342773,
   1.690446138381958,
   1.6792386770248413,
   1.6714179515838623,
   1.658635139465332,
   1.6516815423965454,
   1.6426061391830444,
   1.6344563961029053,
   1.626634955406189,
   1.6188052892684937,
   1.6114498376846313,
   1.547041654586792,
   1.4961247444152832,
   1.4551510810852051,
   1.4216253757476807,
   1.3928587436676025,
   1.3671209812164307,
   1.3456422090530396,
   1.3264305591583252,
   1.3057677745819092,
   1.1926511526107788,
   1.1338741779327393,
   1.1051067113876343,
   1.0777980089187622,
   1.0585094690322876,
   1.0491912364959717,
   1.0342143774032593,
   1.0232679843902588,
   1.0182263851165771,
   1.0010656118392944,
   0.99177771806716919,
   0.98958855867385864,
   0.99916410446166992,
   0.98986136913299561,
   0.99912995100021362,
   0.99888753890991211,
   1.0095293521881104,
   0.98738700151443481,
   0.99432957172393799,
   1.0073330402374268,
   1.0045888423919678,
   0.99895066022872925,
   1.0042823553085327,
   1.0020265579223633,
   0.99589061737060547,
   0.98699885606765747,
   0.98410147428512573
]
