[
   1.5575772523880005,
   1.5602200031280518,
   1.5589808225631714,
   1.5593616962432861,
   1.5602530241012573,
   1.5588095188140869,
   1.5592333078384399,
   1.5590485334396362,
   1.5577332973480225,
   1.558574914932251,
   1.5576404333114624,
   1.5566632747650146,
   1.556293249130249,
   1.5554014444351196,
   1.5543180704116821,
   1.5553309917449951,
   1.5522021055221558,
   1.5525702238082886,
   1.5512791872024536,
   1.5436683893203735,
   1.5377581119537354,
   1.5295007228851318,
   1.5235625505447388,
   1.517918586730957,
   1.5112569332122803,
   1.5058224201202393,
   1.5000827312469482,
   1.4944865703582764,
   1.4467068910598755,
   1.4086363315582275,
   1.3781816959381104,
   1.3526475429534912,
   1.3295077085494995,
   1.3105428218841553,
   1.2933700084686279,
   1.2781981229782104,
   1.2621104717254639,
   1.169247031211853,
   1.1200884580612183,
   1.0945613384246826,
   1.0704656839370728,
   1.0532357692718506,
   1.0441495180130005,
   1.0308202505111694,
   1.0207922458648682,
   1.0191571712493896,
   1.0002866983413696,
   0.99232280254364014,
   0.98960781097412109,
   0.99685382843017578,
   0.99074280261993408,
   0.99971657991409302,
   0.99918043613433838,
   1.0068762302398682,
   0.98871392011642456,
   0.99503880739212036,
   1.0062072277069092,
   1.0034798383712769,
   0.9988977313041687,
   1.004280686378479,
   0.99793016910552979,
   0.99708473682403564,
   0.99158370494842529,
   0.98514354228973389
]
