[
   3.9448115825653076,
   3.9508876800537109,
   3.9463462829589844,
   3.9507884979248047,
   3.9519622325897217,
   3.9470133781433105,
   3.9477875232696533,
   3.9435515403747559,
   3.9330902099609375,
   3.9320030212402344,
   3.9311478137969971,
   3.9138636589050293,
   3.8945114612579346,
   3.8877143859863281,
   3.883430004119873,
   3.8748817443847656,
   3.8607509136199951,
   3.8477668762207031,
   3.831434965133667,
   3.734544038772583,
   3.647169828414917,
   3.5622928142547607,
   3.4841670989990234,
   3.4204719066619873,
   3.3489291667938232,
   3.3017323017120361,
   3.2430691719055176,
   3.1861863136291504,
   2.7787346839904785,
   2.4880173206329346,
   2.2815053462982178,
   2.1242992877960205,
   1.995901346206665,
   1.9003480672836304,
   1.8153860569000244,
   1.7386856079101562,
   1.6771697998046875,
   1.3563178777694702,
   1.2122485637664795,
   1.1614086627960205,
   1.1387817859649658,
   1.0928084850311279,
   1.0874290466308594,
   1.0560524463653564,
   1.0214745998382568,
   1.0217567682266235,
   1.008759617805481,
   0.98184502124786377,
   0.98658883571624756,
   1.0228971242904663,
   0.96256798505783081,
   0.99541169404983521,
   0.98699933290481567,
   1.0240118503570557,
   0.96673917770385742,
   0.98622149229049683,
   1.0196778774261475,
   1.0048573017120361,
   1.0004874467849731,
   1.0099751949310303,
   1.0310118198394775,
   0.99784773588180542,
   0.94963419437408447,
   0.98815852403640747
]
