[
   1.9193172454833984,
   1.9231472015380859,
   1.9215313196182251,
   1.9216811656951904,
   1.9240305423736572,
   1.9206697940826416,
   1.9207957983016968,
   1.9214489459991455,
   1.9175970554351807,
   1.9195858240127563,
   1.9183547496795654,
   1.9156783819198608,
   1.9141852855682373,
   1.9121745824813843,
   1.9106874465942383,
   1.9112106561660767,
   1.9075291156768799,
   1.9057890176773071,
   1.9039676189422607,
   1.8865092992782593,
   1.8735326528549194,
   1.8559293746948242,
   1.843707799911499,
   1.8300206661224365,
   1.8185529708862305,
   1.8076975345611572,
   1.7949514389038086,
   1.7852503061294556,
   1.6917316913604736,
   1.6215741634368896,
   1.5647443532943726,
   1.5177766084671021,
   1.478990912437439,
   1.4451099634170532,
   1.4170005321502686,
   1.3907685279846191,
   1.3643008470535278,
   1.222214937210083,
   1.1501991748809814,
   1.1174783706665039,
   1.08631432056427,
   1.0645649433135986,
   1.0560604333877563,
   1.0364850759506226,
   1.0245721340179443,
   1.019489049911499,
   1.0007477998733521,
   0.98892754316329956,
   0.98849678039550781,
   1.002266526222229,
   0.98671835660934448,
   0.99969911575317383,
   0.99930840730667114,
   1.011499285697937,
   0.98536574840545654,
   0.9922906756401062,
   1.0101964473724365,
   1.0049605369567871,
   0.99744546413421631,
   1.0038468837738037,
   1.007961630821228,
   0.99623173475265503,
   0.97885292768478394,
   0.9823991060256958
]
