[
   1.4597625732421875,
   1.4582642316818237,
   1.4598085880279541,
   1.458853006362915,
   1.4598586559295654,
   1.4600322246551514,
   1.4592478275299072,
   1.4591435194015503,
   1.4590375423431396,
   1.4589473009109497,
   1.4586155414581299,
   1.4576005935668945,
   1.4569092988967896,
   1.4570677280426025,
   1.4554481506347656,
   1.4553742408752441,
   1.4549968242645264,
   1.4545848369598389,
   1.4533845186233521,
   1.4472452402114868,
   1.4427622556686401,
   1.4376276731491089,
   1.4321180582046509,
   1.4269931316375732,
   1.4229885339736938,
   1.4189517498016357,
   1.412372350692749,
   1.4089577198028564,
   1.3721417188644409,
   1.3433568477630615,
   1.3181393146514893,
   1.2966738939285278,
   1.2781664133071899,
   1.2623120546340942,
   1.248421311378479,
   1.2354031801223755,
   1.2232958078384399,
   1.1452659368515015,
   1.1030852794647217,
   1.0779385566711426,
   1.0592479705810547,
   1.0493576526641846,
   1.041379451751709,
   1.0345238447189331,
   1.0303777456283569,
   1.0304625034332275,
   1.0058530569076538,
   0.99334096908569336,
   0.99763715267181396,
   1.0009168386459351,
   1.002842903137207,
   1.000795841217041,
   0.99801731109619141,
   0.99565297365188599,
   0.98962610960006714,
   1.0031414031982422,
   0.99351108074188232,
   1.0003411769866943,
   0.98911106586456299,
   0.99674892425537109,
   0.99536150693893433,
   1.0066499710083008,
   0.98776119947433472,
   1.0056636333465576
]
