[
   1.6143194437026978,
   1.6131808757781982,
   1.6129163503646851,
   1.6135997772216797,
   1.6119024753570557,
   1.6136165857315063,
   1.6129649877548218,
   1.6122363805770874,
   1.612717866897583,
   1.6124942302703857,
   1.6124475002288818,
   1.6120338439941406,
   1.6104466915130615,
   1.6090484857559204,
   1.6094205379486084,
   1.6075321435928345,
   1.6063343286514282,
   1.6061704158782959,
   1.6054494380950928,
   1.5950556993484497,
   1.5871816873550415,
   1.5814614295959473,
   1.5728164911270142,
   1.5639386177062988,
   1.5579767227172852,
   1.5503079891204834,
   1.5445916652679443,
   1.5370780229568481,
   1.4847300052642822,
   1.4418301582336426,
   1.4064348936080933,
   1.3766024112701416,
   1.3500229120254517,
   1.3271065950393677,
   1.3069007396697998,
   1.2900898456573486,
   1.2727049589157104,
   1.169324517250061,
   1.1183450222015381,
   1.0873712301254272,
   1.0712848901748657,
   1.0603909492492676,
   1.0487949848175049,
   1.0396492481231689,
   1.0311378240585327,
   1.0266202688217163,
   0.99950331449508667,
   1.0066815614700317,
   1.0153968334197998,
   1.0009697675704956,
   1.0023037195205688,
   1.0030920505523682,
   0.999317467212677,
   0.99798774719238281,
   0.99860459566116333,
   0.99244415760040283,
   0.98112010955810547,
   1.0001300573348999,
   0.99907636642456055,
   1.0067217350006104,
   1.0005980730056763,
   1.0387978553771973,
   1.0185108184814453,
   0.98897409439086914
]
