[
   2.5741012096405029,
   2.5763437747955322,
   2.5751652717590332,
   2.5771167278289795,
   2.5768222808837891,
   2.5738508701324463,
   2.5735840797424316,
   2.5744602680206299,
   2.5724630355834961,
   2.57320237159729,
   2.5709407329559326,
   2.5627303123474121,
   2.5603640079498291,
   2.5576543807983398,
   2.5481572151184082,
   2.5520374774932861,
   2.5442953109741211,
   2.5409040451049805,
   2.5373711585998535,
   2.4989035129547119,
   2.4627227783203125,
   2.4327163696289062,
   2.4039847850799561,
   2.3716859817504883,
   2.3394424915313721,
   2.3194303512573242,
   2.2952437400817871,
   2.2690303325653076,
   2.0938141345977783,
   1.9567136764526367,
   1.8488870859146118,
   1.7677911520004272,
   1.6934076547622681,
   1.6362502574920654,
   1.5882869958877563,
   1.5408947467803955,
   1.5016875267028809,
   1.2783138751983643,
   1.1947989463806152,
   1.1463158130645752,
   1.1058927774429321,
   1.0934473276138306,
   1.0840017795562744,
   1.0598635673522949,
   1.0527784824371338,
   1.0481023788452148,
   1.0133621692657471,
   1.002166748046875,
   1.0024710893630981,
   0.99379289150238037,
   0.98518133163452148,
   0.97722548246383667,
   0.97268784046173096,
   0.97395831346511841,
   0.994983971118927,
   0.99400854110717773,
   0.99039924144744873,
   0.9997221827507019,
   0.99478226900100708,
   0.98499667644500732,
   1.008147120475769,
   1.0209100246429443,
   0.98489969968795776,
   1.1029695272445679
]
