[
   1.7960822582244873,
   1.7997796535491943,
   1.7983347177505493,
   1.7980740070343018,
   1.8000255823135376,
   1.7971185445785522,
   1.7977018356323242,
   1.7977807521820068,
   1.7947731018066406,
   1.7965421676635742,
   1.7953304052352905,
   1.7939014434814453,
   1.7926762104034424,
   1.7906210422515869,
   1.7887935638427734,
   1.7899847030639648,
   1.7860851287841797,
   1.7854206562042236,
   1.7839536666870117,
   1.7697896957397461,
   1.7602369785308838,
   1.7453691959381104,
   1.7363226413726807,
   1.7251542806625366,
   1.7152974605560303,
   1.7070550918579102,
   1.6965770721435547,
   1.6882390975952148,
   1.611699104309082,
   1.5517590045928955,
   1.5045311450958252,
   1.464975118637085,
   1.4322798252105713,
   1.4020260572433472,
   1.3782100677490234,
   1.3558413982391357,
   1.331773042678833,
   1.2056485414505005,
   1.1416780948638916,
   1.1112626791000366,
   1.0816879272460938,
   1.0613062381744385,
   1.0523167848587036,
   1.0351526737213135,
   1.0239359140396118,
   1.0187360048294067,
   1.0012775659561157,
   0.9910704493522644,
   0.9895625114440918,
   1.0003259181976318,
   0.98808163404464722,
   0.99954688549041748,
   0.99958455562591553,
   1.0104577541351318,
   0.98659610748291016,
   0.99371832609176636,
   1.0087680816650391,
   1.0045998096466064,
   0.99856507778167725,
   1.0038249492645264,
   1.0046869516372681,
   0.99600791931152344,
   0.98359090089797974,
   0.98148459196090698
]
