[
   5.6917924880981445,
   5.7065029144287109,
   5.7024416923522949,
   5.704348087310791,
   5.7113447189331055,
   5.698451042175293,
   5.6914305686950684,
   5.6935687065124512,
   5.6738038063049316,
   5.6678533554077148,
   5.6563873291015625,
   5.6202287673950195,
   5.5861649513244629,
   5.5730209350585938,
   5.5560922622680664,
   5.5193281173706055,
   5.4986095428466797,
   5.4829912185668945,
   5.4506196975708008,
   5.2557706832885742,
   5.0760016441345215,
   4.909907341003418,
   4.763883113861084,
   4.640261173248291,
   4.4944853782653809,
   4.4060301780700684,
   4.3092265129089355,
   4.1913623809814453,
   3.4694957733154297,
   2.9948782920837402,
   2.6837308406829834,
   2.4389817714691162,
   2.2516388893127441,
   2.1084275245666504,
   1.988961935043335,
   1.890128493309021,
   1.8029451370239258,
   1.4126904010772705,
   1.2189550399780273,
   1.1723703145980835,
   1.1614226102828979,
   1.1045705080032349,
   1.1020476818084717,
   1.0713229179382324,
   1.0268003940582275,
   1.0289465188980103,
   1.0202538967132568,
   0.978870689868927,
   0.98424112796783447,
   1.0296334028244019,
   0.94784384965896606,
   0.99379080533981323,
   0.98007452487945557,
   1.0319384336471558,
   0.96007406711578369,
   0.98545503616333008,
   1.0251357555389404,
   1.0040786266326904,
   1.0221989154815674,
   1.0087059736251831,
   1.0436052083969116,
   1.0047821998596191,
   0.94201278686523438,
   0.98418319225311279
]
