[
   1.5071209669113159,
   1.506996750831604,
   1.5065027475357056,
   1.5056091547012329,
   1.5072481632232666,
   1.5056421756744385,
   1.5063997507095337,
   1.505964994430542,
   1.506389856338501,
   1.5060933828353882,
   1.5052012205123901,
   1.5046595335006714,
   1.5034443140029907,
   1.5034762620925903,
   1.5024653673171997,
   1.5027091503143311,
   1.5013209581375122,
   1.4996498823165894,
   1.4997667074203491,
   1.4933227300643921,
   1.4882407188415527,
   1.4809181690216064,
   1.4754717350006104,
   1.4715101718902588,
   1.4654322862625122,
   1.4601439237594604,
   1.4555525779724121,
   1.4493381977081299,
   1.4088461399078369,
   1.3768680095672607,
   1.3500293493270874,
   1.3265261650085449,
   1.3064982891082764,
   1.290386438369751,
   1.2754062414169312,
   1.2607160806655884,
   1.2482694387435913,
   1.1639726161956787,
   1.1185460090637207,
   1.0883251428604126,
   1.0685663223266602,
   1.0544979572296143,
   1.0441769361495972,
   1.035783052444458,
   1.0276468992233276,
   1.0279690027236938,
   1.0002256631851196,
   1.0016791820526123,
   0.99872684478759766,
   1.0029675960540771,
   0.99944174289703369,
   0.9915766716003418,
   0.99672043323516846,
   1.0007473230361938,
   0.98955786228179932,
   1.004807710647583,
   1.0005286931991577,
   0.99744206666946411,
   0.99913060665130615,
   1.0022172927856445,
   0.99657279253005981,
   0.96562373638153076,
   1.0028514862060547,
   0.97031700611114502
]
