[
   1.5376977920532227,
   1.5379525423049927,
   1.5380928516387939,
   1.5378139019012451,
   1.5381345748901367,
   1.5372469425201416,
   1.5376770496368408,
   1.5378822088241577,
   1.537684440612793,
   1.5371814966201782,
   1.5366789102554321,
   1.5374389886856079,
   1.5361816883087158,
   1.5339953899383545,
   1.5351332426071167,
   1.533016562461853,
   1.5335373878479004,
   1.5314786434173584,
   1.531062126159668,
   1.5246315002441406,
   1.5178247690200806,
   1.5128685235977173,
   1.5072786808013916,
   1.5015261173248291,
   1.497389554977417,
   1.4928932189941406,
   1.4863119125366211,
   1.4824345111846924,
   1.4429202079772949,
   1.4109898805618286,
   1.3855887651443481,
   1.3642547130584717,
   1.3430569171905518,
   1.3255881071090698,
   1.3094221353530884,
   1.2945396900177002,
   1.2800222635269165,
   1.1894518136978149,
   1.1391975879669189,
   1.1037261486053467,
   1.0770647525787354,
   1.0600982904434204,
   1.0483705997467041,
   1.0409986972808838,
   1.0339082479476929,
   1.0342144966125488,
   1.0015091896057129,
   1.0068906545639038,
   1.0079730749130249,
   0.99726086854934692,
   0.99753940105438232,
   1.0067628622055054,
   1.0085328817367554,
   1.0013458728790283,
   0.99754083156585693,
   0.99098682403564453,
   0.99273979663848877,
   0.99482882022857666,
   1.0047022104263306,
   0.99470889568328857,
   1.0063798427581787,
   1.0066732168197632,
   1.032996654510498,
   0.94969761371612549
]
