[
   1.6804420948028564,
   1.6797149181365967,
   1.6799430847167969,
   1.6800075769424438,
   1.6817185878753662,
   1.6810905933380127,
   1.6801141500473022,
   1.6797959804534912,
   1.6813831329345703,
   1.6800903081893921,
   1.6790040731430054,
   1.677631139755249,
   1.6765594482421875,
   1.6736377477645874,
   1.6735900640487671,
   1.6738895177841187,
   1.6736835241317749,
   1.6714375019073486,
   1.6703870296478271,
   1.6620616912841797,
   1.6533527374267578,
   1.6434869766235352,
   1.6360750198364258,
   1.6287460327148438,
   1.6209589242935181,
   1.6137020587921143,
   1.6089565753936768,
   1.6012661457061768,
   1.5453898906707764,
   1.5020210742950439,
   1.4647718667984009,
   1.4346439838409424,
   1.4061883687973022,
   1.3814917802810669,
   1.3584511280059814,
   1.3381389379501343,
   1.3206189870834351,
   1.2029974460601807,
   1.1369087696075439,
   1.1020140647888184,
   1.0813581943511963,
   1.067552924156189,
   1.0587446689605713,
   1.0529742240905762,
   1.0435580015182495,
   1.0338233709335327,
   1.0118094682693481,
   0.99713099002838135,
   1.0040502548217773,
   1.0091249942779541,
   0.98612850904464722,
   0.99528998136520386,
   1.0109739303588867,
   1.0012009143829346,
   1.0012245178222656,
   1.0138051509857178,
   1.0067356824874878,
   0.98707723617553711,
   0.99550247192382812,
   0.99313867092132568,
   1.0079933404922485,
   0.97157829999923706,
   0.93691980838775635,
   0.98265200853347778
]
