[
   1.4426572322845459,
   1.4428830146789551,
   1.4423263072967529,
   1.4425866603851318,
   1.4431842565536499,
   1.442778468132019,
   1.4414663314819336,
   1.4429054260253906,
   1.4421072006225586,
   1.4420397281646729,
   1.4415571689605713,
   1.4412574768066406,
   1.4408074617385864,
   1.4401322603225708,
   1.4395968914031982,
   1.4387834072113037,
   1.4383972883224487,
   1.4378731250762939,
   1.4366605281829834,
   1.4325690269470215,
   1.4274377822875977,
   1.4236946105957031,
   1.4185173511505127,
   1.4149281978607178,
   1.4112564325332642,
   1.4069602489471436,
   1.4031741619110107,
   1.399667501449585,
   1.3687293529510498,
   1.3439409732818604,
   1.3227651119232178,
   1.3036633729934692,
   1.2882463932037354,
   1.2733979225158691,
   1.2595136165618896,
   1.2486892938613892,
   1.2376831769943237,
   1.1612579822540283,
   1.1179831027984619,
   1.091442346572876,
   1.0691322088241577,
   1.0554006099700928,
   1.0427951812744141,
   1.0362155437469482,
   1.0281126499176025,
   1.0262647867202759,
   1.00480055809021,
   1.0024778842926025,
   0.99366110563278198,
   0.99379980564117432,
   0.98874485492706299,
   0.99672144651412964,
   0.9921380877494812,
   0.99988424777984619,
   1.0067951679229736,
   1.0041446685791016,
   1.0034375190734863,
   0.99305647611618042,
   0.99365824460983276,
   0.99378013610839844,
   1.0064094066619873,
   0.99826109409332275,
   1.0056787729263306,
   0.97775852680206299
]
