[
   3.3291230201721191,
   3.331190824508667,
   3.3386960029602051,
   3.3307693004608154,
   3.3278708457946777,
   3.3210768699645996,
   3.3215336799621582,
   3.3239624500274658,
   3.3220601081848145,
   3.3280913829803467,
   3.3199329376220703,
   3.3189635276794434,
   3.2992343902587891,
   3.2914817333221436,
   3.2818038463592529,
   3.2806644439697266,
   3.2749896049499512,
   3.2634425163269043,
   3.2577145099639893,
   3.1903505325317383,
   3.1339888572692871,
   3.0801079273223877,
   3.0320088863372803,
   2.9869632720947266,
   2.9395527839660645,
   2.8996818065643311,
   2.8496623039245605,
   2.8191313743591309,
   2.5178384780883789,
   2.3043580055236816,
   2.1406233310699463,
   2.0087199211120605,
   1.9058977365493774,
   1.8150279521942139,
   1.7412656545639038,
   1.6812530755996704,
   1.6297578811645508,
   1.3462145328521729,
   1.2185628414154053,
   1.1594772338867188,
   1.1245138645172119,
   1.0896351337432861,
   1.066402792930603,
   1.0494997501373291,
   1.0467658042907715,
   1.046276330947876,
   1.0268003940582275,
   0.99194669723510742,
   0.99708020687103271,
   0.96805447340011597,
   0.97709149122238159,
   1.0068011283874512,
   0.99733507633209229,
   1.020435094833374,
   1.0059341192245483,
   1.0027930736541748,
   1.0063893795013428,
   1.0031682252883911,
   1.033198356628418,
   1.0034658908843994,
   0.95544087886810303,
   0.91222286224365234,
   0.89810764789581299,
   1.0084148645401001
]
