[
   155.50588989257812,
   154.43255615234375,
   151.61888122558594,
   151.90083312988281,
   154.34542846679688,
   150.30532836914062,
   144.50889587402344,
   148.34263610839844,
   144.83103942871094,
   147.08039855957031,
   138.0565185546875,
   132.74880981445312,
   128.25119018554688,
   124.57588958740234,
   117.10091400146484,
   114.25181579589844,
   111.77427673339844,
   109.96907806396484,
   103.47731018066406,
   80.246131896972656,
   66.674057006835938,
   56.036235809326172,
   47.672615051269531,
   42.950836181640625,
   39.849235534667969,
   34.674720764160156,
   30.918767929077148,
   27.798000335693359,
   17.552215576171875,
   12.281475067138672,
   8.6140680313110352,
   6.4434752464294434,
   5.2880778312683105,
   4.2237324714660645,
   3.9434089660644531,
   3.2487893104553223,
   3.4228222370147705,
   1.7221591472625732,
   1.0569881200790405,
   1.2058461904525757,
   0.95086050033569336,
   1.0708705186843872,
   1.1056928634643555,
   0.77974754571914673,
   1.0084024667739868,
   0.86718904972076416,
   0.75006633996963501,
   0.58293861150741577,
   0.86042153835296631,
   1.2629371881484985,
   0.82226979732513428,
   0.7698138952255249,
   1.0313383340835571,
   1.1699874401092529,
   0.58066022396087646,
   1.3146038055419922,
   1.0198614597320557,
   0.67650210857391357,
   1.0596441030502319,
   0.93967211246490479,
   0.56899046897888184,
   1.4552303552627563,
   0.86224710941314697,
   0.63566052913665771
]
