[
   5.4643726348876953,
   5.4743833541870117,
   5.462336540222168,
   5.4451150894165039,
   5.4400248527526855,
   5.4625873565673828,
   5.4365425109863281,
   5.4502129554748535,
   5.4413347244262695,
   5.428403377532959,
   5.4096307754516602,
   5.3592252731323242,
   5.3348598480224609,
   5.3120861053466797,
   5.2796053886413574,
   5.2379002571105957,
   5.2080512046813965,
   5.1657266616821289,
   5.1626267433166504,
   4.8915777206420898,
   4.6890468597412109,
   4.5047397613525391,
   4.3482866287231445,
   4.2091107368469238,
   4.0823683738708496,
   3.9874401092529297,
   3.8713371753692627,
   3.7663822174072266,
   3.1136107444763184,
   2.7231228351593018,
   2.4228556156158447,
   2.2227482795715332,
   2.0628859996795654,
   1.9266364574432373,
   1.8055307865142822,
   1.7183363437652588,
   1.6457412242889404,
   1.2935130596160889,
   1.1507314443588257,
   1.0908558368682861,
   1.0375535488128662,
   1.0320168733596802,
   1.0092818737030029,
   1.0073467493057251,
   0.98813933134078979,
   1.0132555961608887,
   0.98918038606643677,
   0.96437662839889526,
   0.99282419681549072,
   1.0150446891784668,
   1.0117065906524658,
   0.97317904233932495,
   1.0006859302520752,
   0.96643412113189697,
   0.98157674074172974,
   0.98736667633056641,
   1.0247007608413696,
   0.98940151929855347,
   0.99566209316253662,
   1.0241477489471436,
   0.99696338176727295,
   1.0424679517745972,
   1.0312321186065674,
   0.94739615917205811
]
