[
   1.5534775257110596,
   1.5520179271697998,
   1.5539494752883911,
   1.5530773401260376,
   1.5545016527175903,
   1.551754355430603,
   1.5528477430343628,
   1.5520904064178467,
   1.5528652667999268,
   1.5533361434936523,
   1.5513519048690796,
   1.549126148223877,
   1.5480903387069702,
   1.5481523275375366,
   1.545110821723938,
   1.5452364683151245,
   1.5443716049194336,
   1.541991114616394,
   1.5413792133331299,
   1.5288078784942627,
   1.5187990665435791,
   1.5094915628433228,
   1.4985188245773315,
   1.4902663230895996,
   1.479945182800293,
   1.4721633195877075,
   1.4632055759429932,
   1.4551827907562256,
   1.3916887044906616,
   1.3472138643264771,
   1.3094688653945923,
   1.2811954021453857,
   1.2565219402313232,
   1.2381443977355957,
   1.220223069190979,
   1.2056834697723389,
   1.1911780834197998,
   1.1095550060272217,
   1.0715057849884033,
   1.0466880798339844,
   1.0327268838882446,
   1.0244762897491455,
   1.0168377161026001,
   1.0161292552947998,
   1.0109741687774658,
   1.0144191980361938,
   1.0055810213088989,
   0.99570906162261963,
   0.99661731719970703,
   1.0013053417205811,
   0.99308526515960693,
   0.99377506971359253,
   1.000291109085083,
   1.0026932954788208,
   0.99966800212860107,
   0.99671381711959839,
   0.99970465898513794,
   1.0008997917175293,
   0.98846089839935303,
   1.0045480728149414,
   0.98823201656341553,
   0.994548499584198,
   1.0140247344970703,
   0.97951996326446533
]
