[
   1.7717784643173218,
   1.7730699777603149,
   1.7712980508804321,
   1.7715160846710205,
   1.7724359035491943,
   1.7722707986831665,
   1.7709062099456787,
   1.7698705196380615,
   1.7731205224990845,
   1.7710201740264893,
   1.7685075998306274,
   1.7678823471069336,
   1.766675591468811,
   1.7621839046478271,
   1.7605278491973877,
   1.7595522403717041,
   1.7584956884384155,
   1.7535444498062134,
   1.7527849674224854,
   1.7321298122406006,
   1.7156909704208374,
   1.6986236572265625,
   1.682407021522522,
   1.6671806573867798,
   1.6549217700958252,
   1.6392631530761719,
   1.6275956630706787,
   1.6166826486587524,
   1.5194351673126221,
   1.4537880420684814,
   1.4024348258972168,
   1.3644946813583374,
   1.3303928375244141,
   1.3014484643936157,
   1.2766225337982178,
   1.2536756992340088,
   1.2363413572311401,
   1.1305340528488159,
   1.0861885547637939,
   1.0519697666168213,
   1.0355088710784912,
   1.0229381322860718,
   1.0152511596679688,
   1.0182908773422241,
   1.0155704021453857,
   1.0103461742401123,
   0.99764335155487061,
   0.99430286884307861,
   1.0025651454925537,
   0.99864959716796875,
   0.99972963333129883,
   0.99478471279144287,
   0.99239838123321533,
   0.98099601268768311,
   0.98574960231781006,
   0.994251549243927,
   0.98432368040084839,
   0.98601484298706055,
   0.98483115434646606,
   1.00681471824646,
   1.0149309635162354,
   1.0206899642944336,
   0.99576318264007568,
   0.99700230360031128
]
