[
   2.4277119636535645,
   2.4246687889099121,
   2.4293911457061768,
   2.4275052547454834,
   2.4270193576812744,
   2.4262514114379883,
   2.4228501319885254,
   2.4256966114044189,
   2.4276292324066162,
   2.4198524951934814,
   2.4158768653869629,
   2.413724422454834,
   2.4082798957824707,
   2.4022955894470215,
   2.395118236541748,
   2.3873598575592041,
   2.3890380859375,
   2.3802642822265625,
   2.3756527900695801,
   2.3255448341369629,
   2.2832953929901123,
   2.2458410263061523,
   2.2074198722839355,
   2.1677534580230713,
   2.1370527744293213,
   2.1096994876861572,
   2.0827889442443848,
   2.0543010234832764,
   1.8642555475234985,
   1.7339255809783936,
   1.6329530477523804,
   1.5621044635772705,
   1.5026994943618774,
   1.4510836601257324,
   1.4093385934829712,
   1.3710492849349976,
   1.3423981666564941,
   1.1763547658920288,
   1.1120363473892212,
   1.077411413192749,
   1.0565338134765625,
   1.0418689250946045,
   1.0258495807647705,
   1.0233604907989502,
   1.0260641574859619,
   1.0142083168029785,
   0.98869991302490234,
   1.003922700881958,
   0.99801146984100342,
   1.0008344650268555,
   1.0076899528503418,
   1.0048865079879761,
   0.99746048450469971,
   1.0041453838348389,
   0.99532783031463623,
   1.0032467842102051,
   1.0009055137634277,
   1.0026842355728149,
   0.99185407161712646,
   1.0001199245452881,
   0.98143750429153442,
   0.98731815814971924,
   0.99146080017089844,
   1.0065644979476929
]
