[
   4.0564508438110352,
   4.0626020431518555,
   4.0730657577514648,
   4.0483379364013672,
   4.0513873100280762,
   4.0551919937133789,
   4.0440144538879395,
   4.0518407821655273,
   4.038020133972168,
   4.0424795150756836,
   4.0340871810913086,
   4.0118298530578613,
   3.9842681884765625,
   3.9749808311462402,
   3.9628727436065674,
   3.9463057518005371,
   3.9232392311096191,
   3.9140338897705078,
   3.9002509117126465,
   3.7368941307067871,
   3.6094298362731934,
   3.503079891204834,
   3.4064254760742188,
   3.3171448707580566,
   3.237001895904541,
   3.1609673500061035,
   3.0955967903137207,
   3.0382778644561768,
   2.5894958972930908,
   2.3154206275939941,
   2.1208028793334961,
   1.9754531383514404,
   1.8511831760406494,
   1.7713329792022705,
   1.6826566457748413,
   1.6266361474990845,
   1.5712734460830688,
   1.2714383602142334,
   1.1732916831970215,
   1.1115707159042358,
   1.0526951551437378,
   1.0527513027191162,
   1.0491633415222168,
   1.0262486934661865,
   1.0215015411376953,
   1.0311133861541748,
   1.0053932666778564,
   0.98213255405426025,
   0.99149465560913086,
   0.98798114061355591,
   1.0056916475296021,
   0.99918574094772339,
   0.98989659547805786,
   0.99865263700485229,
   1.0100640058517456,
   1.0312901735305786,
   1.0060107707977295,
   0.9894794225692749,
   1.004851222038269,
   1.0124280452728271,
   0.95624196529388428,
   0.99658411741256714,
   0.97103273868560791,
   0.9723820686340332
]
