[
   1.6859918832778931,
   1.6828950643539429,
   1.6857023239135742,
   1.6840654611587524,
   1.6828956604003906,
   1.6821410655975342,
   1.6829814910888672,
   1.6818573474884033,
   1.6832154989242554,
   1.6846157312393188,
   1.6828954219818115,
   1.6806052923202515,
   1.6773321628570557,
   1.6775875091552734,
   1.6735137701034546,
   1.6714260578155518,
   1.6697025299072266,
   1.6705408096313477,
   1.668927788734436,
   1.652454137802124,
   1.6378929615020752,
   1.624961256980896,
   1.6110961437225342,
   1.5973498821258545,
   1.5871325731277466,
   1.5730069875717163,
   1.5655953884124756,
   1.5549299716949463,
   1.4732239246368408,
   1.4151548147201538,
   1.3702841997146606,
   1.332781195640564,
   1.3022480010986328,
   1.2784888744354248,
   1.2552191019058228,
   1.2373427152633667,
   1.2223193645477295,
   1.1229913234710693,
   1.0741386413574219,
   1.0520861148834229,
   1.0384006500244141,
   1.0306012630462646,
   1.0223079919815063,
   1.0143219232559204,
   1.0146061182022095,
   1.0092864036560059,
   0.99738425016403198,
   0.99930107593536377,
   1.0001943111419678,
   0.99920690059661865,
   0.99791353940963745,
   1.0073751211166382,
   1.005918025970459,
   1.0057646036148071,
   1.0042344331741333,
   1.0053504705429077,
   0.99519407749176025,
   1.0003035068511963,
   1.0044453144073486,
   0.99206191301345825,
   0.98835819959640503,
   0.99079608917236328,
   0.99762427806854248,
   0.92682963609695435
]
