[
   2.0073790550231934,
   2.0062675476074219,
   2.003633975982666,
   2.005836009979248,
   2.0066056251525879,
   2.0087835788726807,
   2.0055618286132812,
   2.0065603256225586,
   2.0062844753265381,
   2.0048754215240479,
   2.0039520263671875,
   1.9991681575775146,
   1.9953958988189697,
   1.9936487674713135,
   1.9898138046264648,
   1.9863061904907227,
   1.9806503057479858,
   1.9780094623565674,
   1.9761362075805664,
   1.9490360021591187,
   1.9207748174667358,
   1.8954788446426392,
   1.8703371286392212,
   1.8497111797332764,
   1.830112099647522,
   1.8069896697998047,
   1.7897806167602539,
   1.77260422706604,
   1.6460723876953125,
   1.5574167966842651,
   1.4883934259414673,
   1.4362959861755371,
   1.3928130865097046,
   1.3573572635650635,
   1.3271679878234863,
   1.3051261901855469,
   1.2777775526046753,
   1.1524221897125244,
   1.0932267904281616,
   1.0624394416809082,
   1.0436693429946899,
   1.0354311466217041,
   1.0322130918502808,
   1.0181514024734497,
   1.0206495523452759,
   1.0204585790634155,
   0.99248045682907104,
   0.99884110689163208,
   0.99858105182647705,
   0.99285203218460083,
   0.98704326152801514,
   0.98308145999908447,
   0.98522698879241943,
   0.99623364210128784,
   0.9870830774307251,
   0.99297749996185303,
   0.99463796615600586,
   0.98572748899459839,
   0.9912683367729187,
   0.99544793367385864,
   1.0260384082794189,
   1.0169671773910522,
   1.008352518081665,
   1.069582462310791
]
