[
   2.8053834438323975,
   2.8068759441375732,
   2.8054893016815186,
   2.8044230937957764,
   2.7944064140319824,
   2.8016242980957031,
   2.8007631301879883,
   2.8036224842071533,
   2.8039486408233643,
   2.7983884811401367,
   2.7937712669372559,
   2.7847206592559814,
   2.7784762382507324,
   2.7642326354980469,
   2.759209156036377,
   2.7558801174163818,
   2.7454771995544434,
   2.747572660446167,
   2.7332532405853271,
   2.6651334762573242,
   2.5993838310241699,
   2.5532364845275879,
   2.4984071254730225,
   2.4499790668487549,
   2.4113764762878418,
   2.3702037334442139,
   2.3321924209594727,
   2.2989590167999268,
   2.0483012199401855,
   1.8883476257324219,
   1.7732522487640381,
   1.6789493560791016,
   1.6043415069580078,
   1.5442235469818115,
   1.4940526485443115,
   1.4564582109451294,
   1.4224594831466675,
   1.1947551965713501,
   1.1161950826644897,
   1.0843217372894287,
   1.0576914548873901,
   1.041556715965271,
   1.0282465219497681,
   1.0344444513320923,
   1.0192296504974365,
   1.0187239646911621,
   1.0036469697952271,
   1.0010528564453125,
   0.99114304780960083,
   0.99543601274490356,
   0.9908868670463562,
   1.0040129423141479,
   0.98669004440307617,
   1.0253304243087769,
   1.0064003467559814,
   1.0325779914855957,
   1.0004887580871582,
   1.0302512645721436,
   0.96476030349731445,
   0.97439706325531006,
   0.9685131311416626,
   0.96255332231521606,
   0.94395476579666138,
   0.87844216823577881
]
