[
   1.7568565607070923,
   1.756847620010376,
   1.7567285299301147,
   1.7558329105377197,
   1.7547153234481812,
   1.7547290325164795,
   1.7549070119857788,
   1.7542850971221924,
   1.7538381814956665,
   1.7547041177749634,
   1.7539005279541016,
   1.7501790523529053,
   1.7481168508529663,
   1.7455230951309204,
   1.7433189153671265,
   1.7428922653198242,
   1.7400522232055664,
   1.7402775287628174,
   1.7361093759536743,
   1.7163236141204834,
   1.699716329574585,
   1.6822555065155029,
   1.6676387786865234,
   1.6534436941146851,
   1.6390993595123291,
   1.625907301902771,
   1.615176796913147,
   1.6028373241424561,
   1.5118119716644287,
   1.4443397521972656,
   1.3948628902435303,
   1.3530495166778564,
   1.3196208477020264,
   1.2904807329177856,
   1.2682498693466187,
   1.2461166381835938,
   1.2290000915527344,
   1.1243822574615479,
   1.0763099193572998,
   1.0577595233917236,
   1.0414996147155762,
   1.0278409719467163,
   1.0127465724945068,
   1.0084675550460815,
   1.0106585025787354,
   1.0092432498931885,
   1.0071717500686646,
   0.99659240245819092,
   0.99132692813873291,
   0.98833686113357544,
   1.0004351139068604,
   1.0042960643768311,
   1.0094339847564697,
   1.0102077722549438,
   1.0008450746536255,
   1.0119624137878418,
   1.005987286567688,
   1.0023120641708374,
   0.99677741527557373,
   0.98439282178878784,
   0.98682260513305664,
   0.98723363876342773,
   0.9666212797164917,
   0.96326828002929688
]
