[
   8.2762794494628906,
   8.2847976684570312,
   8.2805995941162109,
   8.2672796249389648,
   8.2399253845214844,
   8.2667827606201172,
   8.2257652282714844,
   8.2581338882446289,
   8.2159690856933594,
   8.2088708877563477,
   8.1431179046630859,
   8.1174192428588867,
   8.0306596755981445,
   7.944857120513916,
   7.8859620094299316,
   7.8644852638244629,
   7.8150110244750977,
   7.701627254486084,
   7.6688103675842285,
   7.2212576866149902,
   6.8540410995483398,
   6.5664734840393066,
   6.3383855819702148,
   6.1211123466491699,
   5.888819694519043,
   5.7230954170227051,
   5.5812368392944336,
   5.3973679542541504,
   4.3058414459228516,
   3.6126770973205566,
   3.1529927253723145,
   2.7847139835357666,
   2.4916787147521973,
   2.275620698928833,
   2.0724949836730957,
   1.9377315044403076,
   1.8176618814468384,
   1.2896889448165894,
   1.1727478504180908,
   1.0911890268325806,
   1.0516552925109863,
   0.99287623167037964,
   1.015950083732605,
   1.0081956386566162,
   0.97665822505950928,
   1.024503231048584,
   0.92231380939483643,
   0.97652041912078857,
   1.0285956859588623,
   1.0113039016723633,
   0.99846827983856201,
   1.0204153060913086,
   1.0063741207122803,
   1.0272370576858521,
   0.99402773380279541,
   0.9495471715927124,
   0.99239909648895264,
   0.97884464263916016,
   0.98993825912475586,
   0.97168982028961182,
   0.99659377336502075,
   0.99772500991821289,
   0.99254304170608521,
   1.0835684537887573
]
