[
   3.9398033618927002,
   3.9280040264129639,
   3.9346365928649902,
   3.9280152320861816,
   3.9378314018249512,
   3.9242491722106934,
   3.9145450592041016,
   3.9207324981689453,
   3.9105515480041504,
   3.9189536571502686,
   3.895784854888916,
   3.8882942199707031,
   3.8481698036193848,
   3.8492484092712402,
   3.8289496898651123,
   3.8041255474090576,
   3.7963099479675293,
   3.7915923595428467,
   3.7697296142578125,
   3.6384932994842529,
   3.5132186412811279,
   3.4084541797637939,
   3.3266003131866455,
   3.2493293285369873,
   3.1787669658660889,
   3.102957010269165,
   3.048245906829834,
   2.9909424781799316,
   2.576575756072998,
   2.3007044792175293,
   2.1042840480804443,
   1.9603637456893921,
   1.8303598165512085,
   1.7369940280914307,
   1.6460025310516357,
   1.5826060771942139,
   1.5259217023849487,
   1.2346519231796265,
   1.1279265880584717,
   1.0869441032409668,
   1.0666069984436035,
   1.0525568723678589,
   1.0286643505096436,
   1.0222967863082886,
   0.99919033050537109,
   0.9886702299118042,
   0.96365624666213989,
   0.99170178174972534,
   0.98394775390625,
   0.98153895139694214,
   1.0157184600830078,
   1.0150977373123169,
   1.0206494331359863,
   0.96526271104812622,
   0.97894972562789917,
   0.97510278224945068,
   0.99408608675003052,
   0.99842023849487305,
   0.98347795009613037,
   1.0422227382659912,
   0.9917944073677063,
   1.0405839681625366,
   1.0503475666046143,
   1.1172416210174561
]
