[
   2.4260766506195068,
   2.424166202545166,
   2.4250102043151855,
   2.4240648746490479,
   2.4257073402404785,
   2.420412540435791,
   2.4248313903808594,
   2.4223558902740479,
   2.4238536357879639,
   2.418771505355835,
   2.4156625270843506,
   2.410106897354126,
   2.4065957069396973,
   2.3961710929870605,
   2.3943462371826172,
   2.3878560066223145,
   2.385573148727417,
   2.380504846572876,
   2.3713676929473877,
   2.3315207958221436,
   2.2856819629669189,
   2.2461092472076416,
   2.2134871482849121,
   2.1821017265319824,
   2.1533668041229248,
   2.1247639656066895,
   2.0988328456878662,
   2.0744192600250244,
   1.884726881980896,
   1.7624162435531616,
   1.6711412668228149,
   1.5927603244781494,
   1.5327692031860352,
   1.4765384197235107,
   1.4302299022674561,
   1.3960208892822266,
   1.3673568964004517,
   1.1776527166366577,
   1.1089564561843872,
   1.064990758895874,
   1.0408948659896851,
   1.0279382467269897,
   1.0192980766296387,
   1.0091923475265503,
   1.015859842300415,
   1.0101488828659058,
   1.0077846050262451,
   0.99619942903518677,
   0.98968875408172607,
   0.99304801225662231,
   0.98515081405639648,
   1.0033448934555054,
   0.98788481950759888,
   0.99259728193283081,
   0.98852241039276123,
   0.99358910322189331,
   0.98929023742675781,
   0.9841381311416626,
   0.99996888637542725,
   1.0143587589263916,
   1.0108115673065186,
   1.0156700611114502,
   1.0266876220703125,
   1.0434350967407227
]
