[
   1.5987164974212646,
   1.5991623401641846,
   1.5989868640899658,
   1.5981481075286865,
   1.5972094535827637,
   1.5979046821594238,
   1.5977019071578979,
   1.5968338251113892,
   1.5966300964355469,
   1.5977408885955811,
   1.596676230430603,
   1.5950472354888916,
   1.5930249691009521,
   1.5919800996780396,
   1.5891894102096558,
   1.5888442993164062,
   1.587895393371582,
   1.5871450901031494,
   1.584154486656189,
   1.5701010227203369,
   1.5592981576919556,
   1.5457156896591187,
   1.5358622074127197,
   1.5253198146820068,
   1.5157005786895752,
   1.5053262710571289,
   1.4985575675964355,
   1.4885780811309814,
   1.4183237552642822,
   1.3673317432403564,
   1.3283027410507202,
   1.2954106330871582,
   1.2689014673233032,
   1.2464088201522827,
   1.2285890579223633,
   1.2096579074859619,
   1.1956096887588501,
   1.1095273494720459,
   1.0673201084136963,
   1.0503987073898315,
   1.0354347229003906,
   1.0236760377883911,
   1.0107389688491821,
   1.0083189010620117,
   1.0088026523590088,
   1.0081554651260376,
   1.005376935005188,
   0.99540376663208008,
   0.9925042986869812,
   0.98991000652313232,
   1.0007830858230591,
   1.003608226776123,
   1.0085651874542236,
   1.0085433721542358,
   1.0011942386627197,
   1.0091822147369385,
   1.0040833950042725,
   1.0014617443084717,
   0.99759835004806519,
   0.98781001567840576,
   0.98924481868743896,
   0.98975908756256104,
   0.96901208162307739,
   0.96623259782791138
]
