[
   33.383460998535156,
   33.113929748535156,
   33.346309661865234,
   32.991596221923828,
   33.133964538574219,
   33.054267883300781,
   32.872032165527344,
   33.043693542480469,
   32.654560089111328,
   32.619747161865234,
   31.964349746704102,
   31.236602783203125,
   30.745849609375,
   30.079961776733398,
   29.75244140625,
   29.095560073852539,
   29.19580078125,
   28.77020263671875,
   28.403713226318359,
   25.446868896484375,
   23.400920867919922,
   21.704339981079102,
   20.244375228881836,
   18.921192169189453,
   18.230865478515625,
   17.043783187866211,
   16.206808090209961,
   15.380956649780273,
   9.9225063323974609,
   7.4834756851196289,
   5.8001761436462402,
   4.7537164688110352,
   3.921705961227417,
   3.506772518157959,
   3.0374224185943604,
   2.7711517810821533,
   2.6491768360137939,
   1.5459301471710205,
   1.1102373600006104,
   1.2337851524353027,
   1.1880320310592651,
   1.0481479167938232,
   1.1582424640655518,
   0.99435245990753174,
   1.0274749994277954,
   0.98225212097167969,
   0.92409312725067139,
   0.98339861631393433,
   1.0151880979537964,
   0.89301842451095581,
   0.97691643238067627,
   0.84217751026153564,
   1.2421540021896362,
   0.88534021377563477,
   1.1126307249069214,
   1.1675924062728882,
   0.97280359268188477,
   1.1776473522186279,
   0.85574847459793091,
   0.78136557340621948,
   0.83008259534835815,
   1.1445415019989014,
   1.1879842281341553,
   0.93082916736602783
]
