[
   1.8639354705810547,
   1.8637361526489258,
   1.8638668060302734,
   1.8625844717025757,
   1.8622505664825439,
   1.8613338470458984,
   1.8610044717788696,
   1.8613990545272827,
   1.860756516456604,
   1.8614343404769897,
   1.8604398965835571,
   1.8556522130966187,
   1.8531818389892578,
   1.8498861789703369,
   1.8468652963638306,
   1.8458589315414429,
   1.8434827327728271,
   1.8434215784072876,
   1.8387606143951416,
   1.8143520355224609,
   1.7946838140487671,
   1.7737735509872437,
   1.7557140588760376,
   1.7386176586151123,
   1.7226448059082031,
   1.7057288885116577,
   1.6929953098297119,
   1.6789653301239014,
   1.5717591047286987,
   1.4956787824630737,
   1.4395740032196045,
   1.3917083740234375,
   1.3537155389785767,
   1.3193207979202271,
   1.2947067022323608,
   1.2690705060958862,
   1.2508732080459595,
   1.1326568126678467,
   1.0813560485839844,
   1.0619727373123169,
   1.0450384616851807,
   1.0299519300460815,
   1.0140337944030762,
   1.0076096057891846,
   1.0119119882583618,
   1.0100371837615967,
   1.0085241794586182,
   0.99586069583892822,
   0.99018460512161255,
   0.98704540729522705,
   1.0009233951568604,
   1.0054048299789429,
   1.0090086460113525,
   1.0105102062225342,
   1.0004411935806274,
   1.0134941339492798,
   1.0070023536682129,
   0.99999678134918213,
   0.99650734663009644,
   0.98276406526565552,
   0.98632174730300903,
   0.98485726118087769,
   0.96580010652542114,
   0.96327131986618042
]
