[
   1.5758131742477417,
   1.575669527053833,
   1.5766161680221558,
   1.5764045715332031,
   1.5753270387649536,
   1.5751544237136841,
   1.5751323699951172,
   1.5755245685577393,
   1.5766251087188721,
   1.5753732919692993,
   1.5742490291595459,
   1.573944091796875,
   1.5729717016220093,
   1.5733392238616943,
   1.5696252584457397,
   1.5705564022064209,
   1.5698560476303101,
   1.5683481693267822,
   1.5689167976379395,
   1.5618984699249268,
   1.5542535781860352,
   1.5470569133758545,
   1.5410802364349365,
   1.5359518527984619,
   1.5284868478775024,
   1.5233969688415527,
   1.5193331241607666,
   1.5126630067825317,
   1.4674564599990845,
   1.4312779903411865,
   1.400327205657959,
   1.3752447366714478,
   1.3517533540725708,
   1.3298381567001343,
   1.3136496543884277,
   1.2975385189056396,
   1.2822076082229614,
   1.1823966503143311,
   1.1322764158248901,
   1.1028244495391846,
   1.0812938213348389,
   1.0671079158782959,
   1.0533570051193237,
   1.0448760986328125,
   1.038198709487915,
   1.0355739593505859,
   1.0081412792205811,
   1.0093865394592285,
   1.0130736827850342,
   1.0068986415863037,
   0.9993438720703125,
   1.0074899196624756,
   1.0112203359603882,
   1.0158916711807251,
   1.00566565990448,
   0.99958246946334839,
   0.99305927753448486,
   1.0001225471496582,
   1.0074460506439209,
   0.98212450742721558,
   0.99589347839355469,
   1.00391685962677,
   0.98086535930633545,
   0.89234668016433716
]
