[
   2.5823829174041748,
   2.5804953575134277,
   2.5838866233825684,
   2.5782747268676758,
   2.5811598300933838,
   2.5789251327514648,
   2.5772089958190918,
   2.5758137702941895,
   2.5748088359832764,
   2.574068546295166,
   2.5755422115325928,
   2.5702714920043945,
   2.5637564659118652,
   2.559138298034668,
   2.552377462387085,
   2.5502345561981201,
   2.5456624031066895,
   2.5461299419403076,
   2.5433132648468018,
   2.5000159740447998,
   2.4662370681762695,
   2.4358651638031006,
   2.4046845436096191,
   2.381638765335083,
   2.3532886505126953,
   2.3278083801269531,
   2.3042354583740234,
   2.281381368637085,
   2.0988695621490479,
   1.9610073566436768,
   1.8507534265518188,
   1.7676875591278076,
   1.701786994934082,
   1.6409698724746704,
   1.5911917686462402,
   1.5469989776611328,
   1.5081865787506104,
   1.2813977003097534,
   1.1912664175033569,
   1.1359145641326904,
   1.0977389812469482,
   1.0681078433990479,
   1.0541083812713623,
   1.0551393032073975,
   1.0566952228546143,
   1.0506637096405029,
   1.0411437749862671,
   0.99913895130157471,
   0.99978905916213989,
   0.99838721752166748,
   1.003706693649292,
   0.98645991086959839,
   0.98734712600708008,
   0.9968840479850769,
   1.0022180080413818,
   0.98382586240768433,
   0.9825061559677124,
   1.0058846473693848,
   0.98449325561523438,
   0.9916081428527832,
   1.0635058879852295,
   1.025465726852417,
   1.0028045177459717,
   1.0497832298278809
]
