[
   3.1398735046386719,
   3.1364521980285645,
   3.1335554122924805,
   3.1368136405944824,
   3.1348061561584473,
   3.1358153820037842,
   3.1329402923583984,
   3.1343283653259277,
   3.133436918258667,
   3.1361324787139893,
   3.1243846416473389,
   3.1193442344665527,
   3.1158995628356934,
   3.1037306785583496,
   3.0947632789611816,
   3.0899941921234131,
   3.0839788913726807,
   3.079981803894043,
   3.0675697326660156,
   3.008080005645752,
   2.9416725635528564,
   2.8928704261779785,
   2.8444745540618896,
   2.8050112724304199,
   2.7628321647644043,
   2.7238593101501465,
   2.6873345375061035,
   2.6490397453308105,
   2.3651483058929443,
   2.1639175415039062,
   2.0196006298065186,
   1.8937435150146484,
   1.8039510250091553,
   1.7270433902740479,
   1.6629760265350342,
   1.6028245687484741,
   1.5623085498809814,
   1.3089642524719238,
   1.2025554180145264,
   1.1317374706268311,
   1.1054333448410034,
   1.08575439453125,
   1.0854215621948242,
   1.0612828731536865,
   1.0526293516159058,
   1.0425550937652588,
   0.99793118238449097,
   1.0016852617263794,
   1.0054408311843872,
   0.979847252368927,
   0.99760770797729492,
   0.98762750625610352,
   0.99230927228927612,
   0.96192342042922974,
   0.96630591154098511,
   1.0116424560546875,
   0.99626100063323975,
   1.0053728818893433,
   0.98518562316894531,
   1.0033836364746094,
   0.93090403079986572,
   1.0124180316925049,
   0.96120470762252808,
   0.97478711605072021
]
