[
   1.821486234664917,
   1.8198026418685913,
   1.8194544315338135,
   1.8197422027587891,
   1.8172023296356201,
   1.8206737041473389,
   1.8200576305389404,
   1.8190876245498657,
   1.817543625831604,
   1.8177900314331055,
   1.8159630298614502,
   1.8131914138793945,
   1.8101704120635986,
   1.8084436655044556,
   1.8073246479034424,
   1.803797721862793,
   1.7995799779891968,
   1.8013166189193726,
   1.7997630834579468,
   1.7757612466812134,
   1.7553800344467163,
   1.7380673885345459,
   1.7258045673370361,
   1.7072317600250244,
   1.6955333948135376,
   1.6810486316680908,
   1.6683366298675537,
   1.655082106590271,
   1.5650078058242798,
   1.4989187717437744,
   1.448948860168457,
   1.4094126224517822,
   1.3780226707458496,
   1.3494693040847778,
   1.3220106363296509,
   1.3004517555236816,
   1.2783876657485962,
   1.1502790451049805,
   1.0848715305328369,
   1.0512129068374634,
   1.0344963073730469,
   1.0281264781951904,
   1.018785834312439,
   1.0137176513671875,
   1.0061780214309692,
   1.0079143047332764,
   1.0054166316986084,
   1.0062973499298096,
   1.0068466663360596,
   0.99563390016555786,
   0.99881970882415771,
   1.0019544363021851,
   0.99733829498291016,
   1.0007898807525635,
   1.0064857006072998,
   1.0044516324996948,
   1.0079740285873413,
   0.99436390399932861,
   1.0016931295394897,
   0.99180901050567627,
   0.98643553256988525,
   0.96514511108398438,
   0.99039220809936523,
   0.97477614879608154
]
