[
   1.5215064287185669,
   1.5203005075454712,
   1.5210380554199219,
   1.5211694240570068,
   1.5198781490325928,
   1.520147442817688,
   1.5195615291595459,
   1.5195199251174927,
   1.5196106433868408,
   1.5185894966125488,
   1.5185756683349609,
   1.5166780948638916,
   1.515952467918396,
   1.5153019428253174,
   1.5138615369796753,
   1.5128573179244995,
   1.5118829011917114,
   1.5112845897674561,
   1.5088950395584106,
   1.4993735551834106,
   1.4897769689559937,
   1.4818115234375,
   1.4715453386306763,
   1.4629272222518921,
   1.4562304019927979,
   1.4485043287277222,
   1.4422532320022583,
   1.4332959651947021,
   1.3829421997070312,
   1.3433291912078857,
   1.3111964464187622,
   1.2882680892944336,
   1.2671107053756714,
   1.2478995323181152,
   1.2324621677398682,
   1.2171471118927002,
   1.2057701349258423,
   1.1209368705749512,
   1.0806739330291748,
   1.0555655956268311,
   1.0385313034057617,
   1.0294283628463745,
   1.0196168422698975,
   1.0132648944854736,
   1.0097442865371704,
   1.0096902847290039,
   1.0051535367965698,
   0.99825793504714966,
   0.99990618228912354,
   0.99605530500411987,
   1.0025455951690674,
   1.0027074813842773,
   1.0009696483612061,
   0.98916971683502197,
   1.0052511692047119,
   0.99393177032470703,
   1.0084724426269531,
   1.0008814334869385,
   0.99785059690475464,
   1.005189061164856,
   0.97989636659622192,
   0.97277241945266724,
   0.98442107439041138,
   0.96792948246002197
]
