[
   2.3243482112884521,
   2.3229913711547852,
   2.3216531276702881,
   2.3257596492767334,
   2.3250184059143066,
   2.3185036182403564,
   2.3209750652313232,
   2.3230111598968506,
   2.3220133781433105,
   2.3184025287628174,
   2.3130078315734863,
   2.3093202114105225,
   2.3021249771118164,
   2.3026814460754395,
   2.2933094501495361,
   2.2911274433135986,
   2.2826251983642578,
   2.2816009521484375,
   2.2803173065185547,
   2.2362713813781738,
   2.199195384979248,
   2.1682772636413574,
   2.1371989250183105,
   2.1101715564727783,
   2.0825448036193848,
   2.0603897571563721,
   2.0380294322967529,
   2.0190258026123047,
   1.8649889230728149,
   1.7552763223648071,
   1.6753189563751221,
   1.6078174114227295,
   1.550823450088501,
   1.5065934658050537,
   1.4664556980133057,
   1.430820107460022,
   1.3977934122085571,
   1.2083718776702881,
   1.1253910064697266,
   1.0779379606246948,
   1.050905704498291,
   1.041899561882019,
   1.0279068946838379,
   1.0134000778198242,
   1.006784200668335,
   0.99999606609344482,
   0.98995578289031982,
   0.98383414745330811,
   0.99386107921600342,
   0.98934364318847656,
   0.99898898601531982,
   0.99526947736740112,
   0.99468839168548584,
   1.0128800868988037,
   0.98249024152755737,
   0.99458599090576172,
   1.0168503522872925,
   1.0161603689193726,
   0.99699819087982178,
   0.99964123964309692,
   0.97823202610015869,
   0.96990489959716797,
   1.0002137422561646,
   0.98071873188018799
]
