[
   112.57734680175781,
   112.10017395019531,
   113.02574157714844,
   108.87557220458984,
   110.13803863525391,
   110.53871154785156,
   110.06776428222656,
   111.00681304931641,
   109.02558898925781,
   108.78420257568359,
   105.61885070800781,
   103.795166015625,
   100.36465454101562,
   99.450462341308594,
   95.635177612304688,
   93.523384094238281,
   92.711036682128906,
   91.060096740722656,
   90.171775817871094,
   75.905319213867188,
   67.644599914550781,
   60.937023162841797,
   53.799263000488281,
   49.978851318359375,
   45.959705352783203,
   41.275764465332031,
   39.597137451171875,
   35.502815246582031,
   20.073169708251953,
   13.105127334594727,
   9.7592601776123047,
   8.2789525985717773,
   6.1094489097595215,
   4.9743976593017578,
   4.6148319244384766,
   4.1708950996398926,
   3.4154269695281982,
   1.9869569540023804,
   1.3735895156860352,
   1.0826119184494019,
   0.97376787662506104,
   0.93423604965209961,
   1.2380720376968384,
   0.83585131168365479,
   1.1789579391479492,
   1.4430004358291626,
   0.80644571781158447,
   1.0742628574371338,
   0.63805860280990601,
   1.3365641832351685,
   1.3497985601425171,
   0.64517080783843994,
   1.0845611095428467,
   1.1637904644012451,
   1.074876070022583,
   0.95398616790771484,
   1.0349051952362061,
   0.44370612502098083,
   1.3294661045074463,
   0.77461081743240356,
   0.99567288160324097,
   0.82472717761993408,
   0.51987946033477783,
   0.077105186879634857
]
