[
   4.8723564147949219,
   4.8610944747924805,
   4.8776097297668457,
   4.8671388626098633,
   4.8788347244262695,
   4.8707184791564941,
   4.8651838302612305,
   4.8686323165893555,
   4.8609476089477539,
   4.8534979820251465,
   4.8190031051635742,
   4.8037714958190918,
   4.7888846397399902,
   4.7559685707092285,
   4.726902961730957,
   4.7138986587524414,
   4.6908102035522461,
   4.6586732864379883,
   4.6546945571899414,
   4.4658541679382324,
   4.3212251663208008,
   4.2025833129882812,
   4.1041297912597656,
   4.0068321228027344,
   3.915755033493042,
   3.8596329689025879,
   3.7695209980010986,
   3.709913969039917,
   3.2245965003967285,
   2.8938891887664795,
   2.6339020729064941,
   2.4273078441619873,
   2.2613463401794434,
   2.1106777191162109,
   2.0023589134216309,
   1.9010622501373291,
   1.8037149906158447,
   1.3293759822845459,
   1.1881999969482422,
   1.1169013977050781,
   1.0874316692352295,
   1.0678684711456299,
   1.0195047855377197,
   1.008286714553833,
   1.0188610553741455,
   0.98810940980911255,
   1.0169926881790161,
   1.0098450183868408,
   1.0253126621246338,
   0.99516135454177856,
   0.98776149749755859,
   0.9727141261100769,
   0.97358131408691406,
   1.0171229839324951,
   0.95455408096313477,
   0.97171056270599365,
   1.0058822631835938,
   0.94621783494949341,
   0.96518599987030029,
   0.99305117130279541,
   1.0406875610351562,
   0.96718615293502808,
   1.0127389430999756,
   1.1533896923065186
]
