[
   1.7945778369903564,
   1.7954750061035156,
   1.7942022085189819,
   1.794690728187561,
   1.7942526340484619,
   1.7965940237045288,
   1.7935655117034912,
   1.7933410406112671,
   1.7933353185653687,
   1.7935512065887451,
   1.7908945083618164,
   1.7900831699371338,
   1.7865469455718994,
   1.7843351364135742,
   1.7818371057510376,
   1.7802770137786865,
   1.7793939113616943,
   1.7764389514923096,
   1.776720404624939,
   1.756037712097168,
   1.7373409271240234,
   1.7206465005874634,
   1.7045488357543945,
   1.6909458637237549,
   1.6766859292984009,
   1.6639740467071533,
   1.6509506702423096,
   1.640066385269165,
   1.5458104610443115,
   1.478211522102356,
   1.4244594573974609,
   1.3812787532806396,
   1.3462183475494385,
   1.3163387775421143,
   1.2917060852050781,
   1.2698001861572266,
   1.2519117593765259,
   1.1366548538208008,
   1.0913758277893066,
   1.0644298791885376,
   1.051133394241333,
   1.0397047996520996,
   1.0291494131088257,
   1.0230977535247803,
   1.01698899269104,
   1.0143554210662842,
   1.0043447017669678,
   0.99459439516067505,
   0.99438649415969849,
   0.99651479721069336,
   0.99216192960739136,
   1.0031392574310303,
   0.99831879138946533,
   0.99327355623245239,
   0.97987782955169678,
   0.97439402341842651,
   0.97110158205032349,
   0.9888986349105835,
   0.98946619033813477,
   1.0068480968475342,
   1.0198107957839966,
   1.0443166494369507,
   1.0592710971832275,
   1.0895614624023438
]
