[
   7.060605525970459,
   7.0777487754821777,
   7.0267553329467773,
   7.0488052368164062,
   7.0103201866149902,
   7.0231871604919434,
   6.9818735122680664,
   6.9809165000915527,
   6.9980230331420898,
   7.0040102005004883,
   6.962224006652832,
   6.9095449447631836,
   6.8682417869567871,
   6.8140745162963867,
   6.7339391708374023,
   6.7109956741333008,
   6.6463556289672852,
   6.6121993064880371,
   6.5696649551391602,
   6.1831192970275879,
   5.9035139083862305,
   5.6443362236022949,
   5.4105100631713867,
   5.2136807441711426,
   5.0294537544250488,
   4.8810586929321289,
   4.6977653503417969,
   4.5675954818725586,
   3.5990188121795654,
   3.025174617767334,
   2.6163482666015625,
   2.3276355266571045,
   2.112952709197998,
   1.9583492279052734,
   1.8442032337188721,
   1.7393248081207275,
   1.6574615240097046,
   1.2848882675170898,
   1.1755520105361938,
   1.1221797466278076,
   1.0654677152633667,
   1.0516694784164429,
   1.0631020069122314,
   1.0259585380554199,
   1.0077787637710571,
   1.0044326782226562,
   1.0001901388168335,
   0.98768532276153564,
   1.0077476501464844,
   0.99812096357345581,
   0.99496757984161377,
   0.96488988399505615,
   0.96025454998016357,
   0.98516398668289185,
   1.0116152763366699,
   1.0092316865921021,
   0.96199387311935425,
   0.96993029117584229,
   0.98175734281539917,
   0.97049462795257568,
   1.000532865524292,
   1.0033860206604004,
   1.0508017539978027,
   0.97480219602584839
]
