[
   3.584104061126709,
   3.5892398357391357,
   3.5864911079406738,
   3.5898118019104004,
   3.5837757587432861,
   3.5850265026092529,
   3.586850643157959,
   3.584136962890625,
   3.578855037689209,
   3.5750675201416016,
   3.562889575958252,
   3.5577545166015625,
   3.5347447395324707,
   3.5274345874786377,
   3.5078976154327393,
   3.5030856132507324,
   3.4910004138946533,
   3.4707202911376953,
   3.4599831104278564,
   3.3534629344940186,
   3.2691562175750732,
   3.1762313842773438,
   3.097172737121582,
   3.0318102836608887,
   2.9657368659973145,
   2.908625602722168,
   2.8619589805603027,
   2.817105770111084,
   2.4310650825500488,
   2.164905309677124,
   1.9921165704727173,
   1.8607676029205322,
   1.7454061508178711,
   1.6640599966049194,
   1.5785195827484131,
   1.5177406072616577,
   1.4693266153335571,
   1.2109034061431885,
   1.1358039379119873,
   1.0869123935699463,
   1.0553758144378662,
   1.0386080741882324,
   1.032855749130249,
   1.0232212543487549,
   1.0191253423690796,
   1.0146249532699585,
   1.0251485109329224,
   0.99438875913619995,
   1.0047622919082642,
   0.98287504911422729,
   0.97891128063201904,
   0.97789371013641357,
   1.0105850696563721,
   1.001945972442627,
   1.0078176259994507,
   1.0122499465942383,
   1.0042372941970825,
   1.0063538551330566,
   0.99375933408737183,
   1.0275378227233887,
   1.0062190294265747,
   1.0259444713592529,
   1.0096254348754883,
   0.96523207426071167
]
