[
   1.5110433101654053,
   1.5112111568450928,
   1.5108377933502197,
   1.5109785795211792,
   1.5108252763748169,
   1.5102775096893311,
   1.5104982852935791,
   1.5102438926696777,
   1.5099837779998779,
   1.5105197429656982,
   1.508779764175415,
   1.5070316791534424,
   1.5077698230743408,
   1.5060505867004395,
   1.5045226812362671,
   1.5032773017883301,
   1.5033988952636719,
   1.5027909278869629,
   1.5002892017364502,
   1.4910913705825806,
   1.480526328086853,
   1.4734996557235718,
   1.4643998146057129,
   1.4572839736938477,
   1.4502743482589722,
   1.4415562152862549,
   1.4346057176589966,
   1.4274482727050781,
   1.3740663528442383,
   1.3317391872406006,
   1.3014311790466309,
   1.2764065265655518,
   1.2526708841323853,
   1.2335789203643799,
   1.2178890705108643,
   1.2019279003143311,
   1.1895428895950317,
   1.1125271320343018,
   1.0715055465698242,
   1.0544997453689575,
   1.0414247512817383,
   1.0291478633880615,
   1.0238866806030273,
   1.0224292278289795,
   1.0176208019256592,
   1.0182563066482544,
   0.99926340579986572,
   1.0020862817764282,
   1.0029118061065674,
   1.0005080699920654,
   0.99601590633392334,
   0.9946666955947876,
   1.0023837089538574,
   1.0003964900970459,
   1.0013843774795532,
   0.99899369478225708,
   1.0029145479202271,
   1.0023554563522339,
   1.0030571222305298,
   0.99107867479324341,
   0.99434316158294678,
   0.98713093996047974,
   0.99748313426971436,
   0.96266853809356689
]
