[
   2.2752430438995361,
   2.2730057239532471,
   2.2773880958557129,
   2.2740936279296875,
   2.2746617794036865,
   2.2733988761901855,
   2.2741608619689941,
   2.2719073295593262,
   2.2720112800598145,
   2.2727556228637695,
   2.2656607627868652,
   2.2618303298950195,
   2.2589936256408691,
   2.2529373168945312,
   2.2478370666503906,
   2.2432956695556641,
   2.2389130592346191,
   2.2397961616516113,
   2.2317795753479004,
   2.1955571174621582,
   2.1601881980895996,
   2.1275703907012939,
   2.09761643409729,
   2.0706093311309814,
   2.0474724769592285,
   2.0211451053619385,
   1.9988565444946289,
   1.9785772562026978,
   1.8136154413223267,
   1.7017509937286377,
   1.6153604984283447,
   1.5483964681625366,
   1.4950429201126099,
   1.4449719190597534,
   1.4017486572265625,
   1.3712762594223022,
   1.3382830619812012,
   1.1778542995452881,
   1.1098964214324951,
   1.0676790475845337,
   1.0468415021896362,
   1.0309063196182251,
   1.024635910987854,
   1.0194791555404663,
   1.0143067836761475,
   1.0157254934310913,
   0.99306023120880127,
   0.9870535135269165,
   0.99616307020187378,
   1.0075571537017822,
   0.98962974548339844,
   0.998848557472229,
   0.99415063858032227,
   0.99062997102737427,
   0.99898481369018555,
   0.99842977523803711,
   1.004097580909729,
   1.0128681659698486,
   1.0059283971786499,
   0.98869210481643677,
   0.96707361936569214,
   0.95825469493865967,
   1.0042645931243896,
   1.0380886793136597
]
