[
   1.6996185779571533,
   1.7004398107528687,
   1.6992095708847046,
   1.7005338668823242,
   1.6994889974594116,
   1.7014023065567017,
   1.6992425918579102,
   1.6993920803070068,
   1.6986030340194702,
   1.6984310150146484,
   1.6974315643310547,
   1.6970186233520508,
   1.6936365365982056,
   1.6917062997817993,
   1.6887508630752563,
   1.6880544424057007,
   1.6880443096160889,
   1.684403657913208,
   1.6852267980575562,
   1.6686404943466187,
   1.6530735492706299,
   1.6385215520858765,
   1.6256065368652344,
   1.6127521991729736,
   1.6014302968978882,
   1.5908130407333374,
   1.5807549953460693,
   1.5709517002105713,
   1.4894806146621704,
   1.4320160150527954,
   1.3846919536590576,
   1.346096396446228,
   1.315400242805481,
   1.2890397310256958,
   1.2676084041595459,
   1.2480413913726807,
   1.2318336963653564,
   1.1269805431365967,
   1.0858108997344971,
   1.0607383251190186,
   1.0478019714355469,
   1.0368216037750244,
   1.0263463258743286,
   1.0221148729324341,
   1.015345573425293,
   1.0129339694976807,
   1.0033771991729736,
   0.99503183364868164,
   0.99563109874725342,
   0.99681484699249268,
   0.99229687452316284,
   1.0029380321502686,
   0.99890041351318359,
   0.99357587099075317,
   0.98224574327468872,
   0.97701579332351685,
   0.97362601757049561,
   0.9900091290473938,
   0.99097698926925659,
   1.0064197778701782,
   1.0189836025238037,
   1.0412135124206543,
   1.0558204650878906,
   1.0857837200164795
]
