[
   26.459920883178711,
   26.433996200561523,
   26.580905914306641,
   26.083469390869141,
   26.074956893920898,
   26.109582901000977,
   26.028055191040039,
   25.951589584350586,
   25.596961975097656,
   25.749456405639648,
   25.267765045166016,
   24.563814163208008,
   23.793441772460938,
   23.168926239013672,
   22.436220169067383,
   22.038166046142578,
   21.71183967590332,
   21.013982772827148,
   20.485456466674805,
   16.851306915283203,
   14.395601272583008,
   12.550782203674316,
   11.080557823181152,
   9.939579963684082,
   9.1345710754394531,
   8.4271869659423828,
   7.7786102294921875,
   7.1805548667907715,
   4.5687747001647949,
   3.4236710071563721,
   2.8302102088928223,
   2.4540915489196777,
   2.1780579090118408,
   2.1362776756286621,
   1.9872934818267822,
   1.7959730625152588,
   1.8301824331283569,
   1.4363137483596802,
   1.2314532995223999,
   1.1743437051773071,
   1.1473749876022339,
   1.048595666885376,
   1.0617526769638062,
   1.0476065874099731,
   1.0767632722854614,
   1.1278653144836426,
   1.0453977584838867,
   0.97671473026275635,
   1.0101771354675293,
   1.0305502414703369,
   0.9488946795463562,
   1.0495185852050781,
   0.96131384372711182,
   1.0616916418075562,
   1.0396381616592407,
   0.95696908235549927,
   1.1406952142715454,
   1.019709587097168,
   0.95743048191070557,
   0.99849319458007812,
   0.96942645311355591,
   1.0600888729095459,
   1.0799658298492432,
   0.56889277696609497
]
