[
   8.0821962356567383,
   8.0519571304321289,
   8.0590877532958984,
   8.0599956512451172,
   8.0583066940307617,
   8.0380573272705078,
   8.0622444152832031,
   8.0302982330322266,
   8.0206699371337891,
   8.0172977447509766,
   7.9804558753967285,
   7.8913254737854004,
   7.8385453224182129,
   7.7725944519042969,
   7.7123899459838867,
   7.6841530799865723,
   7.6353325843811035,
   7.5596146583557129,
   7.496732234954834,
   7.0413942337036133,
   6.6184182167053223,
   6.2638263702392578,
   5.9351868629455566,
   5.6435136795043945,
   5.4024438858032227,
   5.182309627532959,
   4.9992947578430176,
   4.7840299606323242,
   3.589247465133667,
   2.9450984001159668,
   2.5592615604400635,
   2.2959399223327637,
   2.1258950233459473,
   1.9969089031219482,
   1.8907026052474976,
   1.7879531383514404,
   1.7302011251449585,
   1.3794403076171875,
   1.2027913331985474,
   1.1418198347091675,
   1.1577565670013428,
   1.1080167293548584,
   1.1101310253143311,
   1.0842677354812622,
   1.0767300128936768,
   1.0261667966842651,
   1.0160815715789795,
   1.026235818862915,
   0.97347086668014526,
   0.93546295166015625,
   0.96171343326568604,
   0.95491743087768555,
   0.96883136034011841,
   1.0134491920471191,
   0.96062976121902466,
   0.98345679044723511,
   0.98082125186920166,
   0.96907281875610352,
   0.97405987977981567,
   0.96003496646881104,
   1.1090205907821655,
   1.0218055248260498,
   0.94409811496734619,
   1.0574557781219482
]
