[
   1.5916895866394043,
   1.5906350612640381,
   1.5911037921905518,
   1.590035080909729,
   1.5907168388366699,
   1.5901005268096924,
   1.5908855199813843,
   1.5908769369125366,
   1.5908066034317017,
   1.5902892351150513,
   1.5911386013031006,
   1.589870810508728,
   1.5889058113098145,
   1.5886704921722412,
   1.5893796682357788,
   1.5858180522918701,
   1.5865393877029419,
   1.5855952501296997,
   1.5857070684432983,
   1.5803066492080688,
   1.5766054391860962,
   1.5710383653640747,
   1.567109227180481,
   1.5619326829910278,
   1.5577274560928345,
   1.5526468753814697,
   1.5483946800231934,
   1.5444869995117188,
   1.5053815841674805,
   1.4716674089431763,
   1.4407461881637573,
   1.4155337810516357,
   1.3910554647445679,
   1.3700946569442749,
   1.351752758026123,
   1.3342785835266113,
   1.3174155950546265,
   1.2172977924346924,
   1.1594169139862061,
   1.128661036491394,
   1.1033101081848145,
   1.0860711336135864,
   1.0707032680511475,
   1.0625736713409424,
   1.0529091358184814,
   1.0497186183929443,
   1.0115419626235962,
   1.006709098815918,
   0.999961256980896,
   0.99220401048660278,
   0.98107683658599854,
   0.97955501079559326,
   0.97556507587432861,
   0.97047650814056396,
   0.98626118898391724,
   0.99414128065109253,
   1.0053777694702148,
   0.99555701017379761,
   0.99670666456222534,
   0.99711352586746216,
   0.98551809787750244,
   0.99996107816696167,
   1.0520774126052856,
   1.0853769779205322
]
