[
   1.3425023555755615,
   1.3429709672927856,
   1.3426313400268555,
   1.3425923585891724,
   1.3430216312408447,
   1.3433808088302612,
   1.3431285619735718,
   1.3433277606964111,
   1.343356728553772,
   1.3432339429855347,
   1.3430969715118408,
   1.3421401977539062,
   1.3425686359405518,
   1.3419089317321777,
   1.3417626619338989,
   1.3417618274688721,
   1.3413650989532471,
   1.341882586479187,
   1.3414119482040405,
   1.3390703201293945,
   1.3376907110214233,
   1.3358244895935059,
   1.3340078592300415,
   1.3333131074905396,
   1.3315098285675049,
   1.3290035724639893,
   1.3281351327896118,
   1.3259161710739136,
   1.3113834857940674,
   1.297674298286438,
   1.2855826616287231,
   1.2734421491622925,
   1.2632948160171509,
   1.2536226511001587,
   1.2448402643203735,
   1.2361783981323242,
   1.2283464670181274,
   1.1699545383453369,
   1.1333060264587402,
   1.108357310295105,
   1.0992915630340576,
   1.0859657526016235,
   1.0732935667037964,
   1.0644881725311279,
   1.058457612991333,
   1.0542299747467041,
   1.0254471302032471,
   1.0044854879379272,
   0.99999934434890747,
   0.99801379442214966,
   0.99929207563400269,
   0.99975073337554932,
   1.0013689994812012,
   0.99944126605987549,
   0.99858617782592773,
   1.0021792650222778,
   1.0108970403671265,
   1.0000511407852173,
   0.99582433700561523,
   1.0007798671722412,
   0.99942129850387573,
   0.98926877975463867,
   0.96288096904754639,
   1.0080441236495972
]
