[
   2.0909898281097412,
   2.0922071933746338,
   2.0880801677703857,
   2.089756965637207,
   2.0845444202423096,
   2.0880630016326904,
   2.0877525806427002,
   2.0891673564910889,
   2.0882885456085205,
   2.0873932838439941,
   2.0856688022613525,
   2.083507776260376,
   2.0829558372497559,
   2.0793931484222412,
   2.0771942138671875,
   2.0778095722198486,
   2.0754711627960205,
   2.0767772197723389,
   2.0733170509338379,
   2.0618939399719238,
   2.0463390350341797,
   2.0343101024627686,
   2.0195996761322021,
   2.0061278343200684,
   1.9927139282226562,
   1.9779479503631592,
   1.9681565761566162,
   1.9539659023284912,
   1.8568569421768188,
   1.7713016271591187,
   1.7007205486297607,
   1.6422615051269531,
   1.5903747081756592,
   1.5505119562149048,
   1.5126526355743408,
   1.4789333343505859,
   1.4509830474853516,
   1.2837215662002563,
   1.2142155170440674,
   1.1631476879119873,
   1.1336195468902588,
   1.1153004169464111,
   1.1009087562561035,
   1.082014799118042,
   1.0702879428863525,
   1.0604921579360962,
   1.0159767866134644,
   1.0067188739776611,
   1.0145943164825439,
   0.98919808864593506,
   0.98707550764083862,
   0.99273234605789185,
   0.98093545436859131,
   0.9871552586555481,
   0.99203693866729736,
   0.97625046968460083,
   0.9915391206741333,
   1.0166318416595459,
   0.9849778413772583,
   1.0011212825775146,
   0.99085342884063721,
   0.96739053726196289,
   1.0421372652053833,
   1.045479416847229
]
