[
   1.4845397472381592,
   1.4850225448608398,
   1.4846565723419189,
   1.4848947525024414,
   1.4853675365447998,
   1.4843447208404541,
   1.485252857208252,
   1.4843170642852783,
   1.48427414894104,
   1.4851210117340088,
   1.4842182397842407,
   1.4842393398284912,
   1.4839537143707275,
   1.4829607009887695,
   1.4823331832885742,
   1.4826349020004272,
   1.4829487800598145,
   1.4824934005737305,
   1.4818394184112549,
   1.4785435199737549,
   1.4750107526779175,
   1.4724265336990356,
   1.4692789316177368,
   1.4670760631561279,
   1.4642223119735718,
   1.4612640142440796,
   1.4580967426300049,
   1.455316424369812,
   1.4303004741668701,
   1.4071075916290283,
   1.3867311477661133,
   1.3690352439880371,
   1.3525882959365845,
   1.3377318382263184,
   1.3225106000900269,
   1.3100745677947998,
   1.2981564998626709,
   1.2141999006271362,
   1.1672389507293701,
   1.1330538988113403,
   1.1095476150512695,
   1.091386079788208,
   1.078607439994812,
   1.0716927051544189,
   1.0642225742340088,
   1.0616234540939331,
   1.0179588794708252,
   0.99650728702545166,
   1.0006452798843384,
   0.99826508760452271,
   0.99379318952560425,
   1.0013408660888672,
   1.0063098669052124,
   0.99798518419265747,
   0.98750036954879761,
   0.98850739002227783,
   0.99981391429901123,
   0.99820244312286377,
   1.0064671039581299,
   0.99421846866607666,
   0.99138659238815308,
   1.0105878114700317,
   1.0200110673904419,
   0.97354286909103394
]
