[
   1.3779337406158447,
   1.3779656887054443,
   1.3776576519012451,
   1.3772958517074585,
   1.3775734901428223,
   1.3770730495452881,
   1.3769572973251343,
   1.3771998882293701,
   1.3773308992385864,
   1.3769195079803467,
   1.3763535022735596,
   1.3770291805267334,
   1.3757435083389282,
   1.3756393194198608,
   1.3759442567825317,
   1.3760206699371338,
   1.3759629726409912,
   1.3746263980865479,
   1.3749444484710693,
   1.3731404542922974,
   1.3711155652999878,
   1.3688516616821289,
   1.3674033880233765,
   1.3649590015411377,
   1.3634673357009888,
   1.3614579439163208,
   1.3590039014816284,
   1.3568811416625977,
   1.3397679328918457,
   1.3234274387359619,
   1.3093665838241577,
   1.2967445850372314,
   1.2846580743789673,
   1.2740734815597534,
   1.2630902528762817,
   1.2539652585983276,
   1.2452800273895264,
   1.1812983751296997,
   1.1426211595535278,
   1.1143347024917603,
   1.1012594699859619,
   1.0846763849258423,
   1.0712645053863525,
   1.0623795986175537,
   1.0540939569473267,
   1.049175500869751,
   1.0211522579193115,
   1.0038679838180542,
   0.9987872838973999,
   0.99737834930419922,
   0.9966546893119812,
   0.99256467819213867,
   1.0002603530883789,
   1.0017311573028564,
   1.005385160446167,
   0.99803000688552856,
   1.0033562183380127,
   0.99557751417160034,
   0.99992287158966064,
   1.002375602722168,
   1.018627405166626,
   0.98582565784454346,
   1.0022618770599365,
   1.0397078990936279
]
