[
   1.3168997764587402,
   1.3167589902877808,
   1.3167183399200439,
   1.3172690868377686,
   1.3166162967681885,
   1.3166630268096924,
   1.3167716264724731,
   1.3169419765472412,
   1.3168056011199951,
   1.3163813352584839,
   1.3167209625244141,
   1.3160450458526611,
   1.3161561489105225,
   1.3160371780395508,
   1.3157061338424683,
   1.3155649900436401,
   1.3155704736709595,
   1.3148597478866577,
   1.3157527446746826,
   1.3132684230804443,
   1.3119733333587646,
   1.310510516166687,
   1.309273362159729,
   1.3080732822418213,
   1.3062359094619751,
   1.3053017854690552,
   1.3038341999053955,
   1.3031110763549805,
   1.2897242307662964,
   1.2772681713104248,
   1.2659094333648682,
   1.2560367584228516,
   1.2461317777633667,
   1.2377033233642578,
   1.2296098470687866,
   1.2215607166290283,
   1.2138267755508423,
   1.1610562801361084,
   1.1285257339477539,
   1.105832576751709,
   1.1010820865631104,
   1.0865648984909058,
   1.0755306482315063,
   1.0679376125335693,
   1.061403751373291,
   1.0550025701522827,
   1.0284345149993896,
   1.0131505727767944,
   1.0111634731292725,
   1.0114790201187134,
   1.0027991533279419,
   1.0003917217254639,
   1.0040373802185059,
   1.0059199333190918,
   1.0029152631759644,
   1.0019094944000244,
   0.99728584289550781,
   0.99103480577468872,
   0.99870985746383667,
   0.98245638608932495,
   0.99698126316070557,
   0.96304857730865479,
   0.94594001770019531,
   1.0097012519836426
]
