[
   3.194739818572998,
   3.1905698776245117,
   3.187150239944458,
   3.1926538944244385,
   3.1866621971130371,
   3.1884899139404297,
   3.1883831024169922,
   3.1890175342559814,
   3.181891918182373,
   3.1834371089935303,
   3.1783778667449951,
   3.1723570823669434,
   3.1661257743835449,
   3.156895637512207,
   3.1495983600616455,
   3.1508820056915283,
   3.1412978172302246,
   3.1414675712585449,
   3.1317687034606934,
   3.0751888751983643,
   3.0222468376159668,
   2.9742512702941895,
   2.9293191432952881,
   2.8787972927093506,
   2.835038423538208,
   2.8006758689880371,
   2.7647261619567871,
   2.7182095050811768,
   2.4215633869171143,
   2.2102510929107666,
   2.0569839477539062,
   1.9306876659393311,
   1.8362095355987549,
   1.7491385936737061,
   1.6870723962783813,
   1.6328146457672119,
   1.577386736869812,
   1.3184138536453247,
   1.2192736864089966,
   1.1772096157073975,
   1.1449905633926392,
   1.1234161853790283,
   1.0953948497772217,
   1.0841903686523438,
   1.0704948902130127,
   1.0607292652130127,
   1.0333964824676514,
   1.0113110542297363,
   1.0098557472229004,
   0.99249094724655151,
   1.0038610696792603,
   1.009014368057251,
   0.99645566940307617,
   0.96345460414886475,
   1.0087044239044189,
   0.9842376708984375,
   0.99760186672210693,
   0.99180001020431519,
   0.99472397565841675,
   1.0052106380462646,
   0.97938317060470581,
   1.0137201547622681,
   1.0230816602706909,
   0.96175795793533325
]
