[
   2.6189227104187012,
   2.6174764633178711,
   2.6182093620300293,
   2.6172599792480469,
   2.6185829639434814,
   2.6174736022949219,
   2.6167399883270264,
   2.6161046028137207,
   2.6145315170288086,
   2.6112682819366455,
   2.6087191104888916,
   2.6038651466369629,
   2.5940854549407959,
   2.5888314247131348,
   2.5845026969909668,
   2.5771043300628662,
   2.5686297416687012,
   2.5629696846008301,
   2.5632481575012207,
   2.5082359313964844,
   2.4643011093139648,
   2.4257063865661621,
   2.3907923698425293,
   2.3575015068054199,
   2.3222994804382324,
   2.2973294258117676,
   2.2697091102600098,
   2.2448456287384033,
   2.0485177040100098,
   1.9052791595458984,
   1.7936451435089111,
   1.7095760107040405,
   1.6357694864273071,
   1.5707364082336426,
   1.5219608545303345,
   1.4752528667449951,
   1.4399999380111694,
   1.2397595643997192,
   1.1409779787063599,
   1.0925344228744507,
   1.0583795309066772,
   1.0383681058883667,
   1.0261180400848389,
   1.0226705074310303,
   1.0185673236846924,
   1.0162074565887451,
   0.99689686298370361,
   0.9992908239364624,
   0.99371814727783203,
   0.99676573276519775,
   0.9900396466255188,
   1.0028970241546631,
   1.0022227764129639,
   0.98346012830734253,
   0.98199141025543213,
   0.98350703716278076,
   0.98731553554534912,
   1.0043119192123413,
   1.0111088752746582,
   0.98664247989654541,
   0.97155171632766724,
   1.0097955465316772,
   1.0044980049133301,
   0.97978943586349487
]
