[
   1.7942622900009155,
   1.7944424152374268,
   1.7944447994232178,
   1.793532133102417,
   1.793560266494751,
   1.7923911809921265,
   1.7926626205444336,
   1.7937285900115967,
   1.7931978702545166,
   1.7935431003570557,
   1.7909253835678101,
   1.7894271612167358,
   1.7859764099121094,
   1.7847650051116943,
   1.7814849615097046,
   1.7801773548126221,
   1.7806594371795654,
   1.7757995128631592,
   1.7755591869354248,
   1.7584874629974365,
   1.7412960529327393,
   1.7269232273101807,
   1.7144542932510376,
   1.7008771896362305,
   1.6906915903091431,
   1.6787389516830444,
   1.6658504009246826,
   1.6577866077423096,
   1.578835129737854,
   1.5199466943740845,
   1.4747081995010376,
   1.4338798522949219,
   1.3997287750244141,
   1.3707609176635742,
   1.3453152179718018,
   1.3207144737243652,
   1.3009798526763916,
   1.1739704608917236,
   1.1206698417663574,
   1.0897094011306763,
   1.0628006458282471,
   1.0494489669799805,
   1.0379296541213989,
   1.0274670124053955,
   1.0257031917572021,
   1.025398850440979,
   1.0019614696502686,
   1.0170266628265381,
   0.99075919389724731,
   0.98703747987747192,
   0.99555426836013794,
   0.99343645572662354,
   0.99312227964401245,
   1.0034213066101074,
   0.9907451868057251,
   0.99269706010818481,
   1.0066728591918945,
   0.98724281787872314,
   1.0084022283554077,
   1.0061076879501343,
   0.99909180402755737,
   1.0120124816894531,
   1.0122551918029785,
   0.98887526988983154
]
