[
   2.0809774398803711,
   2.0771219730377197,
   2.0757203102111816,
   2.0761899948120117,
   2.0745804309844971,
   2.0762951374053955,
   2.0742578506469727,
   2.0764575004577637,
   2.0749607086181641,
   2.0756881237030029,
   2.0708179473876953,
   2.068742036819458,
   2.0658559799194336,
   2.0623023509979248,
   2.059598445892334,
   2.0582022666931152,
   2.0546305179595947,
   2.0505661964416504,
   2.0474014282226562,
   2.0199534893035889,
   1.9930789470672607,
   1.9734455347061157,
   1.9509553909301758,
   1.9328867197036743,
   1.9153884649276733,
   1.8987916707992554,
   1.8843324184417725,
   1.8655335903167725,
   1.751408576965332,
   1.6669533252716064,
   1.6006405353546143,
   1.5457020998001099,
   1.4978469610214233,
   1.4573155641555786,
   1.419573187828064,
   1.390765905380249,
   1.3632841110229492,
   1.1980675458908081,
   1.1178519725799561,
   1.0794616937637329,
   1.0545608997344971,
   1.0443272590637207,
   1.0312093496322632,
   1.0311992168426514,
   1.0236713886260986,
   1.0163586139678955,
   0.98832780122756958,
   0.9993138313293457,
   1.0068429708480835,
   0.99220693111419678,
   0.98949587345123291,
   0.99758064746856689,
   0.98953068256378174,
   0.99011772871017456,
   0.99378365278244019,
   0.99035340547561646,
   0.99002468585968018,
   1.0049182176589966,
   0.99828070402145386,
   1.0091980695724487,
   0.98245412111282349,
   1.0215146541595459,
   0.99203634262084961,
   1.0095932483673096
]
