[
   1.6141010522842407,
   1.6122812032699585,
   1.6151447296142578,
   1.6138780117034912,
   1.6129642724990845,
   1.6148645877838135,
   1.611564040184021,
   1.6131889820098877,
   1.6128003597259521,
   1.6124966144561768,
   1.612174391746521,
   1.6109611988067627,
   1.6077476739883423,
   1.6068557500839233,
   1.6062259674072266,
   1.6042178869247437,
   1.6031070947647095,
   1.6033636331558228,
   1.6009016036987305,
   1.5904682874679565,
   1.5787675380706787,
   1.5687296390533447,
   1.5589252710342407,
   1.5493950843811035,
   1.5408170223236084,
   1.5321710109710693,
   1.5258758068084717,
   1.5175106525421143,
   1.4593722820281982,
   1.4163621664047241,
   1.3810040950775146,
   1.3528115749359131,
   1.3267033100128174,
   1.3049603700637817,
   1.2846834659576416,
   1.26729416847229,
   1.2507606744766235,
   1.146864652633667,
   1.0959951877593994,
   1.0685375928878784,
   1.0494461059570312,
   1.0385141372680664,
   1.032966136932373,
   1.0239135026931763,
   1.0117121934890747,
   1.0080716609954834,
   1.0080506801605225,
   1.0021352767944336,
   1.0036966800689697,
   0.99778014421463013,
   0.99591463804244995,
   0.99308121204376221,
   0.99777042865753174,
   0.99939906597137451,
   0.99798011779785156,
   0.99918270111083984,
   0.99492090940475464,
   1.0093581676483154,
   1.0020682811737061,
   0.991016685962677,
   0.99625205993652344,
   0.99512940645217896,
   1.0064859390258789,
   1.0266249179840088
]
