[
   19.248619079589844,
   19.175624847412109,
   19.097202301025391,
   19.083057403564453,
   19.073558807373047,
   19.063154220581055,
   19.009960174560547,
   18.909502029418945,
   19.048664093017578,
   18.804435729980469,
   18.853397369384766,
   18.296306610107422,
   18.074104309082031,
   18.011768341064453,
   17.619592666625977,
   17.437835693359375,
   17.281875610351562,
   16.905345916748047,
   16.888641357421875,
   15.239404678344727,
   14.052778244018555,
   12.989152908325195,
   12.103335380554199,
   11.471121788024902,
   10.770244598388672,
   10.174787521362305,
   9.6271114349365234,
   9.0849428176879883,
   6.1286616325378418,
   4.6437826156616211,
   3.7792248725891113,
   3.2204525470733643,
   2.9147601127624512,
   2.6001982688903809,
   2.3941864967346191,
   2.145951509475708,
   2.0512070655822754,
   1.3977856636047363,
   1.2664748430252075,
   1.179376482963562,
   1.1070235967636108,
   1.0678979158401489,
   1.0443311929702759,
   1.0191973447799683,
   1.0045582056045532,
   1.107187032699585,
   0.97499144077301025,
   0.97636854648590088,
   0.99394446611404419,
   0.9184798002243042,
   0.94290745258331299,
   0.97862923145294189,
   0.96752548217773438,
   0.93093663454055786,
   0.94554030895233154,
   0.95326006412506104,
   0.9616694450378418,
   0.99955272674560547,
   0.9691387414932251,
   1.0658241510391235,
   0.92731887102127075,
   0.83941936492919922,
   0.89119493961334229,
   1.0898077487945557
]
