[
   1.7168543338775635,
   1.7182743549346924,
   1.715831995010376,
   1.7171239852905273,
   1.7171926498413086,
   1.7154569625854492,
   1.7168207168579102,
   1.71502685546875,
   1.7158069610595703,
   1.7153040170669556,
   1.7147848606109619,
   1.7119995355606079,
   1.7106136083602905,
   1.7086045742034912,
   1.7074880599975586,
   1.705188512802124,
   1.7044298648834229,
   1.7031030654907227,
   1.7008355855941772,
   1.6867345571517944,
   1.6739057302474976,
   1.6628929376602173,
   1.6504547595977783,
   1.6395877599716187,
   1.6298710107803345,
   1.6180171966552734,
   1.6098992824554443,
   1.6027300357818604,
   1.5318930149078369,
   1.482784628868103,
   1.4421908855438232,
   1.408138632774353,
   1.3792459964752197,
   1.3542219400405884,
   1.3329460620880127,
   1.3150205612182617,
   1.2952569723129272,
   1.1798741817474365,
   1.1247985363006592,
   1.0914467573165894,
   1.0700434446334839,
   1.0539937019348145,
   1.0391714572906494,
   1.0290796756744385,
   1.0217770338058472,
   1.0234601497650146,
   1.0052382946014404,
   1.0065653324127197,
   0.99444359540939331,
   1.0004682540893555,
   0.99804389476776123,
   1.0035301446914673,
   0.99882185459136963,
   1.0014725923538208,
   0.99206936359405518,
   0.99731981754302979,
   0.99173593521118164,
   1.0045115947723389,
   0.9903101921081543,
   0.99534052610397339,
   0.98857450485229492,
   0.98083466291427612,
   0.99407351016998291,
   0.96214759349822998
]
