[
   1.4708964824676514,
   1.4715689420700073,
   1.4694925546646118,
   1.4692349433898926,
   1.4696261882781982,
   1.4701093435287476,
   1.4697303771972656,
   1.4707746505737305,
   1.4699655771255493,
   1.4691965579986572,
   1.4695042371749878,
   1.4679567813873291,
   1.4670089483261108,
   1.4649224281311035,
   1.4657140970230103,
   1.46483314037323,
   1.463103175163269,
   1.4635121822357178,
   1.4618630409240723,
   1.454434871673584,
   1.4461015462875366,
   1.4405162334442139,
   1.4336235523223877,
   1.4273306131362915,
   1.42066490650177,
   1.4148455858230591,
   1.4110068082809448,
   1.4047216176986694,
   1.3643882274627686,
   1.3319026231765747,
   1.3068959712982178,
   1.2847983837127686,
   1.2668938636779785,
   1.2510960102081299,
   1.236983060836792,
   1.2222421169281006,
   1.2109028100967407,
   1.1287785768508911,
   1.0875533819198608,
   1.0634944438934326,
   1.0482606887817383,
   1.0382190942764282,
   1.0280519723892212,
   1.0238574743270874,
   1.0181748867034912,
   1.0169321298599243,
   1.0025743246078491,
   0.99743270874023438,
   0.99584734439849854,
   0.99570083618164062,
   0.99295520782470703,
   0.99002420902252197,
   0.99591350555419922,
   0.99764442443847656,
   1.0016212463378906,
   1.0025849342346191,
   0.99098145961761475,
   0.99492263793945312,
   0.99755525588989258,
   1.0051891803741455,
   1.0147029161453247,
   1.003881573677063,
   0.9953187108039856,
   0.99689865112304688
]
