[
   5.6674132347106934,
   5.6847271919250488,
   5.6671042442321777,
   5.6665091514587402,
   5.6614980697631836,
   5.6588993072509766,
   5.6636090278625488,
   5.6655740737915039,
   5.6641454696655273,
   5.6604123115539551,
   5.6284036636352539,
   5.5823512077331543,
   5.5455331802368164,
   5.5056090354919434,
   5.4926595687866211,
   5.4640250205993652,
   5.4336566925048828,
   5.4029860496520996,
   5.3826017379760742,
   5.1452326774597168,
   4.9539613723754883,
   4.7906384468078613,
   4.6428251266479492,
   4.5117158889770508,
   4.3870153427124023,
   4.2996172904968262,
   4.2008457183837891,
   4.0911569595336914,
   3.351600170135498,
   2.8797249794006348,
   2.5670619010925293,
   2.328178882598877,
   2.1479675769805908,
   2.0015652179718018,
   1.8826150894165039,
   1.7778803110122681,
   1.6897983551025391,
   1.3146334886550903,
   1.1700419187545776,
   1.1311043500900269,
   1.081296443939209,
   1.0462034940719604,
   1.0425107479095459,
   1.0398645401000977,
   1.0329997539520264,
   1.0121153593063354,
   0.97602778673171997,
   0.98755013942718506,
   1.0070936679840088,
   0.96537256240844727,
   1.000604510307312,
   1.0031287670135498,
   1.0282827615737915,
   1.0187127590179443,
   1.0126054286956787,
   1.0040816068649292,
   0.96015578508377075,
   0.99060994386672974,
   1.0105111598968506,
   1.0087985992431641,
   0.92936265468597412,
   0.97550618648529053,
   0.88865458965301514,
   0.88429200649261475
]
