[
   3.9654777050018311,
   3.9679081439971924,
   3.9626202583312988,
   3.9573054313659668,
   3.9607498645782471,
   3.9565188884735107,
   3.9429404735565186,
   3.9524426460266113,
   3.9543366432189941,
   3.946317195892334,
   3.9403243064880371,
   3.9177124500274658,
   3.9037833213806152,
   3.8918814659118652,
   3.8714556694030762,
   3.8470282554626465,
   3.8392696380615234,
   3.823380708694458,
   3.8026280403137207,
   3.6984858512878418,
   3.588803768157959,
   3.5079741477966309,
   3.4258434772491455,
   3.3631370067596436,
   3.2927143573760986,
   3.2389101982116699,
   3.170670747756958,
   3.1225705146789551,
   2.7226552963256836,
   2.4329161643981934,
   2.2273054122924805,
   2.0672333240509033,
   1.9434467554092407,
   1.8392263650894165,
   1.7536866664886475,
   1.6814887523651123,
   1.6092426776885986,
   1.3111664056777954,
   1.1754118204116821,
   1.1326277256011963,
   1.0993168354034424,
   1.0667197704315186,
   1.0494905710220337,
   1.0396879911422729,
   1.0379350185394287,
   1.035801887512207,
   1.0121185779571533,
   0.99018704891204834,
   1.00205397605896,
   1.0113140344619751,
   0.99385631084442139,
   1.0190277099609375,
   1.0045702457427979,
   1.0123869180679321,
   0.9930877685546875,
   0.97093832492828369,
   1.0151578187942505,
   0.98091888427734375,
   1.0194582939147949,
   0.99526864290237427,
   0.99178135395050049,
   0.97010582685470581,
   1.0638009309768677,
   1.0563656091690063
]
