[
   1.5683337450027466,
   1.5686348676681519,
   1.5685819387435913,
   1.5686169862747192,
   1.5682846307754517,
   1.5672136545181274,
   1.568379282951355,
   1.5679003000259399,
   1.5672341585159302,
   1.5684795379638672,
   1.5660282373428345,
   1.5649058818817139,
   1.5636790990829468,
   1.5624821186065674,
   1.5623162984848022,
   1.5611799955368042,
   1.5603201389312744,
   1.5587284564971924,
   1.5580343008041382,
   1.5473031997680664,
   1.5359961986541748,
   1.5279676914215088,
   1.5184561014175415,
   1.5113554000854492,
   1.5040299892425537,
   1.4956797361373901,
   1.4895240068435669,
   1.4833601713180542,
   1.4291369915008545,
   1.3899447917938232,
   1.3585177659988403,
   1.3322186470031738,
   1.307626485824585,
   1.2887817621231079,
   1.2704440355300903,
   1.2539072036743164,
   1.2390415668487549,
   1.1456289291381836,
   1.0990240573883057,
   1.0716186761856079,
   1.052348256111145,
   1.0439869165420532,
   1.0368498563766479,
   1.035611629486084,
   1.0310678482055664,
   1.0300242900848389,
   0.99836075305938721,
   1.0033596754074097,
   1.00132155418396,
   1.0009323358535767,
   0.98772114515304565,
   0.98749333620071411,
   0.99311572313308716,
   0.99839657545089722,
   1.0028645992279053,
   1.0024008750915527,
   0.99332886934280396,
   0.99731600284576416,
   1.0062185525894165,
   1.0034048557281494,
   0.98816949129104614,
   1.0042264461517334,
   0.97014552354812622,
   0.98864680528640747
]
