[
   71.638969421386719,
   70.374885559082031,
   71.789894104003906,
   69.749794006347656,
   69.368415832519531,
   69.345779418945312,
   69.180648803710938,
   68.935340881347656,
   68.641403198242188,
   67.330459594726562,
   65.541191101074219,
   63.19451904296875,
   61.151702880859375,
   59.25274658203125,
   56.251995086669922,
   55.245445251464844,
   54.188743591308594,
   53.284584045410156,
   51.529582977294922,
   40.519969940185547,
   33.324623107910156,
   29.314458847045898,
   24.7672119140625,
   22.821506500244141,
   19.67724609375,
   17.956781387329102,
   16.321861267089844,
   14.88194751739502,
   7.6299247741699219,
   6.0096769332885742,
   4.6444792747497559,
   3.7109534740447998,
   3.442939281463623,
   3.1558640003204346,
   2.7470107078552246,
   2.8569865226745605,
   2.2132127285003662,
   1.4322686195373535,
   1.2913506031036377,
   1.1035034656524658,
   1.0725330114364624,
   0.96561497449874878,
   1.0549595355987549,
   1.1081857681274414,
   0.97922688722610474,
   1.0166518688201904,
   1.0074763298034668,
   1.1758577823638916,
   0.89915639162063599,
   0.75238323211669922,
   1.2578136920928955,
   0.75290405750274658,
   1.0046781301498413,
   0.8822706937789917,
   1.0711452960968018,
   1.0117336511611938,
   1.0857338905334473,
   1.0716559886932373,
   0.90332698822021484,
   1.0760049819946289,
   0.89537894725799561,
   1.1050689220428467,
   1.0445892810821533,
   0.71396946907043457
]
