[
   3.0816848278045654,
   3.0853660106658936,
   3.0883607864379883,
   3.0793263912200928,
   3.0782914161682129,
   3.079775333404541,
   3.0774309635162354,
   3.0800857543945312,
   3.0770537853240967,
   3.0801894664764404,
   3.0627205371856689,
   3.0537731647491455,
   3.0565557479858398,
   3.0463263988494873,
   3.0345232486724854,
   3.0272982120513916,
   3.0183587074279785,
   3.0078864097595215,
   2.9936213493347168,
   2.9280288219451904,
   2.8671939373016357,
   2.8082907199859619,
   2.7569069862365723,
   2.7201266288757324,
   2.6747219562530518,
   2.6346619129180908,
   2.6020843982696533,
   2.5682418346405029,
   2.2991254329681396,
   2.113919734954834,
   1.9731795787811279,
   1.8601181507110596,
   1.7645177841186523,
   1.6978073120117188,
   1.6377785205841064,
   1.5846438407897949,
   1.5386273860931396,
   1.2882876396179199,
   1.1927311420440674,
   1.1361606121063232,
   1.0923177003860474,
   1.0633513927459717,
   1.0363460779190063,
   1.0416092872619629,
   1.0347341299057007,
   1.0308400392532349,
   0.98873776197433472,
   1.0182794332504272,
   1.0019450187683105,
   0.98097431659698486,
   1.001737117767334,
   0.99129760265350342,
   1.0172134637832642,
   0.99965107440948486,
   0.99066513776779175,
   0.98316973447799683,
   0.99328869581222534,
   0.99212610721588135,
   0.98261290788650513,
   1.0165934562683105,
   1.0203272104263306,
   0.98305493593215942,
   1.0577688217163086,
   1.0507910251617432
]
