[
   1.4248486757278442,
   1.4252049922943115,
   1.4247000217437744,
   1.424997091293335,
   1.4256064891815186,
   1.4258325099945068,
   1.4246900081634521,
   1.4248547554016113,
   1.4255111217498779,
   1.425593376159668,
   1.424521803855896,
   1.4245657920837402,
   1.4229439496994019,
   1.4230142831802368,
   1.4227430820465088,
   1.4218077659606934,
   1.4225451946258545,
   1.4208791255950928,
   1.4221615791320801,
   1.4168589115142822,
   1.4138256311416626,
   1.4094197750091553,
   1.4064311981201172,
   1.4034228324890137,
   1.4006408452987671,
   1.3973218202590942,
   1.3942443132400513,
   1.3912863731384277,
   1.3648078441619873,
   1.3427309989929199,
   1.323613166809082,
   1.3053132295608521,
   1.2900750637054443,
   1.2750027179718018,
   1.2617576122283936,
   1.2495900392532349,
   1.2388936281204224,
   1.1619713306427002,
   1.1217659711837769,
   1.0923559665679932,
   1.074655294418335,
   1.060706615447998,
   1.0498634576797485,
   1.0414084196090698,
   1.0346077680587769,
   1.0332484245300293,
   1.02223801612854,
   1.0097086429595947,
   1.0042455196380615,
   1.00072181224823,
   1.0075064897537231,
   0.99753081798553467,
   1.0085916519165039,
   0.99454516172409058,
   1.0012046098709106,
   1.0003780126571655,
   0.99872416257858276,
   0.99994134902954102,
   1.0007807016372681,
   0.99423331022262573,
   0.99277800321578979,
   0.97865551710128784,
   1.0166442394256592,
   0.97537243366241455
]
