[
   1.3219573497772217,
   1.3220415115356445,
   1.321645975112915,
   1.3215394020080566,
   1.3220911026000977,
   1.3220255374908447,
   1.3217580318450928,
   1.3215391635894775,
   1.3221756219863892,
   1.3219789266586304,
   1.3214998245239258,
   1.3216288089752197,
   1.3207874298095703,
   1.3205870389938354,
   1.3202773332595825,
   1.3198368549346924,
   1.3200099468231201,
   1.3187764883041382,
   1.3195103406906128,
   1.3163444995880127,
   1.3148082494735718,
   1.3115952014923096,
   1.3098446130752563,
   1.3079820871353149,
   1.3063355684280396,
   1.3039966821670532,
   1.3016431331634521,
   1.2996656894683838,
   1.2821029424667358,
   1.2674852609634399,
   1.2540067434310913,
   1.2412424087524414,
   1.2305257320404053,
   1.2201865911483765,
   1.210776686668396,
   1.2014470100402832,
   1.1940863132476807,
   1.1361746788024902,
   1.1034266948699951,
   1.0790667533874512,
   1.0727797746658325,
   1.0598020553588867,
   1.0501337051391602,
   1.0420173406600952,
   1.0358184576034546,
   1.0336987972259521,
   1.020582914352417,
   1.0084964036941528,
   1.0031697750091553,
   1.0035022497177124,
   1.0086427927017212,
   0.99709904193878174,
   1.0052944421768188,
   0.99925744533538818,
   1.0027697086334229,
   1.0010439157485962,
   1.0021841526031494,
   0.99964743852615356,
   1.0020378828048706,
   0.99364578723907471,
   0.99204140901565552,
   0.98103177547454834,
   1.0144603252410889,
   0.98153769969940186
]
