[
   1.6081655025482178,
   1.6084228754043579,
   1.6082954406738281,
   1.6080766916275024,
   1.6081184148788452,
   1.6077711582183838,
   1.6069459915161133,
   1.609117865562439,
   1.6073936223983765,
   1.6074483394622803,
   1.6073364019393921,
   1.6060737371444702,
   1.6064058542251587,
   1.6042047739028931,
   1.6047557592391968,
   1.603141188621521,
   1.6028308868408203,
   1.6022140979766846,
   1.6005653142929077,
   1.5943235158920288,
   1.5880539417266846,
   1.5812057256698608,
   1.5751641988754272,
   1.570360541343689,
   1.5636006593704224,
   1.5591530799865723,
   1.5523985624313354,
   1.5485177040100098,
   1.5038450956344604,
   1.4663552045822144,
   1.4341458082199097,
   1.4058941602706909,
   1.3809750080108643,
   1.3591310977935791,
   1.3383243083953857,
   1.3195731639862061,
   1.3020601272583008,
   1.1972630023956299,
   1.1426762342453003,
   1.1091454029083252,
   1.0849789381027222,
   1.0690397024154663,
   1.0574572086334229,
   1.050977349281311,
   1.0421953201293945,
   1.0390729904174805,
   1.0047540664672852,
   0.9928404688835144,
   0.99424064159393311,
   0.99392020702362061,
   0.98949515819549561,
   0.99286478757858276,
   0.98947155475616455,
   1.0024616718292236,
   0.99495136737823486,
   0.98868930339813232,
   0.99355000257492065,
   0.98296612501144409,
   1.0008646249771118,
   0.99692839384078979,
   1.0070273876190186,
   0.99979990720748901,
   1.0453572273254395,
   1.0531367063522339
]
