[
   1.6974445581436157,
   1.6946563720703125,
   1.6964495182037354,
   1.6956075429916382,
   1.6957483291625977,
   1.6952192783355713,
   1.6959514617919922,
   1.6966063976287842,
   1.6949207782745361,
   1.695465087890625,
   1.6953704357147217,
   1.6957086324691772,
   1.6922132968902588,
   1.6930032968521118,
   1.690707802772522,
   1.689975380897522,
   1.688510537147522,
   1.6879875659942627,
   1.6866871118545532,
   1.6796808242797852,
   1.6703189611434937,
   1.661823034286499,
   1.6545730829238892,
   1.6491777896881104,
   1.6395518779754639,
   1.6342592239379883,
   1.6266616582870483,
   1.6207780838012695,
   1.5648815631866455,
   1.519512414932251,
   1.4786443710327148,
   1.443139910697937,
   1.4130001068115234,
   1.3864576816558838,
   1.3637764453887939,
   1.3435834646224976,
   1.3254234790802002,
   1.2031558752059937,
   1.1409153938293457,
   1.0993185043334961,
   1.0729641914367676,
   1.061293363571167,
   1.0500752925872803,
   1.042802095413208,
   1.033494234085083,
   1.0316736698150635,
   1.002007007598877,
   1.0198885202407837,
   1.0090289115905762,
   1.00105881690979,
   0.9888843297958374,
   0.98816078901290894,
   0.99392616748809814,
   0.98583441972732544,
   0.97991341352462769,
   0.97932624816894531,
   0.99577367305755615,
   1.0074999332427979,
   1.0004205703735352,
   1.007220983505249,
   1.0098363161087036,
   1.0031015872955322,
   1.0379507541656494,
   1.0110982656478882
]
