[
   2.0182290077209473,
   2.0154485702514648,
   2.0168201923370361,
   2.0167222023010254,
   2.0150268077850342,
   2.0178952217102051,
   2.0147318840026855,
   2.0152373313903809,
   2.01542067527771,
   2.0150008201599121,
   2.0111124515533447,
   2.0129666328430176,
   2.0092110633850098,
   2.0096027851104736,
   2.0049769878387451,
   2.0041935443878174,
   2.0010366439819336,
   2.0008599758148193,
   2.0001564025878906,
   1.9835115671157837,
   1.9657398462295532,
   1.9550870656967163,
   1.942042350769043,
   1.9282007217407227,
   1.9148213863372803,
   1.9012329578399658,
   1.8897415399551392,
   1.8781766891479492,
   1.7812570333480835,
   1.7027866840362549,
   1.6409642696380615,
   1.5854198932647705,
   1.5404343605041504,
   1.4993150234222412,
   1.4644186496734619,
   1.4355018138885498,
   1.4090143442153931,
   1.2488651275634766,
   1.1785745620727539,
   1.1325185298919678,
   1.1031574010848999,
   1.0829474925994873,
   1.0729095935821533,
   1.06461501121521,
   1.056380033493042,
   1.0544264316558838,
   1.0121539831161499,
   1.011451244354248,
   1.0031411647796631,
   0.99451363086700439,
   0.99986439943313599,
   1.0010286569595337,
   0.99765193462371826,
   1.0044443607330322,
   0.99733102321624756,
   1.015392541885376,
   1.0066350698471069,
   1.0175925493240356,
   0.99964702129364014,
   0.97260457277297974,
   0.94978809356689453,
   0.98288184404373169,
   0.94460785388946533,
   0.86655652523040771
]
