[
   10.149282455444336,
   10.098551750183105,
   10.103696823120117,
   10.115477561950684,
   10.10648250579834,
   10.08638858795166,
   10.089502334594727,
   10.085283279418945,
   10.067868232727051,
   10.046472549438477,
   9.954798698425293,
   9.8776111602783203,
   9.7035427093505859,
   9.6100378036499023,
   9.5454378128051758,
   9.5369529724121094,
   9.3796977996826172,
   9.2557144165039062,
   9.1914262771606445,
   8.5014133453369141,
   7.8882994651794434,
   7.4064435958862305,
   6.8721227645874023,
   6.5084786415100098,
   6.1981716156005859,
   5.8933534622192383,
   5.5704660415649414,
   5.3789591789245605,
   3.8632469177246094,
   3.1060051918029785,
   2.6933913230895996,
   2.3594903945922852,
   2.1556661128997803,
   2.0348336696624756,
   1.9113117456436157,
   1.7951446771621704,
   1.7620149850845337,
   1.3239679336547852,
   1.1741093397140503,
   1.1881740093231201,
   1.0865962505340576,
   1.0969383716583252,
   1.0404698848724365,
   1.1312077045440674,
   1.057905912399292,
   1.0546605587005615,
   1.0382611751556396,
   1.0171293020248413,
   1.0121141672134399,
   1.0125586986541748,
   0.98694169521331787,
   0.9843565821647644,
   1.0079480409622192,
   0.97135496139526367,
   1.0182150602340698,
   0.99932777881622314,
   0.98810005187988281,
   1.0522948503494263,
   1.053478479385376,
   1.013374924659729,
   0.84041988849639893,
   1.0115398168563843,
   0.99514925479888916,
   0.94950264692306519
]
