[
   3.5401241779327393,
   3.5418040752410889,
   3.5461280345916748,
   3.5413765907287598,
   3.5322890281677246,
   3.532783031463623,
   3.5313820838928223,
   3.5359432697296143,
   3.5286574363708496,
   3.5338273048400879,
   3.5273463726043701,
   3.5122439861297607,
   3.5069324970245361,
   3.5001926422119141,
   3.4862396717071533,
   3.4726650714874268,
   3.4672408103942871,
   3.4474835395812988,
   3.4497418403625488,
   3.3637909889221191,
   3.293656587600708,
   3.2114658355712891,
   3.1548800468444824,
   3.0917849540710449,
   3.0268709659576416,
   2.9799802303314209,
   2.9239459037780762,
   2.8765513896942139,
   2.4820339679718018,
   2.2300944328308105,
   2.0475635528564453,
   1.9069286584854126,
   1.7981319427490234,
   1.7141517400741577,
   1.634774923324585,
   1.5750653743743896,
   1.5246207714080811,
   1.2724933624267578,
   1.1703512668609619,
   1.1390950679779053,
   1.0943886041641235,
   1.0740776062011719,
   1.0619828701019287,
   1.0420247316360474,
   1.0399643182754517,
   1.0333538055419922,
   1.0103899240493774,
   0.99052774906158447,
   0.99620550870895386,
   0.99214589595794678,
   1.0190966129302979,
   0.9958571195602417,
   1.0120035409927368,
   1.0001399517059326,
   1.0083796977996826,
   0.96542102098464966,
   0.98509377241134644,
   1.0062054395675659,
   0.98206627368927002,
   1.0336143970489502,
   0.99777394533157349,
   1.0282238721847534,
   1.0339274406433105,
   1.1401821374893188
]
