[
   32.146396636962891,
   32.315193176269531,
   32.087390899658203,
   32.157962799072266,
   31.721460342407227,
   31.696407318115234,
   31.943563461303711,
   31.516727447509766,
   31.408351898193359,
   31.403467178344727,
   30.506505966186523,
   29.351654052734375,
   28.552663803100586,
   27.521188735961914,
   26.872661590576172,
   25.923061370849609,
   25.247596740722656,
   24.421642303466797,
   24.017612457275391,
   19.080799102783203,
   16.125875473022461,
   13.817588806152344,
   12.224690437316895,
   10.883435249328613,
   10.242250442504883,
   9.2960205078125,
   8.4474763870239258,
   7.9015059471130371,
   4.91314697265625,
   3.5705771446228027,
   2.9147250652313232,
   2.5528993606567383,
   2.2530190944671631,
   2.1499683856964111,
   1.9023669958114624,
   1.841800332069397,
   1.7407478094100952,
   1.3455009460449219,
   1.3122913837432861,
   1.2572109699249268,
   1.1534808874130249,
   1.1669697761535645,
   1.1167013645172119,
   1.1627048254013062,
   1.0512458086013794,
   1.0301419496536255,
   1.1105858087539673,
   0.94862520694732666,
   1.0193465948104858,
   1.0972738265991211,
   0.95705163478851318,
   0.90243136882781982,
   0.93048334121704102,
   0.95354241132736206,
   1.0031144618988037,
   0.95121496915817261,
   1.0181581974029541,
   1.0549169778823853,
   0.988567054271698,
   1.0213719606399536,
   0.94926798343658447,
   0.99385106563568115,
   1.0257859230041504,
   1.1530768871307373
]
