[
   1.5887731313705444,
   1.5870702266693115,
   1.5875487327575684,
   1.5869243144989014,
   1.5865328311920166,
   1.5883222818374634,
   1.5881502628326416,
   1.5877126455307007,
   1.5873953104019165,
   1.5869487524032593,
   1.587101936340332,
   1.5865939855575562,
   1.5842152833938599,
   1.5839183330535889,
   1.5841052532196045,
   1.5820436477661133,
   1.5827903747558594,
   1.5821912288665771,
   1.5804750919342041,
   1.5742794275283813,
   1.5696732997894287,
   1.5618255138397217,
   1.5570114850997925,
   1.5530431270599365,
   1.5457922220230103,
   1.5419822931289673,
   1.5364956855773926,
   1.5318781137466431,
   1.4919465780258179,
   1.4578826427459717,
   1.4279836416244507,
   1.4046158790588379,
   1.3806917667388916,
   1.360220193862915,
   1.3417313098907471,
   1.3257572650909424,
   1.310571551322937,
   1.2076046466827393,
   1.1520169973373413,
   1.1154590845108032,
   1.0935533046722412,
   1.0787403583526611,
   1.0689698457717896,
   1.0641287565231323,
   1.0550867319107056,
   1.045085072517395,
   1.0076727867126465,
   1.0020754337310791,
   1.001372218132019,
   1.0035146474838257,
   0.99884843826293945,
   0.99762791395187378,
   1.002720832824707,
   1.0098491907119751,
   1.0011934041976929,
   0.9909932017326355,
   1.0126780271530151,
   1.0176204442977905,
   1.014533519744873,
   0.99559986591339111,
   0.99489021301269531,
   0.96512269973754883,
   0.99115008115768433,
   0.94417446851730347
]
