[
   11.122344017028809,
   11.114704132080078,
   11.150866508483887,
   11.076292037963867,
   11.093700408935547,
   11.092763900756836,
   11.017977714538574,
   11.065561294555664,
   11.030591011047363,
   11.026178359985352,
   10.892290115356445,
   10.808528900146484,
   10.683576583862305,
   10.540774345397949,
   10.420434951782227,
   10.425695419311523,
   10.294495582580566,
   10.220613479614258,
   10.144989967346191,
   9.3149242401123047,
   8.6684761047363281,
   8.1283292770385742,
   7.6419134140014648,
   7.24884033203125,
   6.8708901405334473,
   6.4926376342773438,
   6.2265744209289551,
   5.9667730331420898,
   4.2559270858764648,
   3.4354362487792969,
   2.9313063621520996,
   2.5766329765319824,
   2.3376400470733643,
   2.1598045825958252,
   2.0151073932647705,
   1.8890645503997803,
   1.8061739206314087,
   1.4655311107635498,
   1.3088744878768921,
   1.1672223806381226,
   1.1881002187728882,
   1.1423894166946411,
   1.071890115737915,
   1.0691168308258057,
   1.0002151727676392,
   1.0404665470123291,
   1.0197165012359619,
   1.0676066875457764,
   1.0606967210769653,
   0.99889582395553589,
   1.0595414638519287,
   0.99565571546554565,
   1.0344487428665161,
   0.96704369783401489,
   1.0268967151641846,
   0.99416762590408325,
   0.97955131530761719,
   1.017382025718689,
   1.015678882598877,
   0.96745413541793823,
   0.96336901187896729,
   1.0481483936309814,
   0.93911200761795044,
   0.84473764896392822
]
