[
   2.1295573711395264,
   2.1308493614196777,
   2.125150203704834,
   2.1271824836730957,
   2.1276054382324219,
   2.1271538734436035,
   2.124058723449707,
   2.1272549629211426,
   2.1260271072387695,
   2.1277236938476562,
   2.1238322257995605,
   2.1244633197784424,
   2.1224777698516846,
   2.1179258823394775,
   2.1167235374450684,
   2.1134920120239258,
   2.1128416061401367,
   2.112504243850708,
   2.1072635650634766,
   2.0875856876373291,
   2.0700249671936035,
   2.0567684173583984,
   2.0403659343719482,
   2.02394700050354,
   2.0114109516143799,
   1.9944738149642944,
   1.9861457347869873,
   1.9718586206436157,
   1.8676761388778687,
   1.7811129093170166,
   1.7141721248626709,
   1.6579015254974365,
   1.6070365905761719,
   1.5643593072891235,
   1.5246561765670776,
   1.4900891780853271,
   1.4599208831787109,
   1.2862211465835571,
   1.2028756141662598,
   1.1481672525405884,
   1.1151870489120483,
   1.0971100330352783,
   1.0822482109069824,
   1.0699156522750854,
   1.0569736957550049,
   1.0524551868438721,
   1.0235378742218018,
   1.0081532001495361,
   1.0143319368362427,
   0.99277323484420776,
   0.99339473247528076,
   0.9996262788772583,
   0.98280161619186401,
   0.98157042264938354,
   1.0126713514328003,
   1.0085227489471436,
   0.99300509691238403,
   1.0106058120727539,
   0.99861210584640503,
   0.98336696624755859,
   0.98666048049926758,
   0.95923805236816406,
   0.95090138912200928,
   0.88642215728759766
]
