[
   2.8502261638641357,
   2.850571870803833,
   2.8437347412109375,
   2.8460595607757568,
   2.844785213470459,
   2.8402469158172607,
   2.8376636505126953,
   2.8466033935546875,
   2.8442521095275879,
   2.8392815589904785,
   2.8378901481628418,
   2.8300251960754395,
   2.8297135829925537,
   2.8219246864318848,
   2.8129417896270752,
   2.8141865730285645,
   2.8080031871795654,
   2.8037030696868896,
   2.7992386817932129,
   2.7565093040466309,
   2.7064864635467529,
   2.6692032814025879,
   2.636181116104126,
   2.6056797504425049,
   2.5718839168548584,
   2.5400140285491943,
   2.5116856098175049,
   2.4889895915985107,
   2.2585771083831787,
   2.0930929183959961,
   1.9690427780151367,
   1.8690439462661743,
   1.7803401947021484,
   1.7077577114105225,
   1.6478418111801147,
   1.6015907526016235,
   1.556959867477417,
   1.3063324689865112,
   1.2060755491256714,
   1.1380938291549683,
   1.1017271280288696,
   1.0906250476837158,
   1.0695983171463013,
   1.0632132291793823,
   1.0538705587387085,
   1.0533461570739746,
   1.0001014471054077,
   0.99083167314529419,
   0.98118799924850464,
   0.97663652896881104,
   0.96168690919876099,
   0.96873074769973755,
   0.98851692676544189,
   0.99011385440826416,
   0.98235237598419189,
   1.0043413639068604,
   1.0148352384567261,
   0.97905236482620239,
   1.0101915597915649,
   0.99216681718826294,
   0.96591722965240479,
   0.95538681745529175,
   0.95542061328887939,
   1.1280654668807983
]
