[
   36.120292663574219,
   36.119728088378906,
   35.6673583984375,
   35.484493255615234,
   35.732337951660156,
   35.343486785888672,
   35.051406860351562,
   35.132484436035156,
   35.016811370849609,
   34.919582366943359,
   33.75640869140625,
   32.602344512939453,
   31.729608535766602,
   31.043081283569336,
   29.893692016601562,
   29.223709106445312,
   28.659357070922852,
   27.89251708984375,
   27.153240203857422,
   21.653707504272461,
   18.43359375,
   15.774139404296875,
   13.861837387084961,
   12.40851879119873,
   11.25599479675293,
   10.077181816101074,
   9.4864788055419922,
   8.8815422058105469,
   5.3830900192260742,
   4.0356965065002441,
   3.4302334785461426,
   2.7462954521179199,
   2.3978347778320312,
   2.2175321578979492,
   2.2223992347717285,
   2.124528169631958,
   1.9685409069061279,
   1.471851110458374,
   1.2145317792892456,
   1.2126600742340088,
   1.122930645942688,
   1.107142448425293,
   1.1302114725112915,
   1.0225503444671631,
   0.98142755031585693,
   1.0379964113235474,
   1.0352445840835571,
   0.9595869779586792,
   0.84342420101165771,
   1.0483171939849854,
   1.0569196939468384,
   0.99444741010665894,
   1.0404372215270996,
   0.92932689189910889,
   0.89787042140960693,
   0.97860944271087646,
   0.9632527232170105,
   1.0374419689178467,
   0.95060044527053833,
   0.92403304576873779,
   0.93929445743560791,
   1.1433043479919434,
   0.73141199350357056,
   1.4119894504547119
]
