[
   1.3391729593276978,
   1.3400593996047974,
   1.3389383554458618,
   1.3396762609481812,
   1.3391780853271484,
   1.3385461568832397,
   1.3394372463226318,
   1.3397519588470459,
   1.3388106822967529,
   1.338805079460144,
   1.3388017416000366,
   1.3388545513153076,
   1.338341236114502,
   1.3376224040985107,
   1.3374412059783936,
   1.3375424146652222,
   1.3369754552841187,
   1.3369348049163818,
   1.3373451232910156,
   1.3336973190307617,
   1.3307394981384277,
   1.3293459415435791,
   1.3255904912948608,
   1.323527455329895,
   1.3212201595306396,
   1.3194435834884644,
   1.3168938159942627,
   1.3140462636947632,
   1.2949016094207764,
   1.2789943218231201,
   1.2643716335296631,
   1.2514903545379639,
   1.240289568901062,
   1.2300150394439697,
   1.2196955680847168,
   1.2113099098205566,
   1.2025285959243774,
   1.1422593593597412,
   1.1032489538192749,
   1.0808956623077393,
   1.0710999965667725,
   1.0571647882461548,
   1.0470824241638184,
   1.0397204160690308,
   1.0347810983657837,
   1.0315732955932617,
   1.013546347618103,
   1.0094830989837646,
   1.0026957988739014,
   1.0027825832366943,
   0.99939334392547607,
   0.99479454755783081,
   1.0022957324981689,
   1.0037995576858521,
   1.0036814212799072,
   1.0026061534881592,
   0.9970514178276062,
   1.0081230401992798,
   0.98254966735839844,
   1.0054595470428467,
   0.99188220500946045,
   0.98252105712890625,
   0.99366551637649536,
   0.96855127811431885
]
