[
   1.3742148876190186,
   1.37401282787323,
   1.3740652799606323,
   1.3736158609390259,
   1.3741910457611084,
   1.3741767406463623,
   1.3742742538452148,
   1.3739464282989502,
   1.3740417957305908,
   1.3736989498138428,
   1.372972846031189,
   1.3726916313171387,
   1.3729724884033203,
   1.3727900981903076,
   1.3721158504486084,
   1.3712910413742065,
   1.3709527254104614,
   1.3709654808044434,
   1.3707319498062134,
   1.3683089017868042,
   1.3644622564315796,
   1.3608043193817139,
   1.3584911823272705,
   1.3561651706695557,
   1.353137731552124,
   1.350211501121521,
   1.3475310802459717,
   1.3447878360748291,
   1.323032021522522,
   1.3050723075866699,
   1.2899552583694458,
   1.2757819890975952,
   1.2627475261688232,
   1.2521605491638184,
   1.240481972694397,
   1.2318301200866699,
   1.2225124835968018,
   1.1580016613006592,
   1.1182786226272583,
   1.0910453796386719,
   1.0763895511627197,
   1.0644909143447876,
   1.0548937320709229,
   1.0462558269500732,
   1.0392700433731079,
   1.0380337238311768,
   1.0132243633270264,
   0.99540281295776367,
   0.99883347749710083,
   0.99713021516799927,
   0.99241316318511963,
   0.99699628353118896,
   1.0010970830917358,
   1.0021927356719971,
   0.99760532379150391,
   0.99610280990600586,
   1.000863790512085,
   0.99274951219558716,
   0.98762857913970947,
   1.0113991498947144,
   1.0030566453933716,
   0.99224871397018433,
   1.0064156055450439,
   1.0207527875900269
]
