[
   2.3974740505218506,
   2.4013602733612061,
   2.3983845710754395,
   2.4006705284118652,
   2.3966233730316162,
   2.3968427181243896,
   2.3992562294006348,
   2.3957409858703613,
   2.3981294631958008,
   2.3996951580047607,
   2.3913896083831787,
   2.3912661075592041,
   2.3883390426635742,
   2.3823642730712891,
   2.3831584453582764,
   2.3777635097503662,
   2.3746762275695801,
   2.3723170757293701,
   2.3696722984313965,
   2.3407003879547119,
   2.3176722526550293,
   2.2903406620025635,
   2.2693972587585449,
   2.2477152347564697,
   2.2279751300811768,
   2.209648609161377,
   2.1927709579467773,
   2.1777362823486328,
   2.024200439453125,
   1.9093570709228516,
   1.8183219432830811,
   1.7402776479721069,
   1.6762415170669556,
   1.622672438621521,
   1.5712846517562866,
   1.5330158472061157,
   1.4977442026138306,
   1.2982558012008667,
   1.2075742483139038,
   1.1455380916595459,
   1.1074445247650146,
   1.089722752571106,
   1.0735040903091431,
   1.0583409070968628,
   1.0537040233612061,
   1.0489391088485718,
   1.0098614692687988,
   1.0025047063827515,
   0.99666422605514526,
   0.98181498050689697,
   0.98606443405151367,
   0.9749528169631958,
   0.98439538478851318,
   0.99872285127639771,
   0.99254447221755981,
   0.98288476467132568,
   0.97985190153121948,
   0.98185652494430542,
   1.0076711177825928,
   0.99413031339645386,
   0.97696703672409058,
   0.98504418134689331,
   1.0744130611419678,
   1.080020546913147
]
