[
   1.9093402624130249,
   1.9079978466033936,
   1.9096943140029907,
   1.9079974889755249,
   1.9067798852920532,
   1.9082587957382202,
   1.9076507091522217,
   1.90677809715271,
   1.906856894493103,
   1.9074159860610962,
   1.9059150218963623,
   1.9047927856445312,
   1.9046022891998291,
   1.9028282165527344,
   1.8997611999511719,
   1.8983640670776367,
   1.8976802825927734,
   1.8953838348388672,
   1.8925259113311768,
   1.8799206018447876,
   1.86991286277771,
   1.8586244583129883,
   1.8445485830307007,
   1.8355338573455811,
   1.8245754241943359,
   1.8127845525741577,
   1.8072181940078735,
   1.7976545095443726,
   1.7174705266952515,
   1.6542396545410156,
   1.6006057262420654,
   1.5570900440216064,
   1.5179934501647949,
   1.4827985763549805,
   1.4508557319641113,
   1.4233793020248413,
   1.4011317491531372,
   1.2563220262527466,
   1.1894639730453491,
   1.1418293714523315,
   1.1083046197891235,
   1.0910149812698364,
   1.0728743076324463,
   1.0621674060821533,
   1.0517556667327881,
   1.0473071336746216,
   1.0092000961303711,
   1.0060802698135376,
   0.99910718202590942,
   1.0051963329315186,
   0.9920160174369812,
   0.9887426495552063,
   0.99332362413406372,
   0.97793686389923096,
   0.99515026807785034,
   0.99528229236602783,
   0.99523001909255981,
   0.9815526008605957,
   0.97697985172271729,
   0.98028600215911865,
   0.991321861743927,
   1.0377428531646729,
   1.0053436756134033,
   1.0638899803161621
]
