[
   3.1998434066772461,
   3.1997201442718506,
   3.189424991607666,
   3.1979870796203613,
   3.1913185119628906,
   3.189683198928833,
   3.1862657070159912,
   3.182497501373291,
   3.187415599822998,
   3.182368278503418,
   3.1779854297637939,
   3.1656250953674316,
   3.1485481262207031,
   3.1345276832580566,
   3.1256191730499268,
   3.119987964630127,
   3.110346794128418,
   3.0945806503295898,
   3.0883991718292236,
   2.995664119720459,
   2.9129903316497803,
   2.8420698642730713,
   2.7674241065979004,
   2.7180919647216797,
   2.6573832035064697,
   2.6156814098358154,
   2.562690258026123,
   2.5187032222747803,
   2.2008695602416992,
   1.9972000122070312,
   1.8481500148773193,
   1.7354103326797485,
   1.6374607086181641,
   1.5636684894561768,
   1.5019880533218384,
   1.4427653551101685,
   1.403674840927124,
   1.1821149587631226,
   1.1029412746429443,
   1.0681794881820679,
   1.0635198354721069,
   1.0383161306381226,
   1.0373766422271729,
   1.0333224534988403,
   1.0130857229232788,
   0.99712878465652466,
   0.98887574672698975,
   0.99650335311889648,
   0.99079859256744385,
   0.98129475116729736,
   1.0138677358627319,
   1.0022799968719482,
   0.99809026718139648,
   0.97595894336700439,
   0.98339986801147461,
   0.99231243133544922,
   0.97218954563140869,
   0.97826510667800903,
   0.96590727567672729,
   0.97677105665206909,
   1.0598386526107788,
   1.0723714828491211,
   1.0815120935440063,
   1.0062973499298096
]
