[
   30.468292236328125,
   30.588720321655273,
   30.029300689697266,
   30.212591171264648,
   30.331121444702148,
   30.296712875366211,
   29.878015518188477,
   30.194751739501953,
   30.03668212890625,
   29.822891235351562,
   29.118499755859375,
   28.751214981079102,
   27.842464447021484,
   27.554347991943359,
   26.870182037353516,
   26.313579559326172,
   26.255548477172852,
   25.526031494140625,
   25.284563064575195,
   22.15239143371582,
   19.945667266845703,
   18.041425704956055,
   16.621847152709961,
   15.334048271179199,
   14.33879280090332,
   13.389513969421387,
   12.549530029296875,
   11.715901374816895,
   7.4208869934082031,
   5.3017816543579102,
   4.0724315643310547,
   3.4210903644561768,
   2.9671528339385986,
   2.5253219604492188,
   2.239832878112793,
   2.0954015254974365,
   1.9118216037750244,
   1.3901910781860352,
   1.0881166458129883,
   1.0474717617034912,
   1.1237046718597412,
   1.0568020343780518,
   1.0006957054138184,
   1.0965489149093628,
   1.0248363018035889,
   1.00053870677948,
   1.0402419567108154,
   0.95765417814254761,
   0.923442542552948,
   0.99725043773651123,
   1.0443880558013916,
   0.8666309118270874,
   0.92297589778900146,
   0.98203659057617188,
   0.89626359939575195,
   1.0663752555847168,
   0.92367333173751831,
   0.82432812452316284,
   0.98455983400344849,
   0.82450783252716064,
   0.84055662155151367,
   1.0038342475891113,
   1.1202600002288818,
   0.68266856670379639
]
