[
   1.9834572076797485,
   1.9843454360961914,
   1.9829332828521729,
   1.9831768274307251,
   1.9822620153427124,
   1.9825824499130249,
   1.9805164337158203,
   1.9814287424087524,
   1.9844386577606201,
   1.9811798334121704,
   1.979103684425354,
   1.9750568866729736,
   1.9717235565185547,
   1.9706329107284546,
   1.9616310596466064,
   1.9621889591217041,
   1.9586807489395142,
   1.9548437595367432,
   1.9526641368865967,
   1.9218860864639282,
   1.8978097438812256,
   1.8723160028457642,
   1.8498861789703369,
   1.8334223031997681,
   1.8088006973266602,
   1.7890489101409912,
   1.7709891796112061,
   1.7549728155136108,
   1.6266031265258789,
   1.5372467041015625,
   1.4732387065887451,
   1.4185302257537842,
   1.3750581741333008,
   1.3391729593276978,
   1.3105906248092651,
   1.2845520973205566,
   1.2623406648635864,
   1.1407825946807861,
   1.0811437368392944,
   1.0641263723373413,
   1.0500744581222534,
   1.0425753593444824,
   1.0217037200927734,
   1.0191820859909058,
   1.0076707601547241,
   1.0039987564086914,
   1.0039646625518799,
   1.0007210969924927,
   0.99623310565948486,
   0.99998188018798828,
   0.98272669315338135,
   0.9953995943069458,
   1.0064051151275635,
   0.99026596546173096,
   1.0006321668624878,
   1.0063773393630981,
   0.99565756320953369,
   0.99935245513916016,
   1.0176851749420166,
   0.98095571994781494,
   1.0093483924865723,
   0.98355549573898315,
   0.9543110728263855,
   0.99398899078369141
]
