[
   2.145737886428833,
   2.1419844627380371,
   2.1444015502929688,
   2.1443195343017578,
   2.1434693336486816,
   2.1418170928955078,
   2.1431159973144531,
   2.1419053077697754,
   2.1423344612121582,
   2.1389024257659912,
   2.1359717845916748,
   2.1325607299804688,
   2.1302330493927002,
   2.1233878135681152,
   2.1243414878845215,
   2.1159234046936035,
   2.1118683815002441,
   2.1097345352172852,
   2.1051583290100098,
   2.0711300373077393,
   2.0343620777130127,
   2.0093855857849121,
   1.9774177074432373,
   1.9485479593276978,
   1.9238125085830688,
   1.9056774377822876,
   1.8859071731567383,
   1.8633830547332764,
   1.7153091430664062,
   1.6076517105102539,
   1.5318834781646729,
   1.4672058820724487,
   1.4168299436569214,
   1.3761389255523682,
   1.3408380746841431,
   1.3120682239532471,
   1.2787473201751709,
   1.1410915851593018,
   1.0847926139831543,
   1.0624432563781738,
   1.0400015115737915,
   1.0360753536224365,
   1.0198941230773926,
   1.0164780616760254,
   1.0164153575897217,
   1.0113221406936646,
   0.99433058500289917,
   0.99804031848907471,
   1.0027488470077515,
   0.99669969081878662,
   1.0050042867660522,
   0.99700915813446045,
   1.0045480728149414,
   1.0033504962921143,
   1.0117626190185547,
   1.0090707540512085,
   1.0053128004074097,
   0.99654310941696167,
   0.99573850631713867,
   0.98701924085617065,
   0.99660217761993408,
   0.99730062484741211,
   0.96920186281204224,
   0.94146108627319336
]
