[
   25.413585662841797,
   25.312570571899414,
   25.306873321533203,
   25.363025665283203,
   25.144443511962891,
   25.208286285400391,
   24.945297241210938,
   25.116992950439453,
   25.137943267822266,
   25.064359664916992,
   24.746982574462891,
   24.255741119384766,
   23.951845169067383,
   23.596744537353516,
   23.174369812011719,
   22.804231643676758,
   22.562919616699219,
   22.435359954833984,
   22.262928009033203,
   19.66978645324707,
   17.581447601318359,
   15.932276725769043,
   14.671163558959961,
   13.565855026245117,
   12.59727668762207,
   11.859539985656738,
   11.041031837463379,
   10.476618766784668,
   6.8592085838317871,
   5.0746059417724609,
   4.1854352951049805,
   3.6620090007781982,
   3.167203426361084,
   2.7741777896881104,
   2.5575664043426514,
   2.3718876838684082,
   2.2358410358428955,
   1.6194541454315186,
   1.4600859880447388,
   1.3734936714172363,
   1.136282205581665,
   1.1875399351119995,
   1.0826057195663452,
   1.0808473825454712,
   1.1052953004837036,
   1.1458737850189209,
   1.0564916133880615,
   0.98763275146484375,
   0.96143960952758789,
   1.0605453252792358,
   0.92075824737548828,
   0.95607864856719971,
   1.0274574756622314,
   1.0754742622375488,
   0.97211611270904541,
   1.0695040225982666,
   0.98202121257781982,
   1.1438663005828857,
   0.9471050500869751,
   1.0127377510070801,
   1.118067741394043,
   1.0179269313812256,
   0.76016002893447876,
   0.65787559747695923
]
