[
   3.058372974395752,
   3.0590696334838867,
   3.0615622997283936,
   3.0581896305084229,
   3.0615801811218262,
   3.0566718578338623,
   3.0531163215637207,
   3.0572390556335449,
   3.0542550086975098,
   3.0501203536987305,
   3.0507073402404785,
   3.0476219654083252,
   3.0471148490905762,
   3.0501370429992676,
   3.0330369472503662,
   3.0330843925476074,
   3.0405168533325195,
   3.0319652557373047,
   3.0247228145599365,
   2.9987025260925293,
   2.9702990055084229,
   2.9515435695648193,
   2.922518253326416,
   2.9025247097015381,
   2.8800985813140869,
   2.8605685234069824,
   2.8331484794616699,
   2.8151955604553223,
   2.6257364749908447,
   2.4711194038391113,
   2.3474478721618652,
   2.2422118186950684,
   2.1537344455718994,
   2.0730962753295898,
   2.0065257549285889,
   1.9499962329864502,
   1.8910744190216064,
   1.554998517036438,
   1.4041610956192017,
   1.3051242828369141,
   1.2419297695159912,
   1.1999763250350952,
   1.1716407537460327,
   1.1533124446868896,
   1.1309688091278076,
   1.115958571434021,
   1.0547702312469482,
   1.0459661483764648,
   1.0169241428375244,
   1.0145567655563354,
   1.019428014755249,
   0.9983755350112915,
   0.99182206392288208,
   0.97923773527145386,
   0.98283970355987549,
   0.9932020902633667,
   0.99583882093429565,
   0.94901341199874878,
   0.9827197790145874,
   0.99267351627349854,
   0.96617138385772705,
   0.93649566173553467,
   0.97516697645187378,
   1.0926004648208618
]
