[
   1.8639833927154541,
   1.8630416393280029,
   1.8662350177764893,
   1.8665573596954346,
   1.8636066913604736,
   1.8638362884521484,
   1.8644514083862305,
   1.8622286319732666,
   1.8626947402954102,
   1.8635599613189697,
   1.8623520135879517,
   1.8631349802017212,
   1.8625872135162354,
   1.8621057271957397,
   1.8619577884674072,
   1.8635008335113525,
   1.860356330871582,
   1.8607126474380493,
   1.8609600067138672,
   1.8538186550140381,
   1.8479257822036743,
   1.8423335552215576,
   1.8398841619491577,
   1.8343820571899414,
   1.8288652896881104,
   1.8244402408599854,
   1.8219817876815796,
   1.8159077167510986,
   1.7740367650985718,
   1.7386687994003296,
   1.7022678852081299,
   1.6729905605316162,
   1.6443519592285156,
   1.6185512542724609,
   1.5915194749832153,
   1.5710831880569458,
   1.5490672588348389,
   1.4055063724517822,
   1.3207077980041504,
   1.2631310224533081,
   1.2207678556442261,
   1.1923224925994873,
   1.1703917980194092,
   1.1529285907745361,
   1.1400712728500366,
   1.1298139095306396,
   1.0538239479064941,
   1.0294480323791504,
   1.0254175662994385,
   1.0162074565887451,
   1.002805233001709,
   1.0057822465896606,
   0.99882137775421143,
   0.99085569381713867,
   0.98250770568847656,
   0.95541477203369141,
   0.98025399446487427,
   0.9945562481880188,
   0.96514034271240234,
   0.98482215404510498,
   1.0172480344772339,
   0.98146998882293701,
   1.0346964597702026,
   1.0241062641143799
]
