[
   1.3997602462768555,
   1.3993630409240723,
   1.3992270231246948,
   1.4003348350524902,
   1.4000707864761353,
   1.3999559879302979,
   1.400137186050415,
   1.3995304107666016,
   1.3995829820632935,
   1.3999221324920654,
   1.3988995552062988,
   1.3991841077804565,
   1.3998037576675415,
   1.3994250297546387,
   1.3991357088088989,
   1.3989320993423462,
   1.39873206615448,
   1.3984987735748291,
   1.3977171182632446,
   1.3968349695205688,
   1.3956276178359985,
   1.3943440914154053,
   1.3923410177230835,
   1.3923356533050537,
   1.3903346061706543,
   1.388901948928833,
   1.3889783620834351,
   1.3873121738433838,
   1.3761204481124878,
   1.3663156032562256,
   1.3568155765533447,
   1.3469552993774414,
   1.338099479675293,
   1.3305879831314087,
   1.3212916851043701,
   1.3140925168991089,
   1.3068220615386963,
   1.2484982013702393,
   1.2070415019989014,
   1.1770961284637451,
   1.1584916114807129,
   1.1380729675292969,
   1.1209321022033691,
   1.1061407327651978,
   1.0967381000518799,
   1.0915000438690186,
   1.0507200956344604,
   1.019804835319519,
   1.0142918825149536,
   1.0071119070053101,
   0.99900150299072266,
   0.99338167905807495,
   0.99521380662918091,
   1.0025508403778076,
   1.0012248754501343,
   0.99162590503692627,
   1.0029566287994385,
   1.0061472654342651,
   1.0029743909835815,
   0.99030321836471558,
   0.99366492033004761,
   0.97237366437911987,
   0.95036685466766357,
   0.98565375804901123
]
