[
   1.3378962278366089,
   1.3384512662887573,
   1.3379932641983032,
   1.3386083841323853,
   1.3383347988128662,
   1.3389747142791748,
   1.3377652168273926,
   1.3381572961807251,
   1.3375706672668457,
   1.338471531867981,
   1.3377861976623535,
   1.3380491733551025,
   1.3379104137420654,
   1.3378398418426514,
   1.3374718427658081,
   1.3374336957931519,
   1.3375179767608643,
   1.3372008800506592,
   1.3371931314468384,
   1.3360240459442139,
   1.3346912860870361,
   1.3339451551437378,
   1.3329107761383057,
   1.3322433233261108,
   1.3314404487609863,
   1.3306610584259033,
   1.3301470279693604,
   1.3293740749359131,
   1.3211963176727295,
   1.3135461807250977,
   1.3061391115188599,
   1.2995872497558594,
   1.2927607297897339,
   1.2868566513061523,
   1.2811034917831421,
   1.2751812934875488,
   1.26939857006073,
   1.2241518497467041,
   1.1913155317306519,
   1.1651303768157959,
   1.1574233770370483,
   1.1412242650985718,
   1.1267496347427368,
   1.1148698329925537,
   1.1024715900421143,
   1.0939289331436157,
   1.0463106632232666,
   1.0284756422042847,
   1.0170495510101318,
   1.0073130130767822,
   1.0017166137695312,
   0.9890064001083374,
   0.99156820774078369,
   1.0063893795013428,
   1.009257435798645,
   1.0034682750701904,
   0.99906730651855469,
   0.99070346355438232,
   0.98750942945480347,
   0.99100625514984131,
   0.98701179027557373,
   0.98590409755706787,
   0.9563567042350769,
   1.0306305885314941
]
