[
   1.2851930856704712,
   1.2854158878326416,
   1.2849081754684448,
   1.2850948572158813,
   1.2856225967407227,
   1.285271167755127,
   1.2851366996765137,
   1.2853367328643799,
   1.2854615449905396,
   1.2854517698287964,
   1.2847710847854614,
   1.2852067947387695,
   1.2851593494415283,
   1.284752368927002,
   1.2847615480422974,
   1.2848594188690186,
   1.2845624685287476,
   1.2842367887496948,
   1.2845858335494995,
   1.2842457294464111,
   1.2833665609359741,
   1.2820992469787598,
   1.2820727825164795,
   1.2811354398727417,
   1.2802132368087769,
   1.2799251079559326,
   1.2788486480712891,
   1.278461217880249,
   1.2725281715393066,
   1.2666794061660767,
   1.2611434459686279,
   1.256953239440918,
   1.2517544031143188,
   1.247015118598938,
   1.2420845031738281,
   1.2381389141082764,
   1.2338248491287231,
   1.1986020803451538,
   1.1709916591644287,
   1.1495091915130615,
   1.1446402072906494,
   1.1275742053985596,
   1.1135241985321045,
   1.1020047664642334,
   1.0918014049530029,
   1.0846996307373047,
   1.0442690849304199,
   1.0281431674957275,
   1.015305757522583,
   1.0218502283096313,
   1.0211834907531738,
   1.009324312210083,
   1.0106911659240723,
   1.0157909393310547,
   1.011839747428894,
   0.97569990158081055,
   0.99295079708099365,
   0.98986846208572388,
   0.9894944429397583,
   0.99525392055511475,
   1.0055035352706909,
   1.0129505395889282,
   1.0435199737548828,
   0.92685377597808838
]
