[
   1.774253249168396,
   1.7704662084579468,
   1.7707237005233765,
   1.7716048955917358,
   1.7730659246444702,
   1.7707149982452393,
   1.7707302570343018,
   1.7707160711288452,
   1.7696641683578491,
   1.7710888385772705,
   1.7677011489868164,
   1.7645962238311768,
   1.7638969421386719,
   1.762584924697876,
   1.7626539468765259,
   1.7581163644790649,
   1.7564449310302734,
   1.7529140710830688,
   1.751544713973999,
   1.7344284057617188,
   1.7166448831558228,
   1.7052977085113525,
   1.6888511180877686,
   1.6759058237075806,
   1.6636190414428711,
   1.652901291847229,
   1.6430057287216187,
   1.6312013864517212,
   1.5488402843475342,
   1.49079430103302,
   1.4427464008331299,
   1.4059594869613647,
   1.3733211755752563,
   1.3472530841827393,
   1.3215838670730591,
   1.2995288372039795,
   1.279494047164917,
   1.1586029529571533,
   1.1052570343017578,
   1.0746405124664307,
   1.0558321475982666,
   1.0407825708389282,
   1.0267126560211182,
   1.0239434242248535,
   1.0202095508575439,
   1.015100359916687,
   1.0009431838989258,
   0.99601709842681885,
   1.0062084197998047,
   1.0060604810714722,
   0.99961674213409424,
   1.0027458667755127,
   0.99720269441604614,
   1.0061757564544678,
   0.99876689910888672,
   1.0033999681472778,
   0.99698877334594727,
   1.00028395652771,
   1.0067116022109985,
   0.98722344636917114,
   0.99359714984893799,
   0.98174536228179932,
   1.0098553895950317,
   0.91784316301345825
]
