[
   4.3396177291870117,
   4.3514528274536133,
   4.3421487808227539,
   4.3410391807556152,
   4.337061882019043,
   4.3346443176269531,
   4.3311443328857422,
   4.3286809921264648,
   4.3235816955566406,
   4.3329205513000488,
   4.3103885650634766,
   4.2960824966430664,
   4.2627248764038086,
   4.2526044845581055,
   4.2382636070251465,
   4.2090897560119629,
   4.1984710693359375,
   4.1903448104858398,
   4.1581535339355469,
   4.0161967277526855,
   3.8981990814208984,
   3.7916617393493652,
   3.6939189434051514,
   3.6001389026641846,
   3.5325655937194824,
   3.4537396430969238,
   3.3961288928985596,
   3.3236572742462158,
   2.8400840759277344,
   2.5131294727325439,
   2.2734699249267578,
   2.0928270816802979,
   1.9491894245147705,
   1.845991849899292,
   1.7382827997207642,
   1.6564117670059204,
   1.590755820274353,
   1.2597355842590332,
   1.1545507907867432,
   1.1233230829238892,
   1.0839078426361084,
   1.0512886047363281,
   1.052777886390686,
   1.0426251888275146,
   1.0081201791763306,
   1.0136356353759766,
   1.0000185966491699,
   1.0054023265838623,
   0.97525990009307861,
   0.99228477478027344,
   1.0036289691925049,
   1.0019484758377075,
   1.0019879341125488,
   1.008333683013916,
   0.99396973848342896,
   1.008126974105835,
   0.99925470352172852,
   0.98903626203536987,
   1.0210517644882202,
   0.94470864534378052,
   1.009313702583313,
   0.97615557909011841,
   1.0031739473342896,
   0.83948451280593872
]
