[
   83.396476745605469,
   82.934211730957031,
   82.059410095214844,
   82.7930908203125,
   82.926719665527344,
   81.967178344726562,
   80.048851013183594,
   80.236801147460938,
   79.573257446289062,
   79.722282409667969,
   77.156028747558594,
   74.560539245605469,
   70.8533935546875,
   68.313430786132812,
   66.564193725585938,
   64.709548950195312,
   61.821788787841797,
   59.787689208984375,
   59.212238311767578,
   47.204925537109375,
   38.716217041015625,
   33.021903991699219,
   28.588836669921875,
   25.076511383056641,
   21.098392486572266,
   19.696300506591797,
   18.359844207763672,
   16.885393142700195,
   9.053070068359375,
   6.3560647964477539,
   5.238957405090332,
   4.2968263626098633,
   3.4781689643859863,
   2.7479033470153809,
   2.6023330688476562,
   2.5205790996551514,
   2.218275785446167,
   1.5477892160415649,
   1.1574380397796631,
   1.1194648742675781,
   0.85907000303268433,
   0.98742973804473877,
   1.0381011962890625,
   0.69960117340087891,
   0.81324636936187744,
   1.0404056310653687,
   0.87453383207321167,
   0.90007150173187256,
   1.1190849542617798,
   1.1091558933258057,
   0.94455969333648682,
   1.0927784442901611,
   0.890464186668396,
   0.89606130123138428,
   0.7346268892288208,
   0.86354988813400269,
   1.2537325620651245,
   0.96141183376312256,
   0.85206329822540283,
   1.2572433948516846,
   0.723885178565979,
   1.035335898399353,
   1.2123711109161377,
   1.8885049819946289
]
