[
   2.7970786094665527,
   2.7964639663696289,
   2.7953784465789795,
   2.8007750511169434,
   2.790963888168335,
   2.7924232482910156,
   2.7940967082977295,
   2.7950160503387451,
   2.7951674461364746,
   2.7910487651824951,
   2.7823164463043213,
   2.77675461769104,
   2.7719099521636963,
   2.7589685916900635,
   2.7501242160797119,
   2.7435030937194824,
   2.7383561134338379,
   2.7325079441070557,
   2.7286880016326904,
   2.6574044227600098,
   2.6090731620788574,
   2.5566141605377197,
   2.5139963626861572,
   2.4718372821807861,
   2.4353680610656738,
   2.3994081020355225,
   2.369743824005127,
   2.3412892818450928,
   2.1130304336547852,
   1.9494380950927734,
   1.8226629495620728,
   1.7274839878082275,
   1.6486316919326782,
   1.575725793838501,
   1.5174180269241333,
   1.4729092121124268,
   1.424666166305542,
   1.2044216394424438,
   1.130064845085144,
   1.0842529535293579,
   1.0496466159820557,
   1.029626727104187,
   1.0319263935089111,
   1.0391852855682373,
   1.0430552959442139,
   1.033076286315918,
   0.97177743911743164,
   1.0031979084014893,
   1.0002245903015137,
   0.98959809541702271,
   0.99404269456863403,
   0.9984973669052124,
   0.99537122249603271,
   0.97866785526275635,
   0.98141288757324219,
   1.0000078678131104,
   1.0078035593032837,
   0.9833562970161438,
   1.005046010017395,
   0.99057090282440186,
   1.0229133367538452,
   0.99472808837890625,
   0.94566833972930908,
   1.0241091251373291
]
