[
   2.0177934169769287,
   2.01767897605896,
   2.0184106826782227,
   2.0178771018981934,
   2.012847900390625,
   2.0147819519042969,
   2.0118896961212158,
   2.0140881538391113,
   2.0109267234802246,
   2.0145435333251953,
   2.0115504264831543,
   2.0102570056915283,
   2.0026626586914062,
   2.0018074512481689,
   1.9989414215087891,
   1.9942872524261475,
   1.9915874004364014,
   1.9903243780136108,
   1.9892330169677734,
   1.9615488052368164,
   1.935153603553772,
   1.9144611358642578,
   1.8927919864654541,
   1.8722479343414307,
   1.8532850742340088,
   1.836372971534729,
   1.823733925819397,
   1.8083139657974243,
   1.6949958801269531,
   1.6133353710174561,
   1.5472614765167236,
   1.4929978847503662,
   1.4499537944793701,
   1.4119422435760498,
   1.3770555257797241,
   1.3503692150115967,
   1.3258414268493652,
   1.1771070957183838,
   1.1167116165161133,
   1.0812082290649414,
   1.0529191493988037,
   1.0343403816223145,
   1.0266224145889282,
   1.0201457738876343,
   1.02208411693573,
   1.0158076286315918,
   1.0015227794647217,
   0.99724328517913818,
   1.0037093162536621,
   1.0002696514129639,
   0.99999368190765381,
   1.0004875659942627,
   0.9922139048576355,
   0.99907493591308594,
   1.0014652013778687,
   0.99926787614822388,
   0.99721068143844604,
   1.0012162923812866,
   0.993488609790802,
   0.97620230913162231,
   1.00136399269104,
   1.0052932500839233,
   1.0413106679916382,
   1.0447659492492676
]
