[
   1.4426099061965942,
   1.4428427219390869,
   1.443047046661377,
   1.4427893161773682,
   1.4432960748672485,
   1.442554235458374,
   1.4427698850631714,
   1.4432986974716187,
   1.4431540966033936,
   1.4430662393569946,
   1.4416003227233887,
   1.4417151212692261,
   1.4411767721176147,
   1.4409489631652832,
   1.4409478902816772,
   1.4396106004714966,
   1.4401519298553467,
   1.4382233619689941,
   1.4391806125640869,
   1.4343688488006592,
   1.4304882287979126,
   1.4248834848403931,
   1.4207339286804199,
   1.4178887605667114,
   1.4132225513458252,
   1.4104629755020142,
   1.407151460647583,
   1.4035820960998535,
   1.376557469367981,
   1.3523465394973755,
   1.3333475589752197,
   1.3167698383331299,
   1.302579402923584,
   1.2890586853027344,
   1.2766569852828979,
   1.2656192779541016,
   1.255244255065918,
   1.1830389499664307,
   1.1383121013641357,
   1.1063446998596191,
   1.0839136838912964,
   1.0693061351776123,
   1.056104302406311,
   1.049103856086731,
   1.0400493144989014,
   1.0370604991912842,
   1.0103486776351929,
   1.0078521966934204,
   1.0027055740356445,
   0.99579286575317383,
   0.99685746431350708,
   0.99378365278244019,
   0.99259555339813232,
   1.0028089284896851,
   0.99441319704055786,
   0.99925577640533447,
   0.99355155229568481,
   0.97524821758270264,
   0.9888375997543335,
   1.0098378658294678,
   1.0051246881484985,
   1.0243260860443115,
   1.0158717632293701,
   0.97112619876861572
]
