[
   1.5896052122116089,
   1.5897256135940552,
   1.5888501405715942,
   1.5890152454376221,
   1.5886218547821045,
   1.5890929698944092,
   1.5882737636566162,
   1.5889526605606079,
   1.5878252983093262,
   1.5884143114089966,
   1.5885772705078125,
   1.587433934211731,
   1.5860298871994019,
   1.5860702991485596,
   1.5851266384124756,
   1.5843665599822998,
   1.5831422805786133,
   1.5840981006622314,
   1.5813547372817993,
   1.5748165845870972,
   1.5685274600982666,
   1.5618492364883423,
   1.5561516284942627,
   1.5503323078155518,
   1.5435298681259155,
   1.53877854347229,
   1.5331070423126221,
   1.5297249555587769,
   1.4883586168289185,
   1.4555433988571167,
   1.4282878637313843,
   1.4041765928268433,
   1.3832342624664307,
   1.3642580509185791,
   1.3461532592773438,
   1.3328931331634521,
   1.3165075778961182,
   1.2144986391067505,
   1.1582604646682739,
   1.1196050643920898,
   1.0907571315765381,
   1.0734277963638306,
   1.0519847869873047,
   1.0378471612930298,
   1.0319161415100098,
   1.0278761386871338,
   1.0125713348388672,
   1.0008783340454102,
   0.98559141159057617,
   0.97721928358078003,
   0.99333727359771729,
   0.98183858394622803,
   0.97306263446807861,
   0.97349607944488525,
   0.98126477003097534,
   0.97561484575271606,
   0.98622417449951172,
   0.99894046783447266,
   1.005470871925354,
   0.99250423908233643,
   1.0049281120300293,
   1.0260823965072632,
   1.0975342988967896,
   1.0987138748168945
]
