[
   3.7973136901855469,
   3.7841782569885254,
   3.7914681434631348,
   3.7882435321807861,
   3.7943816184997559,
   3.7877318859100342,
   3.7869503498077393,
   3.7935957908630371,
   3.7783432006835938,
   3.7812454700469971,
   3.7767207622528076,
   3.7641587257385254,
   3.7527899742126465,
   3.7492942810058594,
   3.7451567649841309,
   3.7307262420654297,
   3.7277488708496094,
   3.7249126434326172,
   3.720644474029541,
   3.6344196796417236,
   3.5781173706054688,
   3.5200934410095215,
   3.4707865715026855,
   3.4127635955810547,
   3.3748633861541748,
   3.3220734596252441,
   3.2895438671112061,
   3.2578208446502686,
   2.9488475322723389,
   2.7188708782196045,
   2.5326089859008789,
   2.3780219554901123,
   2.2580037117004395,
   2.1386435031890869,
   2.0492894649505615,
   1.9640953540802002,
   1.8929334878921509,
   1.4998917579650879,
   1.3244904279708862,
   1.2366328239440918,
   1.1716358661651611,
   1.1116259098052979,
   1.093163013458252,
   1.06996750831604,
   1.0666205883026123,
   1.0616919994354248,
   1.0032340288162231,
   1.0204962491989136,
   1.0117226839065552,
   1.0196273326873779,
   0.98036497831344604,
   1.0086230039596558,
   1.0128077268600464,
   1.002721905708313,
   0.99624651670455933,
   0.99403762817382812,
   1.0103168487548828,
   1.0115115642547607,
   1.0004289150238037,
   0.9956512451171875,
   0.9830089807510376,
   0.94557619094848633,
   0.98659646511077881,
   0.87497186660766602
]
