[
   5.2696628570556641,
   5.250892162322998,
   5.2739710807800293,
   5.256464958190918,
   5.2649855613708496,
   5.2707085609436035,
   5.254302978515625,
   5.2457051277160645,
   5.2657208442687988,
   5.2496886253356934,
   5.2507586479187012,
   5.2234435081481934,
   5.203341007232666,
   5.1911091804504395,
   5.1736416816711426,
   5.1676831245422363,
   5.1495237350463867,
   5.1249628067016602,
   5.1147637367248535,
   4.9784903526306152,
   4.8621120452880859,
   4.7755241394042969,
   4.6741008758544922,
   4.574470043182373,
   4.5037260055541992,
   4.4370718002319336,
   4.3740410804748535,
   4.2967538833618164,
   3.7532210350036621,
   3.3779175281524658,
   3.082827091217041,
   2.8555762767791748,
   2.6598665714263916,
   2.5243146419525146,
   2.383101224899292,
   2.2511038780212402,
   2.1542551517486572,
   1.5722578763961792,
   1.3672071695327759,
   1.2453403472900391,
   1.1760705709457397,
   1.1342294216156006,
   1.0855567455291748,
   1.0583311319351196,
   1.0959527492523193,
   1.0599923133850098,
   1.0173393487930298,
   1.0158274173736572,
   0.98908078670501709,
   0.97466832399368286,
   0.97912216186523438,
   0.95740854740142822,
   0.97625845670700073,
   0.98562252521514893,
   0.9653477668762207,
   0.94959050416946411,
   0.98156279325485229,
   1.0113650560379028,
   0.98414170742034912,
   1.0411968231201172,
   0.98622357845306396,
   1.0491353273391724,
   1.1055446863174438,
   1.262126088142395
]
