[
   1.9802329540252686,
   1.9802976846694946,
   1.9803909063339233,
   1.9802777767181396,
   1.9791826009750366,
   1.9792299270629883,
   1.9780762195587158,
   1.9778274297714233,
   1.9803295135498047,
   1.9764254093170166,
   1.9757810831069946,
   1.9751384258270264,
   1.9722282886505127,
   1.9675600528717041,
   1.9682614803314209,
   1.9665876626968384,
   1.9656069278717041,
   1.9623966217041016,
   1.9633913040161133,
   1.9453508853912354,
   1.9319038391113281,
   1.9184592962265015,
   1.9076306819915771,
   1.8940117359161377,
   1.88218092918396,
   1.8690725564956665,
   1.8581626415252686,
   1.8493502140045166,
   1.7685363292694092,
   1.7092567682266235,
   1.6555992364883423,
   1.6133239269256592,
   1.5721319913864136,
   1.5390551090240479,
   1.5073835849761963,
   1.4797540903091431,
   1.45296311378479,
   1.2854403257369995,
   1.1968222856521606,
   1.1504373550415039,
   1.1148625612258911,
   1.0940515995025635,
   1.076772928237915,
   1.0650207996368408,
   1.0606094598770142,
   1.0461364984512329,
   1.0241472721099854,
   0.99826955795288086,
   0.99305802583694458,
   0.99764460325241089,
   0.99556082487106323,
   1.0037243366241455,
   1.0077292919158936,
   1.0039829015731812,
   1.0045304298400879,
   0.98326170444488525,
   1.0134718418121338,
   0.9950597882270813,
   0.98460209369659424,
   0.98777657747268677,
   0.98812854290008545,
   0.98140370845794678,
   0.97464054822921753,
   0.96126288175582886
]
