[
   2.5209932327270508,
   2.5243096351623535,
   2.5194814205169678,
   2.5207476615905762,
   2.5222830772399902,
   2.5228102207183838,
   2.5182764530181885,
   2.5174815654754639,
   2.5197570323944092,
   2.517559289932251,
   2.5169570446014404,
   2.5106339454650879,
   2.5076339244842529,
   2.507699728012085,
   2.5068290233612061,
   2.5012552738189697,
   2.4956905841827393,
   2.4933285713195801,
   2.4904580116271973,
   2.4617135524749756,
   2.4386153221130371,
   2.4092462062835693,
   2.3835330009460449,
   2.3678386211395264,
   2.3477063179016113,
   2.3262481689453125,
   2.306438684463501,
   2.2873427867889404,
   2.1491053104400635,
   2.0417904853820801,
   1.9513118267059326,
   1.8808948993682861,
   1.8145723342895508,
   1.7596639394760132,
   1.7103261947631836,
   1.664192795753479,
   1.6213928461074829,
   1.3659720420837402,
   1.2469068765640259,
   1.1699893474578857,
   1.1274995803833008,
   1.0918323993682861,
   1.0788674354553223,
   1.0802222490310669,
   1.0693988800048828,
   1.0474355220794678,
   1.0092647075653076,
   0.99969989061355591,
   0.97839212417602539,
   0.99878913164138794,
   0.98930186033248901,
   0.99969404935836792,
   0.97353601455688477,
   0.99535477161407471,
   0.98934566974639893,
   0.98592281341552734,
   0.98369979858398438,
   0.99103164672851562,
   0.99913704395294189,
   0.98385059833526611,
   1.0361883640289307,
   1.0392863750457764,
   1.0465214252471924,
   1.065110445022583
]
