[
   2.159069299697876,
   2.1563963890075684,
   2.1557915210723877,
   2.1570229530334473,
   2.1600966453552246,
   2.1573410034179688,
   2.1572184562683105,
   2.1530759334564209,
   2.154386043548584,
   2.1500923633575439,
   2.1481571197509766,
   2.1438617706298828,
   2.1382193565368652,
   2.1374926567077637,
   2.1327865123748779,
   2.1310465335845947,
   2.1236011981964111,
   2.1204667091369629,
   2.1189284324645996,
   2.0801942348480225,
   2.0480473041534424,
   2.014218807220459,
   1.9894983768463135,
   1.9597266912460327,
   1.9358234405517578,
   1.9158780574798584,
   1.8927543163299561,
   1.871106743812561,
   1.7199428081512451,
   1.6149156093597412,
   1.5381314754486084,
   1.4761601686477661,
   1.4256066083908081,
   1.3856648206710815,
   1.3524259328842163,
   1.3198014497756958,
   1.2899105548858643,
   1.1542043685913086,
   1.0970699787139893,
   1.0626869201660156,
   1.0433206558227539,
   1.0358277559280396,
   1.0274722576141357,
   1.0135263204574585,
   1.0092889070510864,
   1.0116201639175415,
   1.0038118362426758,
   1.0047836303710938,
   1.0151697397232056,
   1.0023342370986938,
   0.99824923276901245,
   0.99100655317306519,
   1.0215849876403809,
   1.0042818784713745,
   1.0084679126739502,
   1.0071815252304077,
   1.0050660371780396,
   0.98479568958282471,
   1.0085402727127075,
   1.0112841129302979,
   1.0071038007736206,
   1.0202860832214355,
   0.99963557720184326,
   0.90369206666946411
]
