[
   2.4453639984130859,
   2.4452278614044189,
   2.4409010410308838,
   2.442936897277832,
   2.4424393177032471,
   2.4447312355041504,
   2.4411611557006836,
   2.442906379699707,
   2.4450826644897461,
   2.4432804584503174,
   2.4328513145446777,
   2.4292383193969727,
   2.4179787635803223,
   2.4180135726928711,
   2.410728931427002,
   2.4039075374603271,
   2.4013574123382568,
   2.3963022232055664,
   2.3908166885375977,
   2.3412666320800781,
   2.2957608699798584,
   2.2520127296447754,
   2.2142541408538818,
   2.182173490524292,
   2.1427984237670898,
   2.1165881156921387,
   2.0889251232147217,
   2.0614967346191406,
   1.8633177280426025,
   1.7288177013397217,
   1.6377980709075928,
   1.5578782558441162,
   1.4941675662994385,
   1.4425961971282959,
   1.4049381017684937,
   1.3619015216827393,
   1.3347829580307007,
   1.1581954956054688,
   1.0911548137664795,
   1.0713039636611938,
   1.0521459579467773,
   1.0444515943527222,
   1.028766393661499,
   1.0234792232513428,
   1.0212976932525635,
   1.018665075302124,
   0.99337309598922729,
   0.99875658750534058,
   0.98923796415328979,
   0.9941631555557251,
   0.99351823329925537,
   1.0107324123382568,
   0.99197852611541748,
   0.99256694316864014,
   1.0032411813735962,
   1.0121815204620361,
   0.99726378917694092,
   1.0154870748519897,
   1.0179488658905029,
   0.98707258701324463,
   0.95635414123535156,
   1.0009510517120361,
   0.9830394983291626,
   0.95242327451705933
]
