[
   3.9714188575744629,
   3.9558327198028564,
   3.9740347862243652,
   3.9506161212921143,
   3.9546158313751221,
   3.9598495960235596,
   3.9670639038085938,
   3.9434921741485596,
   3.9518654346466064,
   3.9501776695251465,
   3.9323031902313232,
   3.9032726287841797,
   3.8900570869445801,
   3.8820405006408691,
   3.8584990501403809,
   3.8409690856933594,
   3.8296763896942139,
   3.8189234733581543,
   3.8013615608215332,
   3.6402561664581299,
   3.5263602733612061,
   3.4175624847412109,
   3.3318467140197754,
   3.2257518768310547,
   3.1558763980865479,
   3.0855674743652344,
   3.0253362655639648,
   2.9447767734527588,
   2.5238461494445801,
   2.2452402114868164,
   2.045351505279541,
   1.8855524063110352,
   1.7701164484024048,
   1.6796646118164062,
   1.6002794504165649,
   1.5471179485321045,
   1.4874873161315918,
   1.2359778881072998,
   1.1221227645874023,
   1.0716078281402588,
   1.0337857007980347,
   1.0298031568527222,
   1.0240051746368408,
   1.0242512226104736,
   1.0229203701019287,
   1.0169732570648193,
   0.99646979570388794,
   0.99599868059158325,
   0.98354494571685791,
   0.98863351345062256,
   0.9667084813117981,
   1.0112210512161255,
   0.99472486972808838,
   0.98851805925369263,
   0.98618602752685547,
   1.0119458436965942,
   1.000444769859314,
   0.97208118438720703,
   0.99279147386550903,
   0.98646116256713867,
   1.0140130519866943,
   0.99308711290359497,
   0.99590778350830078,
   0.96995276212692261
]
