[
   1.5399870872497559,
   1.5388212203979492,
   1.5391581058502197,
   1.5380016565322876,
   1.5388487577438354,
   1.540040135383606,
   1.5396397113800049,
   1.5385998487472534,
   1.5391833782196045,
   1.5377188920974731,
   1.5376405715942383,
   1.5370618104934692,
   1.5344188213348389,
   1.5341808795928955,
   1.5330047607421875,
   1.5315243005752563,
   1.5298230648040771,
   1.5283843278884888,
   1.5275979042053223,
   1.5156347751617432,
   1.5049645900726318,
   1.495592474937439,
   1.4860949516296387,
   1.4746499061584473,
   1.4674637317657471,
   1.4595692157745361,
   1.4492671489715576,
   1.4426043033599854,
   1.3811302185058594,
   1.335448145866394,
   1.2998207807540894,
   1.2725296020507812,
   1.2484629154205322,
   1.2288539409637451,
   1.209778904914856,
   1.1957544088363647,
   1.1820658445358276,
   1.1031960248947144,
   1.0689601898193359,
   1.0478143692016602,
   1.0351935625076294,
   1.0231695175170898,
   1.0150004625320435,
   1.0090992450714111,
   1.0046257972717285,
   1.006537914276123,
   0.99720108509063721,
   0.99693524837493896,
   0.99421900510787964,
   1.0032666921615601,
   0.9957660436630249,
   0.99457913637161255,
   0.99123895168304443,
   0.9993554949760437,
   0.99499595165252686,
   0.99496746063232422,
   0.98783797025680542,
   1.0047174692153931,
   0.99483859539031982,
   0.99768340587615967,
   0.98752939701080322,
   1.0126359462738037,
   1.0257272720336914,
   1.0314339399337769
]
