[
   17.909614562988281,
   17.702159881591797,
   17.859058380126953,
   17.66279411315918,
   17.655607223510742,
   17.648250579833984,
   17.600917816162109,
   17.653318405151367,
   17.624563217163086,
   17.568428039550781,
   17.369867324829102,
   17.059783935546875,
   16.786449432373047,
   16.504623413085938,
   16.300325393676758,
   16.109508514404297,
   15.817117691040039,
   15.614555358886719,
   15.486379623413086,
   14.136011123657227,
   12.908124923706055,
   11.932660102844238,
   11.201863288879395,
   10.584976196289062,
   9.962864875793457,
   9.4918079376220703,
   9.0986738204956055,
   8.6973352432250977,
   5.9683008193969727,
   4.6459741592407227,
   3.7976181507110596,
   3.2386200428009033,
   2.9107215404510498,
   2.6327383518218994,
   2.3823177814483643,
   2.1382393836975098,
   1.9947992563247681,
   1.4362905025482178,
   1.1745837926864624,
   1.1572285890579224,
   1.1918723583221436,
   1.0596096515655518,
   1.0454730987548828,
   1.0611989498138428,
   0.98610055446624756,
   1.016324520111084,
   0.90903079509735107,
   1.0167158842086792,
   0.95525437593460083,
   0.98125731945037842,
   1.0108437538146973,
   1.0389692783355713,
   0.91750466823577881,
   0.96338522434234619,
   0.90207207202911377,
   1.0019135475158691,
   0.94621455669403076,
   0.95153570175170898,
   1.0829974412918091,
   0.81593894958496094,
   1.0445280075073242,
   1.0800130367279053,
   1.1214694976806641,
   1.2046672105789185
]
