[
   33.478065490722656,
   33.648544311523438,
   33.479438781738281,
   33.481796264648438,
   33.077220916748047,
   33.239162445068359,
   33.304008483886719,
   33.067489624023438,
   32.824771881103516,
   32.953838348388672,
   32.218845367431641,
   31.319894790649414,
   30.598245620727539,
   29.952774047851562,
   29.581415176391602,
   29.0235595703125,
   28.241424560546875,
   27.962408065795898,
   27.338191986083984,
   23.830844879150391,
   21.209136962890625,
   19.434604644775391,
   17.890148162841797,
   16.554656982421875,
   15.497941970825195,
   14.060412406921387,
   13.512211799621582,
   12.838874816894531,
   8.0024194717407227,
   5.9961638450622559,
   4.7666196823120117,
   4.1261334419250488,
   3.5131030082702637,
   3.177746057510376,
   2.8161842823028564,
   2.5009536743164062,
   2.2376654148101807,
   1.4414280652999878,
   1.2205097675323486,
   0.96150386333465576,
   1.1019859313964844,
   0.96386241912841797,
   0.99588412046432495,
   0.93495464324951172,
   0.99795961380004883,
   0.9116135835647583,
   0.86931800842285156,
   1.0254223346710205,
   1.1107680797576904,
   0.97767388820648193,
   0.96841013431549072,
   1.0870124101638794,
   1.0805456638336182,
   1.0117188692092896,
   0.840923011302948,
   0.95443469285964966,
   1.0468907356262207,
   0.93151646852493286,
   0.96692103147506714,
   0.96939527988433838,
   1.0538486242294312,
   1.0271875858306885,
   0.92938482761383057,
   0.99948215484619141
]
