wxy = 0.071 starts replicate 0
wxy = 0.132 starts replicate 0
wxy = 0.173 starts replicate 0
wxy = 0.241 starts replicate 0
wxy = 0.295 starts replicate 0
wxy = 0.34 starts replicate 0
wxy = 0.379 starts replicate 0
wxy = 0.415 starts replicate 0
wxy = 0.448 starts replicate 0
wxy = 0.479 starts replicate 0
wxy = 0.508 starts replicate 0
wxy = 0.535 starts replicate 0
wxy = 0.561 starts replicate 0
wxy = 0.586 starts replicate 0
wxy = 0.61 starts replicate 0
wxy = 0.632 starts replicate 0
wxy = 0.071 finished replicate 0 total counts 5076
wxy = 0.071 starts replicate 1
wxy = 0.295 finished replicate 0 total counts 162657
wxy = 0.295 starts replicate 1
wxy = 0.241 finished replicate 0 total counts 84371
wxy = 0.241 starts replicate 1
wxy = 0.173 finished replicate 0 total counts 47298
wxy = 0.173 starts replicate 1
wxy = 0.34 finished replicate 0 total counts 219862
wxy = 0.34 starts replicate 1
wxy = 0.132 finished replicate 0 total counts 22188
wxy = 0.132 starts replicate 1
wxy = 0.379 finished replicate 0 total counts 326742
wxy = 0.379 starts replicate 1
wxy = 0.448 finished replicate 0 total counts 479996
wxy = 0.448 starts replicate 1
wxy = 0.415 finished replicate 0 total counts 394683
wxy = 0.415 starts replicate 1
wxy = 0.479 finished replicate 0 total counts 586357
wxy = 0.479 starts replicate 1
wxy = 0.508 finished replicate 0 total counts 570748
wxy = 0.508 starts replicate 1
wxy = 0.535 finished replicate 0 total counts 739248
wxy = 0.535 starts replicate 1
wxy = 0.561 finished replicate 0 total counts 890943
wxy = 0.561 starts replicate 1
wxy = 0.586 finished replicate 0 total counts 929928
wxy = 0.586 starts replicate 1
wxy = 0.61 finished replicate 0 total counts 1.0575e+06
wxy = 0.61 starts replicate 1
wxy = 0.632 finished replicate 0 total counts 1.25158e+06
wxy = 0.632 starts replicate 1
wxy = 0.071 finished replicate 1 total counts 5100
wxy = 0.071 starts replicate 2
wxy = 0.295 finished replicate 1 total counts 171519
wxy = 0.295 starts replicate 2
wxy = 0.241 finished replicate 1 total counts 99836
wxy = 0.241 starts replicate 2
wxy = 0.34 finished replicate 1 total counts 224016
wxy = 0.34 starts replicate 2
wxy = 0.173 finished replicate 1 total counts 47242
wxy = 0.173 starts replicate 2
wxy = 0.379 finished replicate 1 total counts 273471
wxy = 0.379 starts replicate 2
wxy = 0.448 finished replicate 1 total counts 468001
wxy = 0.448 starts replicate 2
wxy = 0.479 finished replicate 1 total counts 578978
wxy = 0.479 starts replicate 2
wxy = 0.415 finished replicate 1 total counts 373951
wxy = 0.415 starts replicate 2
wxy = 0.508 finished replicate 1 total counts 590295
wxy = 0.508 starts replicate 2
wxy = 0.132 finished replicate 1 total counts 23810
wxy = 0.132 starts replicate 2
wxy = 0.535 finished replicate 1 total counts 796563
wxy = 0.535 starts replicate 2
wxy = 0.561 finished replicate 1 total counts 896817
wxy = 0.561 starts replicate 2
wxy = 0.586 finished replicate 1 total counts 945922
wxy = 0.586 starts replicate 2
wxy = 0.61 finished replicate 1 total counts 1.12642e+06
wxy = 0.61 starts replicate 2
wxy = 0.632 finished replicate 1 total counts 1.23756e+06
wxy = 0.632 starts replicate 2
wxy = 0.071 finished replicate 2 total counts 4096
wxy = 0.071 starts replicate 3
wxy = 0.295 finished replicate 2 total counts 163390
wxy = 0.295 starts replicate 3
wxy = 0.241 finished replicate 2 total counts 93535
wxy = 0.241 starts replicate 3
wxy = 0.34 finished replicate 2 total counts 225947
wxy = 0.34 starts replicate 3
wxy = 0.479 finished replicate 2 total counts 549413
wxy = 0.479 starts replicate 3
wxy = 0.379 finished replicate 2 total counts 309394
wxy = 0.379 starts replicate 3
wxy = 0.448 finished replicate 2 total counts 464463
wxy = 0.448 starts replicate 3
wxy = 0.508 finished replicate 2 total counts 697715
wxy = 0.508 starts replicate 3
wxy = 0.535 finished replicate 2 total counts 778437
wxy = 0.535 starts replicate 3
wxy = 0.415 finished replicate 2 total counts 411920
wxy = 0.415 starts replicate 3
wxy = 0.173 finished replicate 2 total counts 35575
wxy = 0.173 starts replicate 3
wxy = 0.61 finished replicate 2 total counts 1.06776e+06
wxy = 0.61 starts replicate 3
wxy = 0.586 finished replicate 2 total counts 962598
wxy = 0.586 starts replicate 3
wxy = 0.561 finished replicate 2 total counts 796004
wxy = 0.561 starts replicate 3
wxy = 0.632 finished replicate 2 total counts 1.13043e+06
wxy = 0.632 starts replicate 3
wxy = 0.132 finished replicate 2 total counts 24947
wxy = 0.132 starts replicate 3
wxy = 0.071 finished replicate 3 total counts 5191
wxy = 0.071 starts replicate 4
wxy = 0.295 finished replicate 3 total counts 154356
wxy = 0.295 starts replicate 4
wxy = 0.241 finished replicate 3 total counts 86173
wxy = 0.241 starts replicate 4
wxy = 0.34 finished replicate 3 total counts 226828
wxy = 0.34 starts replicate 4
wxy = 0.479 finished replicate 3 total counts 561453
wxy = 0.479 starts replicate 4
wxy = 0.448 finished replicate 3 total counts 472035
wxy = 0.448 starts replicate 4
wxy = 0.535 finished replicate 3 total counts 807321
wxy = 0.535 starts replicate 4
wxy = 0.379 finished replicate 3 total counts 280690
wxy = 0.379 starts replicate 4
wxy = 0.508 finished replicate 3 total counts 648479
wxy = 0.508 starts replicate 4
wxy = 0.61 finished replicate 3 total counts 1.06484e+06
wxy = 0.61 starts replicate 4
wxy = 0.586 finished replicate 3 total counts 954065
wxy = 0.586 starts replicate 4
wxy = 0.561 finished replicate 3 total counts 854186
wxy = 0.561 starts replicate 4
wxy = 0.415 finished replicate 3 total counts 394148
wxy = 0.415 starts replicate 4
wxy = 0.632 finished replicate 3 total counts 1.09517e+06
wxy = 0.632 starts replicate 4
wxy = 0.173 finished replicate 3 total counts 40036
wxy = 0.173 starts replicate 4
wxy = 0.132 finished replicate 3 total counts 21074
wxy = 0.132 starts replicate 4
wxy = 0.071 finished replicate 4 total counts 4784
wxy = 0.071 starts replicate 5
wxy = 0.295 finished replicate 4 total counts 160778
wxy = 0.295 starts replicate 5
wxy = 0.241 finished replicate 4 total counts 99382
wxy = 0.241 starts replicate 5
wxy = 0.34 finished replicate 4 total counts 211364
wxy = 0.34 starts replicate 5
wxy = 0.479 finished replicate 4 total counts 528947
wxy = 0.479 starts replicate 5
wxy = 0.535 finished replicate 4 total counts 729636
wxy = 0.535 starts replicate 5
wxy = 0.508 finished replicate 4 total counts 662131
wxy = 0.508 starts replicate 5
wxy = 0.448 finished replicate 4 total counts 480742
wxy = 0.448 starts replicate 5
wxy = 0.61 finished replicate 4 total counts 1.00956e+06
wxy = 0.61 starts replicate 5
wxy = 0.586 finished replicate 4 total counts 978314
wxy = 0.586 starts replicate 5
wxy = 0.379 finished replicate 4 total counts 289369
wxy = 0.379 starts replicate 5
wxy = 0.561 finished replicate 4 total counts 864340
wxy = 0.561 starts replicate 5
wxy = 0.632 finished replicate 4 total counts 1.19523e+06
wxy = 0.632 starts replicate 5
wxy = 0.415 finished replicate 4 total counts 363315
wxy = 0.415 starts replicate 5
wxy = 0.173 finished replicate 4 total counts 39712
wxy = 0.173 starts replicate 5
wxy = 0.132 finished replicate 4 total counts 23892
wxy = 0.132 starts replicate 5
wxy = 0.071 finished replicate 5 total counts 5892
wxy = 0.071 starts replicate 6
wxy = 0.295 finished replicate 5 total counts 156262
wxy = 0.295 starts replicate 6
wxy = 0.241 finished replicate 5 total counts 93559
wxy = 0.241 starts replicate 6
wxy = 0.479 finished replicate 5 total counts 586290
wxy = 0.479 starts replicate 6
wxy = 0.34 finished replicate 5 total counts 244489
wxy = 0.34 starts replicate 6
wxy = 0.535 finished replicate 5 total counts 738514
wxy = 0.535 starts replicate 6
wxy = 0.508 finished replicate 5 total counts 653666
wxy = 0.508 starts replicate 6
wxy = 0.586 finished replicate 5 total counts 963925
wxy = 0.586 starts replicate 6
wxy = 0.61 finished replicate 5 total counts 1.10484e+06
wxy = 0.61 starts replicate 6
wxy = 0.448 finished replicate 5 total counts 492712
wxy = 0.448 starts replicate 6
wxy = 0.561 finished replicate 5 total counts 867922
wxy = 0.561 starts replicate 6
wxy = 0.632 finished replicate 5 total counts 1.11676e+06
wxy = 0.632 starts replicate 6
wxy = 0.379 finished replicate 5 total counts 311446
wxy = 0.379 starts replicate 6
wxy = 0.415 finished replicate 5 total counts 392979
wxy = 0.415 starts replicate 6
wxy = 0.173 finished replicate 5 total counts 48392
wxy = 0.173 starts replicate 6
wxy = 0.132 finished replicate 5 total counts 22441
wxy = 0.132 starts replicate 6
wxy = 0.071 finished replicate 6 total counts 4762
wxy = 0.071 starts replicate 7
wxy = 0.241 finished replicate 6 total counts 91868
wxy = 0.241 starts replicate 7
wxy = 0.295 finished replicate 6 total counts 148807
wxy = 0.295 starts replicate 7
wxy = 0.479 finished replicate 6 total counts 574082
wxy = 0.479 starts replicate 7
wxy = 0.34 finished replicate 6 total counts 226845
wxy = 0.34 starts replicate 7
wxy = 0.535 finished replicate 6 total counts 825052
wxy = 0.535 starts replicate 7
wxy = 0.586 finished replicate 6 total counts 930903
wxy = 0.586 starts replicate 7
wxy = 0.61 finished replicate 6 total counts 1.03582e+06
wxy = 0.61 starts replicate 7
wxy = 0.508 finished replicate 6 total counts 653770
wxy = 0.508 starts replicate 7
wxy = 0.448 finished replicate 6 total counts 435431
wxy = 0.448 starts replicate 7
wxy = 0.561 finished replicate 6 total counts 849992
wxy = 0.561 starts replicate 7
wxy = 0.632 finished replicate 6 total counts 1.23455e+06
wxy = 0.632 starts replicate 7
wxy = 0.379 finished replicate 6 total counts 278898
wxy = 0.379 starts replicate 7
wxy = 0.415 finished replicate 6 total counts 440623
wxy = 0.415 starts replicate 7
wxy = 0.173 finished replicate 6 total counts 44885
wxy = 0.173 starts replicate 7
wxy = 0.132 finished replicate 6 total counts 17720
wxy = 0.132 starts replicate 7
wxy = 0.071 finished replicate 7 total counts 5083
wxy = 0.071 starts replicate 8
wxy = 0.241 finished replicate 7 total counts 90546
wxy = 0.241 starts replicate 8
wxy = 0.295 finished replicate 7 total counts 169170
wxy = 0.295 starts replicate 8
wxy = 0.479 finished replicate 7 total counts 603864
wxy = 0.479 starts replicate 8
wxy = 0.535 finished replicate 7 total counts 773021
wxy = 0.535 starts replicate 8
wxy = 0.586 finished replicate 7 total counts 963143
wxy = 0.586 starts replicate 8
wxy = 0.34 finished replicate 7 total counts 226132
wxy = 0.34 starts replicate 8
wxy = 0.61 finished replicate 7 total counts 1.06022e+06
wxy = 0.61 starts replicate 8
wxy = 0.508 finished replicate 7 total counts 657411
wxy = 0.508 starts replicate 8
wxy = 0.632 finished replicate 7 total counts 1.1823e+06
wxy = 0.632 starts replicate 8
wxy = 0.561 finished replicate 7 total counts 938594
wxy = 0.561 starts replicate 8
wxy = 0.448 finished replicate 7 total counts 449042
wxy = 0.448 starts replicate 8
wxy = 0.379 finished replicate 7 total counts 300767
wxy = 0.379 starts replicate 8
wxy = 0.415 finished replicate 7 total counts 375293
wxy = 0.415 starts replicate 8
wxy = 0.173 finished replicate 7 total counts 38726
wxy = 0.173 starts replicate 8
wxy = 0.132 finished replicate 7 total counts 19483
wxy = 0.132 starts replicate 8
wxy = 0.071 finished replicate 8 total counts 8525
wxy = 0.071 starts replicate 9
wxy = 0.241 finished replicate 8 total counts 97993
wxy = 0.241 starts replicate 9
wxy = 0.295 finished replicate 8 total counts 149354
wxy = 0.295 starts replicate 9
wxy = 0.479 finished replicate 8 total counts 591881
wxy = 0.479 starts replicate 9
wxy = 0.535 finished replicate 8 total counts 764753
wxy = 0.535 starts replicate 9
wxy = 0.586 finished replicate 8 total counts 866816
wxy = 0.586 starts replicate 9
wxy = 0.61 finished replicate 8 total counts 1.06495e+06
wxy = 0.61 starts replicate 9
wxy = 0.508 finished replicate 8 total counts 645876
wxy = 0.508 starts replicate 9
wxy = 0.34 finished replicate 8 total counts 218458
wxy = 0.34 starts replicate 9
wxy = 0.632 finished replicate 8 total counts 1.23159e+06
wxy = 0.632 starts replicate 9
wxy = 0.561 finished replicate 8 total counts 832912
wxy = 0.561 starts replicate 9
wxy = 0.448 finished replicate 8 total counts 459842
wxy = 0.448 starts replicate 9
wxy = 0.379 finished replicate 8 total counts 278579
wxy = 0.379 starts replicate 9
wxy = 0.415 finished replicate 8 total counts 372786
wxy = 0.415 starts replicate 9
wxy = 0.173 finished replicate 8 total counts 45250
wxy = 0.173 starts replicate 9
wxy = 0.132 finished replicate 8 total counts 28093
wxy = 0.132 starts replicate 9
wxy = 0.071 finished replicate 9 total counts 4764
wxy = 0.071 starts replicate 10
wxy = 0.241 finished replicate 9 total counts 91739
wxy = 0.241 starts replicate 10
wxy = 0.295 finished replicate 9 total counts 163207
wxy = 0.295 starts replicate 10
wxy = 0.479 finished replicate 9 total counts 597625
wxy = 0.479 starts replicate 10
wxy = 0.535 finished replicate 9 total counts 764481
wxy = 0.535 starts replicate 10
wxy = 0.586 finished replicate 9 total counts 1.00876e+06
wxy = 0.586 starts replicate 10
wxy = 0.61 finished replicate 9 total counts 1.08938e+06
wxy = 0.61 starts replicate 10
wxy = 0.508 finished replicate 9 total counts 674289
wxy = 0.508 starts replicate 10
wxy = 0.632 finished replicate 9 total counts 1.16795e+06
wxy = 0.632 starts replicate 10
wxy = 0.34 finished replicate 9 total counts 220834
wxy = 0.34 starts replicate 10
wxy = 0.561 finished replicate 9 total counts 888197
wxy = 0.561 starts replicate 10
wxy = 0.448 finished replicate 9 total counts 453263
wxy = 0.448 starts replicate 10
wxy = 0.379 finished replicate 9 total counts 292947
wxy = 0.379 starts replicate 10
wxy = 0.415 finished replicate 9 total counts 389642
wxy = 0.415 starts replicate 10
wxy = 0.173 finished replicate 9 total counts 44483
wxy = 0.173 starts replicate 10
wxy = 0.132 finished replicate 9 total counts 26452
wxy = 0.132 starts replicate 10
wxy = 0.071 finished replicate 10 total counts 3531
wxy = 0.071 starts replicate 11
wxy = 0.241 finished replicate 10 total counts 91982
wxy = 0.241 starts replicate 11
wxy = 0.295 finished replicate 10 total counts 160725
wxy = 0.295 starts replicate 11
wxy = 0.479 finished replicate 10 total counts 540769
wxy = 0.479 starts replicate 11
wxy = 0.586 finished replicate 10 total counts 1.0308e+06
wxy = 0.586 starts replicate 11
wxy = 0.535 finished replicate 10 total counts 718076
wxy = 0.535 starts replicate 11
wxy = 0.61 finished replicate 10 total counts 1.08191e+06
wxy = 0.61 starts replicate 11
wxy = 0.632 finished replicate 10 total counts 1.25004e+06
wxy = 0.632 starts replicate 11
wxy = 0.508 finished replicate 10 total counts 645922
wxy = 0.508 starts replicate 11
wxy = 0.561 finished replicate 10 total counts 834731
wxy = 0.561 starts replicate 11
wxy = 0.34 finished replicate 10 total counts 229038
wxy = 0.34 starts replicate 11
wxy = 0.448 finished replicate 10 total counts 474060
wxy = 0.448 starts replicate 11
wxy = 0.379 finished replicate 10 total counts 319075
wxy = 0.379 starts replicate 11
wxy = 0.415 finished replicate 10 total counts 409740
wxy = 0.415 starts replicate 11
wxy = 0.173 finished replicate 10 total counts 43767
wxy = 0.173 starts replicate 11
wxy = 0.132 finished replicate 10 total counts 21942
wxy = 0.132 starts replicate 11
wxy = 0.071 finished replicate 11 total counts 5072
wxy = 0.071 starts replicate 12
wxy = 0.479 finished replicate 11 total counts 608563
wxy = 0.479 starts replicate 12
wxy = 0.241 finished replicate 11 total counts 102449
wxy = 0.241 starts replicate 12
wxy = 0.295 finished replicate 11 total counts 156168
wxy = 0.295 starts replicate 12
wxy = 0.586 finished replicate 11 total counts 1.02221e+06
wxy = 0.586 starts replicate 12
wxy = 0.535 finished replicate 11 total counts 712206
wxy = 0.535 starts replicate 12
wxy = 0.61 finished replicate 11 total counts 1.07015e+06
wxy = 0.61 starts replicate 12
wxy = 0.632 finished replicate 11 total counts 1.11871e+06
wxy = 0.632 starts replicate 12
wxy = 0.508 finished replicate 11 total counts 691915
wxy = 0.508 starts replicate 12
wxy = 0.561 finished replicate 11 total counts 903002
wxy = 0.561 starts replicate 12
wxy = 0.34 finished replicate 11 total counts 229175
wxy = 0.34 starts replicate 12
wxy = 0.448 finished replicate 11 total counts 458597
wxy = 0.448 starts replicate 12
wxy = 0.379 finished replicate 11 total counts 309285
wxy = 0.379 starts replicate 12
wxy = 0.415 finished replicate 11 total counts 380028
wxy = 0.415 starts replicate 12
wxy = 0.173 finished replicate 11 total counts 42481
wxy = 0.173 starts replicate 12
wxy = 0.132 finished replicate 11 total counts 20838
wxy = 0.132 starts replicate 12
wxy = 0.071 finished replicate 12 total counts 6501
wxy = 0.071 starts replicate 13
wxy = 0.479 finished replicate 12 total counts 591132
wxy = 0.479 starts replicate 13
wxy = 0.586 finished replicate 12 total counts 912368
wxy = 0.586 starts replicate 13
wxy = 0.241 finished replicate 12 total counts 99099
wxy = 0.241 starts replicate 13
wxy = 0.295 finished replicate 12 total counts 158677
wxy = 0.295 starts replicate 13
wxy = 0.535 finished replicate 12 total counts 780486
wxy = 0.535 starts replicate 13
wxy = 0.61 finished replicate 12 total counts 1.07775e+06
wxy = 0.61 starts replicate 13
wxy = 0.632 finished replicate 12 total counts 1.18791e+06
wxy = 0.632 starts replicate 13
wxy = 0.508 finished replicate 12 total counts 668422
wxy = 0.508 starts replicate 13
wxy = 0.561 finished replicate 12 total counts 912599
wxy = 0.561 starts replicate 13
wxy = 0.34 finished replicate 12 total counts 243585
wxy = 0.34 starts replicate 13
wxy = 0.448 finished replicate 12 total counts 436000
wxy = 0.448 starts replicate 13
wxy = 0.379 finished replicate 12 total counts 305930
wxy = 0.379 starts replicate 13
wxy = 0.415 finished replicate 12 total counts 429264
wxy = 0.415 starts replicate 13
wxy = 0.173 finished replicate 12 total counts 46423
wxy = 0.173 starts replicate 13
wxy = 0.071 finished replicate 13 total counts 5699
wxy = 0.071 starts replicate 14
wxy = 0.132 finished replicate 12 total counts 23140
wxy = 0.132 starts replicate 13
wxy = 0.479 finished replicate 13 total counts 545964
wxy = 0.479 starts replicate 14
wxy = 0.586 finished replicate 13 total counts 915449
wxy = 0.586 starts replicate 14
wxy = 0.241 finished replicate 13 total counts 111536
wxy = 0.241 starts replicate 14
wxy = 0.535 finished replicate 13 total counts 732164
wxy = 0.535 starts replicate 14
wxy = 0.61 finished replicate 13 total counts 1.10708e+06
wxy = 0.61 starts replicate 14
wxy = 0.295 finished replicate 13 total counts 174489
wxy = 0.295 starts replicate 14
wxy = 0.632 finished replicate 13 total counts 1.18448e+06
wxy = 0.632 starts replicate 14
wxy = 0.508 finished replicate 13 total counts 625282
wxy = 0.508 starts replicate 14
wxy = 0.561 finished replicate 13 total counts 876415
wxy = 0.561 starts replicate 14
wxy = 0.34 finished replicate 13 total counts 273561
wxy = 0.34 starts replicate 14
wxy = 0.448 finished replicate 13 total counts 480575
wxy = 0.448 starts replicate 14
wxy = 0.379 finished replicate 13 total counts 325176
wxy = 0.379 starts replicate 14
wxy = 0.415 finished replicate 13 total counts 421920
wxy = 0.415 starts replicate 14
wxy = 0.173 finished replicate 13 total counts 39739
wxy = 0.173 starts replicate 14
wxy = 0.071 finished replicate 14 total counts 5269
wxy = 0.071 starts replicate 15
wxy = 0.132 finished replicate 13 total counts 22041
wxy = 0.132 starts replicate 14
wxy = 0.586 finished replicate 14 total counts 970243
wxy = 0.586 starts replicate 15
wxy = 0.479 finished replicate 14 total counts 538310
wxy = 0.479 starts replicate 15
wxy = 0.61 finished replicate 14 total counts 1.14295e+06
wxy = 0.61 starts replicate 15
wxy = 0.535 finished replicate 14 total counts 730668
wxy = 0.535 starts replicate 15
wxy = 0.241 finished replicate 14 total counts 98313
wxy = 0.241 starts replicate 15
wxy = 0.295 finished replicate 14 total counts 175227
wxy = 0.295 starts replicate 15
wxy = 0.632 finished replicate 14 total counts 1.19901e+06
wxy = 0.632 starts replicate 15
wxy = 0.561 finished replicate 14 total counts 897111
wxy = 0.561 starts replicate 15
wxy = 0.508 finished replicate 14 total counts 639891
wxy = 0.508 starts replicate 15
wxy = 0.34 finished replicate 14 total counts 241834
wxy = 0.34 starts replicate 15
wxy = 0.448 finished replicate 14 total counts 482570
wxy = 0.448 starts replicate 15
wxy = 0.379 finished replicate 14 total counts 324657
wxy = 0.379 starts replicate 15
wxy = 0.415 finished replicate 14 total counts 351461
wxy = 0.415 starts replicate 15
wxy = 0.173 finished replicate 14 total counts 47737
wxy = 0.173 starts replicate 15
wxy = 0.071 finished replicate 15 total counts 4626
wxy = 0.071 starts replicate 16
wxy = 0.132 finished replicate 14 total counts 21125
wxy = 0.132 starts replicate 15
wxy = 0.586 finished replicate 15 total counts 927248
wxy = 0.586 starts replicate 16
wxy = 0.479 finished replicate 15 total counts 534075
wxy = 0.479 starts replicate 16
wxy = 0.61 finished replicate 15 total counts 1.08749e+06
wxy = 0.61 starts replicate 16
wxy = 0.535 finished replicate 15 total counts 754973
wxy = 0.535 starts replicate 16
wxy = 0.241 finished replicate 15 total counts 107161
wxy = 0.241 starts replicate 16
wxy = 0.632 finished replicate 15 total counts 1.15614e+06
wxy = 0.632 starts replicate 16
wxy = 0.295 finished replicate 15 total counts 158562
wxy = 0.295 starts replicate 16
wxy = 0.561 finished replicate 15 total counts 899887
wxy = 0.561 starts replicate 16
wxy = 0.508 finished replicate 15 total counts 723773
wxy = 0.508 starts replicate 16
wxy = 0.34 finished replicate 15 total counts 262920
wxy = 0.34 starts replicate 16
wxy = 0.448 finished replicate 15 total counts 450428
wxy = 0.448 starts replicate 16
wxy = 0.379 finished replicate 15 total counts 318911
wxy = 0.379 starts replicate 16
wxy = 0.415 finished replicate 15 total counts 412061
wxy = 0.415 starts replicate 16
wxy = 0.173 finished replicate 15 total counts 43823
wxy = 0.173 starts replicate 16
wxy = 0.071 finished replicate 16 total counts 4541
wxy = 0.071 starts replicate 17
wxy = 0.132 finished replicate 15 total counts 25796
wxy = 0.132 starts replicate 16
wxy = 0.586 finished replicate 16 total counts 987673
wxy = 0.586 starts replicate 17
wxy = 0.479 finished replicate 16 total counts 574409
wxy = 0.479 starts replicate 17
wxy = 0.61 finished replicate 16 total counts 1.01861e+06
wxy = 0.61 starts replicate 17
wxy = 0.535 finished replicate 16 total counts 770676
wxy = 0.535 starts replicate 17
wxy = 0.632 finished replicate 16 total counts 1.17303e+06
wxy = 0.632 starts replicate 17
wxy = 0.241 finished replicate 16 total counts 90961
wxy = 0.241 starts replicate 17
wxy = 0.295 finished replicate 16 total counts 153681
wxy = 0.295 starts replicate 17
wxy = 0.561 finished replicate 16 total counts 861610
wxy = 0.561 starts replicate 17
wxy = 0.508 finished replicate 16 total counts 685474
wxy = 0.508 starts replicate 17
wxy = 0.34 finished replicate 16 total counts 208709
wxy = 0.34 starts replicate 17
wxy = 0.448 finished replicate 16 total counts 482014
wxy = 0.448 starts replicate 17
wxy = 0.379 finished replicate 16 total counts 326428
wxy = 0.379 starts replicate 17
wxy = 0.415 finished replicate 16 total counts 385503
wxy = 0.415 starts replicate 17
wxy = 0.071 finished replicate 17 total counts 5413
wxy = 0.071 starts replicate 18
wxy = 0.173 finished replicate 16 total counts 45540
wxy = 0.173 starts replicate 17
wxy = 0.586 finished replicate 17 total counts 944915
wxy = 0.586 starts replicate 18
wxy = 0.479 finished replicate 17 total counts 568134
wxy = 0.479 starts replicate 18
wxy = 0.61 finished replicate 17 total counts 1.05912e+06
wxy = 0.61 starts replicate 18
wxy = 0.535 finished replicate 17 total counts 808424
wxy = 0.535 starts replicate 18
wxy = 0.632 finished replicate 17 total counts 1.20335e+06
wxy = 0.632 starts replicate 18
wxy = 0.241 finished replicate 17 total counts 99344
wxy = 0.241 starts replicate 18
wxy = 0.132 finished replicate 16 total counts 22735
wxy = 0.132 starts replicate 17
wxy = 0.295 finished replicate 17 total counts 145782
wxy = 0.295 starts replicate 18
wxy = 0.561 finished replicate 17 total counts 824520
wxy = 0.561 starts replicate 18
wxy = 0.508 finished replicate 17 total counts 643507
wxy = 0.508 starts replicate 18
wxy = 0.34 finished replicate 17 total counts 232544
wxy = 0.34 starts replicate 18
wxy = 0.448 finished replicate 17 total counts 483887
wxy = 0.448 starts replicate 18
wxy = 0.379 finished replicate 17 total counts 296100
wxy = 0.379 starts replicate 18
wxy = 0.415 finished replicate 17 total counts 385010
wxy = 0.415 starts replicate 18
wxy = 0.071 finished replicate 18 total counts 6460
wxy = 0.071 starts replicate 19
wxy = 0.173 finished replicate 17 total counts 50064
wxy = 0.173 starts replicate 18
wxy = 0.586 finished replicate 18 total counts 1.02026e+06
wxy = 0.586 starts replicate 19
wxy = 0.479 finished replicate 18 total counts 583579
wxy = 0.479 starts replicate 19
wxy = 0.61 finished replicate 18 total counts 1.14082e+06
wxy = 0.61 starts replicate 19
wxy = 0.535 finished replicate 18 total counts 792883
wxy = 0.535 starts replicate 19
wxy = 0.632 finished replicate 18 total counts 1.20938e+06
wxy = 0.632 starts replicate 19
wxy = 0.241 finished replicate 18 total counts 92657
wxy = 0.241 starts replicate 19
wxy = 0.295 finished replicate 18 total counts 161993
wxy = 0.295 starts replicate 19
wxy = 0.561 finished replicate 18 total counts 939201
wxy = 0.561 starts replicate 19
wxy = 0.508 finished replicate 18 total counts 625506
wxy = 0.508 starts replicate 19
wxy = 0.132 finished replicate 17 total counts 26797
wxy = 0.132 starts replicate 18
wxy = 0.34 finished replicate 18 total counts 222326
wxy = 0.34 starts replicate 19
wxy = 0.448 finished replicate 18 total counts 411210
wxy = 0.448 starts replicate 19
wxy = 0.379 finished replicate 18 total counts 298587
wxy = 0.379 starts replicate 19
wxy = 0.415 finished replicate 18 total counts 389751
wxy = 0.415 starts replicate 19
wxy = 0.071 finished replicate 19 total counts 5462
wxy = 0.173 finished replicate 18 total counts 38753
wxy = 0.173 starts replicate 19
wxy = 0.535 finished replicate 19 total counts 750482
wxy = 0.586 finished replicate 19 total counts 952987
wxy = 0.632 finished replicate 19 total counts 1.19147e+06
wxy = 0.479 finished replicate 19 total counts 564487
wxy = 0.61 finished replicate 19 total counts 1.07399e+06
wxy = 0.295 finished replicate 19 total counts 154252
wxy = 0.241 finished replicate 19 total counts 92119
wxy = 0.561 finished replicate 19 total counts 864454
wxy = 0.508 finished replicate 19 total counts 673010
wxy = 0.132 finished replicate 18 total counts 24346
wxy = 0.132 starts replicate 19
wxy = 0.448 finished replicate 19 total counts 454275
wxy = 0.34 finished replicate 19 total counts 259919
wxy = 0.379 finished replicate 19 total counts 308718
wxy = 0.415 finished replicate 19 total counts 382334
wxy = 0.173 finished replicate 19 total counts 48431
wxy = 0.132 finished replicate 19 total counts 21478
