[
   2.534632682800293,
   2.5363643169403076,
   2.5359606742858887,
   2.5325517654418945,
   2.5359148979187012,
   2.5285117626190186,
   2.5364668369293213,
   2.5332174301147461,
   2.5315191745758057,
   2.5343725681304932,
   2.5284755229949951,
   2.5211429595947266,
   2.5200827121734619,
   2.5158836841583252,
   2.5096859931945801,
   2.5080561637878418,
   2.5031023025512695,
   2.4971766471862793,
   2.4953024387359619,
   2.453667163848877,
   2.421058177947998,
   2.3845462799072266,
   2.359243631362915,
   2.3268694877624512,
   2.3021738529205322,
   2.2791869640350342,
   2.2557663917541504,
   2.2357258796691895,
   2.0639071464538574,
   1.9415601491928101,
   1.8443412780761719,
   1.7679054737091064,
   1.7014461755752563,
   1.6407873630523682,
   1.5911366939544678,
   1.5500671863555908,
   1.5057475566864014,
   1.282001256942749,
   1.188770055770874,
   1.1291446685791016,
   1.0840798616409302,
   1.0605652332305908,
   1.0414961576461792,
   1.0306160449981689,
   1.0270682573318481,
   1.0181758403778076,
   1.0051305294036865,
   1.0108951330184937,
   1.0084717273712158,
   0.99479740858078003,
   1.0041579008102417,
   0.99609696865081787,
   0.9898606538772583,
   1.0160048007965088,
   0.98924064636230469,
   1.0076969861984253,
   0.99510210752487183,
   1.0072187185287476,
   1.0169999599456787,
   0.95922219753265381,
   0.94315320253372192,
   1.0041086673736572,
   0.99317234754562378,
   0.99363994598388672
]
