[
   25.505882263183594,
   25.470134735107422,
   25.273372650146484,
   25.262685775756836,
   25.157482147216797,
   25.161935806274414,
   25.183393478393555,
   24.989665985107422,
   25.052829742431641,
   25.076480865478516,
   24.502819061279297,
   24.398906707763672,
   23.955522537231445,
   23.672208786010742,
   23.494522094726562,
   23.293630599975586,
   22.89283561706543,
   22.950139999389648,
   22.532222747802734,
   20.732318878173828,
   19.25749397277832,
   18.039127349853516,
   16.708866119384766,
   15.713552474975586,
   14.91796875,
   14.397806167602539,
   13.625119209289551,
   13.086041450500488,
   8.83367919921875,
   6.7119293212890625,
   5.5239739418029785,
   4.721585750579834,
   4.0192570686340332,
   3.4404511451721191,
   3.0039355754852295,
   2.9089255332946777,
   2.7265114784240723,
   1.5738576650619507,
   1.3982002735137939,
   1.1603831052780151,
   1.3482353687286377,
   1.1182022094726562,
   0.98997420072555542,
   1.0437208414077759,
   1.0334181785583496,
   0.94179439544677734,
   0.96641695499420166,
   1.0733721256256104,
   1.0207140445709229,
   1.0142329931259155,
   1.0052844285964966,
   0.94784510135650635,
   0.98087644577026367,
   0.91910660266876221,
   1.0690587759017944,
   0.96175861358642578,
   1.1765316724777222,
   1.0383094549179077,
   0.91649866104125977,
   0.91664332151412964,
   0.85548973083496094,
   1.0950286388397217,
   1.100818395614624,
   0.96315586566925049
]
