[
   1.5129730701446533,
   1.5111172199249268,
   1.5123955011367798,
   1.5121997594833374,
   1.5131592750549316,
   1.5114632844924927,
   1.5117197036743164,
   1.5113785266876221,
   1.5119137763977051,
   1.5110971927642822,
   1.510054349899292,
   1.5100876092910767,
   1.5099140405654907,
   1.507598876953125,
   1.5064190626144409,
   1.5056040287017822,
   1.5055611133575439,
   1.5050942897796631,
   1.504338264465332,
   1.4971752166748047,
   1.4892117977142334,
   1.481325626373291,
   1.4744800329208374,
   1.4680424928665161,
   1.4624207019805908,
   1.4575492143630981,
   1.449958324432373,
   1.4449530839920044,
   1.3959313631057739,
   1.3603056669235229,
   1.3336480855941772,
   1.3076006174087524,
   1.2885463237762451,
   1.2697100639343262,
   1.2529300451278687,
   1.2395713329315186,
   1.2255492210388184,
   1.1414297819137573,
   1.0959066152572632,
   1.0681107044219971,
   1.0481269359588623,
   1.0386643409729004,
   1.0308212041854858,
   1.0262830257415771,
   1.020831823348999,
   1.0186541080474854,
   0.99842822551727295,
   1.0000587701797485,
   1.0051491260528564,
   1.0026352405548096,
   1.008514404296875,
   1.0028316974639893,
   1.0016994476318359,
   1.0056411027908325,
   1.0057253837585449,
   1.0072695016860962,
   1.0053884983062744,
   0.99662941694259644,
   1.0021615028381348,
   0.99283742904663086,
   0.99405622482299805,
   0.96786355972290039,
   0.96595442295074463,
   0.94192111492156982
]
