[
   14.152750968933105,
   14.118748664855957,
   14.074914932250977,
   14.004829406738281,
   14.153470039367676,
   14.151140213012695,
   14.039151191711426,
   14.016485214233398,
   14.037071228027344,
   14.008695602416992,
   13.820048332214355,
   13.882296562194824,
   13.663125991821289,
   13.521255493164062,
   13.456024169921875,
   13.261323928833008,
   13.160954475402832,
   13.063562393188477,
   12.980758666992188,
   12.158965110778809,
   11.488847732543945,
   10.99863338470459,
   10.478614807128906,
   10.114452362060547,
   9.6587371826171875,
   9.3150005340576172,
   8.9699535369873047,
   8.601201057434082,
   6.5022478103637695,
   5.1774263381958008,
   4.3681745529174805,
   3.7714953422546387,
   3.277824878692627,
   3.0400738716125488,
   2.7458319664001465,
   2.5309159755706787,
   2.3467645645141602,
   1.5447051525115967,
   1.2717736959457397,
   1.1737178564071655,
   1.1202468872070312,
   1.094272255897522,
   1.0514098405838013,
   1.0236955881118774,
   0.99797201156616211,
   1.0612962245941162,
   1.0587282180786133,
   0.98567944765090942,
   0.95273256301879883,
   0.92140752077102661,
   0.97457516193389893,
   1.0156605243682861,
   0.94122397899627686,
   0.96370202302932739,
   1.0767815113067627,
   0.89892661571502686,
   1.1031398773193359,
   1.0052616596221924,
   0.8934141993522644,
   0.94896113872528076,
   0.9471278190612793,
   0.9330902099609375,
   0.85460406541824341,
   1.1650041341781616
]
