[
   1.9243676662445068,
   1.9237838983535767,
   1.9236583709716797,
   1.922315239906311,
   1.9218318462371826,
   1.9211900234222412,
   1.9201732873916626,
   1.9222513437271118,
   1.9212644100189209,
   1.9191277027130127,
   1.9199154376983643,
   1.9155559539794922,
   1.9138933420181274,
   1.9115269184112549,
   1.9095855951309204,
   1.9113146066665649,
   1.9096952676773071,
   1.9060204029083252,
   1.9043601751327515,
   1.8841352462768555,
   1.8705062866210938,
   1.8523788452148438,
   1.8387044668197632,
   1.8232457637786865,
   1.8084617853164673,
   1.7989227771759033,
   1.7875173091888428,
   1.7733980417251587,
   1.6812213659286499,
   1.610578179359436,
   1.5588006973266602,
   1.514106273651123,
   1.4722855091094971,
   1.4386205673217773,
   1.4092715978622437,
   1.3828029632568359,
   1.3589239120483398,
   1.2168904542922974,
   1.1396467685699463,
   1.0999009609222412,
   1.0747873783111572,
   1.0584195852279663,
   1.0426127910614014,
   1.0302635431289673,
   1.0215237140655518,
   1.0193427801132202,
   1.0037404298782349,
   0.99129951000213623,
   1.0080641508102417,
   1.0132200717926025,
   0.99249345064163208,
   0.98741179704666138,
   0.98470914363861084,
   0.99495774507522583,
   0.99695503711700439,
   0.98030078411102295,
   1.0141569375991821,
   0.98891270160675049,
   0.99784553050994873,
   1.0020902156829834,
   0.99623411893844604,
   0.97938013076782227,
   1.0367975234985352,
   1.0564738512039185
]
