[
   1.6900608539581299,
   1.6907758712768555,
   1.6903120279312134,
   1.691725492477417,
   1.6920719146728516,
   1.6896445751190186,
   1.6892147064208984,
   1.6893488168716431,
   1.6897588968276978,
   1.6915518045425415,
   1.6869208812713623,
   1.6872085332870483,
   1.6857582330703735,
   1.6847308874130249,
   1.682939887046814,
   1.680763840675354,
   1.6801494359970093,
   1.6809968948364258,
   1.6802175045013428,
   1.6652374267578125,
   1.6556589603424072,
   1.6443121433258057,
   1.6342995166778564,
   1.6249091625213623,
   1.6151549816131592,
   1.6067788600921631,
   1.596967339515686,
   1.5895339250564575,
   1.5211347341537476,
   1.4732396602630615,
   1.4316647052764893,
   1.3964992761611938,
   1.3696901798248291,
   1.3444563150405884,
   1.3239619731903076,
   1.3020142316818237,
   1.2847847938537598,
   1.1748983860015869,
   1.1202846765518188,
   1.091245174407959,
   1.0663481950759888,
   1.0442848205566406,
   1.0318351984024048,
   1.028089165687561,
   1.0222365856170654,
   1.01749587059021,
   1.0082380771636963,
   0.99932080507278442,
   0.99580442905426025,
   1.0054757595062256,
   0.99502736330032349,
   1.0058498382568359,
   1.0023820400238037,
   0.98746806383132935,
   1.0012332201004028,
   1.0040538311004639,
   0.99837797880172729,
   1.0015580654144287,
   0.99339020252227783,
   1.0027941465377808,
   1.0013527870178223,
   0.98156899213790894,
   1.0171608924865723,
   1.0173863172531128
]
