[
   7.1361136436462402,
   7.1208596229553223,
   7.125239372253418,
   7.0906624794006348,
   7.1339235305786133,
   7.0964226722717285,
   7.0902342796325684,
   7.0911126136779785,
   7.0938940048217773,
   7.0840330123901367,
   7.053438663482666,
   7.0131087303161621,
   6.9704489707946777,
   6.9161109924316406,
   6.9198851585388184,
   6.869539737701416,
   6.8301467895507812,
   6.8035469055175781,
   6.7620291709899902,
   6.4631562232971191,
   6.2435441017150879,
   6.0529356002807617,
   5.8740510940551758,
   5.7285223007202148,
   5.5420026779174805,
   5.4110417366027832,
   5.324315071105957,
   5.1924962997436523,
   4.2978591918945312,
   3.6942620277404785,
   3.2580883502960205,
   2.941392183303833,
   2.6907680034637451,
   2.4930765628814697,
   2.3367547988891602,
   2.1803493499755859,
   2.0745279788970947,
   1.4827415943145752,
   1.2258205413818359,
   1.1740298271179199,
   1.1456613540649414,
   1.1351066827774048,
   1.0867857933044434,
   1.0523091554641724,
   1.0689963102340698,
   1.0818450450897217,
   0.96671378612518311,
   0.97436791658401489,
   1.0417162179946899,
   0.9816817045211792,
   1.0004260540008545,
   1.0097166299819946,
   1.0215046405792236,
   0.98257625102996826,
   1.0288875102996826,
   0.99628818035125732,
   0.94871723651885986,
   0.98008251190185547,
   1.068500280380249,
   0.97637331485748291,
   0.93573522567749023,
   0.9905010461807251,
   0.89738047122955322,
   0.97960776090621948
]
