[
   2.2564539909362793,
   2.2572019100189209,
   2.2578318119049072,
   2.2563352584838867,
   2.2555255889892578,
   2.2561397552490234,
   2.2545952796936035,
   2.2525241374969482,
   2.2556419372558594,
   2.2517647743225098,
   2.2491376399993896,
   2.2478346824645996,
   2.2431979179382324,
   2.2388205528259277,
   2.2383022308349609,
   2.2335038185119629,
   2.230527400970459,
   2.2281599044799805,
   2.2227644920349121,
   2.1966722011566162,
   2.168365478515625,
   2.1432137489318848,
   2.1155319213867188,
   2.0998291969299316,
   2.0776755809783936,
   2.058037281036377,
   2.040926456451416,
   2.0218067169189453,
   1.885406494140625,
   1.788138747215271,
   1.7097018957138062,
   1.6470842361450195,
   1.5926864147186279,
   1.549485445022583,
   1.5095586776733398,
   1.4727376699447632,
   1.4399406909942627,
   1.245343804359436,
   1.1518323421478271,
   1.1088263988494873,
   1.0839431285858154,
   1.0669400691986084,
   1.0452486276626587,
   1.0375349521636963,
   1.0361036062240601,
   1.0296337604522705,
   1.0168474912643433,
   1.0132565498352051,
   0.99456804990768433,
   0.9834141731262207,
   1.0038988590240479,
   0.99172508716583252,
   1.0042580366134644,
   0.99315059185028076,
   0.98703444004058838,
   1.0082987546920776,
   1.0171306133270264,
   1.000654935836792,
   0.98533499240875244,
   0.99279630184173584,
   0.99596059322357178,
   0.97974956035614014,
   0.96192187070846558,
   1.0572211742401123
]
