[
   2.3111393451690674,
   2.3110339641571045,
   2.3082613945007324,
   2.3078558444976807,
   2.3081953525543213,
   2.3058085441589355,
   2.3063051700592041,
   2.3035464286804199,
   2.3068623542785645,
   2.3080437183380127,
   2.301297664642334,
   2.3021688461303711,
   2.2933640480041504,
   2.2923722267150879,
   2.2872672080993652,
   2.283240795135498,
   2.2806143760681152,
   2.2798409461975098,
   2.2782168388366699,
   2.2469158172607422,
   2.2217097282409668,
   2.19968581199646,
   2.1806743144989014,
   2.162250280380249,
   2.1436569690704346,
   2.1290042400360107,
   2.1131336688995361,
   2.1017327308654785,
   1.9949948787689209,
   1.9074989557266235,
   1.8370199203491211,
   1.7729911804199219,
   1.7234582901000977,
   1.6754611730575562,
   1.6315362453460693,
   1.5915806293487549,
   1.5558053255081177,
   1.3138935565948486,
   1.1928505897521973,
   1.1249016523361206,
   1.0861970186233521,
   1.0711871385574341,
   1.0547970533370972,
   1.0519678592681885,
   1.0413873195648193,
   1.0364334583282471,
   0.98830842971801758,
   1.0016715526580811,
   1.0014026165008545,
   1.000330924987793,
   1.0030525922775269,
   1.0044364929199219,
   0.99788486957550049,
   1.0000989437103271,
   0.99221575260162354,
   0.99190938472747803,
   0.99576818943023682,
   0.99741780757904053,
   0.97210872173309326,
   0.99864262342453003,
   0.97172850370407104,
   0.99710547924041748,
   1.0184028148651123,
   0.96778285503387451
]
