[
   1.6222089529037476,
   1.6211990118026733,
   1.6219375133514404,
   1.6212377548217773,
   1.6210407018661499,
   1.6203609704971313,
   1.6198177337646484,
   1.619976282119751,
   1.6197879314422607,
   1.6193422079086304,
   1.6203619241714478,
   1.6172561645507812,
   1.6176474094390869,
   1.616172194480896,
   1.6145560741424561,
   1.613918662071228,
   1.6128355264663696,
   1.6115894317626953,
   1.6105960607528687,
   1.599830150604248,
   1.59161376953125,
   1.5815521478652954,
   1.5762397050857544,
   1.5668346881866455,
   1.5607773065567017,
   1.5538787841796875,
   1.5479186773300171,
   1.5421404838562012,
   1.4937231540679932,
   1.4584431648254395,
   1.4302437305450439,
   1.4044145345687866,
   1.381705641746521,
   1.3630249500274658,
   1.3452035188674927,
   1.3285025358200073,
   1.3122317790985107,
   1.2070367336273193,
   1.1439511775970459,
   1.109810471534729,
   1.0841656923294067,
   1.0706028938293457,
   1.0541737079620361,
   1.0418866872787476,
   1.0327074527740479,
   1.0247013568878174,
   1.0145584344863892,
   1.0001817941665649,
   1.0045591592788696,
   0.99904191493988037,
   1.0010006427764893,
   0.99517726898193359,
   1.0010299682617188,
   1.0114973783493042,
   1.0106699466705322,
   1.0038448572158813,
   1.0084283351898193,
   1.0102261304855347,
   0.99131965637207031,
   0.99061477184295654,
   0.98641949892044067,
   0.98122882843017578,
   0.97020024061203003,
   0.94050425291061401
]
