[
   1.6906343698501587,
   1.6906540393829346,
   1.6918433904647827,
   1.6919295787811279,
   1.6911275386810303,
   1.6916000843048096,
   1.6904897689819336,
   1.6907281875610352,
   1.691044807434082,
   1.6899811029434204,
   1.6895288228988647,
   1.6877609491348267,
   1.6869102716445923,
   1.6835563182830811,
   1.6839901208877563,
   1.6837211847305298,
   1.6807947158813477,
   1.6807138919830322,
   1.6792802810668945,
   1.6682220697402954,
   1.6573495864868164,
   1.6472337245941162,
   1.6383215188980103,
   1.6301740407943726,
   1.6211223602294922,
   1.6134752035140991,
   1.6057676076889038,
   1.5997369289398193,
   1.5483871698379517,
   1.5074479579925537,
   1.4734958410263062,
   1.4474165439605713,
   1.4222609996795654,
   1.4007704257965088,
   1.378325343132019,
   1.3603541851043701,
   1.3426139354705811,
   1.2230445146560669,
   1.1541399955749512,
   1.1132686138153076,
   1.0840812921524048,
   1.0628520250320435,
   1.0503233671188354,
   1.0403244495391846,
   1.0300718545913696,
   1.0274879932403564,
   1.0104738473892212,
   1.0071430206298828,
   1.0020601749420166,
   1.0077427625656128,
   1.0057910680770874,
   1.0056746006011963,
   1.0023252964019775,
   0.99958622455596924,
   1.0046728849411011,
   0.99717426300048828,
   0.98890239000320435,
   0.98680365085601807,
   0.99354010820388794,
   1.0040390491485596,
   1.0116269588470459,
   1.0019105672836304,
   1.0058187246322632,
   0.93330538272857666
]
