[
   69.291038513183594,
   71.124008178710938,
   69.418968200683594,
   70.089973449707031,
   71.205955505371094,
   68.998908996582031,
   69.157997131347656,
   68.70526123046875,
   69.091690063476562,
   68.223495483398438,
   67.020362854003906,
   66.022865295410156,
   64.740493774414062,
   64.002120971679688,
   62.482837677001953,
   61.031085968017578,
   61.054058074951172,
   60.545295715332031,
   60.069690704345703,
   51.772987365722656,
   46.981826782226562,
   42.332916259765625,
   38.455440521240234,
   34.640697479248047,
   32.247310638427734,
   30.627971649169922,
   28.407323837280273,
   25.913188934326172,
   15.840751647949219,
   11.358702659606934,
   9.2474870681762695,
   7.2589712142944336,
   5.4467310905456543,
   4.8245697021484375,
   4.3291788101196289,
   3.7332019805908203,
   3.3728764057159424,
   2.0241303443908691,
   1.4197899103164673,
   1.3602942228317261,
   1.3131334781646729,
   1.0782294273376465,
   0.79135221242904663,
   1.1698751449584961,
   1.0173928737640381,
   1.1583216190338135,
   1.0008642673492432,
   0.79902040958404541,
   0.70356893539428711,
   0.91752070188522339,
   0.89682996273040771,
   0.99659574031829834,
   0.91222399473190308,
   1.1494649648666382,
   0.92101222276687622,
   0.62479680776596069,
   1.0367997884750366,
   0.85643672943115234,
   0.77241683006286621,
   1.2135746479034424,
   0.46971207857131958,
   1.2437126636505127,
   0.93467044830322266,
   0.8266642689704895
]
