[
   1.7978909015655518,
   1.7962430715560913,
   1.7986167669296265,
   1.7985172271728516,
   1.79819655418396,
   1.7965316772460938,
   1.7975893020629883,
   1.798561692237854,
   1.7971197366714478,
   1.7987378835678101,
   1.7967046499252319,
   1.7937338352203369,
   1.7941713333129883,
   1.7900912761688232,
   1.7893390655517578,
   1.7879934310913086,
   1.7866023778915405,
   1.7842123508453369,
   1.7838046550750732,
   1.7697398662567139,
   1.7582935094833374,
   1.7462217807769775,
   1.7352211475372314,
   1.7241369485855103,
   1.7123750448226929,
   1.7060306072235107,
   1.6972119808197021,
   1.6890037059783936,
   1.6267900466918945,
   1.5822536945343018,
   1.5451475381851196,
   1.5117180347442627,
   1.4814903736114502,
   1.4573204517364502,
   1.4339526891708374,
   1.4122127294540405,
   1.390905499458313,
   1.2582275867462158,
   1.179736852645874,
   1.1278163194656372,
   1.0962390899658203,
   1.0708470344543457,
   1.0519368648529053,
   1.0384922027587891,
   1.0303218364715576,
   1.0191891193389893,
   0.99753224849700928,
   1.001869797706604,
   1.0026748180389404,
   0.99853724241256714,
   0.99245119094848633,
   0.99775010347366333,
   0.9965168833732605,
   0.99362260103225708,
   0.99380749464035034,
   0.98055428266525269,
   0.98881065845489502,
   0.98288136720657349,
   0.97471439838409424,
   0.99391734600067139,
   1.0031442642211914,
   1.030370831489563,
   1.025793194770813,
   0.9844934344291687
]
