[
   2.6001632213592529,
   2.6006524562835693,
   2.600264310836792,
   2.5956666469573975,
   2.5920181274414062,
   2.5969376564025879,
   2.5965027809143066,
   2.5976276397705078,
   2.5974709987640381,
   2.5996029376983643,
   2.5897030830383301,
   2.5883393287658691,
   2.5869667530059814,
   2.5808982849121094,
   2.5789618492126465,
   2.5702755451202393,
   2.5676484107971191,
   2.5641756057739258,
   2.5593562126159668,
   2.5234158039093018,
   2.4926142692565918,
   2.4635145664215088,
   2.435915470123291,
   2.4151120185852051,
   2.3910601139068604,
   2.3689289093017578,
   2.3562533855438232,
   2.3321232795715332,
   2.1958036422729492,
   2.0917932987213135,
   2.0044388771057129,
   1.9346225261688232,
   1.8649787902832031,
   1.8082348108291626,
   1.7535024881362915,
   1.7070062160491943,
   1.6601632833480835,
   1.3712368011474609,
   1.2332634925842285,
   1.1514948606491089,
   1.1064627170562744,
   1.0746520757675171,
   1.0504617691040039,
   1.0584076642990112,
   1.0368306636810303,
   1.0336483716964722,
   1.006183385848999,
   0.99960774183273315,
   1.0054967403411865,
   1.0116269588470459,
   0.99936038255691528,
   0.99574965238571167,
   1.0086749792098999,
   1.00640869140625,
   1.0286967754364014,
   0.99943703413009644,
   1.0112028121948242,
   0.99224412441253662,
   0.97621965408325195,
   0.98949682712554932,
   0.97193145751953125,
   0.91776466369628906,
   0.9988023042678833,
   0.89631175994873047
]
