[
   1.5491745471954346,
   1.5486671924591064,
   1.5472474098205566,
   1.5467896461486816,
   1.5468519926071167,
   1.5475951433181763,
   1.5474603176116943,
   1.5457851886749268,
   1.5475523471832275,
   1.5477250814437866,
   1.547016978263855,
   1.5462777614593506,
   1.5442025661468506,
   1.5424972772598267,
   1.5416505336761475,
   1.5413501262664795,
   1.5406525135040283,
   1.5383052825927734,
   1.5390400886535645,
   1.530084490776062,
   1.5233967304229736,
   1.5174758434295654,
   1.5088990926742554,
   1.5028126239776611,
   1.4974610805511475,
   1.4904897212982178,
   1.4854719638824463,
   1.4805271625518799,
   1.4391316175460815,
   1.4074118137359619,
   1.3815644979476929,
   1.3602327108383179,
   1.3409806489944458,
   1.3214226961135864,
   1.3074004650115967,
   1.2937309741973877,
   1.2801116704940796,
   1.1875723600387573,
   1.1353920698165894,
   1.099744439125061,
   1.0756418704986572,
   1.0605061054229736,
   1.0498533248901367,
   1.0408531427383423,
   1.0339258909225464,
   1.0310084819793701,
   1.0055915117263794,
   1.0011297464370728,
   0.99660414457321167,
   0.99804621934890747,
   0.99546700716018677,
   0.99603062868118286,
   0.99046659469604492,
   0.99620819091796875,
   0.9999430775642395,
   1.0026540756225586,
   1.0018832683563232,
   0.99619138240814209,
   0.99541676044464111,
   0.9999968409538269,
   0.9912484884262085,
   0.99993801116943359,
   0.96152675151824951,
   0.93503189086914062
]
