[
   1.9061746597290039,
   1.9082057476043701,
   1.9079456329345703,
   1.9058935642242432,
   1.9069875478744507,
   1.9059499502182007,
   1.9041379690170288,
   1.904776930809021,
   1.908557653427124,
   1.9044454097747803,
   1.9024250507354736,
   1.9027585983276367,
   1.8974430561065674,
   1.8985188007354736,
   1.8941236734390259,
   1.8937346935272217,
   1.8917303085327148,
   1.8887984752655029,
   1.8849222660064697,
   1.8679773807525635,
   1.8540828227996826,
   1.8413078784942627,
   1.8262010812759399,
   1.8148050308227539,
   1.8024694919586182,
   1.7942476272583008,
   1.7827234268188477,
   1.7729671001434326,
   1.7008270025253296,
   1.6489903926849365,
   1.6037849187850952,
   1.5668103694915771,
   1.5323868989944458,
   1.4985593557357788,
   1.4718403816223145,
   1.44652259349823,
   1.4236907958984375,
   1.2663127183914185,
   1.1833906173706055,
   1.1343948841094971,
   1.1041781902313232,
   1.0786616802215576,
   1.0559418201446533,
   1.0458605289459229,
   1.0324186086654663,
   1.0164128541946411,
   1.0015323162078857,
   1.0007985830307007,
   1.0095462799072266,
   1.0081297159194946,
   0.99850493669509888,
   0.9943358302116394,
   1.0068118572235107,
   0.99447965621948242,
   1.0132162570953369,
   0.98967152833938599,
   0.97990238666534424,
   0.99835330247879028,
   0.98469769954681396,
   1.0151036977767944,
   1.0028698444366455,
   0.98450231552124023,
   1.0128389596939087,
   1.0019736289978027
]
