[
   15.855497360229492,
   15.928187370300293,
   15.823480606079102,
   15.75799560546875,
   15.759237289428711,
   15.697853088378906,
   15.647273063659668,
   15.762205123901367,
   15.745158195495605,
   15.720426559448242,
   15.581332206726074,
   15.452260971069336,
   15.236440658569336,
   15.199165344238281,
   15.023775100708008,
   14.960551261901855,
   14.891354560852051,
   14.68394947052002,
   14.528860092163086,
   13.721758842468262,
   12.770364761352539,
   12.085653305053711,
   11.505702018737793,
   10.95713996887207,
   10.445742607116699,
   9.9765052795410156,
   9.5348329544067383,
   9.0995597839355469,
   6.612276554107666,
   5.2049641609191895,
   4.3115401268005371,
   3.7066192626953125,
   3.3047070503234863,
   2.9384605884552002,
   2.7038631439208984,
   2.5632693767547607,
   2.3187181949615479,
   1.5759416818618774,
   1.2892018556594849,
   1.3627550601959229,
   1.1766922473907471,
   1.1839737892150879,
   1.1112620830535889,
   1.0148755311965942,
   1.1177860498428345,
   1.0184447765350342,
   0.96024799346923828,
   1.0158630609512329,
   0.96709233522415161,
   1.0106751918792725,
   0.97675549983978271,
   1.0167680978775024,
   0.98957556486129761,
   1.0689876079559326,
   0.87532508373260498,
   0.94008529186248779,
   0.97588908672332764,
   0.96918857097625732,
   0.98416024446487427,
   0.99404478073120117,
   0.97723543643951416,
   1.155228853225708,
   1.0652681589126587,
   1.0855467319488525
]
