[
   9.1917600631713867,
   9.215205192565918,
   9.1908206939697266,
   9.1981420516967773,
   9.1708717346191406,
   9.1878890991210938,
   9.1804180145263672,
   9.2042598724365234,
   9.1446552276611328,
   9.1517276763916016,
   9.1088008880615234,
   9.0500221252441406,
   8.9756832122802734,
   8.9574260711669922,
   8.8723745346069336,
   8.8649692535400391,
   8.7852993011474609,
   8.7256574630737305,
   8.7033510208129883,
   8.3175067901611328,
   7.9926238059997559,
   7.7291440963745117,
   7.470916748046875,
   7.1953902244567871,
   7.0088019371032715,
   6.7927274703979492,
   6.6093416213989258,
   6.4052138328552246,
   5.0540609359741211,
   4.240786075592041,
   3.6405949592590332,
   3.2401041984558105,
   2.9565079212188721,
   2.6950020790100098,
   2.5179944038391113,
   2.3823685646057129,
   2.2698910236358643,
   1.5696767568588257,
   1.3302885293960571,
   1.1857447624206543,
   1.1910998821258545,
   1.1191995143890381,
   1.0869505405426025,
   1.0617541074752808,
   1.0732240676879883,
   1.0397347211837769,
   1.0147587060928345,
   0.96078348159790039,
   0.99429893493652344,
   1.0110944509506226,
   1.0900219678878784,
   1.0046917200088501,
   1.0339486598968506,
   1.013797402381897,
   0.95666992664337158,
   0.97455978393554688,
   0.97446691989898682,
   0.93552416563034058,
   0.94636994600296021,
   0.96148747205734253,
   1.0346496105194092,
   0.9637826681137085,
   1.0438776016235352,
   0.82940542697906494
]
