[
   1.6433124542236328,
   1.6420221328735352,
   1.6439316272735596,
   1.6428893804550171,
   1.6436859369277954,
   1.6427075862884521,
   1.6435277462005615,
   1.6431461572647095,
   1.6427246332168579,
   1.6422700881958008,
   1.6416432857513428,
   1.6407819986343384,
   1.6394132375717163,
   1.6387811899185181,
   1.6386398077011108,
   1.6376844644546509,
   1.6361055374145508,
   1.6369224786758423,
   1.6336162090301514,
   1.624964714050293,
   1.6169227361679077,
   1.609466552734375,
   1.6027758121490479,
   1.5958009958267212,
   1.5897586345672607,
   1.5843513011932373,
   1.5789223909378052,
   1.5738414525985718,
   1.5267981290817261,
   1.4905641078948975,
   1.4601796865463257,
   1.4334739446640015,
   1.4102021455764771,
   1.389793872833252,
   1.3697052001953125,
   1.3510172367095947,
   1.3364800214767456,
   1.2278516292572021,
   1.1640952825546265,
   1.1278421878814697,
   1.0993193387985229,
   1.0824062824249268,
   1.0676848888397217,
   1.0590933561325073,
   1.0489174127578735,
   1.0433957576751709,
   1.0021181106567383,
   1.006618857383728,
   0.99396359920501709,
   0.98923695087432861,
   0.99390184879302979,
   0.98623883724212646,
   0.99128568172454834,
   0.98799276351928711,
   0.97779381275177002,
   1.0004918575286865,
   0.9925495982170105,
   1.0012516975402832,
   0.98693722486495972,
   1.0063647031784058,
   0.990958571434021,
   0.99920767545700073,
   0.97925722599029541,
   1.1301034688949585
]
