[
   2.4108223915100098,
   2.4097535610198975,
   2.4087624549865723,
   2.4117858409881592,
   2.4096827507019043,
   2.4075121879577637,
   2.4107718467712402,
   2.4119398593902588,
   2.408785343170166,
   2.4054532051086426,
   2.4035239219665527,
   2.4049723148345947,
   2.396841287612915,
   2.3956055641174316,
   2.3932442665100098,
   2.3890557289123535,
   2.391815185546875,
   2.3854167461395264,
   2.3793487548828125,
   2.3488280773162842,
   2.3261148929595947,
   2.3079805374145508,
   2.2880396842956543,
   2.2712745666503906,
   2.2473127841949463,
   2.2340340614318848,
   2.2186417579650879,
   2.2026665210723877,
   2.0754013061523438,
   1.9784694910049438,
   1.8988873958587646,
   1.8214238882064819,
   1.7630640268325806,
   1.7131105661392212,
   1.6638408899307251,
   1.623334527015686,
   1.5827414989471436,
   1.3419145345687866,
   1.2388708591461182,
   1.1763546466827393,
   1.1209585666656494,
   1.0979750156402588,
   1.0827395915985107,
   1.0651495456695557,
   1.0476548671722412,
   1.036042332649231,
   0.99475622177124023,
   0.97789192199707031,
   1.0096626281738281,
   0.99135369062423706,
   0.99051302671432495,
   0.98433476686477661,
   1.0082461833953857,
   1.0006675720214844,
   0.97822362184524536,
   1.0136696100234985,
   0.99530494213104248,
   1.0212333202362061,
   1.0118231773376465,
   0.98726379871368408,
   0.98060101270675659,
   0.96699106693267822,
   0.94386541843414307,
   0.95468348264694214
]
