[
   1.57106614112854,
   1.5718251466751099,
   1.573129415512085,
   1.5723257064819336,
   1.5723907947540283,
   1.572268009185791,
   1.5722240209579468,
   1.5724949836730957,
   1.5711462497711182,
   1.5720734596252441,
   1.5694868564605713,
   1.5705776214599609,
   1.5683519840240479,
   1.568992018699646,
   1.5674042701721191,
   1.5675761699676514,
   1.5653598308563232,
   1.5674284696578979,
   1.5651466846466064,
   1.5582624673843384,
   1.5517241954803467,
   1.5448002815246582,
   1.5415791273117065,
   1.5346921682357788,
   1.5293344259262085,
   1.5230578184127808,
   1.5191527605056763,
   1.5149028301239014,
   1.475782036781311,
   1.4452657699584961,
   1.4174201488494873,
   1.3957755565643311,
   1.3748314380645752,
   1.3558573722839355,
   1.3398678302764893,
   1.3253800868988037,
   1.3113596439361572,
   1.2129685878753662,
   1.1540272235870361,
   1.1132915019989014,
   1.088654637336731,
   1.0702739953994751,
   1.058324933052063,
   1.0504759550094604,
   1.0413985252380371,
   1.038895845413208,
   0.99481201171875,
   1.0083293914794922,
   0.99948519468307495,
   0.99757593870162964,
   1.0006518363952637,
   0.99843943119049072,
   0.99889957904815674,
   0.98506844043731689,
   1.0099358558654785,
   1.0013844966888428,
   1.0101460218429565,
   1.0060873031616211,
   0.98269450664520264,
   1.0133899450302124,
   0.99828928709030151,
   0.96662700176239014,
   0.98012256622314453,
   0.96280324459075928
]
