[
   2.1607823371887207,
   2.1613838672637939,
   2.158867359161377,
   2.1588578224182129,
   2.1645102500915527,
   2.1581132411956787,
   2.1593441963195801,
   2.1621499061584473,
   2.1599278450012207,
   2.158726692199707,
   2.1565251350402832,
   2.1535217761993408,
   2.1514637470245361,
   2.1481022834777832,
   2.1462218761444092,
   2.1442484855651855,
   2.1444673538208008,
   2.1407859325408936,
   2.139045238494873,
   2.1150431632995605,
   2.0969991683959961,
   2.0801019668579102,
   2.0646092891693115,
   2.0519552230834961,
   2.0373749732971191,
   2.0209009647369385,
   2.0087130069732666,
   1.9966919422149658,
   1.8995187282562256,
   1.8259639739990234,
   1.7615123987197876,
   1.7069997787475586,
   1.6584739685058594,
   1.6148086786270142,
   1.5767216682434082,
   1.5388261079788208,
   1.5111749172210693,
   1.3085013628005981,
   1.2048733234405518,
   1.1501132249832153,
   1.1120955944061279,
   1.0827436447143555,
   1.0667566061019897,
   1.0492430925369263,
   1.0411221981048584,
   1.0276764631271362,
   1.0070850849151611,
   0.99726998805999756,
   0.98734617233276367,
   0.98039180040359497,
   0.98652678728103638,
   0.98383700847625732,
   0.99027746915817261,
   1.0088770389556885,
   0.98257321119308472,
   0.9915960431098938,
   0.98534214496612549,
   0.98023700714111328,
   0.97279679775238037,
   0.99121397733688354,
   0.99626427888870239,
   1.0015155076980591,
   0.98587894439697266,
   0.97225391864776611
]
