[
   8.3602361679077148,
   8.3432903289794922,
   8.347442626953125,
   8.3382081985473633,
   8.3389444351196289,
   8.2980070114135742,
   8.3306570053100586,
   8.2971744537353516,
   8.2912654876708984,
   8.2794342041015625,
   8.22998046875,
   8.1876659393310547,
   8.1081333160400391,
   8.0633001327514648,
   8.0268125534057617,
   7.9775400161743164,
   7.9482259750366211,
   7.879457950592041,
   7.8240256309509277,
   7.4477949142456055,
   7.079646110534668,
   6.8053512573242188,
   6.4970560073852539,
   6.2603673934936523,
   6.054295539855957,
   5.8350896835327148,
   5.6866159439086914,
   5.4856243133544922,
   4.2484712600708008,
   3.5688908100128174,
   3.0937972068786621,
   2.755889892578125,
   2.5347249507904053,
   2.331662654876709,
   2.1786839962005615,
   2.0639567375183105,
   1.9509979486465454,
   1.4236156940460205,
   1.3000800609588623,
   1.2407374382019043,
   1.2410166263580322,
   1.174142599105835,
   1.0703151226043701,
   1.0658473968505859,
   1.1028040647506714,
   1.063809871673584,
   0.98868495225906372,
   1.0169527530670166,
   0.9862746000289917,
   0.93019306659698486,
   1.0139783620834351,
   1.0065468549728394,
   0.97718989849090576,
   0.97743701934814453,
   0.99924057722091675,
   0.94587773084640503,
   1.0226410627365112,
   1.0053496360778809,
   0.93938744068145752,
   0.96977472305297852,
   0.9976690411567688,
   0.9218260645866394,
   0.82558697462081909,
   0.78955328464508057
]
