[
   4.7006149291992188,
   4.6996712684631348,
   4.6960239410400391,
   4.6944060325622559,
   4.6984724998474121,
   4.6918115615844727,
   4.6921825408935547,
   4.6808743476867676,
   4.6970281600952148,
   4.6890373229980469,
   4.6619882583618164,
   4.6609935760498047,
   4.6240568161010742,
   4.6161131858825684,
   4.6140146255493164,
   4.5941801071166992,
   4.5677366256713867,
   4.5633211135864258,
   4.5519018173217773,
   4.4228315353393555,
   4.2863502502441406,
   4.1909055709838867,
   4.0972037315368652,
   4.0185670852661133,
   3.9374134540557861,
   3.8533968925476074,
   3.7907836437225342,
   3.7138354778289795,
   3.2005195617675781,
   2.8436839580535889,
   2.5881237983703613,
   2.3823723793029785,
   2.2281348705291748,
   2.0926539897918701,
   1.9888875484466553,
   1.916983962059021,
   1.8342701196670532,
   1.4214694499969482,
   1.3035690784454346,
   1.209583044052124,
   1.1521514654159546,
   1.1136848926544189,
   1.0942567586898804,
   1.0727487802505493,
   1.0610514879226685,
   1.0424821376800537,
   1.0037039518356323,
   1.0073741674423218,
   0.97551536560058594,
   0.98228681087493896,
   0.99578988552093506,
   0.985828697681427,
   0.98637235164642334,
   0.96882534027099609,
   1.0055361986160278,
   0.99832284450531006,
   1.0384948253631592,
   0.97042959928512573,
   0.97463685274124146,
   0.97852629423141479,
   1.0073912143707275,
   1.0421515703201294,
   1.0316653251647949,
   1.0728093385696411
]
