[
   2.3413426876068115,
   2.3427226543426514,
   2.3398725986480713,
   2.3393867015838623,
   2.3395421504974365,
   2.3394293785095215,
   2.3363916873931885,
   2.3374512195587158,
   2.3362593650817871,
   2.335458517074585,
   2.332918643951416,
   2.3292241096496582,
   2.3294234275817871,
   2.3240213394165039,
   2.322368860244751,
   2.3199725151062012,
   2.3158280849456787,
   2.3125922679901123,
   2.3103888034820557,
   2.2844035625457764,
   2.2557563781738281,
   2.2349419593811035,
   2.2129740715026855,
   2.1909160614013672,
   2.1759688854217529,
   2.1564860343933105,
   2.1398694515228271,
   2.1199827194213867,
   1.9893537759780884,
   1.8886301517486572,
   1.8086074590682983,
   1.7415927648544312,
   1.6818220615386963,
   1.6348247528076172,
   1.5937405824661255,
   1.5538928508758545,
   1.5214852094650269,
   1.3134362697601318,
   1.215201735496521,
   1.1639106273651123,
   1.1240688562393188,
   1.0933099985122681,
   1.068517804145813,
   1.0558984279632568,
   1.0556777715682983,
   1.0470008850097656,
   1.018946647644043,
   1.0022027492523193,
   0.98483121395111084,
   0.98405760526657104,
   0.9984966516494751,
   0.99494028091430664,
   0.98402470350265503,
   0.99520272016525269,
   0.99463444948196411,
   1.0003323554992676,
   1.0007762908935547,
   0.98773252964019775,
   0.9993550181388855,
   0.99565857648849487,
   0.99631309509277344,
   1.0548914670944214,
   0.94819533824920654,
   1.0428617000579834
]
