[
   49.745079040527344,
   49.612602233886719,
   49.897132873535156,
   49.605842590332031,
   49.310249328613281,
   48.769149780273438,
   48.399036407470703,
   48.324203491210938,
   48.290256500244141,
   48.368408203125,
   46.697124481201172,
   45.366382598876953,
   43.783115386962891,
   42.341335296630859,
   41.376026153564453,
   40.7169189453125,
   39.272865295410156,
   38.256340026855469,
   37.068595886230469,
   30.152935028076172,
   25.451553344726562,
   21.86039924621582,
   19.241905212402344,
   17.43681526184082,
   15.971035957336426,
   14.342280387878418,
   13.386133193969727,
   11.933856964111328,
   7.4064774513244629,
   5.3194494247436523,
   4.212317943572998,
   3.5517544746398926,
   3.0517251491546631,
   2.6510176658630371,
   2.5271944999694824,
   2.251894474029541,
   2.3555574417114258,
   1.6868727207183838,
   1.4242774248123169,
   1.2974361181259155,
   1.1530857086181641,
   1.0344418287277222,
   1.1344908475875854,
   1.0038144588470459,
   1.1611393690109253,
   0.98141062259674072,
   1.0101394653320312,
   0.96580332517623901,
   0.73742467164993286,
   0.95514237880706787,
   0.96580791473388672,
   1.0283935070037842,
   0.98686617612838745,
   0.86059445142745972,
   0.83536684513092041,
   1.0072020292282104,
   1.101348876953125,
   1.0442574024200439,
   1.0970131158828735,
   0.74428212642669678,
   0.9280516505241394,
   0.88940542936325073,
   0.95774829387664795,
   1.0829675197601318
]
