[
   1.4275162220001221,
   1.4279100894927979,
   1.4269698858261108,
   1.4270478487014771,
   1.4274896383285522,
   1.4272499084472656,
   1.4274828433990479,
   1.4262139797210693,
   1.4277479648590088,
   1.4271974563598633,
   1.4266750812530518,
   1.4262492656707764,
   1.4262697696685791,
   1.4246538877487183,
   1.4240574836730957,
   1.4238436222076416,
   1.4237865209579468,
   1.4237632751464844,
   1.4224574565887451,
   1.4178574085235596,
   1.4121042490005493,
   1.4089252948760986,
   1.4050600528717041,
   1.4004286527633667,
   1.397024393081665,
   1.3916542530059814,
   1.3897327184677124,
   1.3843367099761963,
   1.3558434247970581,
   1.3311188220977783,
   1.3116111755371094,
   1.2932175397872925,
   1.2769594192504883,
   1.2618176937103271,
   1.248760461807251,
   1.2367798089981079,
   1.2255749702453613,
   1.147089958190918,
   1.1090942621231079,
   1.0834729671478271,
   1.0646393299102783,
   1.0521358251571655,
   1.0393949747085571,
   1.0353784561157227,
   1.0282435417175293,
   1.025221586227417,
   1.0013606548309326,
   0.99905854463577271,
   0.99765408039093018,
   0.99675834178924561,
   0.99728381633758545,
   0.98629915714263916,
   0.9906889796257019,
   0.99497050046920776,
   0.99934929609298706,
   0.99830830097198486,
   0.98720139265060425,
   0.9822772741317749,
   1.0023691654205322,
   0.99714547395706177,
   1.0260508060455322,
   1.0077637434005737,
   1.015394926071167,
   1.0160973072052002
]
