[
   1.9491125345230103,
   1.9494282007217407,
   1.9467899799346924,
   1.9480739831924438,
   1.9512277841567993,
   1.9469496011734009,
   1.9485591650009155,
   1.9497194290161133,
   1.9462330341339111,
   1.9465672969818115,
   1.9441258907318115,
   1.9430215358734131,
   1.9419014453887939,
   1.9385035037994385,
   1.938953161239624,
   1.9365768432617188,
   1.9329046010971069,
   1.9306108951568604,
   1.9300568103790283,
   1.9137659072875977,
   1.8977550268173218,
   1.8824278116226196,
   1.8654870986938477,
   1.8532816171646118,
   1.8394887447357178,
   1.8281123638153076,
   1.8166717290878296,
   1.8069946765899658,
   1.7140823602676392,
   1.6417165994644165,
   1.5865778923034668,
   1.5386977195739746,
   1.4959652423858643,
   1.459689736366272,
   1.4289072751998901,
   1.4006040096282959,
   1.3756729364395142,
   1.2273669242858887,
   1.1570464372634888,
   1.1163842678070068,
   1.0848968029022217,
   1.0693780183792114,
   1.0567349195480347,
   1.0504086017608643,
   1.0431177616119385,
   1.0322291851043701,
   1.0051990747451782,
   1.0034632682800293,
   0.99236613512039185,
   0.98678672313690186,
   0.98525154590606689,
   0.97014772891998291,
   0.98341399431228638,
   0.99082291126251221,
   0.99099719524383545,
   0.98392742872238159,
   0.98556870222091675,
   0.99443894624710083,
   0.99840289354324341,
   1.0099960565567017,
   0.97591483592987061,
   1.0459210872650146,
   1.0471241474151611,
   1.0884186029434204
]
