[
   1.8186649084091187,
   1.8196632862091064,
   1.8170188665390015,
   1.8172512054443359,
   1.8188877105712891,
   1.8160550594329834,
   1.8165346384048462,
   1.8155486583709717,
   1.8168277740478516,
   1.8170502185821533,
   1.815163254737854,
   1.8143947124481201,
   1.8115924596786499,
   1.810521125793457,
   1.8094274997711182,
   1.808738112449646,
   1.8067445755004883,
   1.8030946254730225,
   1.8038231134414673,
   1.7894092798233032,
   1.7774593830108643,
   1.7654775381088257,
   1.7554771900177002,
   1.7427142858505249,
   1.7315661907196045,
   1.7241967916488647,
   1.7136805057525635,
   1.7045419216156006,
   1.6292092800140381,
   1.5711584091186523,
   1.5203214883804321,
   1.480013370513916,
   1.4471851587295532,
   1.4152865409851074,
   1.3882455825805664,
   1.3640435934066772,
   1.3416868448257446,
   1.2080103158950806,
   1.1387894153594971,
   1.1017848253250122,
   1.0803685188293457,
   1.0669822692871094,
   1.0557821989059448,
   1.0456771850585938,
   1.0374164581298828,
   1.0329434871673584,
   1.0099267959594727,
   0.99301928281784058,
   0.99018687009811401,
   0.98826360702514648,
   0.99802619218826294,
   0.99740183353424072,
   0.98527145385742188,
   0.98815041780471802,
   0.98549318313598633,
   0.97997081279754639,
   0.96851140260696411,
   1.0032157897949219,
   1.0080010890960693,
   1.000532865524292,
   1.0064146518707275,
   1.036103367805481,
   1.0320169925689697,
   1.0507562160491943
]
