[
   1.6327444314956665,
   1.6313240528106689,
   1.6314017772674561,
   1.6315133571624756,
   1.6322324275970459,
   1.6322339773178101,
   1.6323229074478149,
   1.6325575113296509,
   1.6321380138397217,
   1.6309713125228882,
   1.6305663585662842,
   1.6303062438964844,
   1.6299588680267334,
   1.6269340515136719,
   1.6266657114028931,
   1.6261612176895142,
   1.6255124807357788,
   1.6241605281829834,
   1.6221786737442017,
   1.6139438152313232,
   1.6057231426239014,
   1.5968930721282959,
   1.5881452560424805,
   1.5820682048797607,
   1.5755574703216553,
   1.567415714263916,
   1.5627065896987915,
   1.5550727844238281,
   1.5015252828598022,
   1.4604098796844482,
   1.423988938331604,
   1.3956910371780396,
   1.3705108165740967,
   1.3508203029632568,
   1.3285683393478394,
   1.3120372295379639,
   1.2948805093765259,
   1.1923121213912964,
   1.1389751434326172,
   1.1058390140533447,
   1.0842611789703369,
   1.0693894624710083,
   1.0489405393600464,
   1.0402954816818237,
   1.0315958261489868,
   1.0277343988418579,
   1.0114133358001709,
   1.0010616779327393,
   0.9963918924331665,
   0.99893873929977417,
   1.0044370889663696,
   1.0036789178848267,
   0.99741697311401367,
   0.99652004241943359,
   0.99554002285003662,
   1.0033520460128784,
   0.99897116422653198,
   1.0025333166122437,
   0.98698770999908447,
   1.0108860731124878,
   0.99974632263183594,
   0.97891122102737427,
   0.95889377593994141,
   1.0081169605255127
]
