[
   1.7157001495361328,
   1.714033842086792,
   1.7142603397369385,
   1.7143951654434204,
   1.7148427963256836,
   1.7148755788803101,
   1.7150970697402954,
   1.7150356769561768,
   1.7142044305801392,
   1.7122617959976196,
   1.712519645690918,
   1.7121855020523071,
   1.7119667530059814,
   1.708301305770874,
   1.7079111337661743,
   1.7075077295303345,
   1.7070395946502686,
   1.7047907114028931,
   1.7025268077850342,
   1.6923496723175049,
   1.6829220056533813,
   1.671802282333374,
   1.6618293523788452,
   1.6543996334075928,
   1.6456851959228516,
   1.6361345052719116,
   1.6305978298187256,
   1.622175931930542,
   1.5582132339477539,
   1.5104265213012695,
   1.4684429168701172,
   1.4358295202255249,
   1.405991792678833,
   1.3828632831573486,
   1.3574720621109009,
   1.339059591293335,
   1.3192379474639893,
   1.2042288780212402,
   1.1470420360565186,
   1.111237645149231,
   1.0893936157226562,
   1.072310209274292,
   1.051313042640686,
   1.0423414707183838,
   1.033001184463501,
   1.0282222032546997,
   1.0126181840896606,
   1.001378059387207,
   0.99630564451217651,
   0.99826782941818237,
   1.006019115447998,
   1.0045479536056519,
   0.99811506271362305,
   0.99671489000320435,
   0.99587661027908325,
   1.0036852359771729,
   0.99868953227996826,
   1.0034706592559814,
   0.98553752899169922,
   1.0114974975585938,
   1.0009965896606445,
   0.97746026515960693,
   0.95727366209030151,
   1.0070688724517822
]
