[
   9.0065326690673828,
   9.0111541748046875,
   8.9969148635864258,
   8.9979944229125977,
   9.0228290557861328,
   8.9607677459716797,
   8.9725799560546875,
   8.9629955291748047,
   8.9336967468261719,
   8.9642438888549805,
   8.8546905517578125,
   8.8386907577514648,
   8.7274065017700195,
   8.6773548126220703,
   8.6799755096435547,
   8.5465583801269531,
   8.5150957107543945,
   8.448887825012207,
   8.3765373229980469,
   7.9257674217224121,
   7.4661879539489746,
   7.1345381736755371,
   6.8168821334838867,
   6.5563483238220215,
   6.2641096115112305,
   6.0418806076049805,
   5.8117361068725586,
   5.6463689804077148,
   4.2356100082397461,
   3.5077896118164062,
   3.034876823425293,
   2.6826233863830566,
   2.4220218658447266,
   2.2290740013122559,
   2.0346345901489258,
   1.932969331741333,
   1.8433597087860107,
   1.4301469326019287,
   1.2247990369796753,
   1.1630314588546753,
   1.1550540924072266,
   1.1370631456375122,
   1.1196448802947998,
   1.071952223777771,
   1.0138348340988159,
   1.0046718120574951,
   1.0461428165435791,
   1.0179728269577026,
   0.98840427398681641,
   1.0150696039199829,
   0.95283347368240356,
   1.0115134716033936,
   0.99194717407226562,
   0.96552944183349609,
   1.013633131980896,
   1.0591719150543213,
   0.98295533657073975,
   0.96447575092315674,
   1.0113109350204468,
   0.99130141735076904,
   1.0426648855209351,
   0.99275302886962891,
   1.0206973552703857,
   1.0824015140533447
]
