[
   1.8326250314712524,
   1.8307390213012695,
   1.8323507308959961,
   1.8289797306060791,
   1.8319118022918701,
   1.8320633172988892,
   1.829429030418396,
   1.8308298587799072,
   1.8293975591659546,
   1.8294613361358643,
   1.8271284103393555,
   1.8264687061309814,
   1.8229001760482788,
   1.8215707540512085,
   1.8201858997344971,
   1.8178384304046631,
   1.8157472610473633,
   1.8158231973648071,
   1.8115886449813843,
   1.7969820499420166,
   1.780980110168457,
   1.7631973028182983,
   1.7498271465301514,
   1.7356588840484619,
   1.7267652750015259,
   1.7129980325698853,
   1.7035200595855713,
   1.6930423974990845,
   1.6108951568603516,
   1.5532010793685913,
   1.5031442642211914,
   1.4633777141571045,
   1.4289369583129883,
   1.396345853805542,
   1.3681946992874146,
   1.3446533679962158,
   1.3223221302032471,
   1.1851979494094849,
   1.1203858852386475,
   1.0873203277587891,
   1.064092755317688,
   1.0431482791900635,
   1.0321404933929443,
   1.0308551788330078,
   1.0302808284759521,
   1.0228118896484375,
   1.0100799798965454,
   0.9876130223274231,
   0.99134606122970581,
   0.99586260318756104,
   1.0037543773651123,
   1.0050932168960571,
   0.99684381484985352,
   0.99603158235549927,
   0.98707103729248047,
   0.98700320720672607,
   0.9873473048210144,
   0.97555458545684814,
   0.98117005825042725,
   1.0098084211349487,
   1.0299564599990845,
   1.033655047416687,
   1.0206923484802246,
   1.0221714973449707
]
