[
   1.5779628753662109,
   1.5770741701126099,
   1.5772325992584229,
   1.5771663188934326,
   1.5780880451202393,
   1.5782206058502197,
   1.5778739452362061,
   1.5768251419067383,
   1.5780270099639893,
   1.5781862735748291,
   1.5763639211654663,
   1.575297474861145,
   1.574292778968811,
   1.5727391242980957,
   1.5714880228042603,
   1.5702381134033203,
   1.5697044134140015,
   1.5683929920196533,
   1.567015528678894,
   1.5585496425628662,
   1.5487251281738281,
   1.5392720699310303,
   1.5296400785446167,
   1.5236001014709473,
   1.5159287452697754,
   1.5068974494934082,
   1.5020018815994263,
   1.49497389793396,
   1.4434283971786499,
   1.405085563659668,
   1.3731925487518311,
   1.3464233875274658,
   1.3243191242218018,
   1.3035135269165039,
   1.2866674661636353,
   1.2718684673309326,
   1.2555751800537109,
   1.1555352210998535,
   1.1057921648025513,
   1.0794223546981812,
   1.0614866018295288,
   1.0430381298065186,
   1.0294218063354492,
   1.0213024616241455,
   1.0149767398834229,
   1.0179364681243896,
   1.0006844997406006,
   0.99557095766067505,
   0.99467241764068604,
   0.99619024991989136,
   0.99201792478561401,
   0.99373912811279297,
   0.99790889024734497,
   0.99520385265350342,
   0.99323338270187378,
   0.99716556072235107,
   0.99950933456420898,
   1.0012847185134888,
   1.0080186128616333,
   1.0000269412994385,
   0.9952886700630188,
   0.96556329727172852,
   0.9956059455871582,
   0.98236954212188721
]
