[
   21.014446258544922,
   20.845499038696289,
   20.762203216552734,
   20.584987640380859,
   20.637212753295898,
   20.786161422729492,
   20.573837280273438,
   20.701828002929688,
   20.603372573852539,
   20.600551605224609,
   20.271566390991211,
   20.025968551635742,
   19.720691680908203,
   19.483205795288086,
   19.306222915649414,
   19.214744567871094,
   18.908636093139648,
   18.877334594726562,
   18.621124267578125,
   17.250181198120117,
   15.85126781463623,
   14.90833568572998,
   14.027877807617188,
   13.237009048461914,
   12.668475151062012,
   11.935422897338867,
   11.34794807434082,
   10.935944557189941,
   7.3642287254333496,
   5.60931396484375,
   4.633509635925293,
   3.9825565814971924,
   3.4474587440490723,
   3.0734846591949463,
   2.8161618709564209,
   2.5585291385650635,
   2.4446873664855957,
   1.5001260042190552,
   1.2459681034088135,
   1.181743860244751,
   1.1389312744140625,
   1.0864396095275879,
   1.0963225364685059,
   0.98976051807403564,
   1.0318993330001831,
   0.99299395084381104,
   0.96779584884643555,
   1.0462844371795654,
   0.92581713199615479,
   1.0015636682510376,
   1.0276550054550171,
   1.0386617183685303,
   0.998862624168396,
   0.90620005130767822,
   0.99678546190261841,
   1.0260617733001709,
   0.96323901414871216,
   1.0588018894195557,
   1.0680760145187378,
   0.99455392360687256,
   1.0439790487289429,
   1.0080338716506958,
   1.0269742012023926,
   0.81433713436126709
]
