[
   6.2287940979003906,
   6.2040648460388184,
   6.2262821197509766,
   6.1792173385620117,
   6.2226195335388184,
   6.1956853866577148,
   6.1940102577209473,
   6.2013769149780273,
   6.2086582183837891,
   6.181513786315918,
   6.1504573822021484,
   6.0988712310791016,
   6.0890145301818848,
   6.0645003318786621,
   6.0323686599731445,
   5.9978833198547363,
   5.9666299819946289,
   5.9269862174987793,
   5.9112100601196289,
   5.6859426498413086,
   5.4895401000976562,
   5.3418512344360352,
   5.1603407859802246,
   5.0520148277282715,
   4.9320898056030273,
   4.8135700225830078,
   4.7169675827026367,
   4.6311078071594238,
   3.8806540966033936,
   3.3554949760437012,
   2.9537882804870605,
   2.690807580947876,
   2.4892878532409668,
   2.31742262840271,
   2.1726090908050537,
   2.0490477085113525,
   1.9484466314315796,
   1.4173471927642822,
   1.2125319242477417,
   1.1374390125274658,
   1.1118732690811157,
   1.0688512325286865,
   1.0823462009429932,
   1.0454614162445068,
   1.0438430309295654,
   1.043997049331665,
   0.98047637939453125,
   0.9702373743057251,
   0.93761730194091797,
   1.0502862930297852,
   0.98021680116653442,
   0.99745827913284302,
   0.96632826328277588,
   0.97434729337692261,
   0.985298752784729,
   0.99629533290863037,
   0.98301422595977783,
   0.98181736469268799,
   0.94182336330413818,
   1.0540804862976074,
   1.0159745216369629,
   1.0781174898147583,
   1.0865795612335205,
   1.243289589881897
]
