[
   1.9894914627075195,
   1.9851417541503906,
   1.9875619411468506,
   1.9835230112075806,
   1.9846683740615845,
   1.9841665029525757,
   1.9842319488525391,
   1.985173225402832,
   1.98567795753479,
   1.9849555492401123,
   1.9789559841156006,
   1.9798612594604492,
   1.9765840768814087,
   1.9766731262207031,
   1.9736392498016357,
   1.9694845676422119,
   1.9657411575317383,
   1.9629166126251221,
   1.9647315740585327,
   1.9396330118179321,
   1.9211994409561157,
   1.9013630151748657,
   1.8834987878799438,
   1.8679311275482178,
   1.849348783493042,
   1.8386303186416626,
   1.8243207931518555,
   1.8113914728164673,
   1.7138664722442627,
   1.6432163715362549,
   1.5901858806610107,
   1.5389914512634277,
   1.4967682361602783,
   1.4594783782958984,
   1.4275884628295898,
   1.4003000259399414,
   1.3768733739852905,
   1.2182934284210205,
   1.1436593532562256,
   1.1005327701568604,
   1.0731252431869507,
   1.0513720512390137,
   1.0371226072311401,
   1.0257722139358521,
   1.0164289474487305,
   1.0039665699005127,
   0.99964332580566406,
   0.99905645847320557,
   1.0012670755386353,
   1.0052577257156372,
   0.99287378787994385,
   0.99669724702835083,
   0.99801415205001831,
   0.99984246492385864,
   1.0008401870727539,
   0.99661529064178467,
   0.98891991376876831,
   1.0018665790557861,
   1.0133763551712036,
   0.99973499774932861,
   1.0042350292205811,
   1.013784646987915,
   0.99166595935821533,
   0.97244566679000854
]
