[
   140.12814331054688,
   140.5050048828125,
   136.40870666503906,
   140.48820495605469,
   133.37277221679688,
   133.36175537109375,
   131.18736267089844,
   133.30088806152344,
   131.40696716308594,
   131.65284729003906,
   122.29087829589844,
   117.54848480224609,
   111.81319427490234,
   109.56072998046875,
   104.27485656738281,
   100.02119445800781,
   95.8599853515625,
   94.181877136230469,
   89.995040893554688,
   69.306312561035156,
   54.042449951171875,
   43.960670471191406,
   37.991905212402344,
   31.577365875244141,
   28.790592193603516,
   26.467889785766602,
   22.293510437011719,
   21.803289413452148,
   10.171395301818848,
   5.6184520721435547,
   4.6303648948669434,
   4.0921878814697266,
   2.8029482364654541,
   2.6219520568847656,
   2.6461770534515381,
   2.5139286518096924,
   1.8097455501556396,
   1.6069673299789429,
   0.96857136487960815,
   1.156346321105957,
   0.63123214244842529,
   0.95613241195678711,
   0.97091102600097656,
   1.3650186061859131,
   1.0327949523925781,
   1.4399615526199341,
   1.2598508596420288,
   1.2837569713592529,
   0.70421743392944336,
   1.1927896738052368,
   1.1356164216995239,
   1.003278374671936,
   1.40949547290802,
   0.83627355098724365,
   0.85052794218063354,
   0.88951241970062256,
   0.97887963056564331,
   1.2083176374435425,
   0.52708190679550171,
   0.89097774028778076,
   0.77746772766113281,
   2.389815092086792,
   0.2186678946018219,
   0.79173976182937622
]
