[
   2.369286060333252,
   2.3710417747497559,
   2.3721115589141846,
   2.3694419860839844,
   2.3740220069885254,
   2.370307445526123,
   2.3697977066040039,
   2.3663017749786377,
   2.3653006553649902,
   2.3679428100585938,
   2.3591883182525635,
   2.353715181350708,
   2.3459734916687012,
   2.3406744003295898,
   2.3354592323303223,
   2.3278937339782715,
   2.3216648101806641,
   2.3179683685302734,
   2.3140432834625244,
   2.2618179321289062,
   2.2100780010223389,
   2.1701884269714355,
   2.1307995319366455,
   2.0988142490386963,
   2.0627827644348145,
   2.0360136032104492,
   2.0064115524291992,
   1.9845950603485107,
   1.791513204574585,
   1.656009316444397,
   1.5596495866775513,
   1.4833824634552002,
   1.4248813390731812,
   1.3785409927368164,
   1.3445414304733276,
   1.3088953495025635,
   1.2840993404388428,
   1.1444598436355591,
   1.0847867727279663,
   1.0589936971664429,
   1.0405809879302979,
   1.0249001979827881,
   1.0189054012298584,
   1.0106257200241089,
   1.0049350261688232,
   1.012791633605957,
   0.99282658100128174,
   0.9999547004699707,
   0.98205107450485229,
   1.0052225589752197,
   0.9961516261100769,
   1.0127382278442383,
   1.0033049583435059,
   0.9969208836555481,
   1.0033138990402222,
   1.0169221162796021,
   1.0083080530166626,
   1.0036351680755615,
   0.99609267711639404,
   1.0054285526275635,
   0.99235963821411133,
   0.99082404375076294,
   0.96961784362792969,
   0.99916332960128784
]
