[
   1.8317505121231079,
   1.8318456411361694,
   1.8321092128753662,
   1.8325939178466797,
   1.8323476314544678,
   1.8296976089477539,
   1.8308442831039429,
   1.8295652866363525,
   1.8310085535049438,
   1.8289763927459717,
   1.8290058374404907,
   1.8248221874237061,
   1.8229386806488037,
   1.8207695484161377,
   1.8163855075836182,
   1.8118289709091187,
   1.8117234706878662,
   1.8082225322723389,
   1.803203821182251,
   1.779391884803772,
   1.7539288997650146,
   1.7321898937225342,
   1.7129637002944946,
   1.6955277919769287,
   1.6779476404190063,
   1.6619256734848022,
   1.6455528736114502,
   1.6301586627960205,
   1.5177056789398193,
   1.4417297840118408,
   1.3839097023010254,
   1.3394763469696045,
   1.3006064891815186,
   1.2689249515533447,
   1.2464009523391724,
   1.2251045703887939,
   1.2041850090026855,
   1.1043770313262939,
   1.0671652555465698,
   1.0437572002410889,
   1.0270452499389648,
   1.0196166038513184,
   1.0177152156829834,
   1.0108306407928467,
   1.0120679140090942,
   1.0085140466690063,
   0.99868011474609375,
   1.0004549026489258,
   0.99918806552886963,
   0.9955870509147644,
   0.9905058741569519,
   1.0033239126205444,
   1.0004112720489502,
   1.0004885196685791,
   1.0055102109909058,
   0.99579906463623047,
   0.99044609069824219,
   0.98837220668792725,
   0.98539531230926514,
   1.0119396448135376,
   1.007362961769104,
   1.0297139883041382,
   1.0253784656524658,
   0.99346208572387695
]
