[
   3.155292272567749,
   3.1514170169830322,
   3.1564326286315918,
   3.1558606624603271,
   3.1526267528533936,
   3.1461005210876465,
   3.1478161811828613,
   3.1478285789489746,
   3.1494839191436768,
   3.1444993019104004,
   3.137237548828125,
   3.1229453086853027,
   3.1127481460571289,
   3.0959341526031494,
   3.0862092971801758,
   3.0657169818878174,
   3.0684750080108643,
   3.048576831817627,
   3.0394430160522461,
   2.9385273456573486,
   2.8523566722869873,
   2.7741551399230957,
   2.7039551734924316,
   2.648348331451416,
   2.5952482223510742,
   2.5324225425720215,
   2.4907069206237793,
   2.4421935081481934,
   2.121593713760376,
   1.9147994518280029,
   1.7591397762298584,
   1.6497676372528076,
   1.5563408136367798,
   1.4889734983444214,
   1.4316071271896362,
   1.3869893550872803,
   1.341778039932251,
   1.1341503858566284,
   1.0780074596405029,
   1.0579630136489868,
   1.0319435596466064,
   1.0058233737945557,
   1.0162583589553833,
   1.0094349384307861,
   1.0029275417327881,
   1.0181378126144409,
   1.0289711952209473,
   0.99618101119995117,
   0.99012261629104614,
   0.99524992704391479,
   0.99882811307907104,
   0.99601584672927856,
   1.0078738927841187,
   1.0068438053131104,
   1.0149658918380737,
   1.0301973819732666,
   0.99351787567138672,
   0.9872211217880249,
   1.0043493509292603,
   0.99032080173492432,
   0.99930274486541748,
   1.0023856163024902,
   0.98762452602386475,
   0.88707941770553589
]
