[
   5.144172191619873,
   5.1641969680786133,
   5.1412343978881836,
   5.1392326354980469,
   5.1400251388549805,
   5.1366415023803711,
   5.1282649040222168,
   5.1111540794372559,
   5.1282224655151367,
   5.1246113777160645,
   5.0791692733764648,
   5.0586147308349609,
   5.0092287063598633,
   4.9772882461547852,
   4.9465231895446777,
   4.9270391464233398,
   4.8846464157104492,
   4.8610882759094238,
   4.8265199661254883,
   4.5728216171264648,
   4.3544878959655762,
   4.1917600631713867,
   4.0405049324035645,
   3.8989529609680176,
   3.7736537456512451,
   3.6604340076446533,
   3.5611083507537842,
   3.4656417369842529,
   2.8111133575439453,
   2.3946478366851807,
   2.1193785667419434,
   1.9202702045440674,
   1.7855541706085205,
   1.6779100894927979,
   1.5987621545791626,
   1.5339087247848511,
   1.4815664291381836,
   1.1774821281433105,
   1.0954886674880981,
   1.0633763074874878,
   1.0270813703536987,
   1.0282318592071533,
   1.0195338726043701,
   1.0030673742294312,
   1.0111863613128662,
   1.0327246189117432,
   0.95185297727584839,
   0.97538816928863525,
   1.0045197010040283,
   1.0062730312347412,
   0.97488832473754883,
   1.0006940364837646,
   0.96806257963180542,
   0.9818074107170105,
   0.98080843687057495,
   0.97421818971633911,
   0.99813365936279297,
   0.97799289226531982,
   1.009446382522583,
   0.99004924297332764,
   1.0411787033081055,
   1.102219820022583,
   0.99074840545654297,
   1.0824682712554932
]
