[
   2.1367607116699219,
   2.1329431533813477,
   2.1347842216491699,
   2.1341543197631836,
   2.137923002243042,
   2.1314423084259033,
   2.1328103542327881,
   2.1344523429870605,
   2.1313033103942871,
   2.1290926933288574,
   2.1277885437011719,
   2.1206581592559814,
   2.1148178577423096,
   2.11551833152771,
   2.1089181900024414,
   2.1047072410583496,
   2.1015450954437256,
   2.0960993766784668,
   2.0928378105163574,
   2.0554752349853516,
   2.0162875652313232,
   1.9834220409393311,
   1.9548546075820923,
   1.9265658855438232,
   1.8998632431030273,
   1.8785972595214844,
   1.8611774444580078,
   1.8359607458114624,
   1.6776809692382812,
   1.5697791576385498,
   1.4906628131866455,
   1.427557110786438,
   1.3790895938873291,
   1.3420295715332031,
   1.3053587675094604,
   1.2785308361053467,
   1.2516800165176392,
   1.1218123435974121,
   1.0669121742248535,
   1.041404128074646,
   1.0302489995956421,
   1.0131139755249023,
   1.010883092880249,
   0.99333345890045166,
   1.0048555135726929,
   1.0033587217330933,
   1.0054299831390381,
   1.0018579959869385,
   1.0023069381713867,
   0.9878002405166626,
   1.0026880502700806,
   0.98735886812210083,
   1.0081387758255005,
   1.0004459619522095,
   1.0032056570053101,
   0.99603158235549927,
   1.0118867158889771,
   0.9993475079536438,
   1.0020982027053833,
   1.0001289844512939,
   0.98576211929321289,
   0.98527371883392334,
   1.0037102699279785,
   0.96947956085205078
]
