[
   16.577814102172852,
   16.532163619995117,
   16.490802764892578,
   16.500085830688477,
   16.409160614013672,
   16.575407028198242,
   16.541004180908203,
   16.424236297607422,
   16.259273529052734,
   16.356372833251953,
   16.015598297119141,
   15.798822402954102,
   15.572797775268555,
   15.515673637390137,
   15.186276435852051,
   14.979861259460449,
   14.721059799194336,
   14.617251396179199,
   14.399806022644043,
   12.947977066040039,
   12.008945465087891,
   11.036389350891113,
   10.443697929382324,
   9.7102222442626953,
   9.128108024597168,
   8.6263179779052734,
   8.2032260894775391,
   7.7977066040039062,
   5.2881960868835449,
   3.9953937530517578,
   3.2580451965332031,
   2.8088226318359375,
   2.5018332004547119,
   2.1543648242950439,
   1.9474365711212158,
   1.8632657527923584,
   1.8335669040679932,
   1.2872806787490845,
   1.1426447629928589,
   1.1297709941864014,
   1.1179425716400146,
   1.0521314144134521,
   1.0100383758544922,
   1.0417851209640503,
   1.0835398435592651,
   1.0699059963226318,
   1.0235857963562012,
   1.0593795776367188,
   1.0336767435073853,
   1.0503933429718018,
   0.97617036104202271,
   0.93289327621459961,
   1.014410138130188,
   1.014085054397583,
   0.97898310422897339,
   0.97083920240402222,
   1.0850732326507568,
   1.0048272609710693,
   0.94114398956298828,
   1.0034710168838501,
   0.94452172517776489,
   1.1169931888580322,
   0.95283490419387817,
   0.70325791835784912
]
