[
   8.1061124801635742,
   8.1222248077392578,
   8.070246696472168,
   8.0753192901611328,
   8.0643825531005859,
   8.0717391967773438,
   8.0746278762817383,
   8.012516975402832,
   8.0175037384033203,
   8.027796745300293,
   7.9207816123962402,
   7.814298152923584,
   7.772913932800293,
   7.7345414161682129,
   7.6206502914428711,
   7.5872993469238281,
   7.4974365234375,
   7.4657912254333496,
   7.373568058013916,
   6.8668045997619629,
   6.4619903564453125,
   6.1106376647949219,
   5.8429670333862305,
   5.6191492080688477,
   5.3931102752685547,
   5.1344575881958008,
   4.9800090789794922,
   4.8215503692626953,
   3.6562161445617676,
   2.9816527366638184,
   2.5507571697235107,
   2.2734122276306152,
   2.0132598876953125,
   1.8557771444320679,
   1.7273210287094116,
   1.6402747631072998,
   1.5685355663299561,
   1.2328916788101196,
   1.0912454128265381,
   1.0899194478988647,
   1.0500345230102539,
   1.0068744421005249,
   1.0251882076263428,
   0.97141474485397339,
   0.98397523164749146,
   0.98459035158157349,
   0.99718904495239258,
   1.0030953884124756,
   1.0068327188491821,
   0.99262619018554688,
   0.98561382293701172,
   1.00630784034729,
   0.99156635999679565,
   0.96871501207351685,
   1.0254460573196411,
   0.99643325805664062,
   0.99134910106658936,
   1.0315127372741699,
   0.97586619853973389,
   0.96458357572555542,
   0.9710003137588501,
   0.97586327791213989,
   0.93661558628082275,
   1.073922872543335
]
