[
   2.3749985694885254,
   2.3745713233947754,
   2.3722221851348877,
   2.3740887641906738,
   2.371337890625,
   2.3735861778259277,
   2.37103271484375,
   2.3680942058563232,
   2.3722424507141113,
   2.368511438369751,
   2.3643412590026855,
   2.3576245307922363,
   2.3487796783447266,
   2.3387143611907959,
   2.3413450717926025,
   2.3283438682556152,
   2.3250365257263184,
   2.3178958892822266,
   2.3127751350402832,
   2.2584295272827148,
   2.2125999927520752,
   2.174339771270752,
   2.1329746246337891,
   2.1008105278015137,
   2.0702900886535645,
   2.0446598529815674,
   2.0142552852630615,
   1.9923509359359741,
   1.8181779384613037,
   1.6996841430664062,
   1.6163479089736938,
   1.549088716506958,
   1.4926455020904541,
   1.4448617696762085,
   1.4057152271270752,
   1.3695180416107178,
   1.3411259651184082,
   1.16649329662323,
   1.1015177965164185,
   1.0707752704620361,
   1.050095796585083,
   1.0402939319610596,
   1.0266995429992676,
   1.0239642858505249,
   1.0190155506134033,
   1.0107959508895874,
   1.0062891244888306,
   1.0112669467926025,
   0.99828988313674927,
   1.0047118663787842,
   0.99791669845581055,
   1.0006541013717651,
   0.99840962886810303,
   1.004092812538147,
   0.99617373943328857,
   0.98362571001052856,
   1.0004271268844604,
   0.96998709440231323,
   0.98158663511276245,
   1.0208611488342285,
   1.0341664552688599,
   1.0303740501403809,
   0.99606543779373169,
   0.93339681625366211
]
