[
   1.5889240503311157,
   1.5888721942901611,
   1.5882656574249268,
   1.589704155921936,
   1.5875482559204102,
   1.5880247354507446,
   1.5898007154464722,
   1.5882468223571777,
   1.587421178817749,
   1.5883333683013916,
   1.5844230651855469,
   1.5842974185943604,
   1.5825568437576294,
   1.5809375047683716,
   1.5782521963119507,
   1.5784397125244141,
   1.5762488842010498,
   1.5739061832427979,
   1.5716565847396851,
   1.5558192729949951,
   1.5424909591674805,
   1.5289046764373779,
   1.5156624317169189,
   1.5031586885452271,
   1.4933077096939087,
   1.4829435348510742,
   1.4731854200363159,
   1.4653575420379639,
   1.3937908411026001,
   1.3464391231536865,
   1.3088685274124146,
   1.280106782913208,
   1.2559918165206909,
   1.2358207702636719,
   1.2166635990142822,
   1.2013753652572632,
   1.1883962154388428,
   1.1027466058731079,
   1.0621016025543213,
   1.0418016910552979,
   1.0306529998779297,
   1.0198687314987183,
   1.0143680572509766,
   1.0098651647567749,
   1.005540132522583,
   1.0011743307113647,
   0.99569857120513916,
   1.0011788606643677,
   0.99732047319412231,
   0.99534940719604492,
   0.99511706829071045,
   0.99339950084686279,
   0.99716174602508545,
   0.99498194456100464,
   0.9921991229057312,
   1.0059702396392822,
   0.99608433246612549,
   0.99576175212860107,
   1.0024025440216064,
   0.99351060390472412,
   0.98767173290252686,
   0.99439728260040283,
   0.98637360334396362,
   1.0179210901260376
]
