[
   1.6582126617431641,
   1.65751051902771,
   1.6579720973968506,
   1.658940315246582,
   1.6567010879516602,
   1.6577345132827759,
   1.659115195274353,
   1.6574779748916626,
   1.6557197570800781,
   1.6575701236724854,
   1.6525490283966064,
   1.6531393527984619,
   1.6499719619750977,
   1.6488107442855835,
   1.6460006237030029,
   1.6460268497467041,
   1.6426843404769897,
   1.6395012140274048,
   1.6377851963043213,
   1.6192165613174438,
   1.6037187576293945,
   1.587706446647644,
   1.5725395679473877,
   1.55745530128479,
   1.5465887784957886,
   1.5342090129852295,
   1.523221492767334,
   1.5143646001815796,
   1.433374285697937,
   1.3796881437301636,
   1.3394238948822021,
   1.3073036670684814,
   1.2787851095199585,
   1.2578451633453369,
   1.2356710433959961,
   1.2190322875976562,
   1.2044775485992432,
   1.109785795211792,
   1.0659949779510498,
   1.0442726612091064,
   1.0322476625442505,
   1.0210639238357544,
   1.0154170989990234,
   1.0106061697006226,
   1.0065988302230835,
   1.000330924987793,
   0.99609452486038208,
   1.0027931928634644,
   0.99801158905029297,
   0.99533998966217041,
   0.99584990739822388,
   0.99354708194732666,
   0.99731826782226562,
   0.99514311552047729,
   0.99220597743988037,
   1.0068767070770264,
   0.99604547023773193,
   0.99557721614837646,
   1.0019735097885132,
   0.99213254451751709,
   0.9877050518989563,
   0.99316942691802979,
   0.9850229024887085,
   1.0181777477264404
]
