[
   3.0937538146972656,
   3.0847148895263672,
   3.085275411605835,
   3.0844535827636719,
   3.0829904079437256,
   3.0801010131835938,
   3.0749850273132324,
   3.0790514945983887,
   3.082404613494873,
   3.071861743927002,
   3.0640759468078613,
   3.0525791645050049,
   3.0380387306213379,
   3.0203814506530762,
   3.0075666904449463,
   3.0011849403381348,
   2.9834957122802734,
   2.9769110679626465,
   2.9652392864227295,
   2.8654112815856934,
   2.7873184680938721,
   2.7141714096069336,
   2.6481585502624512,
   2.5941507816314697,
   2.5428779125213623,
   2.4962403774261475,
   2.4597079753875732,
   2.4154810905456543,
   2.1395554542541504,
   1.9579681158065796,
   1.8352571725845337,
   1.7286396026611328,
   1.6484161615371704,
   1.5802905559539795,
   1.5279858112335205,
   1.472881555557251,
   1.4301550388336182,
   1.1920957565307617,
   1.1058382987976074,
   1.0747809410095215,
   1.0371780395507812,
   1.0315347909927368,
   1.0221230983734131,
   1.0093284845352173,
   1.0129169225692749,
   1.0038740634918213,
   0.98072594404220581,
   0.99075669050216675,
   0.99849462509155273,
   0.99445199966430664,
   1.0011287927627563,
   1.0060752630233765,
   0.99427968263626099,
   1.0031281709671021,
   0.99636685848236084,
   0.99872416257858276,
   1.0034631490707397,
   1.0029599666595459,
   0.98559367656707764,
   0.97579717636108398,
   0.9987722635269165,
   1.0362037420272827,
   1.0180213451385498,
   0.92903518676757812
]
