[
   5.0259413719177246,
   5.0258808135986328,
   5.0090041160583496,
   5.0043363571166992,
   4.9989352226257324,
   5.0000839233398438,
   4.9969720840454102,
   4.9975614547729492,
   4.9869437217712402,
   4.9792957305908203,
   4.9553308486938477,
   4.915043830871582,
   4.8907628059387207,
   4.8396477699279785,
   4.8303995132446289,
   4.7785754203796387,
   4.76141357421875,
   4.7183132171630859,
   4.7060623168945312,
   4.4385137557983398,
   4.2618341445922852,
   4.106572151184082,
   3.986299991607666,
   3.8616821765899658,
   3.7505183219909668,
   3.666975736618042,
   3.5795731544494629,
   3.5115673542022705,
   2.9365582466125488,
   2.599250316619873,
   2.3436388969421387,
   2.1387467384338379,
   1.9995743036270142,
   1.8787940740585327,
   1.7779772281646729,
   1.6947336196899414,
   1.6271688938140869,
   1.2813210487365723,
   1.1603103876113892,
   1.1051967144012451,
   1.0383635759353638,
   1.0227291584014893,
   1.0279302597045898,
   0.99277162551879883,
   0.98360425233840942,
   0.98363292217254639,
   0.99174624681472778,
   0.98235714435577393,
   1.007704496383667,
   1.0175120830535889,
   1.0028406381607056,
   0.99887990951538086,
   0.97971916198730469,
   0.99895697832107544,
   1.0139327049255371,
   1.0034462213516235,
   0.96682751178741455,
   0.9803767204284668,
   0.95591127872467041,
   1.0232489109039307,
   1.0205751657485962,
   0.99056875705718994,
   0.9700850248336792,
   0.91012495756149292
]
