[
   2.1304631233215332,
   2.1315410137176514,
   2.1295123100280762,
   2.1318323612213135,
   2.1304490566253662,
   2.1287069320678711,
   2.1259500980377197,
   2.1279294490814209,
   2.1267666816711426,
   2.1287200450897217,
   2.1202027797698975,
   2.114769458770752,
   2.1088788509368896,
   2.1042637825012207,
   2.1015927791595459,
   2.0968356132507324,
   2.0928807258605957,
   2.088099479675293,
   2.0865473747253418,
   2.043691873550415,
   2.0053989887237549,
   1.9761711359024048,
   1.9450280666351318,
   1.9162584543228149,
   1.8944265842437744,
   1.8712599277496338,
   1.8494468927383423,
   1.8275034427642822,
   1.6888096332550049,
   1.5978509187698364,
   1.5232585668563843,
   1.4694257974624634,
   1.423900842666626,
   1.3871002197265625,
   1.3525757789611816,
   1.3252550363540649,
   1.2993072271347046,
   1.1462976932525635,
   1.0878039598464966,
   1.0609935522079468,
   1.0442781448364258,
   1.0352121591567993,
   1.0186408758163452,
   1.0166189670562744,
   1.0071707963943481,
   1.0032271146774292,
   1.0043689012527466,
   1.0029593706130981,
   1.0073117017745972,
   1.0042213201522827,
   1.0007941722869873,
   0.99348556995391846,
   1.0023772716522217,
   1.0134783983230591,
   0.99818980693817139,
   1.0032644271850586,
   1.0122264623641968,
   1.0016233921051025,
   1.0103386640548706,
   0.99833250045776367,
   1.0022929906845093,
   0.96839058399200439,
   0.97305095195770264,
   0.93219965696334839
]
