[
   30.457813262939453,
   30.62432861328125,
   30.474262237548828,
   30.463327407836914,
   30.387210845947266,
   30.022998809814453,
   29.930862426757812,
   30.309976577758789,
   29.717166900634766,
   29.665592193603516,
   29.158946990966797,
   28.386972427368164,
   27.993144989013672,
   27.432376861572266,
   26.815830230712891,
   26.214365005493164,
   25.962604522705078,
   25.575223922729492,
   25.066190719604492,
   22.352087020874023,
   20.254690170288086,
   18.604679107666016,
   17.212015151977539,
   16.171638488769531,
   14.988940238952637,
   14.142186164855957,
   13.301910400390625,
   12.654751777648926,
   8.3787860870361328,
   6.1509242057800293,
   4.9000387191772461,
   4.2023696899414062,
   3.652374267578125,
   3.2145066261291504,
   2.728179931640625,
   2.4501879215240479,
   2.2838339805603027,
   1.4305036067962646,
   1.2208224534988403,
   1.2072306871414185,
   1.1960532665252686,
   1.2235791683197021,
   1.0643141269683838,
   1.094143271446228,
   1.0165493488311768,
   1.1056702136993408,
   1.0266119241714478,
   1.0915325880050659,
   1.015233039855957,
   1.0658012628555298,
   1.0022428035736084,
   1.0867912769317627,
   0.90887677669525146,
   0.98880136013031006,
   1.1080292463302612,
   1.0192606449127197,
   0.81961137056350708,
   0.82328355312347412,
   0.97122973203659058,
   0.9677308201789856,
   0.68098682165145874,
   1.0716784000396729,
   0.93198221921920776,
   1.0885469913482666
]
