[
   2.683974027633667,
   2.6860871315002441,
   2.6839172840118408,
   2.6804022789001465,
   2.6786665916442871,
   2.6804308891296387,
   2.6801238059997559,
   2.678412914276123,
   2.675199031829834,
   2.673255443572998,
   2.6662943363189697,
   2.6534276008605957,
   2.6542978286743164,
   2.6406152248382568,
   2.6355948448181152,
   2.6288602352142334,
   2.6172032356262207,
   2.6103472709655762,
   2.6031086444854736,
   2.5309607982635498,
   2.4690613746643066,
   2.4183287620544434,
   2.3679084777832031,
   2.3211252689361572,
   2.281825065612793,
   2.2460551261901855,
   2.2104940414428711,
   2.1858899593353271,
   1.96230149269104,
   1.8191925287246704,
   1.7183759212493896,
   1.6383069753646851,
   1.5708087682723999,
   1.5137144327163696,
   1.4646512269973755,
   1.4195659160614014,
   1.3808424472808838,
   1.1814794540405273,
   1.0989754199981689,
   1.0601563453674316,
   1.0493812561035156,
   1.0366902351379395,
   1.0269663333892822,
   1.0274645090103149,
   1.0160763263702393,
   1.0169851779937744,
   1.0005396604537964,
   1.0091229677200317,
   1.007338285446167,
   0.98771369457244873,
   1.0054934024810791,
   0.98763549327850342,
   1.0241466760635376,
   0.99208831787109375,
   0.9989134669303894,
   0.98964977264404297,
   1.0061285495758057,
   0.97928017377853394,
   0.97229033708572388,
   1.0267128944396973,
   1.0123863220214844,
   0.99125546216964722,
   1.0494414567947388,
   0.99659997224807739
]
