[
   4.3695259094238281,
   4.3732247352600098,
   4.3680510520935059,
   4.3642458915710449,
   4.3525276184082031,
   4.3537073135375977,
   4.3638205528259277,
   4.3627066612243652,
   4.3571887016296387,
   4.3492155075073242,
   4.3328595161437988,
   4.3203873634338379,
   4.3085207939147949,
   4.2964725494384766,
   4.2708139419555664,
   4.2549524307250977,
   4.239924430847168,
   4.2331180572509766,
   4.2114419937133789,
   4.0965309143066406,
   3.9859764575958252,
   3.9139485359191895,
   3.8305137157440186,
   3.7630143165588379,
   3.7095961570739746,
   3.6415946483612061,
   3.5923397541046143,
   3.5435085296630859,
   3.156193733215332,
   2.85540771484375,
   2.6504418849945068,
   2.4515936374664307,
   2.2992997169494629,
   2.1776578426361084,
   2.0587856769561768,
   1.9662278890609741,
   1.8909122943878174,
   1.4355661869049072,
   1.280321478843689,
   1.1600850820541382,
   1.0964958667755127,
   1.063507080078125,
   1.0453442335128784,
   1.0165470838546753,
   0.97893649339675903,
   0.98507755994796753,
   0.99225777387619019,
   0.98389530181884766,
   0.99984824657440186,
   0.99190443754196167,
   1.009442925453186,
   0.97169291973114014,
   1.0081303119659424,
   0.9995802640914917,
   1.0064074993133545,
   0.97483938932418823,
   1.016628623008728,
   0.99593830108642578,
   0.97454488277435303,
   0.96177464723587036,
   0.99720382690429688,
   0.97302800416946411,
   1.0051741600036621,
   0.98116141557693481
]
