[
   2.8545658588409424,
   2.8557651042938232,
   2.8478550910949707,
   2.8513178825378418,
   2.8546674251556396,
   2.8541529178619385,
   2.8496699333190918,
   2.8458058834075928,
   2.8524603843688965,
   2.8479495048522949,
   2.8414895534515381,
   2.8338963985443115,
   2.8255059719085693,
   2.8279926776885986,
   2.8167219161987305,
   2.8056666851043701,
   2.8036470413208008,
   2.8044764995574951,
   2.7939639091491699,
   2.7332959175109863,
   2.6884653568267822,
   2.6486649513244629,
   2.6069176197052002,
   2.5736253261566162,
   2.5426244735717773,
   2.5124955177307129,
   2.4924085140228271,
   2.4637911319732666,
   2.2670121192932129,
   2.1295251846313477,
   2.0134115219116211,
   1.922907829284668,
   1.8468387126922607,
   1.7700656652450562,
   1.7062715291976929,
   1.6499534845352173,
   1.6000188589096069,
   1.3123687505722046,
   1.1789299249649048,
   1.115073561668396,
   1.078359842300415,
   1.0702056884765625,
   1.0567780733108521,
   1.0389223098754883,
   1.0271869897842407,
   1.0230462551116943,
   1.0036617517471313,
   0.98666632175445557,
   0.99023360013961792,
   1.0041358470916748,
   0.98525965213775635,
   0.99419009685516357,
   0.99609643220901489,
   1.0103791952133179,
   0.98943358659744263,
   1.028390645980835,
   1.0184128284454346,
   1.0179445743560791,
   1.0045051574707031,
   0.98388797044754028,
   0.9499700665473938,
   0.93629246950149536,
   0.89377415180206299,
   0.8296697735786438
]
