[
   1.4730825424194336,
   1.4742510318756104,
   1.4737058877944946,
   1.4730256795883179,
   1.4739620685577393,
   1.4733331203460693,
   1.4733474254608154,
   1.4730559587478638,
   1.4728734493255615,
   1.4720765352249146,
   1.4727818965911865,
   1.4713199138641357,
   1.4702823162078857,
   1.4703338146209717,
   1.4690341949462891,
   1.4677257537841797,
   1.4668241739273071,
   1.4653555154800415,
   1.4669502973556519,
   1.4575212001800537,
   1.450294017791748,
   1.4437036514282227,
   1.4354476928710938,
   1.4288326501846313,
   1.4231810569763184,
   1.4166643619537354,
   1.4121710062026978,
   1.4060956239700317,
   1.3624907732009888,
   1.3290650844573975,
   1.3036707639694214,
   1.2823612689971924,
   1.2633031606674194,
   1.246570348739624,
   1.2313332557678223,
   1.2173870801925659,
   1.205783486366272,
   1.1269335746765137,
   1.0827205181121826,
   1.0560503005981445,
   1.0375808477401733,
   1.0283211469650269,
   1.0193413496017456,
   1.0126211643218994,
   1.0080074071884155,
   1.0085961818695068,
   0.99309027194976807,
   0.99409449100494385,
   0.99880313873291016,
   0.99784213304519653,
   0.99696493148803711,
   1.000626802444458,
   0.99877583980560303,
   1.0025267601013184,
   0.9999157190322876,
   1.0052915811538696,
   1.0041375160217285,
   0.98744982481002808,
   1.0056412220001221,
   0.99886703491210938,
   0.99325227737426758,
   0.98400032520294189,
   0.97303277254104614,
   1.001783013343811
]
