[
   1.739210844039917,
   1.7388410568237305,
   1.7390232086181641,
   1.7394880056381226,
   1.7376234531402588,
   1.7374814748764038,
   1.737653374671936,
   1.738054633140564,
   1.7395740747451782,
   1.7372850179672241,
   1.7358134984970093,
   1.7341458797454834,
   1.7317568063735962,
   1.7319895029067993,
   1.7288322448730469,
   1.7285301685333252,
   1.7237052917480469,
   1.7228387594223022,
   1.7228149175643921,
   1.7046998739242554,
   1.6910779476165771,
   1.6762202978134155,
   1.6653335094451904,
   1.6525135040283203,
   1.6426999568939209,
   1.6321229934692383,
   1.6207942962646484,
   1.6116310358047485,
   1.5375282764434814,
   1.4827903509140015,
   1.4386951923370361,
   1.4027483463287354,
   1.3688617944717407,
   1.342656135559082,
   1.315133810043335,
   1.2939590215682983,
   1.2752313613891602,
   1.1661926507949829,
   1.1138608455657959,
   1.0774587392807007,
   1.052121639251709,
   1.0360147953033447,
   1.0274101495742798,
   1.0253239870071411,
   1.0208656787872314,
   1.0173454284667969,
   1.0080869197845459,
   0.9988473653793335,
   0.99450653791427612,
   1.0094382762908936,
   1.0071494579315186,
   1.0013411045074463,
   0.9974435567855835,
   1.0041965246200562,
   1.009305477142334,
   1.0014742612838745,
   1.0018839836120605,
   1.0156838893890381,
   1.0157548189163208,
   0.99847781658172607,
   0.96298885345458984,
   0.96329975128173828,
   0.96145707368850708,
   0.93877792358398438
]
