[
   20.674777984619141,
   20.503110885620117,
   20.540599822998047,
   20.508684158325195,
   20.491762161254883,
   20.435693740844727,
   20.400997161865234,
   20.28839111328125,
   20.175636291503906,
   20.199649810791016,
   19.953386306762695,
   19.493709564208984,
   19.474720001220703,
   19.066427230834961,
   18.855634689331055,
   18.453836441040039,
   18.550212860107422,
   18.062488555908203,
   18.048549652099609,
   16.284648895263672,
   14.854009628295898,
   13.691424369812012,
   12.887868881225586,
   11.860222816467285,
   11.138421058654785,
   10.552657127380371,
   9.9311733245849609,
   9.4033565521240234,
   6.1341671943664551,
   4.6476855278015137,
   3.7764594554901123,
   3.2576394081115723,
   2.8898332118988037,
   2.6453185081481934,
   2.4261722564697266,
   2.1536622047424316,
   1.9530093669891357,
   1.596055269241333,
   1.293383002281189,
   1.153706431388855,
   1.1659570932388306,
   1.1530828475952148,
   1.0926544666290283,
   1.0584287643432617,
   1.0123171806335449,
   1.0384269952774048,
   1.020548939704895,
   1.0140526294708252,
   1.0158085823059082,
   0.97611367702484131,
   0.92630130052566528,
   1.018204927444458,
   1.0227255821228027,
   1.0214003324508667,
   0.90880602598190308,
   0.99738407135009766,
   0.95058059692382812,
   0.91577225923538208,
   0.97916823625564575,
   1.0073220729827881,
   0.89803618192672729,
   1.0840728282928467,
   0.83454114198684692,
   0.72869020700454712
]
