[
   1.8308780193328857,
   1.8312795162200928,
   1.8311913013458252,
   1.8315271139144897,
   1.8297754526138306,
   1.8289401531219482,
   1.8300397396087646,
   1.828174352645874,
   1.8302955627441406,
   1.8279907703399658,
   1.8266140222549438,
   1.8254604339599609,
   1.8223326206207275,
   1.8178380727767944,
   1.8176009654998779,
   1.8138236999511719,
   1.8146927356719971,
   1.8120790719985962,
   1.8096973896026611,
   1.7906258106231689,
   1.7723525762557983,
   1.755596399307251,
   1.740592360496521,
   1.7283475399017334,
   1.7146251201629639,
   1.7000417709350586,
   1.6909831762313843,
   1.6787383556365967,
   1.5907347202301025,
   1.5271742343902588,
   1.4744783639907837,
   1.4291083812713623,
   1.3926572799682617,
   1.3620903491973877,
   1.3366190195083618,
   1.3125098943710327,
   1.290841817855835,
   1.1615849733352661,
   1.1034195423126221,
   1.0753262042999268,
   1.0514354705810547,
   1.0404814481735229,
   1.0368179082870483,
   1.0354154109954834,
   1.0294907093048096,
   1.0234121084213257,
   0.99483346939086914,
   0.99072951078414917,
   0.99356448650360107,
   1.0024265050888062,
   0.98962420225143433,
   0.99093103408813477,
   1.0048164129257202,
   1.0078877210617065,
   1.0013314485549927,
   1.0002341270446777,
   1.001755952835083,
   1.0165703296661377,
   0.98613804578781128,
   0.99748355150222778,
   0.9848296046257019,
   0.98583853244781494,
   0.92965042591094971,
   0.97122079133987427
]
