[
   74.590950012207031,
   74.819610595703125,
   75.188140869140625,
   72.318069458007812,
   73.594993591308594,
   72.691780090332031,
   73.1248779296875,
   73.228195190429688,
   71.827407836914062,
   72.194618225097656,
   69.3338623046875,
   66.697921752929688,
   63.379650115966797,
   62.484935760498047,
   60.360424041748047,
   58.440116882324219,
   56.443897247314453,
   55.343940734863281,
   54.169750213623047,
   42.870548248291016,
   35.877658843994141,
   29.570587158203125,
   25.679327011108398,
   22.933673858642578,
   20.143129348754883,
   19.159709930419922,
   17.368122100830078,
   15.604540824890137,
   8.5866641998291016,
   6.0173540115356445,
   4.923161506652832,
   3.8198027610778809,
   3.4271805286407471,
   2.9008455276489258,
   2.4593191146850586,
   2.654909610748291,
   2.2650229930877686,
   1.3508784770965576,
   1.4664605855941772,
   1.1180474758148193,
   1.1794484853744507,
   1.2065513134002686,
   1.1177902221679688,
   1.1686367988586426,
   1.2187240123748779,
   0.978168785572052,
   1.118409276008606,
   0.9426952600479126,
   0.81258964538574219,
   1.0777629613876343,
   0.78285855054855347,
   0.97496402263641357,
   0.96090090274810791,
   0.89243638515472412,
   0.86564779281616211,
   1.1210682392120361,
   1.0054318904876709,
   0.99098062515258789,
   1.0355802774429321,
   0.92672842741012573,
   1.1103936433792114,
   0.99781113862991333,
   0.93954360485076904,
   0.89482748508453369
]
