[
   1.5276181697845459,
   1.5279220342636108,
   1.5282878875732422,
   1.5275648832321167,
   1.5271127223968506,
   1.5267593860626221,
   1.5268296003341675,
   1.5271475315093994,
   1.5278671979904175,
   1.5280773639678955,
   1.5260070562362671,
   1.5264338254928589,
   1.5253057479858398,
   1.5236560106277466,
   1.5230280160903931,
   1.5228750705718994,
   1.5213477611541748,
   1.520943284034729,
   1.5190994739532471,
   1.5119204521179199,
   1.5059500932693481,
   1.4966318607330322,
   1.4908590316772461,
   1.4857898950576782,
   1.4793661832809448,
   1.473275899887085,
   1.4684617519378662,
   1.4635771512985229,
   1.4202773571014404,
   1.3859065771102905,
   1.3581498861312866,
   1.3340857028961182,
   1.312480092048645,
   1.2943103313446045,
   1.277921199798584,
   1.2629926204681396,
   1.2483099699020386,
   1.1605215072631836,
   1.110637903213501,
   1.0849590301513672,
   1.0655170679092407,
   1.0526679754257202,
   1.0437842607498169,
   1.0385226011276245,
   1.0296299457550049,
   1.0275647640228271,
   1.0065743923187256,
   0.99781274795532227,
   0.99069249629974365,
   0.98927640914916992,
   0.98480522632598877,
   0.98689472675323486,
   0.98941123485565186,
   0.9895024299621582,
   0.99170273542404175,
   0.99133682250976562,
   0.99363535642623901,
   1.0024302005767822,
   0.99822121858596802,
   0.99350643157958984,
   0.98434478044509888,
   1.016857385635376,
   0.98904925584793091,
   0.98123538494110107
]
