[
   2.9112498760223389,
   2.9109306335449219,
   2.9069900512695312,
   2.9127895832061768,
   2.9043641090393066,
   2.9092137813568115,
   2.9059579372406006,
   2.907585620880127,
   2.903120756149292,
   2.8975071907043457,
   2.8959915637969971,
   2.8895187377929688,
   2.8866925239562988,
   2.8820021152496338,
   2.8763449192047119,
   2.8674483299255371,
   2.860121488571167,
   2.8553662300109863,
   2.8495655059814453,
   2.801365852355957,
   2.7499690055847168,
   2.7011468410491943,
   2.6657168865203857,
   2.6322228908538818,
   2.5957865715026855,
   2.569788932800293,
   2.5411274433135986,
   2.5055322647094727,
   2.2837414741516113,
   2.1104092597961426,
   1.9770801067352295,
   1.8665072917938232,
   1.7746013402938843,
   1.6955293416976929,
   1.6385955810546875,
   1.5896013975143433,
   1.5455493927001953,
   1.2943257093429565,
   1.1800855398178101,
   1.1316322088241577,
   1.0864713191986084,
   1.0490250587463379,
   1.0285075902938843,
   1.0251418352127075,
   1.0234740972518921,
   1.0237468481063843,
   0.99463576078414917,
   0.99727010726928711,
   0.98006516695022583,
   0.96854287385940552,
   0.98798000812530518,
   0.98468142747879028,
   0.98504179716110229,
   1.0036585330963135,
   1.0008566379547119,
   0.97494220733642578,
   1.0049527883529663,
   0.99042338132858276,
   1.0043008327484131,
   1.0134191513061523,
   1.025888204574585,
   0.98646420240402222,
   1.0581400394439697,
   1.0919599533081055
]
