[
   9.4441165924072266,
   9.4915618896484375,
   9.417140007019043,
   9.4209003448486328,
   9.4347152709960938,
   9.4577665328979492,
   9.4120349884033203,
   9.3972911834716797,
   9.4321489334106445,
   9.391535758972168,
   9.3344745635986328,
   9.26611328125,
   9.2013015747070312,
   9.1261749267578125,
   9.0807666778564453,
   8.9524135589599609,
   8.9373683929443359,
   8.82330322265625,
   8.8092432022094727,
   8.3112354278564453,
   7.8835945129394531,
   7.5288629531860352,
   7.1827125549316406,
   6.9021005630493164,
   6.6285371780395508,
   6.3739657402038574,
   6.152794361114502,
   5.9564919471740723,
   4.5015549659729004,
   3.6734347343444824,
   3.1422686576843262,
   2.8050746917724609,
   2.56913161277771,
   2.3530213832855225,
   2.1648168563842773,
   2.0107569694519043,
   1.8951019048690796,
   1.4229891300201416,
   1.2246015071868896,
   1.1900607347488403,
   1.1394946575164795,
   1.1471693515777588,
   1.1053550243377686,
   1.066949725151062,
   1.0424669981002808,
   1.0551230907440186,
   0.97968816757202148,
   1.0083560943603516,
   0.97531765699386597,
   1.0161540508270264,
   0.99339759349822998,
   0.96908509731292725,
   0.96744835376739502,
   0.92464464902877808,
   0.97609376907348633,
   1.0283035039901733,
   0.98246324062347412,
   0.99735039472579956,
   0.96990185976028442,
   0.93411332368850708,
   0.94048243761062622,
   0.96964377164840698,
   0.90444117784500122,
   0.98531496524810791
]
