[
   1.6571947336196899,
   1.6559383869171143,
   1.6565326452255249,
   1.6553490161895752,
   1.6564619541168213,
   1.6572917699813843,
   1.6560691595077515,
   1.6558496952056885,
   1.6555101871490479,
   1.6550185680389404,
   1.6552225351333618,
   1.6535285711288452,
   1.652848482131958,
   1.650989294052124,
   1.6514770984649658,
   1.649264931678772,
   1.6483657360076904,
   1.6462291479110718,
   1.6455940008163452,
   1.634648323059082,
   1.6251522302627563,
   1.6146495342254639,
   1.6067149639129639,
   1.5996088981628418,
   1.5912575721740723,
   1.5827925205230713,
   1.5766599178314209,
   1.569080114364624,
   1.512718677520752,
   1.4696635007858276,
   1.434505820274353,
   1.4052704572677612,
   1.3780109882354736,
   1.3552358150482178,
   1.3356558084487915,
   1.3153636455535889,
   1.2981202602386475,
   1.1877720355987549,
   1.1348488330841064,
   1.1025259494781494,
   1.0787148475646973,
   1.0622169971466064,
   1.0487377643585205,
   1.043265700340271,
   1.0372258424758911,
   1.0342538356781006,
   1.0088553428649902,
   0.99638712406158447,
   0.99028122425079346,
   0.99310845136642456,
   0.99371469020843506,
   0.99944102764129639,
   1.0012927055358887,
   0.9997221827507019,
   1.0081119537353516,
   1.0032968521118164,
   0.97983229160308838,
   0.99934226274490356,
   1.0061643123626709,
   0.98462504148483276,
   0.99689114093780518,
   1.0132066011428833,
   0.96826285123825073,
   0.96095007658004761
]
