[
   16.309164047241211,
   16.370498657226562,
   16.293806076049805,
   16.238317489624023,
   16.214374542236328,
   16.253366470336914,
   16.225862503051758,
   16.205053329467773,
   16.175533294677734,
   16.137172698974609,
   15.899920463562012,
   15.763765335083008,
   15.551205635070801,
   15.408487319946289,
   15.236498832702637,
   15.10862922668457,
   14.89375114440918,
   14.730316162109375,
   14.558590888977051,
   13.348976135253906,
   12.321871757507324,
   11.542731285095215,
   10.760099411010742,
   10.046624183654785,
   9.5268058776855469,
   9.0325832366943359,
   8.5324802398681641,
   8.1392297744750977,
   5.6019282341003418,
   4.3772544860839844,
   3.5354773998260498,
   3.1076526641845703,
   2.7352898120880127,
   2.541996955871582,
   2.292696475982666,
   2.144047737121582,
   1.9737818241119385,
   1.4126489162445068,
   1.252457857131958,
   1.133217453956604,
   1.132645845413208,
   1.0955770015716553,
   1.0715504884719849,
   1.087266206741333,
   1.0300226211547852,
   0.97479361295700073,
   0.97300022840499878,
   0.94144392013549805,
   1.028350830078125,
   0.96748572587966919,
   0.95992505550384521,
   1.0001686811447144,
   0.96806430816650391,
   1.0434452295303345,
   0.99178636074066162,
   1.0154485702514648,
   0.9818960428237915,
   0.91151207685470581,
   0.95807170867919922,
   0.97816914319992065,
   1.0609424114227295,
   0.92525947093963623,
   0.97021418809890747,
   0.74075257778167725
]
