[
   3.6548411846160889,
   3.652529239654541,
   3.6530849933624268,
   3.6586747169494629,
   3.6456897258758545,
   3.6416161060333252,
   3.6524231433868408,
   3.6434473991394043,
   3.6425976753234863,
   3.6474311351776123,
   3.6278195381164551,
   3.6206557750701904,
   3.6151885986328125,
   3.5963070392608643,
   3.5910766124725342,
   3.5763175487518311,
   3.5695369243621826,
   3.5538592338562012,
   3.5519661903381348,
   3.4577221870422363,
   3.3879256248474121,
   3.314241886138916,
   3.2600693702697754,
   3.202286958694458,
   3.1482906341552734,
   3.0991024971008301,
   3.043220043182373,
   2.9987454414367676,
   2.6491227149963379,
   2.3974552154541016,
   2.2122261524200439,
   2.0545430183410645,
   1.943520188331604,
   1.8495622873306274,
   1.7651321887969971,
   1.6930230855941772,
   1.6262069940567017,
   1.3423378467559814,
   1.1991785764694214,
   1.1402685642242432,
   1.1158376932144165,
   1.0852882862091064,
   1.0679490566253662,
   1.0488073825836182,
   1.0397257804870605,
   1.046968936920166,
   0.99236047267913818,
   0.99641877412796021,
   1.0048502683639526,
   0.98769217729568481,
   0.98401182889938354,
   0.9854055643081665,
   0.99061185121536255,
   0.993202805519104,
   0.98638498783111572,
   1.0009331703186035,
   0.98201626539230347,
   1.0099830627441406,
   0.94159185886383057,
   0.97046774625778198,
   0.99961388111114502,
   0.980823814868927,
   1.0278465747833252,
   1.0369982719421387
]
