[
   1.8458631038665771,
   1.8491840362548828,
   1.8471488952636719,
   1.8464809656143188,
   1.8447492122650146,
   1.8456242084503174,
   1.8466262817382812,
   1.8460791110992432,
   1.8448444604873657,
   1.8452504873275757,
   1.8419895172119141,
   1.8404859304428101,
   1.836345911026001,
   1.8345432281494141,
   1.8332579135894775,
   1.8292509317398071,
   1.8226207494735718,
   1.8240883350372314,
   1.8216731548309326,
   1.7985798120498657,
   1.7754249572753906,
   1.7507921457290649,
   1.7346203327178955,
   1.7185522317886353,
   1.7010765075683594,
   1.685001015663147,
   1.6726686954498291,
   1.65960693359375,
   1.5550711154937744,
   1.4864044189453125,
   1.4318275451660156,
   1.3859140872955322,
   1.348979115486145,
   1.318716287612915,
   1.2936921119689941,
   1.2675766944885254,
   1.2506726980209351,
   1.1254063844680786,
   1.0758645534515381,
   1.0525370836257935,
   1.040981650352478,
   1.0311169624328613,
   1.0209063291549683,
   1.0144301652908325,
   1.0078155994415283,
   1.0083900690078735,
   0.99772703647613525,
   0.99254673719406128,
   0.99721765518188477,
   1.0070793628692627,
   1.0067915916442871,
   1.0023300647735596,
   1.0004317760467529,
   1.0002577304840088,
   1.0083955526351929,
   0.99492073059082031,
   0.98514395952224731,
   0.99362409114837646,
   1.0105698108673096,
   0.99756526947021484,
   0.99606388807296753,
   0.99424237012863159,
   1.0281248092651367,
   1.0091805458068848
]
