[
   2.3682899475097656,
   2.3664584159851074,
   2.3671305179595947,
   2.3720979690551758,
   2.3658161163330078,
   2.3657641410827637,
   2.362060546875,
   2.3649191856384277,
   2.3650710582733154,
   2.3607344627380371,
   2.3590071201324463,
   2.3539509773254395,
   2.3458175659179688,
   2.3437838554382324,
   2.3337604999542236,
   2.3314499855041504,
   2.3257536888122559,
   2.3224873542785645,
   2.3141684532165527,
   2.2657783031463623,
   2.2254116535186768,
   2.1897976398468018,
   2.1516618728637695,
   2.1233346462249756,
   2.097306489944458,
   2.0703015327453613,
   2.0427207946777344,
   2.0198640823364258,
   1.8494867086410522,
   1.7342460155487061,
   1.6433032751083374,
   1.5735784769058228,
   1.5113973617553711,
   1.4672155380249023,
   1.4226803779602051,
   1.3865813016891479,
   1.3554747104644775,
   1.178919792175293,
   1.108959436416626,
   1.0795676708221436,
   1.0486414432525635,
   1.0328725576400757,
   1.0211870670318604,
   1.0112112760543823,
   1.010927677154541,
   1.0123851299285889,
   0.98944246768951416,
   0.99647271633148193,
   1.0069261789321899,
   0.99303686618804932,
   0.98861825466156006,
   1.0067293643951416,
   1.0054831504821777,
   0.99807041883468628,
   0.99930018186569214,
   0.99666368961334229,
   0.99270075559616089,
   0.98656922578811646,
   1.0176980495452881,
   0.98081034421920776,
   1.0046236515045166,
   1.0268938541412354,
   1.0169913768768311,
   1.0172303915023804
]
