[
   7.9791693687438965,
   7.982111930847168,
   7.9562745094299316,
   7.9668402671813965,
   7.9629907608032227,
   7.9365453720092773,
   7.9408674240112305,
   7.9519233703613281,
   7.911738395690918,
   7.9063119888305664,
   7.8001198768615723,
   7.7841553688049316,
   7.6713371276855469,
   7.6707077026367188,
   7.5599365234375,
   7.5279932022094727,
   7.473513126373291,
   7.4343080520629883,
   7.3367509841918945,
   6.9374680519104004,
   6.5926856994628906,
   6.3456907272338867,
   6.1273303031921387,
   5.9226446151733398,
   5.714442253112793,
   5.5482730865478516,
   5.4172720909118652,
   5.2741250991821289,
   4.2489686012268066,
   3.577958345413208,
   3.0725297927856445,
   2.696805477142334,
   2.4092910289764404,
   2.1983952522277832,
   2.0449988842010498,
   1.9236027002334595,
   1.7981818914413452,
   1.2873857021331787,
   1.1588695049285889,
   1.0859382152557373,
   1.0614243745803833,
   1.0536718368530273,
   1.0324205160140991,
   1.00384521484375,
   0.99266386032104492,
   0.99529063701629639,
   1.0295932292938232,
   1.013581395149231,
   1.0038375854492188,
   1.0213921070098877,
   1.0500637292861938,
   1.0322211980819702,
   0.97495496273040771,
   0.97238492965698242,
   0.95392608642578125,
   1.0346921682357788,
   0.97869652509689331,
   0.96802997589111328,
   0.99814522266387939,
   1.0282471179962158,
   1.007050633430481,
   0.89970511198043823,
   1.0279806852340698,
   1.0441004037857056
]
