[
   1.5333096981048584,
   1.5332968235015869,
   1.5337690114974976,
   1.5317237377166748,
   1.5313353538513184,
   1.5310871601104736,
   1.5331841707229614,
   1.5330632925033569,
   1.5309418439865112,
   1.5326038599014282,
   1.5303360223770142,
   1.5277026891708374,
   1.5288816690444946,
   1.5264912843704224,
   1.5256751775741577,
   1.5242383480072021,
   1.521161675453186,
   1.520849347114563,
   1.519368052482605,
   1.508267879486084,
   1.495521068572998,
   1.4845650196075439,
   1.4753687381744385,
   1.4666439294815063,
   1.4588367938995361,
   1.4500453472137451,
   1.4417754411697388,
   1.4342658519744873,
   1.3742783069610596,
   1.3306386470794678,
   1.2973477840423584,
   1.2696207761764526,
   1.2477524280548096,
   1.2283424139022827,
   1.2101408243179321,
   1.1967087984085083,
   1.1838510036468506,
   1.1015332937240601,
   1.0625489950180054,
   1.0425994396209717,
   1.0270326137542725,
   1.0183908939361572,
   1.0119211673736572,
   1.0087603330612183,
   1.0066382884979248,
   1.0065710544586182,
   0.99991285800933838,
   0.99641048908233643,
   0.9950796365737915,
   1.0016025304794312,
   0.99398356676101685,
   1.0052144527435303,
   1.000852108001709,
   1.0010241270065308,
   1.0002610683441162,
   0.9962199330329895,
   0.99607765674591064,
   0.98835933208465576,
   0.99771749973297119,
   1.0038540363311768,
   1.0146749019622803,
   1.0247451066970825,
   1.0278279781341553,
   0.97218161821365356
]
