[
   17.391263961791992,
   17.263835906982422,
   17.1173095703125,
   17.191287994384766,
   17.079524993896484,
   17.118743896484375,
   17.158754348754883,
   17.052150726318359,
   17.014434814453125,
   17.002162933349609,
   16.741886138916016,
   16.592258453369141,
   16.335012435913086,
   16.122201919555664,
   15.962954521179199,
   15.814389228820801,
   15.563758850097656,
   15.428805351257324,
   15.292715072631836,
   14.157381057739258,
   13.377462387084961,
   12.718925476074219,
   12.119294166564941,
   11.550500869750977,
   11.030943870544434,
   10.678180694580078,
   10.320046424865723,
   9.9110651016235352,
   7.3468360900878906,
   5.7359189987182617,
   4.7784361839294434,
   4.0451478958129883,
   3.5011298656463623,
   3.0736451148986816,
   2.647892951965332,
   2.3977699279785156,
   2.1860501766204834,
   1.3886587619781494,
   1.1922538280487061,
   1.0833958387374878,
   0.99455034732818604,
   1.0028622150421143,
   0.95461863279342651,
   0.98792850971221924,
   1.067070484161377,
   1.0854030847549438,
   0.96398371458053589,
   0.99752414226531982,
   1.0147948265075684,
   0.95168590545654297,
   1.0124262571334839,
   1.0873644351959229,
   0.98775708675384521,
   0.94176226854324341,
   1.0804442167282104,
   0.97794723510742188,
   0.9241984486579895,
   0.96238976716995239,
   0.9668269157409668,
   0.87603724002838135,
   0.96919935941696167,
   1.0715897083282471,
   0.96997547149658203,
   0.99461710453033447
]
