[
   1.7449840307235718,
   1.7462723255157471,
   1.7453076839447021,
   1.7460702657699585,
   1.7433429956436157,
   1.7444881200790405,
   1.7423998117446899,
   1.7426465749740601,
   1.7421996593475342,
   1.7440351247787476,
   1.7404333353042603,
   1.739514946937561,
   1.7361547946929932,
   1.7341544628143311,
   1.7331184148788452,
   1.7303345203399658,
   1.728837251663208,
   1.7258113622665405,
   1.7233213186264038,
   1.703099250793457,
   1.6854407787322998,
   1.6680561304092407,
   1.6510989665985107,
   1.6400541067123413,
   1.6229526996612549,
   1.6125767230987549,
   1.6013996601104736,
   1.5869719982147217,
   1.4992924928665161,
   1.4386469125747681,
   1.3894850015640259,
   1.3501677513122559,
   1.3180488348007202,
   1.2915304899215698,
   1.2657307386398315,
   1.2460103034973145,
   1.228442907333374,
   1.1329444646835327,
   1.0898977518081665,
   1.0562456846237183,
   1.0369538068771362,
   1.0294950008392334,
   1.0187569856643677,
   1.0147027969360352,
   1.0088037252426147,
   1.0053559541702271,
   1.0025999546051025,
   1.0001966953277588,
   0.99844038486480713,
   1.0083949565887451,
   1.0010788440704346,
   1.0044095516204834,
   0.99749517440795898,
   1.0071414709091187,
   1.0119844675064087,
   1.0100816488265991,
   1.0047281980514526,
   1.0001885890960693,
   1.0047974586486816,
   0.98936951160430908,
   0.99012148380279541,
   0.97120827436447144,
   0.95076733827590942,
   0.92276030778884888
]
