[
   1.5762789249420166,
   1.5750975608825684,
   1.575639009475708,
   1.573974609375,
   1.5756123065948486,
   1.5758951902389526,
   1.5750792026519775,
   1.576482892036438,
   1.5737814903259277,
   1.574336051940918,
   1.572838306427002,
   1.5717483758926392,
   1.5689312219619751,
   1.5680242776870728,
   1.5667574405670166,
   1.5653669834136963,
   1.5644372701644897,
   1.5627291202545166,
   1.5609339475631714,
   1.5455963611602783,
   1.5339436531066895,
   1.5221353769302368,
   1.5104173421859741,
   1.4994685649871826,
   1.4900678396224976,
   1.4806327819824219,
   1.4701539278030396,
   1.4635468721389771,
   1.3950101137161255,
   1.348900318145752,
   1.3122466802597046,
   1.2829127311706543,
   1.2582066059112549,
   1.2378033399581909,
   1.218209981918335,
   1.2020022869110107,
   1.1882064342498779,
   1.0966571569442749,
   1.0597286224365234,
   1.0402144193649292,
   1.0263910293579102,
   1.0211204290390015,
   1.0155911445617676,
   1.0154014825820923,
   1.013149619102478,
   1.0114032030105591,
   0.99450826644897461,
   0.99518108367919922,
   0.99257910251617432,
   0.99676817655563354,
   0.99089193344116211,
   0.99827796220779419,
   1.0032796859741211,
   1.0032378435134888,
   1.0045442581176758,
   1.0064090490341187,
   0.9979737401008606,
   0.99313604831695557,
   0.99950629472732544,
   0.99367439746856689,
   1.0038430690765381,
   1.0051878690719604,
   0.98218691349029541,
   0.97229492664337158
]
