[
   1.8778383731842041,
   1.8777163028717041,
   1.8790924549102783,
   1.8813543319702148,
   1.8781583309173584,
   1.8772560358047485,
   1.8758904933929443,
   1.8763315677642822,
   1.8755321502685547,
   1.8758523464202881,
   1.8732211589813232,
   1.8684661388397217,
   1.8664957284927368,
   1.8620579242706299,
   1.8579752445220947,
   1.855311393737793,
   1.8521919250488281,
   1.8497438430786133,
   1.8456933498382568,
   1.81689453125,
   1.7911535501480103,
   1.7666600942611694,
   1.7385572195053101,
   1.7170238494873047,
   1.6976848840713501,
   1.6821269989013672,
   1.6657460927963257,
   1.6463342905044556,
   1.52187180519104,
   1.4387989044189453,
   1.377955436706543,
   1.3279911279678345,
   1.2918461561203003,
   1.258378267288208,
   1.2307471036911011,
   1.2100021839141846,
   1.1907910108566284,
   1.0997169017791748,
   1.0556273460388184,
   1.0383036136627197,
   1.0335410833358765,
   1.0189070701599121,
   1.0170917510986328,
   1.0059332847595215,
   1.0009375810623169,
   1.0057691335678101,
   1.0060741901397705,
   0.99035060405731201,
   0.99700725078582764,
   0.98797953128814697,
   0.99437695741653442,
   0.99723100662231445,
   0.99900150299072266,
   1.0018116235733032,
   1.0009787082672119,
   0.9920353889465332,
   1.0038745403289795,
   1.0000379085540771,
   0.99323815107345581,
   1.0047889947891235,
   0.99201422929763794,
   1.0166221857070923,
   0.9860493540763855,
   0.97736138105392456
]
