[
   3.3251533508300781,
   3.3227977752685547,
   3.3194839954376221,
   3.3194108009338379,
   3.3134932518005371,
   3.3163623809814453,
   3.3151111602783203,
   3.3071122169494629,
   3.3041832447052002,
   3.3083939552307129,
   3.294980525970459,
   3.2763075828552246,
   3.2646183967590332,
   3.2443633079528809,
   3.2311930656433105,
   3.2238259315490723,
   3.2114036083221436,
   3.1777291297912598,
   3.1713192462921143,
   3.0573418140411377,
   2.9507846832275391,
   2.8551173210144043,
   2.782522439956665,
   2.7152879238128662,
   2.6409671306610107,
   2.5898778438568115,
   2.5332891941070557,
   2.4836726188659668,
   2.1195864677429199,
   1.9001839160919189,
   1.7386960983276367,
   1.6202207803726196,
   1.5221421718597412,
   1.4543845653533936,
   1.3969411849975586,
   1.3563054800033569,
   1.3231520652770996,
   1.1431142091751099,
   1.0890967845916748,
   1.0539577007293701,
   1.0533968210220337,
   1.0164227485656738,
   1.0104715824127197,
   1.010865330696106,
   1.0038774013519287,
   0.98760128021240234,
   0.99853169918060303,
   0.99576199054718018,
   0.99369364976882935,
   0.99092167615890503,
   0.9819951057434082,
   1.0109847784042358,
   0.99292689561843872,
   0.99163359403610229,
   1.006807804107666,
   0.9777674674987793,
   0.98161810636520386,
   1.0181870460510254,
   0.97386419773101807,
   0.99989193677902222,
   0.97318762540817261,
   1.0097390413284302,
   1.0112655162811279,
   1.0168875455856323
]
