[
   2.4582157135009766,
   2.4548630714416504,
   2.455845832824707,
   2.451915979385376,
   2.4517879486083984,
   2.4515869617462158,
   2.4558854103088379,
   2.456305980682373,
   2.4459891319274902,
   2.4488894939422607,
   2.4404358863830566,
   2.4348030090332031,
   2.4244437217712402,
   2.4171652793884277,
   2.4099695682525635,
   2.402538537979126,
   2.3982763290405273,
   2.3959109783172607,
   2.3848960399627686,
   2.321641206741333,
   2.2630548477172852,
   2.2175984382629395,
   2.1699659824371338,
   2.1331026554107666,
   2.0999834537506104,
   2.0602951049804688,
   2.030083179473877,
   2.0008606910705566,
   1.7827663421630859,
   1.6477200984954834,
   1.5508209466934204,
   1.4725592136383057,
   1.4066188335418701,
   1.3563039302825928,
   1.3163414001464844,
   1.2838060855865479,
   1.2609039545059204,
   1.115606427192688,
   1.0680067539215088,
   1.048761248588562,
   1.0309935808181763,
   1.0227910280227661,
   1.0115815401077271,
   1.0043016672134399,
   1.0032804012298584,
   0.99542701244354248,
   1.0043296813964844,
   0.98997938632965088,
   0.99478226900100708,
   1.0047852993011475,
   1.0043576955795288,
   1.0002583265304565,
   0.99916493892669678,
   0.99697768688201904,
   1.0139120817184448,
   0.9988524317741394,
   0.97948819398880005,
   1.0017908811569214,
   1.0065984725952148,
   1.0069725513458252,
   0.97434341907501221,
   1.0130807161331177,
   1.004523754119873,
   0.90649759769439697
]
