[
   2.1844592094421387,
   2.1807374954223633,
   2.1799170970916748,
   2.1800580024719238,
   2.1802763938903809,
   2.1771936416625977,
   2.1787495613098145,
   2.1768136024475098,
   2.1717114448547363,
   2.1773951053619385,
   2.168865442276001,
   2.1675901412963867,
   2.1607823371887207,
   2.1529581546783447,
   2.1488900184631348,
   2.1424472332000732,
   2.1379647254943848,
   2.1325230598449707,
   2.1235866546630859,
   2.0836496353149414,
   2.0364012718200684,
   2.0021052360534668,
   1.962612509727478,
   1.9321638345718384,
   1.9033124446868896,
   1.8734123706817627,
   1.8480478525161743,
   1.8279688358306885,
   1.6519813537597656,
   1.5410307645797729,
   1.4568114280700684,
   1.3943809270858765,
   1.3432289361953735,
   1.301561713218689,
   1.2674925327301025,
   1.2428112030029297,
   1.2174251079559326,
   1.1003654003143311,
   1.060926079750061,
   1.0386413335800171,
   1.0304133892059326,
   1.0233776569366455,
   1.0182586908340454,
   1.022161602973938,
   1.0183476209640503,
   1.0038304328918457,
   1.0019557476043701,
   0.99652814865112305,
   1.0081528425216675,
   1.0005049705505371,
   0.99789124727249146,
   1.0009807348251343,
   0.99815595149993896,
   1.0020478963851929,
   0.99361115694046021,
   1.0111391544342041,
   1.005696177482605,
   0.999458909034729,
   1.0113438367843628,
   0.99551230669021606,
   0.99236905574798584,
   0.98314696550369263,
   0.9751887321472168,
   0.9449688196182251
]
