[
   3.0618185997009277,
   3.0568835735321045,
   3.0633976459503174,
   3.0614762306213379,
   3.0628080368041992,
   3.0577683448791504,
   3.0575358867645264,
   3.053412914276123,
   3.0623362064361572,
   3.0581915378570557,
   3.050590991973877,
   3.0362312793731689,
   3.032944917678833,
   3.0271167755126953,
   3.0216605663299561,
   3.0081233978271484,
   3.0060300827026367,
   3.0036771297454834,
   2.993635892868042,
   2.9357454776763916,
   2.8780016899108887,
   2.821491003036499,
   2.7745974063873291,
   2.7381429672241211,
   2.7022757530212402,
   2.664400577545166,
   2.6323573589324951,
   2.6006405353546143,
   2.3567662239074707,
   2.1870336532592773,
   2.0442643165588379,
   1.9400990009307861,
   1.8494091033935547,
   1.7725902795791626,
   1.7015683650970459,
   1.6439673900604248,
   1.5921039581298828,
   1.3044265508651733,
   1.1857935190200806,
   1.1166627407073975,
   1.0809491872787476,
   1.0498731136322021,
   1.0348114967346191,
   1.0331203937530518,
   1.0322571992874146,
   1.0217975378036499,
   1.0198025703430176,
   0.98398715257644653,
   0.99508059024810791,
   0.98194301128387451,
   1.009721040725708,
   0.99334204196929932,
   1.0098584890365601,
   0.99878895282745361,
   0.99068468809127808,
   1.0011546611785889,
   1.0048239231109619,
   1.0029194355010986,
   1.0129580497741699,
   0.98230379819869995,
   0.99810808897018433,
   0.95038330554962158,
   0.89571475982666016,
   0.96148109436035156
]
