[
   1.5289024114608765,
   1.5301666259765625,
   1.5290178060531616,
   1.5289390087127686,
   1.5289416313171387,
   1.5277884006500244,
   1.5293920040130615,
   1.5285978317260742,
   1.5293619632720947,
   1.5291863679885864,
   1.5279079675674438,
   1.5277101993560791,
   1.5255495309829712,
   1.5241031646728516,
   1.5240509510040283,
   1.5249538421630859,
   1.5230972766876221,
   1.5217769145965576,
   1.5209695100784302,
   1.5120671987533569,
   1.5054194927215576,
   1.4983963966369629,
   1.4927477836608887,
   1.4853202104568481,
   1.4772987365722656,
   1.4722254276275635,
   1.4671308994293213,
   1.4611074924468994,
   1.4134669303894043,
   1.3769853115081787,
   1.3494606018066406,
   1.3235969543457031,
   1.3035829067230225,
   1.2847195863723755,
   1.2676889896392822,
   1.2548907995223999,
   1.2422821521759033,
   1.1534650325775146,
   1.1063282489776611,
   1.0780843496322632,
   1.0580250024795532,
   1.0478121042251587,
   1.0424293279647827,
   1.0372531414031982,
   1.0286490917205811,
   1.0247855186462402,
   1.0019174814224243,
   1.0003067255020142,
   0.99667805433273315,
   0.99469441175460815,
   0.99668562412261963,
   0.99263459444046021,
   0.98157179355621338,
   0.98572361469268799,
   0.98464184999465942,
   0.98311483860015869,
   0.98571908473968506,
   0.98386001586914062,
   0.99755477905273438,
   1.0019192695617676,
   1.0147097110748291,
   1.0708070993423462,
   1.0417249202728271,
   1.0486000776290894
]
