[
   3.7730991840362549,
   3.779477596282959,
   3.7790012359619141,
   3.7723548412322998,
   3.7741928100585938,
   3.7801704406738281,
   3.7725110054016113,
   3.7740626335144043,
   3.7723681926727295,
   3.7741274833679199,
   3.7609848976135254,
   3.737149715423584,
   3.7393901348114014,
   3.723114013671875,
   3.7126541137695312,
   3.6949291229248047,
   3.6948726177215576,
   3.6795413494110107,
   3.6788876056671143,
   3.5815482139587402,
   3.5060844421386719,
   3.4239108562469482,
   3.3643200397491455,
   3.3095359802246094,
   3.2537856101989746,
   3.199587345123291,
   3.152099609375,
   3.1058871746063232,
   2.7762463092803955,
   2.5566811561584473,
   2.3674533367156982,
   2.2347037792205811,
   2.114863395690918,
   2.0078349113464355,
   1.9297637939453125,
   1.8486535549163818,
   1.778273344039917,
   1.3904765844345093,
   1.2457911968231201,
   1.141954779624939,
   1.0751113891601562,
   1.0519509315490723,
   1.0577493906021118,
   1.0398808717727661,
   1.0048825740814209,
   1.0182787179946899,
   1.0095057487487793,
   0.97052353620529175,
   0.98445242643356323,
   0.98860961198806763,
   1.0303199291229248,
   0.96548861265182495,
   1.0196149349212646,
   1.0108808279037476,
   1.013195276260376,
   0.99652498960494995,
   1.0051882266998291,
   1.0163173675537109,
   0.99963837862014771,
   1.015008807182312,
   0.98716533184051514,
   0.94804573059082031,
   0.9876781702041626,
   0.93532407283782959
]
