[
   1.5960719585418701,
   1.5949270725250244,
   1.5951406955718994,
   1.5953429937362671,
   1.5957740545272827,
   1.5952404737472534,
   1.5932400226593018,
   1.5936088562011719,
   1.5939568281173706,
   1.5942403078079224,
   1.5945761203765869,
   1.5931088924407959,
   1.5912990570068359,
   1.5903499126434326,
   1.5892108678817749,
   1.588334321975708,
   1.5880532264709473,
   1.5873343944549561,
   1.5850825309753418,
   1.5771219730377197,
   1.5663673877716064,
   1.5593307018280029,
   1.5509922504425049,
   1.5434228181838989,
   1.536379337310791,
   1.5289762020111084,
   1.5215893983840942,
   1.5155441761016846,
   1.4603374004364014,
   1.4185272455215454,
   1.387004017829895,
   1.3597124814987183,
   1.3357648849487305,
   1.3155895471572876,
   1.2971206903457642,
   1.2799277305603027,
   1.2658045291900635,
   1.1718782186508179,
   1.1191543340682983,
   1.0915203094482422,
   1.0724989175796509,
   1.0577297210693359,
   1.045246958732605,
   1.0397151708602905,
   1.0296741724014282,
   1.0283468961715698,
   1.0001548528671265,
   1.0023154020309448,
   0.99940621852874756,
   1.0001269578933716,
   0.99405276775360107,
   1.0019814968109131,
   0.99953591823577881,
   1.0084409713745117,
   1.0021834373474121,
   0.98805522918701172,
   0.98682337999343872,
   0.99250918626785278,
   1.0017373561859131,
   0.98275315761566162,
   0.99914026260375977,
   1.0023257732391357,
   1.0091674327850342,
   0.93432062864303589
]
