[
   28.268016815185547,
   28.401678085327148,
   28.377985000610352,
   28.097003936767578,
   28.131402969360352,
   28.310211181640625,
   28.271514892578125,
   28.150379180908203,
   28.245203018188477,
   27.933948516845703,
   27.491268157958984,
   27.2509765625,
   26.833690643310547,
   26.746194839477539,
   26.2802734375,
   25.772907257080078,
   25.78924560546875,
   25.340770721435547,
   25.300285339355469,
   23.318857192993164,
   21.863056182861328,
   20.760671615600586,
   19.66413688659668,
   18.846553802490234,
   18.05915641784668,
   17.063304901123047,
   16.288532257080078,
   15.69434642791748,
   10.898224830627441,
   8.2768039703369141,
   6.5789694786071777,
   5.434718132019043,
   4.6001777648925781,
   3.8609681129455566,
   3.5397670269012451,
   3.087674617767334,
   2.8668971061706543,
   1.791526198387146,
   1.2970376014709473,
   1.2774847745895386,
   1.0764032602310181,
   1.2176254987716675,
   1.0885205268859863,
   1.0924140214920044,
   1.1913944482803345,
   1.0038131475448608,
   1.0459741353988647,
   1.0436785221099854,
   0.83056199550628662,
   0.99714183807373047,
   0.86717116832733154,
   1.016846776008606,
   0.99095660448074341,
   0.99598634243011475,
   1.0108058452606201,
   0.91470736265182495,
   1.1205809116363525,
   0.95480072498321533,
   1.089829683303833,
   0.81063938140869141,
   1.0058828592300415,
   1.0028061866760254,
   1.1548682451248169,
   0.74374610185623169
]
