[
   3.9760863780975342,
   3.9724910259246826,
   3.9767825603485107,
   3.9759945869445801,
   3.9699244499206543,
   3.9810595512390137,
   3.9664444923400879,
   3.969590425491333,
   3.964707612991333,
   3.9686870574951172,
   3.9396541118621826,
   3.9141049385070801,
   3.9123585224151611,
   3.8944613933563232,
   3.8702120780944824,
   3.8547863960266113,
   3.8324363231658936,
   3.8152828216552734,
   3.801438570022583,
   3.660224437713623,
   3.5290591716766357,
   3.4233577251434326,
   3.3353462219238281,
   3.2461376190185547,
   3.1675350666046143,
   3.1067111492156982,
   3.0439400672912598,
   2.9897124767303467,
   2.5596776008605957,
   2.2697253227233887,
   2.0682575702667236,
   1.9105974435806274,
   1.7923734188079834,
   1.6903283596038818,
   1.609257698059082,
   1.547200083732605,
   1.5017755031585693,
   1.2176756858825684,
   1.0990806818008423,
   1.0777626037597656,
   1.0323834419250488,
   1.0072931051254272,
   1.0148602724075317,
   1.0150721073150635,
   1.0355508327484131,
   1.0266568660736084,
   1.0024868249893188,
   0.97895067930221558,
   0.96459853649139404,
   0.98637163639068604,
   1.0189458131790161,
   1.0060336589813232,
   0.98938143253326416,
   0.98170769214630127,
   0.99399662017822266,
   1.01230788230896,
   1.0145887136459351,
   1.0039876699447632,
   1.0147485733032227,
   1.0276854038238525,
   0.98411309719085693,
   0.99063569307327271,
   1.0227495431900024,
   0.99769461154937744
]
