[
   2.5463504791259766,
   2.5463769435882568,
   2.5445702075958252,
   2.5500569343566895,
   2.548593282699585,
   2.5445082187652588,
   2.539602518081665,
   2.5472428798675537,
   2.5471169948577881,
   2.5444202423095703,
   2.5391297340393066,
   2.5375144481658936,
   2.5365378856658936,
   2.5261893272399902,
   2.5232415199279785,
   2.5202400684356689,
   2.5174050331115723,
   2.518190860748291,
   2.5083737373352051,
   2.4711270332336426,
   2.4405779838562012,
   2.4153645038604736,
   2.3885715007781982,
   2.3633437156677246,
   2.3393595218658447,
   2.3167805671691895,
   2.2936239242553711,
   2.2794623374938965,
   2.1299717426300049,
   2.0181601047515869,
   1.930980920791626,
   1.8588628768920898,
   1.7989228963851929,
   1.7476661205291748,
   1.6998046636581421,
   1.6600402593612671,
   1.6194841861724854,
   1.3639688491821289,
   1.2408607006072998,
   1.1769591569900513,
   1.1325215101242065,
   1.1029553413391113,
   1.0814075469970703,
   1.068639874458313,
   1.0527907609939575,
   1.0500563383102417,
   0.99810105562210083,
   0.99934875965118408,
   1.0080851316452026,
   0.9916081428527832,
   0.99619168043136597,
   0.99921214580535889,
   1.0071865320205688,
   1.0195716619491577,
   0.99759769439697266,
   0.98514527082443237,
   1.0247776508331299,
   1.0240333080291748,
   0.99267828464508057,
   0.9897693395614624,
   0.9573480486869812,
   0.97677165269851685,
   0.94588357210159302,
   0.92639315128326416
]
