[
   1.5541012287139893,
   1.5533963441848755,
   1.5548309087753296,
   1.5550568103790283,
   1.5558059215545654,
   1.5539876222610474,
   1.5550320148468018,
   1.5546278953552246,
   1.5552860498428345,
   1.5538549423217773,
   1.5536435842514038,
   1.5531919002532959,
   1.550660252571106,
   1.5515234470367432,
   1.5502586364746094,
   1.5485513210296631,
   1.548678994178772,
   1.5492511987686157,
   1.5468000173568726,
   1.5402427911758423,
   1.533469557762146,
   1.5258524417877197,
   1.5185075998306274,
   1.5123494863510132,
   1.5047743320465088,
   1.5005459785461426,
   1.4956233501434326,
   1.4893661737442017,
   1.444057822227478,
   1.4091291427612305,
   1.3818566799163818,
   1.3587552309036255,
   1.3386386632919312,
   1.3194806575775146,
   1.3035223484039307,
   1.2908508777618408,
   1.2768230438232422,
   1.1886488199234009,
   1.1397005319595337,
   1.1035062074661255,
   1.0773495435714722,
   1.064434289932251,
   1.0489375591278076,
   1.0381441116333008,
   1.0305955410003662,
   1.0291204452514648,
   1.0097355842590332,
   0.99902439117431641,
   0.9984976053237915,
   0.99311608076095581,
   0.99129247665405273,
   0.99329501390457153,
   1.0002297163009644,
   0.99976253509521484,
   0.9952702522277832,
   1.0001828670501709,
   0.98975646495819092,
   0.99637734889984131,
   1.0076744556427002,
   0.98567104339599609,
   1.0004973411560059,
   1.0088077783584595,
   1.0546566247940063,
   0.99548989534378052
]
