[
   2.0505392551422119,
   2.0528931617736816,
   2.0540711879730225,
   2.0492606163024902,
   2.0526058673858643,
   2.0490026473999023,
   2.0509233474731445,
   2.0500450134277344,
   2.0525436401367188,
   2.0507407188415527,
   2.047849178314209,
   2.0465683937072754,
   2.0429351329803467,
   2.0412440299987793,
   2.0411038398742676,
   2.0377330780029297,
   2.0356237888336182,
   2.0314822196960449,
   2.0318303108215332,
   2.0128552913665771,
   1.9944179058074951,
   1.9777063131332397,
   1.9617710113525391,
   1.9436641931533813,
   1.9310706853866577,
   1.9187482595443726,
   1.9058507680892944,
   1.8956775665283203,
   1.7960004806518555,
   1.7275717258453369,
   1.6730731725692749,
   1.6267814636230469,
   1.585801362991333,
   1.5523128509521484,
   1.5212188959121704,
   1.4936023950576782,
   1.4673025608062744,
   1.298774242401123,
   1.1957082748413086,
   1.1359882354736328,
   1.1026917695999146,
   1.0714200735092163,
   1.0549612045288086,
   1.0387042760848999,
   1.0379045009613037,
   1.0355969667434692,
   0.99788129329681396,
   1.0012009143829346,
   1.0063426494598389,
   0.9917980432510376,
   1.0060551166534424,
   1.0010926723480225,
   0.98988485336303711,
   0.99184799194335938,
   1.0060445070266724,
   1.0012104511260986,
   0.99680435657501221,
   1.0056167840957642,
   0.99973142147064209,
   0.99480068683624268,
   0.99451780319213867,
   1.0099284648895264,
   1.0116304159164429,
   0.97181051969528198
]
