[
   1.6980432271957397,
   1.6977593898773193,
   1.6967321634292603,
   1.698155403137207,
   1.6979631185531616,
   1.6963323354721069,
   1.6971588134765625,
   1.6973584890365601,
   1.6955066919326782,
   1.6978616714477539,
   1.6941623687744141,
   1.6932872533798218,
   1.6927982568740845,
   1.6927022933959961,
   1.6918461322784424,
   1.6901317834854126,
   1.6891186237335205,
   1.6866953372955322,
   1.6868727207183838,
   1.6756837368011475,
   1.6639531850814819,
   1.6541774272918701,
   1.6489269733428955,
   1.6363872289657593,
   1.6285836696624756,
   1.6211248636245728,
   1.6129090785980225,
   1.6061702966690063,
   1.5480582714080811,
   1.5001083612442017,
   1.4651863574981689,
   1.435042142868042,
   1.4092930555343628,
   1.3856933116912842,
   1.3626859188079834,
   1.3440999984741211,
   1.3254086971282959,
   1.2099760770797729,
   1.1460293531417847,
   1.10819411277771,
   1.0813088417053223,
   1.060490608215332,
   1.0426105260848999,
   1.0353313684463501,
   1.0251704454421997,
   1.0228787660598755,
   1.0068966150283813,
   1.0034630298614502,
   0.99879968166351318,
   1.0023589134216309,
   1.0023841857910156,
   0.99494993686676025,
   0.99548596143722534,
   0.99416667222976685,
   0.99191409349441528,
   1.010745644569397,
   0.99397122859954834,
   0.98192012310028076,
   1.0059187412261963,
   0.99095696210861206,
   1.0233378410339355,
   0.99232101440429688,
   0.9904557466506958,
   1.0322381258010864
]
