[
   1.6221704483032227,
   1.6215845346450806,
   1.6224933862686157,
   1.6226450204849243,
   1.6219413280487061,
   1.6211917400360107,
   1.6224327087402344,
   1.6231906414031982,
   1.6195876598358154,
   1.6208479404449463,
   1.6196969747543335,
   1.6185916662216187,
   1.6176478862762451,
   1.6177030801773071,
   1.6166194677352905,
   1.6164916753768921,
   1.6150226593017578,
   1.613140344619751,
   1.6141910552978516,
   1.6041396856307983,
   1.5972499847412109,
   1.5898869037628174,
   1.5796239376068115,
   1.5730173587799072,
   1.5670400857925415,
   1.5615143775939941,
   1.5537086725234985,
   1.5474684238433838,
   1.4976011514663696,
   1.4599928855895996,
   1.4313063621520996,
   1.4057449102401733,
   1.3834371566772461,
   1.3640375137329102,
   1.3461540937423706,
   1.3296128511428833,
   1.3160248994827271,
   1.2166520357131958,
   1.1584079265594482,
   1.1179159879684448,
   1.0940210819244385,
   1.0721759796142578,
   1.0632021427154541,
   1.0493621826171875,
   1.0385276079177856,
   1.0312166213989258,
   0.99921333789825439,
   0.99039602279663086,
   0.9913182258605957,
   0.99974888563156128,
   0.99471664428710938,
   0.99767005443572998,
   1.0040966272354126,
   0.99060535430908203,
   0.9940679669380188,
   1.0053086280822754,
   0.98797941207885742,
   0.99955403804779053,
   1.0079180002212524,
   0.9951213002204895,
   0.98097944259643555,
   0.96544981002807617,
   0.97587978839874268,
   0.98985064029693604
]
