[
   13.463495254516602,
   13.44378662109375,
   13.42326831817627,
   13.385821342468262,
   13.386853218078613,
   13.404767990112305,
   13.34514045715332,
   13.408147811889648,
   13.414182662963867,
   13.355959892272949,
   13.234295845031738,
   13.176628112792969,
   13.008386611938477,
   13.02607536315918,
   12.876426696777344,
   12.74886417388916,
   12.694290161132812,
   12.625276565551758,
   12.501009941101074,
   11.967547416687012,
   11.432137489318848,
   11.03758430480957,
   10.667367935180664,
   10.36822509765625,
   10.113053321838379,
   9.7892303466796875,
   9.5739450454711914,
   9.2352848052978516,
   7.5127959251403809,
   6.2169899940490723,
   5.384669303894043,
   4.6977038383483887,
   4.2164144515991211,
   3.8066096305847168,
   3.4431920051574707,
   3.1847755908966064,
   2.9101576805114746,
   1.7308752536773682,
   1.4427617788314819,
   1.2980475425720215,
   1.1595313549041748,
   1.104209303855896,
   1.080095648765564,
   1.0688135623931885,
   1.1392707824707031,
   1.0833532810211182,
   1.1006436347961426,
   1.0237008333206177,
   0.99026757478713989,
   1.0134208202362061,
   0.93441087007522583,
   1.0157409906387329,
   0.98912703990936279,
   0.92233192920684814,
   0.95947980880737305,
   0.9900965690612793,
   1.0736402273178101,
   1.0018070936203003,
   0.9684758186340332,
   0.91816455125808716,
   0.91209757328033447,
   1.0712454319000244,
   1.1042792797088623,
   1.0093601942062378
]
