[
   95.000045776367188,
   94.925453186035156,
   94.226791381835938,
   93.563247680664062,
   95.078262329101562,
   93.4755859375,
   92.292564392089844,
   93.270828247070312,
   92.242340087890625,
   94.710678100585938,
   89.815284729003906,
   87.593215942382812,
   87.74627685546875,
   84.816635131835938,
   84.583786010742188,
   80.928237915039062,
   81.008857727050781,
   78.812423706054688,
   78.0428466796875,
   67.567184448242188,
   59.573890686035156,
   53.859058380126953,
   48.353424072265625,
   44.402202606201172,
   40.143947601318359,
   38.395839691162109,
   35.999137878417969,
   33.495193481445312,
   20.311252593994141,
   14.034794807434082,
   12.003354072570801,
   8.9661855697631836,
   7.2364258766174316,
   6.1780548095703125,
   5.2815680503845215,
   4.8202977180480957,
   4.0829610824584961,
   2.0950307846069336,
   1.7566554546356201,
   1.2537987232208252,
   1.055132269859314,
   1.0621182918548584,
   0.91742926836013794,
   0.66410320997238159,
   0.90865695476531982,
   1.1975828409194946,
   0.995380699634552,
   0.96589553356170654,
   0.88574916124343872,
   1.0836490392684937,
   0.86305254697799683,
   1.0518876314163208,
   0.76522260904312134,
   0.77165591716766357,
   0.84263467788696289,
   0.80225056409835815,
   0.9598928689956665,
   1.0472078323364258,
   0.95645081996917725,
   0.70271289348602295,
   1.158366322517395,
   1.2666984796524048,
   0.21218323707580566,
   1.1130480766296387
]
