[
   1.2883365154266357,
   1.2885963916778564,
   1.2884722948074341,
   1.2888648509979248,
   1.2885898351669312,
   1.2889622449874878,
   1.2891316413879395,
   1.2885091304779053,
   1.2879139184951782,
   1.2885072231292725,
   1.2887156009674072,
   1.2880370616912842,
   1.2883408069610596,
   1.2882225513458252,
   1.2880017757415771,
   1.2878713607788086,
   1.2883154153823853,
   1.2874279022216797,
   1.2873737812042236,
   1.2868082523345947,
   1.2858428955078125,
   1.284954309463501,
   1.283572793006897,
   1.2833015918731689,
   1.2819944620132446,
   1.2811182737350464,
   1.2806417942047119,
   1.2797476053237915,
   1.2722651958465576,
   1.2646491527557373,
   1.2578766345977783,
   1.252208948135376,
   1.2466884851455688,
   1.240808367729187,
   1.2350510358810425,
   1.2299505472183228,
   1.224931001663208,
   1.1831789016723633,
   1.1529585123062134,
   1.1293402910232544,
   1.1237388849258423,
   1.108595609664917,
   1.0963120460510254,
   1.0866693258285522,
   1.0779650211334229,
   1.0719954967498779,
   1.0299111604690552,
   1.0158860683441162,
   1.0094389915466309,
   1.0093443393707275,
   1.0059294700622559,
   1.0011457204818726,
   0.99933642148971558,
   1.0056625604629517,
   1.0033524036407471,
   0.99057424068450928,
   0.98038101196289062,
   0.99007958173751831,
   0.99210119247436523,
   0.99710291624069214,
   0.9937470555305481,
   1.0400328636169434,
   1.0687102079391479,
   0.99249285459518433
]
