[
   1.3030812740325928,
   1.3033322095870972,
   1.3029711246490479,
   1.3035417795181274,
   1.3029556274414062,
   1.3037841320037842,
   1.3036803007125854,
   1.3032380342483521,
   1.3029952049255371,
   1.3035717010498047,
   1.3030248880386353,
   1.3031504154205322,
   1.3030123710632324,
   1.3026623725891113,
   1.3025963306427002,
   1.3023715019226074,
   1.3030192852020264,
   1.3027948141098022,
   1.3026478290557861,
   1.3008190393447876,
   1.3004258871078491,
   1.2993934154510498,
   1.2986671924591064,
   1.2972419261932373,
   1.2960846424102783,
   1.2949923276901245,
   1.294421911239624,
   1.2934048175811768,
   1.285027027130127,
   1.2771263122558594,
   1.2701654434204102,
   1.2632558345794678,
   1.2564319372177124,
   1.2497333288192749,
   1.244330883026123,
   1.2385984659194946,
   1.2332031726837158,
   1.1893461942672729,
   1.1566051244735718,
   1.1329143047332764,
   1.1274286508560181,
   1.111749529838562,
   1.0991734266281128,
   1.0887722969055176,
   1.0794446468353271,
   1.0728752613067627,
   1.041277289390564,
   1.026236891746521,
   1.0227043628692627,
   1.0210244655609131,
   1.0205857753753662,
   1.0162988901138306,
   1.0161789655685425,
   1.0247108936309814,
   1.017458438873291,
   1.0204920768737793,
   1.0061503648757935,
   1.0018714666366577,
   0.99959689378738403,
   0.98640525341033936,
   0.9586716890335083,
   0.97487747669219971,
   0.89230978488922119,
   0.77649086713790894
]
