[
   8.4148883819580078,
   8.3693141937255859,
   8.3996191024780273,
   8.4062986373901367,
   8.374384880065918,
   8.3826093673706055,
   8.3873348236083984,
   8.3943510055541992,
   8.3502559661865234,
   8.3984537124633789,
   8.3300924301147461,
   8.3206386566162109,
   8.2394447326660156,
   8.2343873977661133,
   8.1935501098632812,
   8.1303434371948242,
   8.1082162857055664,
   8.0868959426879883,
   8.0634632110595703,
   7.6782112121582031,
   7.3975486755371094,
   7.1105399131774902,
   6.8734207153320312,
   6.6269063949584961,
   6.4178261756896973,
   6.1805582046508789,
   6.0302882194519043,
   5.8041448593139648,
   4.6042966842651367,
   3.8269641399383545,
   3.3575432300567627,
   3.0023179054260254,
   2.7412459850311279,
   2.5198502540588379,
   2.3858342170715332,
   2.2552187442779541,
   2.1598491668701172,
   1.5786445140838623,
   1.3545591831207275,
   1.2806094884872437,
   1.253847599029541,
   1.187656044960022,
   1.1439638137817383,
   1.1212362051010132,
   1.1627330780029297,
   1.0870344638824463,
   1.0007686614990234,
   1.0235388278961182,
   0.99631273746490479,
   0.97596585750579834,
   0.91834354400634766,
   0.98394930362701416,
   1.0227221250534058,
   0.91705036163330078,
   0.97552746534347534,
   0.96454465389251709,
   0.99905014038085938,
   0.98805302381515503,
   0.98978739976882935,
   1.0040202140808105,
   0.89672249555587769,
   0.9278380274772644,
   1.1195921897888184,
   0.83045691251754761
]
