[
   2.3989958763122559,
   2.4011890888214111,
   2.4002902507781982,
   2.3961319923400879,
   2.3995294570922852,
   2.4008872509002686,
   2.4000201225280762,
   2.3994793891906738,
   2.3994464874267578,
   2.3982293605804443,
   2.3956165313720703,
   2.3953440189361572,
   2.3959343433380127,
   2.3918657302856445,
   2.3906502723693848,
   2.3893859386444092,
   2.3875045776367188,
   2.3855423927307129,
   2.3830583095550537,
   2.3663394451141357,
   2.3530969619750977,
   2.3388934135437012,
   2.326465368270874,
   2.3101675510406494,
   2.2972397804260254,
   2.2867796421051025,
   2.2702126502990723,
   2.2626755237579346,
   2.151298999786377,
   2.0633690357208252,
   1.9844652414321899,
   1.9187080860137939,
   1.8569300174713135,
   1.801250696182251,
   1.7538436651229858,
   1.7178798913955688,
   1.6792171001434326,
   1.4470376968383789,
   1.3355441093444824,
   1.2620574235916138,
   1.2118728160858154,
   1.1856462955474854,
   1.1669838428497314,
   1.1425611972808838,
   1.1223881244659424,
   1.1127415895462036,
   1.0645478963851929,
   1.0352904796600342,
   1.030636191368103,
   1.0199501514434814,
   1.0335592031478882,
   1.003456711769104,
   0.99888515472412109,
   0.99623030424118042,
   1.013214111328125,
   0.98094922304153442,
   0.96974468231201172,
   0.97115707397460938,
   0.9718550443649292,
   0.97821938991546631,
   1.0040497779846191,
   1.0113117694854736,
   0.95315790176391602,
   0.89793503284454346
]
