[
   1.8313407897949219,
   1.8300079107284546,
   1.8302608728408813,
   1.8313190937042236,
   1.8292181491851807,
   1.829520583152771,
   1.8295150995254517,
   1.8294883966445923,
   1.8302175998687744,
   1.8300764560699463,
   1.8288033008575439,
   1.8273029327392578,
   1.8273508548736572,
   1.8277626037597656,
   1.8261028528213501,
   1.8254225254058838,
   1.8263695240020752,
   1.8249566555023193,
   1.8239988088607788,
   1.8179384469985962,
   1.8119655847549438,
   1.8072354793548584,
   1.8013916015625,
   1.7958734035491943,
   1.7907924652099609,
   1.7857925891876221,
   1.7808816432952881,
   1.7756315469741821,
   1.7291584014892578,
   1.6875509023666382,
   1.6504268646240234,
   1.6180942058563232,
   1.5862184762954712,
   1.5611889362335205,
   1.5348807573318481,
   1.5127776861190796,
   1.4920632839202881,
   1.3432706594467163,
   1.2552729845046997,
   1.2012884616851807,
   1.1633310317993164,
   1.13182532787323,
   1.1184427738189697,
   1.1058706045150757,
   1.0922918319702148,
   1.0812474489212036,
   1.0296809673309326,
   1.0119003057479858,
   1.0010675191879272,
   0.99579209089279175,
   0.99276715517044067,
   0.97645890712738037,
   0.98357141017913818,
   0.99244987964630127,
   0.98071479797363281,
   0.97905713319778442,
   0.98542577028274536,
   1.0210144519805908,
   0.98528754711151123,
   0.99896794557571411,
   0.95674228668212891,
   0.99101763963699341,
   0.99646902084350586,
   1.1226626634597778
]
