[
   26.433126449584961,
   26.356679916381836,
   26.277349472045898,
   26.370462417602539,
   26.312747955322266,
   26.092676162719727,
   26.216243743896484,
   26.018407821655273,
   26.329723358154297,
   26.019302368164062,
   25.750713348388672,
   25.160676956176758,
   24.652912139892578,
   24.397174835205078,
   23.985923767089844,
   23.610004425048828,
   23.470071792602539,
   22.902856826782227,
   22.588680267333984,
   19.610095977783203,
   17.503793716430664,
   15.937217712402344,
   14.623456001281738,
   13.309988021850586,
   12.535954475402832,
   11.503015518188477,
   11.016208648681641,
   10.268445014953613,
   6.6930055618286133,
   5.0125818252563477,
   3.9987387657165527,
   3.3893108367919922,
   3.0138790607452393,
   2.6615641117095947,
   2.5135352611541748,
   2.3888034820556641,
   2.2848386764526367,
   1.7251812219619751,
   1.3346517086029053,
   1.2039618492126465,
   1.0294739007949829,
   1.1825618743896484,
   1.1574281454086304,
   1.071171760559082,
   1.0586287975311279,
   1.1702152490615845,
   1.0442967414855957,
   1.0182473659515381,
   1.0113658905029297,
   0.99195563793182373,
   1.0372335910797119,
   0.9254080057144165,
   1.0741235017776489,
   1.0993789434432983,
   0.98353183269500732,
   1.02509605884552,
   1.0577585697174072,
   0.83375024795532227,
   1.1033413410186768,
   0.92762601375579834,
   1.0073206424713135,
   0.98138409852981567,
   1.2537052631378174,
   1.0107125043869019
]
