[
   1.2881902456283569,
   1.2885053157806396,
   1.2884414196014404,
   1.2879801988601685,
   1.2878158092498779,
   1.2881449460983276,
   1.2881700992584229,
   1.2880884408950806,
   1.2880351543426514,
   1.288177490234375,
   1.2881516218185425,
   1.288212776184082,
   1.2880233526229858,
   1.2874736785888672,
   1.2871896028518677,
   1.2875833511352539,
   1.2877329587936401,
   1.2875398397445679,
   1.2869874238967896,
   1.2855974435806274,
   1.2842334508895874,
   1.2825469970703125,
   1.2819441556930542,
   1.280806303024292,
   1.2799308300018311,
   1.2785522937774658,
   1.277517557144165,
   1.2761763334274292,
   1.2661106586456299,
   1.2565075159072876,
   1.2480173110961914,
   1.2397713661193848,
   1.2319778203964233,
   1.2247788906097412,
   1.2182053327560425,
   1.2120645046234131,
   1.2065798044204712,
   1.1586123704910278,
   1.1272796392440796,
   1.1050305366516113,
   1.1010468006134033,
   1.086266040802002,
   1.075743556022644,
   1.0662335157394409,
   1.0594449043273926,
   1.0559914112091064,
   1.0229465961456299,
   1.0079913139343262,
   0.99930208921432495,
   0.99832743406295776,
   0.99775564670562744,
   0.99314844608306885,
   0.99820929765701294,
   1.0097390413284302,
   1.0087325572967529,
   0.99744367599487305,
   1.0120131969451904,
   0.99551516771316528,
   0.99830359220504761,
   1.0052214860916138,
   0.97599869966506958,
   0.97679537534713745,
   0.98387324810028076,
   0.97611093521118164
]
