[
   1.3764259815216064,
   1.3757674694061279,
   1.3765174150466919,
   1.3759180307388306,
   1.3760769367218018,
   1.3759955167770386,
   1.3765068054199219,
   1.3761963844299316,
   1.3766611814498901,
   1.3761169910430908,
   1.3755779266357422,
   1.3757240772247314,
   1.3759028911590576,
   1.3754754066467285,
   1.3749692440032959,
   1.3742218017578125,
   1.3739240169525146,
   1.3737928867340088,
   1.3739948272705078,
   1.3723890781402588,
   1.3700970411300659,
   1.3685843944549561,
   1.3672611713409424,
   1.3646818399429321,
   1.3630454540252686,
   1.3608243465423584,
   1.3599091768264771,
   1.3583452701568604,
   1.3426120281219482,
   1.3284947872161865,
   1.3155395984649658,
   1.3036471605300903,
   1.2931250333786011,
   1.2829203605651855,
   1.2733266353607178,
   1.2646453380584717,
   1.2561157941818237,
   1.1930794715881348,
   1.152513861656189,
   1.1250377893447876,
   1.109679102897644,
   1.0930529832839966,
   1.0782220363616943,
   1.0677601099014282,
   1.060961127281189,
   1.0571714639663696,
   1.0214349031448364,
   1.0056717395782471,
   1.0136368274688721,
   1.0098942518234253,
   1.0068687200546265,
   1.012070894241333,
   1.0079828500747681,
   0.99567079544067383,
   0.98999309539794922,
   0.97758942842483521,
   0.98468530178070068,
   1.0097285509109497,
   1.0037117004394531,
   0.98903751373291016,
   0.978007972240448,
   1.0366919040679932,
   1.0543581247329712,
   1.0405439138412476
]
