[
   1.716623067855835,
   1.7158924341201782,
   1.7165520191192627,
   1.7170013189315796,
   1.7165520191192627,
   1.7158571481704712,
   1.7159850597381592,
   1.7164411544799805,
   1.7155063152313232,
   1.7155883312225342,
   1.7144935131072998,
   1.7138926982879639,
   1.7147119045257568,
   1.7131674289703369,
   1.7138407230377197,
   1.7113075256347656,
   1.7098071575164795,
   1.7117698192596436,
   1.7091100215911865,
   1.7049543857574463,
   1.6978851556777954,
   1.6922413110733032,
   1.6874005794525146,
   1.681496262550354,
   1.6759456396102905,
   1.6703367233276367,
   1.6644268035888672,
   1.6616384983062744,
   1.6162328720092773,
   1.577140212059021,
   1.5417066812515259,
   1.5102124214172363,
   1.4831439256668091,
   1.4588799476623535,
   1.4353344440460205,
   1.4139431715011597,
   1.3960676193237305,
   1.2687145471572876,
   1.1969068050384521,
   1.1541639566421509,
   1.1256339550018311,
   1.1077883243560791,
   1.0917848348617554,
   1.0836645364761353,
   1.0756137371063232,
   1.0655064582824707,
   1.0168697834014893,
   1.0053699016571045,
   1.0150823593139648,
   0.99908095598220825,
   0.99134886264801025,
   0.99925965070724487,
   1.0128772258758545,
   1.0056785345077515,
   1.0050625801086426,
   1.0096304416656494,
   1.0204446315765381,
   1.009189248085022,
   0.99455517530441284,
   0.99834811687469482,
   0.98099911212921143,
   0.94248658418655396,
   0.96257126331329346,
   0.9642338752746582
]
