[
   5.5464253425598145,
   5.5357389450073242,
   5.5418925285339355,
   5.5265207290649414,
   5.5274338722229004,
   5.5338573455810547,
   5.5246319770812988,
   5.5093808174133301,
   5.5158586502075195,
   5.515284538269043,
   5.5005521774291992,
   5.474797248840332,
   5.4694304466247559,
   5.4388389587402344,
   5.4266595840454102,
   5.4119477272033691,
   5.3900160789489746,
   5.362523078918457,
   5.3373613357543945,
   5.1865124702453613,
   5.0100374221801758,
   4.8630890846252441,
   4.7307405471801758,
   4.6116833686828613,
   4.5038952827453613,
   4.3822221755981445,
   4.2848038673400879,
   4.179267406463623,
   3.4491360187530518,
   2.9989266395568848,
   2.678046703338623,
   2.4429917335510254,
   2.2725265026092529,
   2.1339116096496582,
   2.0066056251525879,
   1.9148305654525757,
   1.8387548923492432,
   1.4235641956329346,
   1.2511917352676392,
   1.2031745910644531,
   1.1817405223846436,
   1.1560937166213989,
   1.1191385984420776,
   1.0843021869659424,
   1.0909247398376465,
   1.1159108877182007,
   1.0561586618423462,
   1.0246144533157349,
   1.0391901731491089,
   0.99465405941009521,
   0.98740261793136597,
   1.0073329210281372,
   0.99332094192504883,
   1.0003119707107544,
   0.995006263256073,
   0.98392647504806519,
   0.99270689487457275,
   0.9764639139175415,
   1.0060379505157471,
   0.90301066637039185,
   1.0577419996261597,
   0.98768556118011475,
   1.0259418487548828,
   1.2096823453903198
]
