[
   1.5182644128799438,
   1.5178321599960327,
   1.5172994136810303,
   1.5181572437286377,
   1.5179466009140015,
   1.5182050466537476,
   1.5180751085281372,
   1.5175812244415283,
   1.518291711807251,
   1.5186936855316162,
   1.5180450677871704,
   1.5170451402664185,
   1.5169996023178101,
   1.5163849592208862,
   1.5150601863861084,
   1.5159370899200439,
   1.5157161951065063,
   1.514738917350769,
   1.5150903463363647,
   1.5117731094360352,
   1.5088165998458862,
   1.5035102367401123,
   1.500714898109436,
   1.4981133937835693,
   1.4947066307067871,
   1.4926252365112305,
   1.4890284538269043,
   1.4857292175292969,
   1.4593969583511353,
   1.437542200088501,
   1.415355920791626,
   1.3960616588592529,
   1.3775166273117065,
   1.361318826675415,
   1.3459380865097046,
   1.3313214778900146,
   1.3181657791137695,
   1.2231119871139526,
   1.1716701984405518,
   1.1367374658584595,
   1.1147563457489014,
   1.1015611886978149,
   1.0885403156280518,
   1.0775607824325562,
   1.0672061443328857,
   1.0636448860168457,
   1.0189793109893799,
   1.0144662857055664,
   1.0031660795211792,
   0.99651038646697998,
   0.99183237552642822,
   0.99546205997467041,
   0.99622452259063721,
   0.99151265621185303,
   0.98199242353439331,
   0.97263640165328979,
   1.0023672580718994,
   0.99316155910491943,
   0.98376685380935669,
   1.0016080141067505,
   1.0101054906845093,
   0.99838083982467651,
   1.0486563444137573,
   1.0399986505508423
]
