[
   1.366474986076355,
   1.3660646677017212,
   1.366085410118103,
   1.3659690618515015,
   1.3667004108428955,
   1.366506814956665,
   1.3661613464355469,
   1.367245078086853,
   1.3660045862197876,
   1.3672899007797241,
   1.3663687705993652,
   1.3659427165985107,
   1.3665276765823364,
   1.3658146858215332,
   1.3655630350112915,
   1.3651759624481201,
   1.3648961782455444,
   1.3648674488067627,
   1.3648806810379028,
   1.3630629777908325,
   1.3611370325088501,
   1.3592427968978882,
   1.3581540584564209,
   1.3567221164703369,
   1.3547348976135254,
   1.3529462814331055,
   1.3519934415817261,
   1.3496062755584717,
   1.3359650373458862,
   1.3235549926757812,
   1.3118184804916382,
   1.3018480539321899,
   1.2908904552459717,
   1.2814236879348755,
   1.27351975440979,
   1.2645492553710938,
   1.256817102432251,
   1.1957252025604248,
   1.1576119661331177,
   1.1271141767501831,
   1.1148337125778198,
   1.0966485738754272,
   1.082808256149292,
   1.0733692646026611,
   1.0668623447418213,
   1.0618652105331421,
   1.0310807228088379,
   1.013318657875061,
   1.0097982883453369,
   1.0023429393768311,
   0.99199074506759644,
   0.98963248729705811,
   0.98712921142578125,
   0.98733550310134888,
   0.99501627683639526,
   0.99674606323242188,
   1.0051676034927368,
   0.99008816480636597,
   0.99195462465286255,
   0.98241329193115234,
   1.0083240270614624,
   1.0029506683349609,
   0.99326789379119873,
   1.0087606906890869
]
