[
   1.7958898544311523,
   1.7958879470825195,
   1.7963129281997681,
   1.7958282232284546,
   1.7968218326568604,
   1.7948074340820312,
   1.7957408428192139,
   1.7953580617904663,
   1.7975571155548096,
   1.7942911386489868,
   1.7942178249359131,
   1.7947317361831665,
   1.7949469089508057,
   1.7924333810806274,
   1.7915480136871338,
   1.7903449535369873,
   1.7900278568267822,
   1.78887939453125,
   1.7891654968261719,
   1.7819045782089233,
   1.7755228281021118,
   1.7718744277954102,
   1.7656238079071045,
   1.7616084814071655,
   1.7549288272857666,
   1.7487713098526001,
   1.745525598526001,
   1.7429943084716797,
   1.7069635391235352,
   1.6760450601577759,
   1.6454013586044312,
   1.6205326318740845,
   1.5974520444869995,
   1.5780013799667358,
   1.5560091733932495,
   1.5392249822616577,
   1.5216033458709717,
   1.3927147388458252,
   1.3103970289230347,
   1.2532017230987549,
   1.210564136505127,
   1.182647705078125,
   1.1582447290420532,
   1.1404557228088379,
   1.1280133724212646,
   1.1241805553436279,
   1.0337563753128052,
   1.0047346353530884,
   0.98414325714111328,
   0.98633021116256714,
   0.98530387878417969,
   0.99178266525268555,
   0.99047672748565674,
   0.99490052461624146,
   0.98002946376800537,
   0.98164510726928711,
   0.98369389772415161,
   0.99314528703689575,
   0.97225219011306763,
   1.0332286357879639,
   0.9905390739440918,
   0.98789626359939575,
   1.0447882413864136,
   1.0545799732208252
]
