[
   1.3367512226104736,
   1.3374006748199463,
   1.33725905418396,
   1.3375116586685181,
   1.3374258279800415,
   1.3374135494232178,
   1.3370542526245117,
   1.3376597166061401,
   1.3369739055633545,
   1.3370133638381958,
   1.3363649845123291,
   1.3374887704849243,
   1.3361871242523193,
   1.3363548517227173,
   1.3366053104400635,
   1.3360604047775269,
   1.3359805345535278,
   1.3360059261322021,
   1.334944486618042,
   1.3333756923675537,
   1.3307125568389893,
   1.3296529054641724,
   1.3281362056732178,
   1.3258897066116333,
   1.3248178958892822,
   1.323051929473877,
   1.3213965892791748,
   1.3198134899139404,
   1.3075536489486694,
   1.2968285083770752,
   1.2877343893051147,
   1.2802376747131348,
   1.271253228187561,
   1.2646362781524658,
   1.2593872547149658,
   1.2523730993270874,
   1.2460887432098389,
   1.1971505880355835,
   1.1614358425140381,
   1.1334311962127686,
   1.1204124689102173,
   1.1040539741516113,
   1.0893954038619995,
   1.0790995359420776,
   1.0692415237426758,
   1.0631650686264038,
   1.0216858386993408,
   1.0005009174346924,
   1.0030142068862915,
   0.99834328889846802,
   0.99665296077728271,
   0.98803389072418213,
   0.99491757154464722,
   0.99058198928833008,
   0.98746031522750854,
   0.99411582946777344,
   0.99641209840774536,
   0.98109781742095947,
   0.99316567182540894,
   1.0027477741241455,
   1.023141622543335,
   1.0152723789215088,
   0.98893052339553833,
   1.0534301996231079
]
