[
   1.4125953912734985,
   1.4119001626968384,
   1.4118781089782715,
   1.412029504776001,
   1.4118483066558838,
   1.4119255542755127,
   1.4118583202362061,
   1.4123966693878174,
   1.4120092391967773,
   1.4120845794677734,
   1.4119057655334473,
   1.4109938144683838,
   1.4109333753585815,
   1.4101731777191162,
   1.4102667570114136,
   1.4108201265335083,
   1.4100853204727173,
   1.4103752374649048,
   1.4085078239440918,
   1.4071059226989746,
   1.4044234752655029,
   1.4011180400848389,
   1.399661660194397,
   1.3984363079071045,
   1.3955168724060059,
   1.3933110237121582,
   1.3912441730499268,
   1.389413595199585,
   1.3739416599273682,
   1.3607234954833984,
   1.3480908870697021,
   1.3371512889862061,
   1.3282372951507568,
   1.3186266422271729,
   1.3107273578643799,
   1.3017685413360596,
   1.2946603298187256,
   1.2323944568634033,
   1.1909021139144897,
   1.15972900390625,
   1.1355072259902954,
   1.1152732372283936,
   1.0970051288604736,
   1.0838392972946167,
   1.0740253925323486,
   1.0672420263290405,
   1.0196342468261719,
   0.99884665012359619,
   0.99599570035934448,
   0.99965286254882812,
   0.98902595043182373,
   0.99199211597442627,
   0.98985874652862549,
   0.99256432056427002,
   0.99795877933502197,
   0.99217259883880615,
   0.99814862012863159,
   0.99394047260284424,
   0.97588843107223511,
   1.0120925903320312,
   1.0047177076339722,
   1.0066807270050049,
   1.0155990123748779,
   0.95989751815795898
]
