[
   6.6296563148498535,
   6.6272239685058594,
   6.6028528213500977,
   6.6381340026855469,
   6.6154112815856934,
   6.6428704261779785,
   6.6187591552734375,
   6.6100339889526367,
   6.6252222061157227,
   6.5984334945678711,
   6.6224546432495117,
   6.5685248374938965,
   6.5656318664550781,
   6.5633020401000977,
   6.5205636024475098,
   6.5146455764770508,
   6.4887971878051758,
   6.4571027755737305,
   6.4573593139648438,
   6.2957324981689453,
   6.1718945503234863,
   6.0587811470031738,
   5.9333691596984863,
   5.8245997428894043,
   5.7303390502929688,
   5.6466717720031738,
   5.558863639831543,
   5.4291715621948242,
   4.6995711326599121,
   4.1516799926757812,
   3.728651762008667,
   3.3917384147644043,
   3.123546838760376,
   2.9106101989746094,
   2.7419581413269043,
   2.5848929882049561,
   2.4502019882202148,
   1.7716333866119385,
   1.5153499841690063,
   1.3598581552505493,
   1.2597023248672485,
   1.2105501890182495,
   1.2188961505889893,
   1.1885920763015747,
   1.1180593967437744,
   1.0772343873977661,
   1.0181479454040527,
   1.0206233263015747,
   0.99393713474273682,
   0.96322309970855713,
   1.0192011594772339,
   1.0216190814971924,
   1.029916524887085,
   1.0013082027435303,
   1.012912392616272,
   1.0787571668624878,
   0.94853001832962036,
   1.0563094615936279,
   0.98969161510467529,
   1.0608631372451782,
   0.89498740434646606,
   1.0346457958221436,
   0.86361885070800781,
   1.033464789390564
]
