[
   2.8436195850372314,
   2.8517608642578125,
   2.8507885932922363,
   2.8438770771026611,
   2.8435757160186768,
   2.8525478839874268,
   2.8464953899383545,
   2.8473391532897949,
   2.8430411815643311,
   2.843846321105957,
   2.8444035053253174,
   2.8398375511169434,
   2.836174488067627,
   2.8315169811248779,
   2.8309230804443359,
   2.82454514503479,
   2.822920560836792,
   2.8249142169952393,
   2.8185248374938965,
   2.7904777526855469,
   2.7699484825134277,
   2.7479672431945801,
   2.7243325710296631,
   2.7077956199645996,
   2.6871101856231689,
   2.6764414310455322,
   2.6546282768249512,
   2.6407866477966309,
   2.5018627643585205,
   2.3826854228973389,
   2.2850708961486816,
   2.2011475563049316,
   2.1210243701934814,
   2.0560264587402344,
   1.9955158233642578,
   1.9424984455108643,
   1.8932037353515625,
   1.5749051570892334,
   1.405501127243042,
   1.3171569108963013,
   1.2565597295761108,
   1.2082717418670654,
   1.1587142944335938,
   1.1532405614852905,
   1.1308013200759888,
   1.112504243850708,
   0.99818259477615356,
   1.0005195140838623,
   1.0041028261184692,
   1.0057320594787598,
   1.0058481693267822,
   0.98481816053390503,
   0.99810445308685303,
   0.995094895362854,
   0.99238157272338867,
   0.97102224826812744,
   0.97270411252975464,
   1.0109632015228271,
   0.99890965223312378,
   1.001390814781189,
   0.95561444759368896,
   0.981514573097229,
   1.0076577663421631,
   0.87796199321746826
]
