[
   2.0968794822692871,
   2.0987229347229004,
   2.0958542823791504,
   2.0972566604614258,
   2.0951719284057617,
   2.0955839157104492,
   2.0951600074768066,
   2.0964818000793457,
   2.0965895652770996,
   2.0957505702972412,
   2.0958049297332764,
   2.0903725624084473,
   2.0934393405914307,
   2.0912256240844727,
   2.0915873050689697,
   2.0898048877716064,
   2.088874340057373,
   2.0850999355316162,
   2.0842278003692627,
   2.0725154876708984,
   2.063190221786499,
   2.0537664890289307,
   2.0423166751861572,
   2.034977912902832,
   2.024439811706543,
   2.0173768997192383,
   2.0108642578125,
   2.0056228637695312,
   1.9449621438980103,
   1.8895332813262939,
   1.8457368612289429,
   1.8034217357635498,
   1.7658481597900391,
   1.7292804718017578,
   1.6973621845245361,
   1.6701370477676392,
   1.6451267004013062,
   1.4507880210876465,
   1.333932638168335,
   1.2570233345031738,
   1.2105779647827148,
   1.1739046573638916,
   1.1450990438461304,
   1.1221029758453369,
   1.1087906360626221,
   1.0978008508682251,
   1.0376615524291992,
   1.0173112154006958,
   1.0084686279296875,
   1.0024508237838745,
   1.006183385848999,
   0.99896591901779175,
   1.0330793857574463,
   1.0143963098526001,
   1.0026654005050659,
   0.99952918291091919,
   1.0052742958068848,
   1.0017243623733521,
   0.96370202302932739,
   0.98701941967010498,
   0.95601606369018555,
   0.97884446382522583,
   0.96027755737304688,
   1.0182735919952393
]
