[
   1.5165281295776367,
   1.5179568529129028,
   1.5179377794265747,
   1.5175244808197021,
   1.5170319080352783,
   1.5172121524810791,
   1.5178364515304565,
   1.5172122716903687,
   1.5166599750518799,
   1.5162227153778076,
   1.5168470144271851,
   1.5155171155929565,
   1.5139763355255127,
   1.5145821571350098,
   1.5141894817352295,
   1.5139032602310181,
   1.5131407976150513,
   1.5129615068435669,
   1.5117059946060181,
   1.5074765682220459,
   1.5020486116409302,
   1.4974324703216553,
   1.492219090461731,
   1.4881319999694824,
   1.4841604232788086,
   1.4796422719955444,
   1.4764093160629272,
   1.4721590280532837,
   1.4415478706359863,
   1.4157259464263916,
   1.3943074941635132,
   1.3765043020248413,
   1.3615057468414307,
   1.3462083339691162,
   1.3333336114883423,
   1.3214119672775269,
   1.310436487197876,
   1.2287787199020386,
   1.1802451610565186,
   1.1449764966964722,
   1.1187813282012939,
   1.0980666875839233,
   1.0784499645233154,
   1.0680687427520752,
   1.059247612953186,
   1.0533297061920166,
   1.0131274461746216,
   1.0116569995880127,
   0.99746906757354736,
   0.99382388591766357,
   0.98975372314453125,
   0.99831593036651611,
   0.98775303363800049,
   0.98427850008010864,
   0.98435908555984497,
   0.99043816328048706,
   1.0098313093185425,
   0.98284673690795898,
   0.98698437213897705,
   1.005664587020874,
   0.99820423126220703,
   0.98194009065628052,
   1.0055605173110962,
   0.99195766448974609
]
