[
   3.5990719795227051,
   3.5973114967346191,
   3.6031482219696045,
   3.6047325134277344,
   3.599759578704834,
   3.5921597480773926,
   3.593930721282959,
   3.5955994129180908,
   3.5946459770202637,
   3.6022987365722656,
   3.5958919525146484,
   3.5834670066833496,
   3.5793297290802002,
   3.5603892803192139,
   3.5557968616485596,
   3.5580763816833496,
   3.5537376403808594,
   3.5396981239318848,
   3.5349292755126953,
   3.4679920673370361,
   3.4036273956298828,
   3.3586475849151611,
   3.3090648651123047,
   3.2757377624511719,
   3.2361373901367188,
   3.193244457244873,
   3.1643805503845215,
   3.1286273002624512,
   2.8660166263580322,
   2.6602771282196045,
   2.4995629787445068,
   2.3625087738037109,
   2.2546732425689697,
   2.1527371406555176,
   2.0638577938079834,
   1.9841210842132568,
   1.9283682107925415,
   1.5146880149841309,
   1.341052770614624,
   1.2273788452148438,
   1.170802116394043,
   1.1366837024688721,
   1.1002507209777832,
   1.0851349830627441,
   1.0846377611160278,
   1.0891968011856079,
   1.0230438709259033,
   1.0160244703292847,
   0.99525678157806396,
   0.96420860290527344,
   0.99446380138397217,
   0.95131433010101318,
   1.020382285118103,
   1.0019464492797852,
   0.97266185283660889,
   0.98855078220367432,
   0.9678875207901001,
   0.98753082752227783,
   0.99931448698043823,
   1.0088976621627808,
   0.99948674440383911,
   1.0135799646377563,
   1.053706169128418,
   0.91033565998077393
]
