[
   2.478926420211792,
   2.4807894229888916,
   2.478665828704834,
   2.478351354598999,
   2.4765934944152832,
   2.4775159358978271,
   2.4795241355895996,
   2.4790744781494141,
   2.4787096977233887,
   2.4787697792053223,
   2.4727835655212402,
   2.469388484954834,
   2.4708340167999268,
   2.4631524085998535,
   2.4622976779937744,
   2.4614512920379639,
   2.4575405120849609,
   2.4561409950256348,
   2.4501068592071533,
   2.4274296760559082,
   2.4044270515441895,
   2.3770797252655029,
   2.356529712677002,
   2.340487003326416,
   2.3263881206512451,
   2.3039500713348389,
   2.2923266887664795,
   2.2787775993347168,
   2.1565442085266113,
   2.0621879100799561,
   1.9815858602523804,
   1.9202442169189453,
   1.8562542200088501,
   1.8060251474380493,
   1.7597049474716187,
   1.7171218395233154,
   1.6792099475860596,
   1.4221948385238647,
   1.2988083362579346,
   1.2195923328399658,
   1.1707679033279419,
   1.1354191303253174,
   1.1157050132751465,
   1.0960590839385986,
   1.0853536128997803,
   1.0779801607131958,
   1.0289220809936523,
   1.0152915716171265,
   1.0276947021484375,
   0.99544018507003784,
   0.99093186855316162,
   0.98735982179641724,
   1.0134531259536743,
   0.98767489194869995,
   0.99403345584869385,
   0.99959278106689453,
   1.0274745225906372,
   0.999298095703125,
   0.993491530418396,
   0.99117201566696167,
   0.93716156482696533,
   0.92713624238967896,
   0.93962395191192627,
   0.91887587308883667
]
