[
   1.8330929279327393,
   1.8322767019271851,
   1.8325055837631226,
   1.8335497379302979,
   1.8317457437515259,
   1.8324788808822632,
   1.8348238468170166,
   1.8311502933502197,
   1.8324102163314819,
   1.8322130441665649,
   1.8298780918121338,
   1.8295555114746094,
   1.8277232646942139,
   1.8255674839019775,
   1.8239288330078125,
   1.825173020362854,
   1.8227949142456055,
   1.8206422328948975,
   1.821253776550293,
   1.8115084171295166,
   1.7993189096450806,
   1.7885547876358032,
   1.7826627492904663,
   1.7713428735733032,
   1.7629585266113281,
   1.7546581029891968,
   1.7491728067398071,
   1.741197943687439,
   1.6819301843643188,
   1.6381088495254517,
   1.599819540977478,
   1.5662848949432373,
   1.5423934459686279,
   1.5127103328704834,
   1.4904420375823975,
   1.4695641994476318,
   1.4482731819152832,
   1.3153104782104492,
   1.2337511777877808,
   1.173396110534668,
   1.1322513818740845,
   1.1017343997955322,
   1.0797278881072998,
   1.0669554471969604,
   1.059063196182251,
   1.0494626760482788,
   1.0115182399749756,
   1.0126854181289673,
   1.0035293102264404,
   1.0083749294281006,
   1.0019689798355103,
   1.0041372776031494,
   1.0060499906539917,
   0.99113494157791138,
   1.0071933269500732,
   1.0037755966186523,
   1.0101056098937988,
   1.0003855228424072,
   0.99394559860229492,
   0.99036204814910889,
   0.97574818134307861,
   0.99432575702667236,
   0.97191208600997925,
   0.86563712358474731
]
