[
   1.4346597194671631,
   1.4358291625976562,
   1.4361424446105957,
   1.4345754384994507,
   1.4355275630950928,
   1.4344370365142822,
   1.4347120523452759,
   1.4340633153915405,
   1.4354907274246216,
   1.4347875118255615,
   1.4341975450515747,
   1.4343185424804688,
   1.4338173866271973,
   1.4336639642715454,
   1.4326199293136597,
   1.4321877956390381,
   1.4321990013122559,
   1.43113112449646,
   1.4311445951461792,
   1.4262521266937256,
   1.4229108095169067,
   1.4191694259643555,
   1.4160897731781006,
   1.4120500087738037,
   1.4093271493911743,
   1.4061861038208008,
   1.4029549360275269,
   1.4000020027160645,
   1.3741374015808105,
   1.3541924953460693,
   1.3374969959259033,
   1.3241437673568726,
   1.3107441663742065,
   1.2998945713043213,
   1.2892380952835083,
   1.278670072555542,
   1.2694351673126221,
   1.2029014825820923,
   1.1618658304214478,
   1.1312459707260132,
   1.110324501991272,
   1.0905090570449829,
   1.0760961771011353,
   1.0673366785049438,
   1.0576915740966797,
   1.0522422790527344,
   1.0209833383560181,
   1.0003435611724854,
   0.99781882762908936,
   0.99750912189483643,
   0.99806851148605347,
   0.98665410280227661,
   0.994842529296875,
   0.99082076549530029,
   0.987263023853302,
   0.99698907136917114,
   0.9921305775642395,
   0.99978792667388916,
   0.9970666766166687,
   1.0017144680023193,
   0.99359208345413208,
   1.0026867389678955,
   1.020763635635376,
   1.012972354888916
]
