[
   1.6845442056655884,
   1.6834771633148193,
   1.6840406656265259,
   1.6847572326660156,
   1.6826431751251221,
   1.6832834482192993,
   1.6829402446746826,
   1.6828310489654541,
   1.6833471059799194,
   1.6817407608032227,
   1.682655930519104,
   1.6816298961639404,
   1.6791450977325439,
   1.6775754690170288,
   1.6780538558959961,
   1.6760654449462891,
   1.6768395900726318,
   1.6748842000961304,
   1.6739953756332397,
   1.6662918329238892,
   1.6579873561859131,
   1.6490386724472046,
   1.6424671411514282,
   1.6357147693634033,
   1.628650426864624,
   1.6216468811035156,
   1.6157419681549072,
   1.6096519231796265,
   1.5580198764801025,
   1.516431450843811,
   1.4801480770111084,
   1.4483880996704102,
   1.4194802045822144,
   1.3962247371673584,
   1.3736096620559692,
   1.3537302017211914,
   1.3348715305328369,
   1.2203397750854492,
   1.1611082553863525,
   1.1237001419067383,
   1.0957841873168945,
   1.0757477283477783,
   1.0645220279693604,
   1.051945686340332,
   1.044201135635376,
   1.0394710302352905,
   1.000585675239563,
   1.0017359256744385,
   0.99885332584381104,
   1.0056626796722412,
   0.99528372287750244,
   1.003266453742981,
   1.0093768835067749,
   1.0097553730010986,
   1.0129517316818237,
   0.97916114330291748,
   1.0022623538970947,
   0.99186533689498901,
   0.99843233823776245,
   0.99291896820068359,
   0.97958219051361084,
   1.0055044889450073,
   1.0099750757217407,
   1.002752423286438
]
