[
   3.953789234161377,
   3.9505436420440674,
   3.953291654586792,
   3.9473686218261719,
   3.9435336589813232,
   3.9391739368438721,
   3.9389579296112061,
   3.9420680999755859,
   3.9425110816955566,
   3.9467206001281738,
   3.930588960647583,
   3.9120335578918457,
   3.9095492362976074,
   3.8950245380401611,
   3.877274751663208,
   3.8680768013000488,
   3.8577675819396973,
   3.8537662029266357,
   3.8434994220733643,
   3.7411198616027832,
   3.6547634601593018,
   3.5726673603057861,
   3.4933292865753174,
   3.4280180931091309,
   3.3683326244354248,
   3.2952589988708496,
   3.2441775798797607,
   3.1925349235534668,
   2.7397491931915283,
   2.4634861946105957,
   2.2492246627807617,
   2.0972294807434082,
   1.9687862396240234,
   1.8636569976806641,
   1.7830467224121094,
   1.7098586559295654,
   1.6406984329223633,
   1.3672378063201904,
   1.2497909069061279,
   1.1803956031799316,
   1.1283143758773804,
   1.1028094291687012,
   1.083493709564209,
   1.0807712078094482,
   1.0658857822418213,
   1.0448760986328125,
   1.0085470676422119,
   0.99083119630813599,
   0.98448991775512695,
   0.95579737424850464,
   0.96306771039962769,
   0.99260866641998291,
   0.98737585544586182,
   0.99136018753051758,
   1.0092426538467407,
   0.99402916431427002,
   0.97453677654266357,
   0.94003629684448242,
   0.96767795085906982,
   0.99358099699020386,
   1.0058352947235107,
   1.0381301641464233,
   1.034409761428833,
   1.1032088994979858
]
