[
   2.8862791061401367,
   2.8908054828643799,
   2.8865559101104736,
   2.8881552219390869,
   2.8818423748016357,
   2.8858287334442139,
   2.8844709396362305,
   2.885662317276001,
   2.8848080635070801,
   2.8834950923919678,
   2.8747682571411133,
   2.8730757236480713,
   2.8635222911834717,
   2.8595736026763916,
   2.8537697792053223,
   2.8502547740936279,
   2.8455853462219238,
   2.8483331203460693,
   2.8302607536315918,
   2.7886087894439697,
   2.7395691871643066,
   2.699054479598999,
   2.6667637825012207,
   2.6375899314880371,
   2.6014244556427002,
   2.5701684951782227,
   2.5401871204376221,
   2.5103144645690918,
   2.2779567241668701,
   2.0997200012207031,
   1.9673677682876587,
   1.8649629354476929,
   1.7732641696929932,
   1.7001596689224243,
   1.6384376287460327,
   1.5880951881408691,
   1.543410062789917,
   1.2992644309997559,
   1.1886279582977295,
   1.1279492378234863,
   1.0916944742202759,
   1.0784487724304199,
   1.0561982393264771,
   1.0609469413757324,
   1.0575270652770996,
   1.0486946105957031,
   0.99635601043701172,
   1.0032068490982056,
   1.0117937326431274,
   1.0049921274185181,
   0.99887621402740479,
   1.0015766620635986,
   0.99910008907318115,
   1.002183198928833,
   0.98836201429367065,
   1.0176068544387817,
   1.0489959716796875,
   1.0122649669647217,
   0.98209494352340698,
   0.98139655590057373,
   0.94885510206222534,
   0.98834389448165894,
   0.87926787137985229,
   0.93026828765869141
]
