[
   1.4626612663269043,
   1.4615844488143921,
   1.4621514081954956,
   1.4630557298660278,
   1.4621450901031494,
   1.4619966745376587,
   1.4614092111587524,
   1.460885763168335,
   1.4620417356491089,
   1.461439847946167,
   1.4624195098876953,
   1.4618086814880371,
   1.461205005645752,
   1.4596173763275146,
   1.4595925807952881,
   1.4582862854003906,
   1.4588081836700439,
   1.4579975605010986,
   1.4566860198974609,
   1.4533945322036743,
   1.447659969329834,
   1.4451730251312256,
   1.4404109716415405,
   1.4366611242294312,
   1.4323041439056396,
   1.4287416934967041,
   1.425108790397644,
   1.4211068153381348,
   1.3918801546096802,
   1.3671480417251587,
   1.3455334901809692,
   1.3275562524795532,
   1.3085935115814209,
   1.2929748296737671,
   1.2804163694381714,
   1.2670191526412964,
   1.255797266960144,
   1.1738946437835693,
   1.1258875131607056,
   1.0969042778015137,
   1.0777623653411865,
   1.0631465911865234,
   1.055012583732605,
   1.0484998226165771,
   1.040360689163208,
   1.0384764671325684,
   1.0088127851486206,
   1.0058391094207764,
   1.0016138553619385,
   0.99844515323638916,
   0.99156510829925537,
   1.0011639595031738,
   1.0040353536605835,
   1.0001245737075806,
   1.0089708566665649,
   0.99770325422286987,
   0.9851917028427124,
   0.99813729524612427,
   0.9870142936706543,
   0.9960474967956543,
   1.007612943649292,
   1.0178638696670532,
   1.013187050819397,
   0.95138037204742432
]
