[
   1.8049628734588623,
   1.8028669357299805,
   1.8050544261932373,
   1.8040187358856201,
   1.8053314685821533,
   1.8037340641021729,
   1.8042232990264893,
   1.8040231466293335,
   1.8059206008911133,
   1.8011926412582397,
   1.8015429973602295,
   1.799373984336853,
   1.8005609512329102,
   1.7998926639556885,
   1.7969105243682861,
   1.7972809076309204,
   1.7959260940551758,
   1.7934364080429077,
   1.7938054800033569,
   1.7813880443572998,
   1.7700355052947998,
   1.7601251602172852,
   1.7509269714355469,
   1.74163818359375,
   1.7331278324127197,
   1.7236931324005127,
   1.7132911682128906,
   1.707017183303833,
   1.6340652704238892,
   1.5768411159515381,
   1.5311079025268555,
   1.4909237623214722,
   1.4560734033584595,
   1.4252973794937134,
   1.3996990919113159,
   1.3726580142974854,
   1.350963830947876,
   1.2230073213577271,
   1.1611368656158447,
   1.1240594387054443,
   1.0989143848419189,
   1.0830862522125244,
   1.0720617771148682,
   1.0627562999725342,
   1.0536372661590576,
   1.0438635349273682,
   1.0079923868179321,
   0.99367320537567139,
   1.0062379837036133,
   1.0078858137130737,
   1.0001915693283081,
   1.0092185735702515,
   0.99568307399749756,
   1.0014764070510864,
   0.99774825572967529,
   0.99524462223052979,
   0.98782908916473389,
   0.99374473094940186,
   0.96725690364837646,
   1.0260249376296997,
   1.0094965696334839,
   1.0064545869827271,
   0.98391425609588623,
   0.92774993181228638
]
