[
   40.662849426269531,
   40.036018371582031,
   40.020881652832031,
   39.64056396484375,
   40.051467895507812,
   39.365592956542969,
   39.853099822998047,
   39.509376525878906,
   39.055747985839844,
   38.77886962890625,
   37.693901062011719,
   36.314826965332031,
   34.747367858886719,
   34.045783996582031,
   32.534145355224609,
   31.962423324584961,
   30.978643417358398,
   30.041860580444336,
   29.057018280029297,
   22.964773178100586,
   18.821815490722656,
   16.007776260375977,
   13.965448379516602,
   12.580484390258789,
   11.070141792297363,
   9.9966793060302734,
   9.3331499099731445,
   8.6588048934936523,
   5.1411924362182617,
   3.8097991943359375,
   3.0995059013366699,
   2.7472574710845947,
   2.3217449188232422,
   2.139620304107666,
   2.1101522445678711,
   1.8323519229888916,
   1.8513195514678955,
   1.4634960889816284,
   1.2179242372512817,
   1.1768133640289307,
   1.2240253686904907,
   1.0926883220672607,
   1.0059545040130615,
   1.0259953737258911,
   1.062604546546936,
   1.0101300477981567,
   1.0005866289138794,
   0.93789976835250854,
   1.0361104011535645,
   0.90055596828460693,
   1.0933092832565308,
   0.99406701326370239,
   1.021269679069519,
   0.93714684247970581,
   0.90954524278640747,
   0.87762385606765747,
   1.0039386749267578,
   0.8404509425163269,
   1.0032676458358765,
   1.1015875339508057,
   1.1078989505767822,
   0.97252351045608521,
   0.98390752077102661,
   1.3821998834609985
]
