[
   7.171600341796875,
   7.154541015625,
   7.1665887832641602,
   7.1319589614868164,
   7.124608039855957,
   7.1557784080505371,
   7.1548895835876465,
   7.1335463523864746,
   7.1404662132263184,
   7.1231422424316406,
   7.0789070129394531,
   7.0339713096618652,
   6.9935622215270996,
   6.9257903099060059,
   6.887028694152832,
   6.8225173950195312,
   6.7981467247009277,
   6.7763762474060059,
   6.7453474998474121,
   6.3506870269775391,
   6.0626955032348633,
   5.7849993705749512,
   5.5020203590393066,
   5.2823400497436523,
   5.1002440452575684,
   4.921473503112793,
   4.7301383018493652,
   4.5664463043212891,
   3.5171420574188232,
   2.9334042072296143,
   2.554377555847168,
   2.2878468036651611,
   2.0974459648132324,
   1.9559290409088135,
   1.8232580423355103,
   1.7543337345123291,
   1.6839383840560913,
   1.3030326366424561,
   1.2176460027694702,
   1.165759801864624,
   1.1082581281661987,
   1.0467774868011475,
   1.0553319454193115,
   1.041391134262085,
   1.0378296375274658,
   1.043155312538147,
   1.0011880397796631,
   0.9823155403137207,
   0.96139830350875854,
   0.98237913846969604,
   0.98268526792526245,
   0.96731728315353394,
   0.97873276472091675,
   0.97947120666503906,
   0.99281013011932373,
   0.95496064424514771,
   0.99414360523223877,
   0.98691809177398682,
   0.98620355129241943,
   1.0314730405807495,
   1.02630615234375,
   1.0053032636642456,
   1.1752982139587402,
   1.1302430629730225
]
