[
   1.5372660160064697,
   1.5363831520080566,
   1.5362435579299927,
   1.5357977151870728,
   1.5369560718536377,
   1.5366923809051514,
   1.5365651845932007,
   1.5369322299957275,
   1.5362613201141357,
   1.5363545417785645,
   1.5356433391571045,
   1.5350079536437988,
   1.5351052284240723,
   1.5337550640106201,
   1.5321222543716431,
   1.533909797668457,
   1.5318071842193604,
   1.5318725109100342,
   1.5307134389877319,
   1.5258160829544067,
   1.5187866687774658,
   1.5146828889846802,
   1.5079363584518433,
   1.5043423175811768,
   1.499645471572876,
   1.4957268238067627,
   1.4910252094268799,
   1.4855457544326782,
   1.4462405443191528,
   1.413424015045166,
   1.3868571519851685,
   1.3616946935653687,
   1.3399096727371216,
   1.3198739290237427,
   1.3047935962677002,
   1.2892388105392456,
   1.2747399806976318,
   1.1810657978057861,
   1.1310492753982544,
   1.1009230613708496,
   1.0850579738616943,
   1.0714000463485718,
   1.0631401538848877,
   1.0581097602844238,
   1.0495333671569824,
   1.04542076587677,
   1.0124657154083252,
   1.0017329454421997,
   1.0015262365341187,
   0.99536257982254028,
   0.98995029926300049,
   0.98985624313354492,
   0.98908817768096924,
   0.99275779724121094,
   0.99023902416229248,
   0.99686414003372192,
   0.99207413196563721,
   0.99007213115692139,
   0.99096888303756714,
   1.0059094429016113,
   0.98514699935913086,
   1.0067199468612671,
   1.02032470703125,
   1.0790141820907593
]
