[
   1.6951179504394531,
   1.6966845989227295,
   1.6950241327285767,
   1.6929794549942017,
   1.6938831806182861,
   1.6940549612045288,
   1.6943811178207397,
   1.6924259662628174,
   1.6943120956420898,
   1.6938438415527344,
   1.6939771175384521,
   1.6917766332626343,
   1.6911426782608032,
   1.6907298564910889,
   1.6888240575790405,
   1.6889108419418335,
   1.6866832971572876,
   1.68609619140625,
   1.6849400997161865,
   1.6766306161880493,
   1.6677592992782593,
   1.6607532501220703,
   1.6534160375595093,
   1.6450216770172119,
   1.6372808218002319,
   1.6304095983505249,
   1.6240110397338867,
   1.6161978244781494,
   1.5607361793518066,
   1.5145692825317383,
   1.4753155708312988,
   1.4411181211471558,
   1.4117727279663086,
   1.3867959976196289,
   1.3640459775924683,
   1.3444751501083374,
   1.3258379697799683,
   1.2127699851989746,
   1.1525379419326782,
   1.1128612756729126,
   1.0894910097122192,
   1.0768539905548096,
   1.0631663799285889,
   1.0538573265075684,
   1.0466735363006592,
   1.0438735485076904,
   1.0096671581268311,
   1.0124561786651611,
   1.0025718212127686,
   0.99517422914505005,
   0.98406350612640381,
   0.98704493045806885,
   0.99841660261154175,
   0.9952467679977417,
   0.99758738279342651,
   1.0002169609069824,
   0.99158334732055664,
   0.98281747102737427,
   0.9913405179977417,
   1.0055094957351685,
   1.0232744216918945,
   1.0117256641387939,
   0.98994749784469604,
   1.0678175687789917
]
