[
   2.5056040287017822,
   2.4995486736297607,
   2.5014643669128418,
   2.504000186920166,
   2.4991471767425537,
   2.5000882148742676,
   2.5006403923034668,
   2.5003519058227539,
   2.5012357234954834,
   2.4961833953857422,
   2.4979650974273682,
   2.4908056259155273,
   2.489454984664917,
   2.4825999736785889,
   2.4808206558227539,
   2.4809925556182861,
   2.4765157699584961,
   2.470487117767334,
   2.4669034481048584,
   2.4353699684143066,
   2.4058785438537598,
   2.3763997554779053,
   2.3472447395324707,
   2.323171854019165,
   2.2989981174468994,
   2.2751631736755371,
   2.2548596858978271,
   2.2357323169708252,
   2.0594477653503418,
   1.928367018699646,
   1.8211164474487305,
   1.7462660074234009,
   1.6725820302963257,
   1.6183170080184937,
   1.5721096992492676,
   1.5270477533340454,
   1.4928348064422607,
   1.3014163970947266,
   1.2031700611114502,
   1.1564551591873169,
   1.1199952363967896,
   1.0972914695739746,
   1.0728274583816528,
   1.0677171945571899,
   1.0566914081573486,
   1.0562076568603516,
   1.0044784545898438,
   1.0119515657424927,
   0.99425899982452393,
   1.0013363361358643,
   0.993022620677948,
   1.0034440755844116,
   0.99863481521606445,
   1.0042173862457275,
   0.99688655138015747,
   1.0051631927490234,
   1.009227991104126,
   1.0045496225357056,
   1.008387565612793,
   0.99507367610931396,
   0.96568548679351807,
   0.98957604169845581,
   0.91703331470489502,
   0.88422280550003052
]
