[
   1.9613498449325562,
   1.9616668224334717,
   1.9620621204376221,
   1.9597975015640259,
   1.9602184295654297,
   1.9598147869110107,
   1.9613145589828491,
   1.9584863185882568,
   1.9627653360366821,
   1.9596620798110962,
   1.9595527648925781,
   1.9571307897567749,
   1.9530775547027588,
   1.9531800746917725,
   1.9507884979248047,
   1.9511659145355225,
   1.9470930099487305,
   1.9471832513809204,
   1.9463886022567749,
   1.9313615560531616,
   1.9151754379272461,
   1.9015535116195679,
   1.8885939121246338,
   1.8766216039657593,
   1.8634350299835205,
   1.8505966663360596,
   1.8405284881591797,
   1.8288081884384155,
   1.7356607913970947,
   1.6585325002670288,
   1.599636435508728,
   1.5474833250045776,
   1.5014640092849731,
   1.4638932943344116,
   1.431351900100708,
   1.4015934467315674,
   1.3767989873886108,
   1.2271116971969604,
   1.1563433408737183,
   1.1219989061355591,
   1.0975131988525391,
   1.0746482610702515,
   1.061103343963623,
   1.0559346675872803,
   1.0404325723648071,
   1.0271250009536743,
   1.0188013315200806,
   1.0182632207870483,
   1.0074541568756104,
   0.99808454513549805,
   0.99577254056930542,
   1.0001341104507446,
   0.99427413940429688,
   0.9868546724319458,
   0.99470269680023193,
   0.9881969690322876,
   0.999961256980896,
   0.99194777011871338,
   0.99469363689422607,
   0.98141175508499146,
   0.97145330905914307,
   0.99386769533157349,
   0.97652578353881836,
   1.0132315158843994
]
