[
   1.3141458034515381,
   1.3137400150299072,
   1.3142359256744385,
   1.3141686916351318,
   1.3141539096832275,
   1.3141552209854126,
   1.313992977142334,
   1.31449294090271,
   1.3140164613723755,
   1.3144274950027466,
   1.3138067722320557,
   1.3137638568878174,
   1.3143467903137207,
   1.3135626316070557,
   1.3129769563674927,
   1.3125417232513428,
   1.3130948543548584,
   1.3131718635559082,
   1.3128762245178223,
   1.3111472129821777,
   1.3097118139266968,
   1.3087435960769653,
   1.3071396350860596,
   1.3060436248779297,
   1.3043535947799683,
   1.3036212921142578,
   1.3018729686737061,
   1.3003426790237427,
   1.2880209684371948,
   1.277613639831543,
   1.2681442499160767,
   1.2586482763290405,
   1.2499417066574097,
   1.2418721914291382,
   1.2352442741394043,
   1.22772216796875,
   1.2208671569824219,
   1.1699807643890381,
   1.1361162662506104,
   1.1120301485061646,
   1.1050443649291992,
   1.0897523164749146,
   1.0767632722854614,
   1.0645101070404053,
   1.0551373958587646,
   1.0492136478424072,
   1.0204026699066162,
   1.0027987957000732,
   1.0045255422592163,
   1.0030654668807983,
   1.0056823492050171,
   0.99421089887619019,
   1.0009173154830933,
   1.010089635848999,
   1.0043679475784302,
   0.99498385190963745,
   0.98819923400878906,
   1.0048167705535889,
   1.0122034549713135,
   0.99924516677856445,
   0.97460824251174927,
   1.0145741701126099,
   1.0041673183441162,
   0.98609095811843872
]
