[
   1.5185626745223999,
   1.5192105770111084,
   1.5187242031097412,
   1.5194053649902344,
   1.5178685188293457,
   1.518943190574646,
   1.5184718370437622,
   1.5182055234909058,
   1.5192563533782959,
   1.5188262462615967,
   1.5179922580718994,
   1.5174810886383057,
   1.5171434879302979,
   1.5174300670623779,
   1.5160290002822876,
   1.5155608654022217,
   1.516216516494751,
   1.5151560306549072,
   1.5167438983917236,
   1.5118083953857422,
   1.5086183547973633,
   1.5060222148895264,
   1.5020421743392944,
   1.499396800994873,
   1.4958221912384033,
   1.4920463562011719,
   1.4890527725219727,
   1.4863793849945068,
   1.4611184597015381,
   1.4358394145965576,
   1.4157835245132446,
   1.3964517116546631,
   1.3798172473907471,
   1.3632559776306152,
   1.34926438331604,
   1.3354319334030151,
   1.3230655193328857,
   1.233428955078125,
   1.1814312934875488,
   1.1433496475219727,
   1.116074800491333,
   1.0968338251113892,
   1.0833771228790283,
   1.0727384090423584,
   1.06089186668396,
   1.0521817207336426,
   1.0259243249893188,
   1.0035145282745361,
   0.99061471223831177,
   0.98206651210784912,
   0.99051272869110107,
   0.98940122127532959,
   0.99526959657669067,
   0.99711894989013672,
   0.99645578861236572,
   0.98707139492034912,
   0.99220341444015503,
   0.99649029970169067,
   1.0102123022079468,
   0.9791334867477417,
   0.98364973068237305,
   1.0170918703079224,
   1.0341173410415649,
   1.0276457071304321
]
