[
   2.5812857151031494,
   2.5816683769226074,
   2.583275318145752,
   2.5756440162658691,
   2.5813033580780029,
   2.5854604244232178,
   2.5831902027130127,
   2.5796430110931396,
   2.581575870513916,
   2.5792665481567383,
   2.5776581764221191,
   2.5766382217407227,
   2.5720772743225098,
   2.5651955604553223,
   2.5651664733886719,
   2.56331467628479,
   2.5570008754730225,
   2.5582685470581055,
   2.5529773235321045,
   2.5319523811340332,
   2.5014340877532959,
   2.4771149158477783,
   2.45499587059021,
   2.4316868782043457,
   2.4127957820892334,
   2.3937463760375977,
   2.3694338798522949,
   2.3493757247924805,
   2.1800844669342041,
   2.0540099143981934,
   1.9492839574813843,
   1.864270806312561,
   1.7944024801254272,
   1.7309548854827881,
   1.6830965280532837,
   1.6328201293945312,
   1.5920431613922119,
   1.3689682483673096,
   1.2639621496200562,
   1.1939489841461182,
   1.1575087308883667,
   1.1284506320953369,
   1.1048762798309326,
   1.0908619165420532,
   1.064070463180542,
   1.0561583042144775,
   1.0412077903747559,
   1.0148763656616211,
   1.00864577293396,
   1.0117921829223633,
   1.0033867359161377,
   0.98648977279663086,
   1.015347957611084,
   1.0069427490234375,
   1.0151975154876709,
   0.97298926115036011,
   1.0042766332626343,
   0.9844481348991394,
   0.9853137731552124,
   0.98818415403366089,
   0.97671300172805786,
   1.0159108638763428,
   1.028161883354187,
   0.9427264928817749
]
