[
   1.9518225193023682,
   1.9495872259140015,
   1.948866605758667,
   1.9482980966567993,
   1.951655387878418,
   1.9509271383285522,
   1.9496214389801025,
   1.9491822719573975,
   1.9482494592666626,
   1.9503418207168579,
   1.9494272470474243,
   1.9458955526351929,
   1.9467954635620117,
   1.9461269378662109,
   1.9446951150894165,
   1.9421780109405518,
   1.9413102865219116,
   1.9397478103637695,
   1.9410899877548218,
   1.9295517206192017,
   1.9172394275665283,
   1.9088175296783447,
   1.9021943807601929,
   1.8908869028091431,
   1.8827966451644897,
   1.8735727071762085,
   1.8653850555419922,
   1.8572524785995483,
   1.782888650894165,
   1.724196195602417,
   1.6720240116119385,
   1.6250295639038086,
   1.5859861373901367,
   1.5506823062896729,
   1.5178673267364502,
   1.4890482425689697,
   1.4641492366790771,
   1.3046733140945435,
   1.229259729385376,
   1.1784681081771851,
   1.1435770988464355,
   1.1209070682525635,
   1.0990979671478271,
   1.0889384746551514,
   1.0662811994552612,
   1.058189868927002,
   1.0100095272064209,
   1.0166336297988892,
   1.0133335590362549,
   1.0028029680252075,
   0.99703884124755859,
   1.0004013776779175,
   0.98965007066726685,
   0.98137396574020386,
   0.9849284291267395,
   0.99969339370727539,
   1.0053746700286865,
   0.97508919239044189,
   1.0151916742324829,
   0.97602355480194092,
   0.98356199264526367,
   0.98015749454498291,
   1.0038326978683472,
   1.0532891750335693
]
