[
   1.336193323135376,
   1.3360950946807861,
   1.3358175754547119,
   1.3355671167373657,
   1.3363926410675049,
   1.3353087902069092,
   1.3358176946640015,
   1.3355013132095337,
   1.3351336717605591,
   1.3352489471435547,
   1.3346837759017944,
   1.3356268405914307,
   1.3347427845001221,
   1.3344449996948242,
   1.3348977565765381,
   1.3340771198272705,
   1.3342297077178955,
   1.3335615396499634,
   1.3342032432556152,
   1.3327748775482178,
   1.3310201168060303,
   1.3290098905563354,
   1.3278107643127441,
   1.3261018991470337,
   1.3245086669921875,
   1.3229502439498901,
   1.3209787607192993,
   1.3202469348907471,
   1.3071701526641846,
   1.2955868244171143,
   1.2848405838012695,
   1.2746484279632568,
   1.2653231620788574,
   1.2572834491729736,
   1.2484509944915771,
   1.2414267063140869,
   1.2343407869338989,
   1.1808606386184692,
   1.1465867757797241,
   1.1218812465667725,
   1.1138668060302734,
   1.0977752208709717,
   1.0851967334747314,
   1.0734245777130127,
   1.0634849071502686,
   1.0593515634536743,
   1.0311000347137451,
   1.0135022401809692,
   1.0030362606048584,
   0.99885737895965576,
   0.99409514665603638,
   0.98507767915725708,
   0.989554762840271,
   0.99483907222747803,
   1.0002586841583252,
   0.97834843397140503,
   0.96711558103561401,
   0.97722816467285156,
   0.98775595426559448,
   1.0084102153778076,
   1.0387665033340454,
   1.0731809139251709,
   1.0772924423217773,
   0.97262668609619141
]
