[
   1.4363105297088623,
   1.436302661895752,
   1.4367369413375854,
   1.4364101886749268,
   1.4361965656280518,
   1.4359672069549561,
   1.4359539747238159,
   1.4370090961456299,
   1.4356689453125,
   1.4360685348510742,
   1.4354913234710693,
   1.4358142614364624,
   1.4345661401748657,
   1.4345771074295044,
   1.434241771697998,
   1.4342600107192993,
   1.4339933395385742,
   1.4344104528427124,
   1.4327036142349243,
   1.4300110340118408,
   1.4287292957305908,
   1.4263994693756104,
   1.4238824844360352,
   1.4203512668609619,
   1.4180638790130615,
   1.4160563945770264,
   1.4136239290237427,
   1.4108198881149292,
   1.3898751735687256,
   1.3719384670257568,
   1.3553367853164673,
   1.3399460315704346,
   1.3261095285415649,
   1.3129727840423584,
   1.3009034395217896,
   1.2896091938018799,
   1.28005051612854,
   1.2028790712356567,
   1.1580013036727905,
   1.1291358470916748,
   1.1072016954421997,
   1.0917257070541382,
   1.0792356729507446,
   1.0715751647949219,
   1.0626139640808105,
   1.0590819120407104,
   1.0289938449859619,
   1.0078589916229248,
   0.99499624967575073,
   0.99261647462844849,
   1.0007205009460449,
   0.99035614728927612,
   0.99581128358840942,
   0.98559463024139404,
   0.98373204469680786,
   0.99530446529388428,
   1.0052684545516968,
   1.0020251274108887,
   0.99007397890090942,
   0.99867832660675049,
   0.97962504625320435,
   0.98390054702758789,
   1.0347769260406494,
   1.0712044239044189
]
