[
   1.6548999547958374,
   1.6551452875137329,
   1.6548597812652588,
   1.6548392772674561,
   1.6533920764923096,
   1.653242826461792,
   1.654461145401001,
   1.6537485122680664,
   1.6540635824203491,
   1.6534297466278076,
   1.6548875570297241,
   1.6512320041656494,
   1.6512935161590576,
   1.6523754596710205,
   1.6515861749649048,
   1.6501598358154297,
   1.649849534034729,
   1.6497058868408203,
   1.6470845937728882,
   1.6434167623519897,
   1.6381229162216187,
   1.6344976425170898,
   1.6292974948883057,
   1.6242843866348267,
   1.6193021535873413,
   1.6135294437408447,
   1.609882116317749,
   1.6039556264877319,
   1.5650029182434082,
   1.5308762788772583,
   1.4997309446334839,
   1.4719198942184448,
   1.4490038156509399,
   1.4258725643157959,
   1.4061877727508545,
   1.3890411853790283,
   1.3700985908508301,
   1.25452721118927,
   1.1921813488006592,
   1.1467082500457764,
   1.1200344562530518,
   1.103190541267395,
   1.0831489562988281,
   1.0749613046646118,
   1.0673223733901978,
   1.067227840423584,
   1.024466872215271,
   1.0052913427352905,
   1.0127570629119873,
   1.0005965232849121,
   1.0068956613540649,
   0.99925267696380615,
   1.0017106533050537,
   1.0038390159606934,
   1.0066056251525879,
   1.0186707973480225,
   1.0228636264801025,
   1.0095069408416748,
   1.0025396347045898,
   0.99080908298492432,
   0.95903313159942627,
   0.93897294998168945,
   0.95280778408050537,
   0.90729367733001709
]
