[
   1.5527129173278809,
   1.5532039403915405,
   1.552899956703186,
   1.5521312952041626,
   1.5527606010437012,
   1.5521626472473145,
   1.5521310567855835,
   1.5527820587158203,
   1.5528576374053955,
   1.5525469779968262,
   1.5516358613967896,
   1.5513534545898438,
   1.5507735013961792,
   1.5514804124832153,
   1.550727367401123,
   1.5490539073944092,
   1.5490583181381226,
   1.5495016574859619,
   1.5483253002166748,
   1.5450199842453003,
   1.540591835975647,
   1.5362311601638794,
   1.5331835746765137,
   1.5287835597991943,
   1.5258225202560425,
   1.5223762989044189,
   1.518335223197937,
   1.5152992010116577,
   1.4838893413543701,
   1.4582053422927856,
   1.4351608753204346,
   1.4129980802536011,
   1.3933261632919312,
   1.3770914077758789,
   1.3608222007751465,
   1.345332145690918,
   1.3314387798309326,
   1.2365801334381104,
   1.1813061237335205,
   1.14322829246521,
   1.1211241483688354,
   1.1022608280181885,
   1.0866492986679077,
   1.0779098272323608,
   1.0680837631225586,
   1.0642139911651611,
   1.0232259035110474,
   1.0039083957672119,
   0.99800223112106323,
   0.99591922760009766,
   0.99154675006866455,
   0.99236154556274414,
   1.0011485815048218,
   0.99171274900436401,
   0.98519152402877808,
   0.9639776349067688,
   0.97039729356765747,
   0.99756038188934326,
   1.0094484090805054,
   0.99344617128372192,
   1.0073477029800415,
   1.0246437788009644,
   1.1141288280487061,
   1.0650497674942017
]
