[
   5.7788629531860352,
   5.7824811935424805,
   5.7729959487915039,
   5.7787041664123535,
   5.7819137573242188,
   5.773198127746582,
   5.7695112228393555,
   5.7595415115356445,
   5.754246711730957,
   5.7722840309143066,
   5.733454704284668,
   5.7259893417358398,
   5.7140359878540039,
   5.6672472953796387,
   5.6694374084472656,
   5.6419286727905273,
   5.602623462677002,
   5.5938897132873535,
   5.5715699195861816,
   5.3653979301452637,
   5.1919069290161133,
   5.0062828063964844,
   4.8696651458740234,
   4.7324004173278809,
   4.6017122268676758,
   4.4965524673461914,
   4.3608465194702148,
   4.2716035842895508,
   3.4717445373535156,
   3.0080053806304932,
   2.6786477565765381,
   2.457261323928833,
   2.2598419189453125,
   2.1279544830322266,
   2.0110306739807129,
   1.9168926477432251,
   1.8383737802505493,
   1.4454386234283447,
   1.286803126335144,
   1.2340344190597534,
   1.1937059164047241,
   1.1543270349502563,
   1.1384336948394775,
   1.0850560665130615,
   1.0632712841033936,
   1.0446363687515259,
   0.968159019947052,
   0.98431140184402466,
   0.99273490905761719,
   0.97601163387298584,
   0.95707762241363525,
   1.0056349039077759,
   0.99620282649993896,
   0.97489750385284424,
   0.98282670974731445,
   0.99848240613937378,
   0.96754378080368042,
   0.98776930570602417,
   0.96333044767379761,
   1.0346273183822632,
   0.99546545743942261,
   0.92788493633270264,
   0.91536635160446167,
   0.75334757566452026
]
