[
   1.8429546356201172,
   1.8432619571685791,
   1.8416111469268799,
   1.8418195247650146,
   1.8414862155914307,
   1.8395345211029053,
   1.8400754928588867,
   1.8397226333618164,
   1.8388593196868896,
   1.8394153118133545,
   1.8390630483627319,
   1.8349167108535767,
   1.833804726600647,
   1.8303554058074951,
   1.8269774913787842,
   1.8220264911651611,
   1.8222938776016235,
   1.820744514465332,
   1.8141244649887085,
   1.7891128063201904,
   1.768604040145874,
   1.7464399337768555,
   1.7302188873291016,
   1.7107656002044678,
   1.6942059993743896,
   1.6792920827865601,
   1.6642643213272095,
   1.6500800848007202,
   1.5426839590072632,
   1.4726239442825317,
   1.4164333343505859,
   1.3727009296417236,
   1.3363158702850342,
   1.3057167530059814,
   1.2799069881439209,
   1.257432222366333,
   1.2384068965911865,
   1.122925877571106,
   1.0681483745574951,
   1.0460242033004761,
   1.0312526226043701,
   1.0217558145523071,
   1.0179085731506348,
   1.0145478248596191,
   1.0107294321060181,
   1.0159218311309814,
   0.99302053451538086,
   1.0029585361480713,
   1.0058152675628662,
   1.0061905384063721,
   0.99939072132110596,
   0.99329632520675659,
   0.99953758716583252,
   0.99878758192062378,
   0.99872094392776489,
   0.99749326705932617,
   1.0008131265640259,
   1.0043761730194092,
   1.001617431640625,
   0.99294650554656982,
   0.99209034442901611,
   1.0102388858795166,
   0.9961506724357605,
   1.0206166505813599
]
