[
   2.1668996810913086,
   2.1651403903961182,
   2.163830041885376,
   2.1648070812225342,
   2.1658148765563965,
   2.1651022434234619,
   2.1591846942901611,
   2.1630051136016846,
   2.1616573333740234,
   2.162214994430542,
   2.157207727432251,
   2.1536316871643066,
   2.1474766731262207,
   2.1428310871124268,
   2.1370763778686523,
   2.1338241100311279,
   2.1304707527160645,
   2.1247797012329102,
   2.1194257736206055,
   2.0807383060455322,
   2.0460410118103027,
   2.011256217956543,
   1.9783585071563721,
   1.9522958993911743,
   1.9267858266830444,
   1.9025230407714844,
   1.8817777633666992,
   1.855926513671875,
   1.7002265453338623,
   1.5985679626464844,
   1.5202302932739258,
   1.4622739553451538,
   1.4141314029693604,
   1.3741128444671631,
   1.340919017791748,
   1.3147804737091064,
   1.2878426313400269,
   1.1482508182525635,
   1.0970890522003174,
   1.0665647983551025,
   1.0407644510269165,
   1.0389773845672607,
   1.0355281829833984,
   1.0257797241210938,
   1.0196599960327148,
   1.0178239345550537,
   0.99323111772537231,
   0.99663317203521729,
   1.0112617015838623,
   0.995891273021698,
   1.0058747529983521,
   1.0070936679840088,
   0.99318951368331909,
   0.9885258674621582,
   0.99613857269287109,
   0.99538743495941162,
   1.0071276426315308,
   0.99466770887374878,
   1.0001693964004517,
   1.0147609710693359,
   1.0028399229049683,
   0.98620158433914185,
   0.97618484497070312,
   0.95941859483718872
]
