[
   3.8679695129394531,
   3.8619399070739746,
   3.8700923919677734,
   3.8574752807617188,
   3.8568100929260254,
   3.8626704216003418,
   3.8536460399627686,
   3.8625724315643311,
   3.8440971374511719,
   3.8573989868164062,
   3.8282561302185059,
   3.8215606212615967,
   3.7937698364257812,
   3.7776997089385986,
   3.7737205028533936,
   3.7474150657653809,
   3.723923921585083,
   3.7011227607727051,
   3.6927406787872314,
   3.5393614768981934,
   3.4318230152130127,
   3.3187098503112793,
   3.2271187305450439,
   3.1481468677520752,
   3.073976993560791,
   2.9994354248046875,
   2.9501299858093262,
   2.8803408145904541,
   2.4728717803955078,
   2.2149100303649902,
   2.0231783390045166,
   1.8694127798080444,
   1.7604230642318726,
   1.6732317209243774,
   1.5881435871124268,
   1.5283491611480713,
   1.4797554016113281,
   1.2101912498474121,
   1.1174730062484741,
   1.0805366039276123,
   1.067994236946106,
   1.0295512676239014,
   1.0262593030929565,
   1.0285046100616455,
   1.0177202224731445,
   1.0042170286178589,
   0.99589812755584717,
   1.006361722946167,
   1.015036940574646,
   0.98707503080368042,
   1.0094219446182251,
   1.01221764087677,
   1.0085275173187256,
   0.99157726764678955,
   1.0011763572692871,
   1.0083950757980347,
   0.99472266435623169,
   0.97356683015823364,
   0.97396266460418701,
   1.0331575870513916,
   1.0242420434951782,
   0.98996955156326294,
   0.97725951671600342,
   0.84320718050003052
]
