[
   5.2333168983459473,
   5.2247719764709473,
   5.2224736213684082,
   5.2417764663696289,
   5.2362427711486816,
   5.2267255783081055,
   5.2104039192199707,
   5.2187185287475586,
   5.2069945335388184,
   5.1965227127075195,
   5.1828107833862305,
   5.160332202911377,
   5.0745067596435547,
   5.0693192481994629,
   5.0299396514892578,
   5.0065736770629883,
   4.9870786666870117,
   4.942145824432373,
   4.9157238006591797,
   4.665806770324707,
   4.4526033401489258,
   4.2976751327514648,
   4.1437416076660156,
   4.0278730392456055,
   3.886385440826416,
   3.7872836589813232,
   3.6884777545928955,
   3.602907657623291,
   2.9589047431945801,
   2.5837297439575195,
   2.3036665916442871,
   2.1019487380981445,
   1.9538557529449463,
   1.8309767246246338,
   1.7235234975814819,
   1.650290846824646,
   1.5706729888916016,
   1.2640988826751709,
   1.1120220422744751,
   1.0906945466995239,
   1.0425649881362915,
   1.0305352210998535,
   1.0166854858398438,
   1.0027835369110107,
   1.0355061292648315,
   1.0090262889862061,
   0.99689161777496338,
   0.98583853244781494,
   0.96722161769866943,
   0.94403445720672607,
   0.98668336868286133,
   0.98045921325683594,
   0.97766906023025513,
   1.0030266046524048,
   0.99650955200195312,
   0.96866446733474731,
   0.97876805067062378,
   0.99997413158416748,
   1.0122730731964111,
   0.99584418535232544,
   1.029897928237915,
   1.0568937063217163,
   0.96272724866867065,
   1.0217807292938232
]
