[
   1.6613218784332275,
   1.6622970104217529,
   1.662575364112854,
   1.6616703271865845,
   1.6621967554092407,
   1.6609739065170288,
   1.6614192724227905,
   1.6613216400146484,
   1.6613337993621826,
   1.660927414894104,
   1.6585137844085693,
   1.6600005626678467,
   1.6559776067733765,
   1.6557939052581787,
   1.6530253887176514,
   1.6524063348770142,
   1.6508638858795166,
   1.6509634256362915,
   1.6494138240814209,
   1.6361258029937744,
   1.6236088275909424,
   1.6116100549697876,
   1.6001287698745728,
   1.5891132354736328,
   1.5803186893463135,
   1.57102370262146,
   1.5607575178146362,
   1.5524637699127197,
   1.4769613742828369,
   1.4224832057952881,
   1.3815691471099854,
   1.3443717956542969,
   1.3140964508056641,
   1.2910900115966797,
   1.2679227590560913,
   1.2464476823806763,
   1.2305889129638672,
   1.1276836395263672,
   1.0797920227050781,
   1.0504443645477295,
   1.036622166633606,
   1.0253692865371704,
   1.0139739513397217,
   1.0143730640411377,
   1.0140188932418823,
   1.0104744434356689,
   1.0076431035995483,
   1.0028563737869263,
   1.0011004209518433,
   0.99879074096679688,
   1.0013916492462158,
   1.0008736848831177,
   0.99309903383255005,
   0.99971169233322144,
   1.0000180006027222,
   0.99493038654327393,
   0.99952363967895508,
   0.99899941682815552,
   0.9904555082321167,
   1.0091629028320312,
   0.98706310987472534,
   0.99257582426071167,
   0.97559010982513428,
   0.96053934097290039
]
