[
   18.121971130371094,
   18.117313385009766,
   18.199459075927734,
   18.212631225585938,
   18.052963256835938,
   18.055377960205078,
   18.052772521972656,
   18.067239761352539,
   17.912410736083984,
   17.920173645019531,
   17.71595573425293,
   17.510978698730469,
   17.413234710693359,
   17.069503784179688,
   16.953149795532227,
   16.648414611816406,
   16.583009719848633,
   16.446353912353516,
   16.089874267578125,
   14.72337818145752,
   13.60417366027832,
   12.672371864318848,
   11.899792671203613,
   11.312755584716797,
   10.668771743774414,
   10.179276466369629,
   9.663661003112793,
   9.2084684371948242,
   6.5688943862915039,
   5.0295276641845703,
   4.0661129951477051,
   3.5259716510772705,
   3.1259772777557373,
   2.6883034706115723,
   2.492516040802002,
   2.311847448348999,
   2.1580700874328613,
   1.4533205032348633,
   1.2080119848251343,
   1.0923588275909424,
   1.0891973972320557,
   1.1585187911987305,
   1.11391282081604,
   1.1463327407836914,
   1.0435783863067627,
   0.97613859176635742,
   1.0541421175003052,
   0.9515606164932251,
   0.97353535890579224,
   0.96735256910324097,
   0.97887647151947021,
   0.97863131761550903,
   0.93012511730194092,
   1.0453161001205444,
   0.96041965484619141,
   1.0270144939422607,
   0.86452591419219971,
   1.0633823871612549,
   0.9103514552116394,
   1.070331335067749,
   0.98372381925582886,
   0.96445035934448242,
   0.95915460586547852,
   0.92130917310714722
]
