[
   5.257533073425293,
   5.2471141815185547,
   5.2543563842773438,
   5.2478213310241699,
   5.2473955154418945,
   5.2378926277160645,
   5.2506704330444336,
   5.243985652923584,
   5.2241377830505371,
   5.2442312240600586,
   5.2213010787963867,
   5.1803059577941895,
   5.1548275947570801,
   5.121671199798584,
   5.1019229888916016,
   5.0970735549926758,
   5.0612397193908691,
   5.0196309089660645,
   5.0127153396606445,
   4.8032870292663574,
   4.6259746551513672,
   4.4887385368347168,
   4.3217301368713379,
   4.2024402618408203,
   4.1021618843078613,
   3.9817104339599609,
   3.8891060352325439,
   3.7874977588653564,
   3.1420338153839111,
   2.731834888458252,
   2.4315934181213379,
   2.2240757942199707,
   2.049990177154541,
   1.9158871173858643,
   1.8122953176498413,
   1.7377716302871704,
   1.6544548273086548,
   1.3130258321762085,
   1.1755098104476929,
   1.1125748157501221,
   1.0709984302520752,
   1.071075439453125,
   1.0395749807357788,
   1.0386055707931519,
   1.0308740139007568,
   1.0306309461593628,
   0.96742630004882812,
   0.99850666522979736,
   0.99758213758468628,
   1.004122257232666,
   1.0146782398223877,
   1.0014998912811279,
   0.98544681072235107,
   0.96662360429763794,
   0.98972618579864502,
   1.0046638250350952,
   0.97871792316436768,
   1.0050011873245239,
   0.99032127857208252,
   0.9730604887008667,
   0.90740549564361572,
   1.0130547285079956,
   1.0251331329345703,
   1.0557787418365479
]
