[
   1.5916719436645508,
   1.5923439264297485,
   1.5926949977874756,
   1.5916411876678467,
   1.5914978981018066,
   1.590973973274231,
   1.591907262802124,
   1.5910375118255615,
   1.5914641618728638,
   1.59102463722229,
   1.5896422863006592,
   1.5905169248580933,
   1.5871913433074951,
   1.5869067907333374,
   1.5845382213592529,
   1.5838220119476318,
   1.5829806327819824,
   1.5827078819274902,
   1.5819605588912964,
   1.5697284936904907,
   1.5594009160995483,
   1.549396276473999,
   1.5397360324859619,
   1.5307896137237549,
   1.5226178169250488,
   1.5148195028305054,
   1.5064904689788818,
   1.4985010623931885,
   1.4341673851013184,
   1.3864552974700928,
   1.3489423990249634,
   1.316266655921936,
   1.2892146110534668,
   1.2684909105300903,
   1.2482558488845825,
   1.2300292253494263,
   1.2139706611633301,
   1.119870662689209,
   1.0760101079940796,
   1.0481584072113037,
   1.0351763963699341,
   1.0242407321929932,
   1.013095498085022,
   1.0137424468994141,
   1.0129741430282593,
   1.0111323595046997,
   1.0066400766372681,
   1.0017540454864502,
   1.0005199909210205,
   0.99906027317047119,
   1.0010597705841064,
   1.0008572340011597,
   0.9935796856880188,
   0.9993891716003418,
   1.0000941753387451,
   0.99532711505889893,
   1.0010992288589478,
   0.99879950284957886,
   0.9910198450088501,
   1.0087425708770752,
   0.98788422346115112,
   0.9924701452255249,
   0.97692549228668213,
   0.96175688505172729
]
