[
   1.7322664260864258,
   1.7292308807373047,
   1.7309890985488892,
   1.7324810028076172,
   1.7309329509735107,
   1.7315212488174438,
   1.7307296991348267,
   1.7305810451507568,
   1.7303880453109741,
   1.7283236980438232,
   1.7263314723968506,
   1.7254655361175537,
   1.7251154184341431,
   1.7254451513290405,
   1.7229607105255127,
   1.7217305898666382,
   1.7201821804046631,
   1.7164407968521118,
   1.7163403034210205,
   1.7021653652191162,
   1.6891494989395142,
   1.6760479211807251,
   1.6625534296035767,
   1.6513274908065796,
   1.6400852203369141,
   1.6293208599090576,
   1.6235027313232422,
   1.6095569133758545,
   1.5307137966156006,
   1.4696873426437378,
   1.4191691875457764,
   1.3808581829071045,
   1.3469746112823486,
   1.3178361654281616,
   1.2943906784057617,
   1.271317720413208,
   1.2538132667541504,
   1.142621636390686,
   1.0962429046630859,
   1.0649287700653076,
   1.0425655841827393,
   1.0309979915618896,
   1.0252715349197388,
   1.0186600685119629,
   1.0100963115692139,
   1.0035226345062256,
   0.98971480131149292,
   0.9974629282951355,
   0.9905126690864563,
   1.0001078844070435,
   1.0002381801605225,
   0.99992352724075317,
   0.992928147315979,
   0.98681700229644775,
   0.99085903167724609,
   1.0046095848083496,
   0.98455572128295898,
   0.97422444820404053,
   1.0049253702163696,
   1.0057786703109741,
   1.0283257961273193,
   1.010616660118103,
   1.0428454875946045,
   1.0832079648971558
]
