[
   14.775751113891602,
   14.772659301757812,
   14.789990425109863,
   14.763310432434082,
   14.600481986999512,
   14.700662612915039,
   14.69904613494873,
   14.672103881835938,
   14.632623672485352,
   14.67875862121582,
   14.523745536804199,
   14.382883071899414,
   14.189661979675293,
   13.998486518859863,
   13.860715866088867,
   13.735471725463867,
   13.66151237487793,
   13.478307723999023,
   13.323684692382812,
   12.227631568908691,
   11.469587326049805,
   10.674121856689453,
   10.081272125244141,
   9.5262851715087891,
   9.1026840209960938,
   8.6538639068603516,
   8.2667274475097656,
   7.9327101707458496,
   5.6453146934509277,
   4.4681720733642578,
   3.8157341480255127,
   3.2610454559326172,
   2.865159273147583,
   2.5882563591003418,
   2.3850541114807129,
   2.2596290111541748,
   2.1073915958404541,
   1.408511757850647,
   1.241999626159668,
   1.0996123552322388,
   1.0470478534698486,
   1.0484331846237183,
   1.004930853843689,
   1.1174329519271851,
   1.0524590015411377,
   0.98685628175735474,
   1.0207358598709106,
   1.0608161687850952,
   1.0009778738021851,
   0.99601000547409058,
   0.97106951475143433,
   1.0077025890350342,
   1.0499365329742432,
   0.95519685745239258,
   1.1141238212585449,
   0.93223780393600464,
   0.91059905290603638,
   1.0302536487579346,
   1.0600999593734741,
   0.94814121723175049,
   1.0499801635742188,
   0.9366840124130249,
   1.0267294645309448,
   1.1523432731628418
]
