[
   1.8417409658432007,
   1.8417809009552002,
   1.8409436941146851,
   1.8422946929931641,
   1.84124755859375,
   1.8423370122909546,
   1.8425130844116211,
   1.8402459621429443,
   1.8406627178192139,
   1.8426167964935303,
   1.8397258520126343,
   1.8384120464324951,
   1.8337306976318359,
   1.8336797952651978,
   1.8305835723876953,
   1.8314870595932007,
   1.8296120166778564,
   1.826913595199585,
   1.8237603902816772,
   1.8074607849121094,
   1.7904269695281982,
   1.7742254734039307,
   1.7584092617034912,
   1.7474902868270874,
   1.7342584133148193,
   1.7205280065536499,
   1.7111408710479736,
   1.6963220834732056,
   1.6034806966781616,
   1.5343697071075439,
   1.4800316095352173,
   1.4371898174285889,
   1.3998094797134399,
   1.367615818977356,
   1.3428122997283936,
   1.3192547559738159,
   1.2979083061218262,
   1.1757034063339233,
   1.1204345226287842,
   1.0835926532745361,
   1.0617488622665405,
   1.0438597202301025,
   1.0388102531433105,
   1.0312862396240234,
   1.01885986328125,
   1.0136040449142456,
   1.0100432634353638,
   0.99821174144744873,
   1.0002135038375854,
   0.99397248029708862,
   0.9962620735168457,
   0.99603939056396484,
   1.00861656665802,
   1.00628662109375,
   1.0154950618743896,
   1.0163460969924927,
   0.9968525767326355,
   1.0073449611663818,
   0.99243640899658203,
   1.0114562511444092,
   0.98289823532104492,
   0.9982067346572876,
   0.93362236022949219,
   0.95775812864303589
]
