[
   3.7270114421844482,
   3.7131378650665283,
   3.7179884910583496,
   3.7101223468780518,
   3.7151222229003906,
   3.7047455310821533,
   3.7124850749969482,
   3.7036292552947998,
   3.7076008319854736,
   3.6989333629608154,
   3.7060122489929199,
   3.6813914775848389,
   3.6713020801544189,
   3.6593666076660156,
   3.6489691734313965,
   3.6347033977508545,
   3.6153359413146973,
   3.6049113273620605,
   3.5906119346618652,
   3.4887802600860596,
   3.4008650779724121,
   3.3152892589569092,
   3.2395071983337402,
   3.1713964939117432,
   3.118941068649292,
   3.0385563373565674,
   2.983959436416626,
   2.9291605949401855,
   2.5349807739257812,
   2.2664628028869629,
   2.0800385475158691,
   1.9309055805206299,
   1.8206245899200439,
   1.7327592372894287,
   1.6556990146636963,
   1.5955870151519775,
   1.5467075109481812,
   1.2469651699066162,
   1.1730462312698364,
   1.120384693145752,
   1.0711797475814819,
   1.055078387260437,
   1.0460224151611328,
   1.0288387537002563,
   1.0082576274871826,
   1.0075972080230713,
   0.99418342113494873,
   1.0046584606170654,
   1.0096194744110107,
   0.99035614728927612,
   0.98792171478271484,
   1.0109848976135254,
   1.0002762079238892,
   0.99643343687057495,
   1.0052300691604614,
   0.99214398860931396,
   0.98830288648605347,
   0.98309898376464844,
   0.96734237670898438,
   0.97368353605270386,
   1.0619585514068604,
   1.0825990438461304,
   1.0167994499206543,
   0.95290595293045044
]
