[
   1.4631847143173218,
   1.462909460067749,
   1.4630205631256104,
   1.4635787010192871,
   1.4625289440155029,
   1.4634464979171753,
   1.4626822471618652,
   1.4629030227661133,
   1.4620727300643921,
   1.4619935750961304,
   1.462333083152771,
   1.4622890949249268,
   1.4611400365829468,
   1.4621175527572632,
   1.46040940284729,
   1.4616334438323975,
   1.4603366851806641,
   1.461485743522644,
   1.4604822397232056,
   1.4580934047698975,
   1.454904317855835,
   1.4521510601043701,
   1.4505842924118042,
   1.4469209909439087,
   1.4428993463516235,
   1.4422867298126221,
   1.4393892288208008,
   1.4376629590988159,
   1.4152601957321167,
   1.3965387344360352,
   1.3782678842544556,
   1.3628801107406616,
   1.3464770317077637,
   1.3337428569793701,
   1.3197648525238037,
   1.3080003261566162,
   1.2977595329284668,
   1.2180212736129761,
   1.1688477993011475,
   1.1357263326644897,
   1.1118606328964233,
   1.094900369644165,
   1.0813204050064087,
   1.071345329284668,
   1.0617824792861938,
   1.0548241138458252,
   1.0292718410491943,
   1.0070263147354126,
   1.0111428499221802,
   1.0101214647293091,
   1.012711763381958,
   0.99186199903488159,
   1.0031412839889526,
   0.99638998508453369,
   0.99546974897384644,
   0.98524248600006104,
   0.99440985918045044,
   1.0023521184921265,
   1.0117423534393311,
   0.96493178606033325,
   1.0015847682952881,
   0.98465776443481445,
   0.98618108034133911,
   1.0258728265762329
]
