[
   1.8957258462905884,
   1.8943601846694946,
   1.8954375982284546,
   1.895491361618042,
   1.895099401473999,
   1.8953069448471069,
   1.8959805965423584,
   1.8939918279647827,
   1.8947737216949463,
   1.8940856456756592,
   1.8935348987579346,
   1.8915723562240601,
   1.8888881206512451,
   1.8893629312515259,
   1.8911123275756836,
   1.8875601291656494,
   1.8876941204071045,
   1.887738823890686,
   1.886500358581543,
   1.8745718002319336,
   1.8687072992324829,
   1.8596941232681274,
   1.8526933193206787,
   1.8432401418685913,
   1.8364517688751221,
   1.8297426700592041,
   1.8202502727508545,
   1.8138507604598999,
   1.752532958984375,
   1.6969045400619507,
   1.651328444480896,
   1.6117651462554932,
   1.5759947299957275,
   1.5447003841400146,
   1.5140625238418579,
   1.487342357635498,
   1.4642884731292725,
   1.3105610609054565,
   1.2277404069900513,
   1.1729042530059814,
   1.1322592496871948,
   1.1083123683929443,
   1.0907574892044067,
   1.0772906541824341,
   1.0669548511505127,
   1.0605080127716064,
   1.0290019512176514,
   1.015412449836731,
   1.0026894807815552,
   1.002859354019165,
   1.0058814287185669,
   1.0061178207397461,
   0.99766796827316284,
   1.0000290870666504,
   1.0036019086837769,
   1.0058778524398804,
   1.0091884136199951,
   0.98231285810470581,
   1.0012516975402832,
   0.96293413639068604,
   0.98886120319366455,
   0.9732891321182251,
   0.99057185649871826,
   0.95609843730926514
]
