[
   1.6039066314697266,
   1.6041551828384399,
   1.6047842502593994,
   1.6037108898162842,
   1.6018257141113281,
   1.6045995950698853,
   1.603083610534668,
   1.6025384664535522,
   1.6038709878921509,
   1.6034700870513916,
   1.6009057760238647,
   1.6008598804473877,
   1.5996769666671753,
   1.5998530387878418,
   1.5972102880477905,
   1.5963449478149414,
   1.5964750051498413,
   1.5936644077301025,
   1.5941588878631592,
   1.5832169055938721,
   1.5742717981338501,
   1.5642445087432861,
   1.5549070835113525,
   1.5468957424163818,
   1.54118812084198,
   1.5342681407928467,
   1.5265207290649414,
   1.5206005573272705,
   1.466248631477356,
   1.4251841306686401,
   1.3918676376342773,
   1.3633323907852173,
   1.3410736322402954,
   1.3193553686141968,
   1.2985310554504395,
   1.2834205627441406,
   1.2664446830749512,
   1.1679973602294922,
   1.1119726896286011,
   1.0772546529769897,
   1.0525742769241333,
   1.0385946035385132,
   1.0263112783432007,
   1.017561674118042,
   1.0125161409378052,
   1.0141736268997192,
   1.0062134265899658,
   1.0085093975067139,
   0.99621427059173584,
   0.99269562959671021,
   0.98380279541015625,
   0.99587595462799072,
   0.98722010850906372,
   0.99928635358810425,
   1.0010321140289307,
   0.99520587921142578,
   1.0090310573577881,
   1.0067833662033081,
   1.0030860900878906,
   1.0034245252609253,
   0.99156749248504639,
   0.99190044403076172,
   0.99714052677154541,
   0.99659740924835205
]
