[
   1.8994553089141846,
   1.9021685123443604,
   1.8995916843414307,
   1.9008690118789673,
   1.8994966745376587,
   1.9005266427993774,
   1.8990970849990845,
   1.8983097076416016,
   1.8995716571807861,
   1.9008136987686157,
   1.8980743885040283,
   1.8931840658187866,
   1.8944498300552368,
   1.8917945623397827,
   1.8901790380477905,
   1.8845376968383789,
   1.8832416534423828,
   1.8851238489151001,
   1.8820502758026123,
   1.8649202585220337,
   1.8466308116912842,
   1.8299915790557861,
   1.8147242069244385,
   1.8026014566421509,
   1.7897994518280029,
   1.773908257484436,
   1.7631164789199829,
   1.7501018047332764,
   1.6650969982147217,
   1.598175048828125,
   1.5474610328674316,
   1.5043822526931763,
   1.4664977788925171,
   1.4342043399810791,
   1.4077308177947998,
   1.3838727474212646,
   1.3591057062149048,
   1.2187122106552124,
   1.1470223665237427,
   1.1055452823638916,
   1.074877142906189,
   1.057811975479126,
   1.0365678071975708,
   1.0315368175506592,
   1.0322884321212769,
   1.0226982831954956,
   0.98744297027587891,
   0.98422890901565552,
   0.99328839778900146,
   0.98907804489135742,
   0.99442994594573975,
   0.99122971296310425,
   0.98727017641067505,
   0.99648350477218628,
   0.99336975812911987,
   0.9814489483833313,
   0.98812466859817505,
   0.98604905605316162,
   0.99572372436523438,
   0.98676365613937378,
   0.99809408187866211,
   1.0281211137771606,
   1.0183484554290771,
   1.0276798009872437
]
