[
   2.2179005146026611,
   2.2189137935638428,
   2.2138559818267822,
   2.2167515754699707,
   2.2170634269714355,
   2.2150499820709229,
   2.2151558399200439,
   2.2138750553131104,
   2.2154102325439453,
   2.2143478393554688,
   2.2105927467346191,
   2.2067091464996338,
   2.2016685009002686,
   2.2014889717102051,
   2.1984505653381348,
   2.1952815055847168,
   2.1909854412078857,
   2.1876120567321777,
   2.1876778602600098,
   2.1586489677429199,
   2.1319365501403809,
   2.1085798740386963,
   2.0859274864196777,
   2.0678315162658691,
   2.046389102935791,
   2.0310559272766113,
   2.0152320861816406,
   1.9954631328582764,
   1.8720073699951172,
   1.784404993057251,
   1.7121646404266357,
   1.6508147716522217,
   1.5979846715927124,
   1.5556501150131226,
   1.5095751285552979,
   1.4702155590057373,
   1.4415102005004883,
   1.2547221183776855,
   1.1670362949371338,
   1.1114237308502197,
   1.0782198905944824,
   1.0510811805725098,
   1.0351839065551758,
   1.0250416994094849,
   1.0177590847015381,
   1.0157746076583862,
   1.0013929605484009,
   0.99000948667526245,
   0.99321538209915161,
   0.99612152576446533,
   1.007315993309021,
   0.99668771028518677,
   0.98900336027145386,
   1.0013077259063721,
   0.99794119596481323,
   0.97368204593658447,
   1.0052464008331299,
   0.99903696775436401,
   0.99061882495880127,
   1.0082719326019287,
   0.99810636043548584,
   0.98749047517776489,
   0.98205471038818359,
   0.93599975109100342
]
