[
   24.693580627441406,
   24.467861175537109,
   24.428546905517578,
   24.618228912353516,
   24.535785675048828,
   24.549434661865234,
   24.296932220458984,
   24.338239669799805,
   24.517465591430664,
   24.427572250366211,
   24.143047332763672,
   23.651607513427734,
   23.520553588867188,
   23.385261535644531,
   23.071750640869141,
   22.667263031005859,
   22.555498123168945,
   22.287258148193359,
   22.07135009765625,
   20.535823822021484,
   18.982753753662109,
   17.915655136108398,
   16.834831237792969,
   16.150981903076172,
   15.245695114135742,
   14.409627914428711,
   13.920991897583008,
   13.223390579223633,
   9.0987491607666016,
   6.9267640113830566,
   5.4798078536987305,
   4.5408344268798828,
   3.9004395008087158,
   3.4657101631164551,
   3.1212630271911621,
   2.921511173248291,
   2.7653851509094238,
   1.5082601308822632,
   1.2912414073944092,
   1.2634067535400391,
   1.0260558128356934,
   1.1535931825637817,
   0.97155082225799561,
   1.0215499401092529,
   1.099008321762085,
   0.99451750516891479,
   1.0070185661315918,
   0.94856595993041992,
   1.0301406383514404,
   0.94749605655670166,
   0.91034013032913208,
   1.0023247003555298,
   1.030007004737854,
   0.89119923114776611,
   1.0526754856109619,
   1.0262341499328613,
   0.98026388883590698,
   0.99657976627349854,
   0.8834606409072876,
   1.0573170185089111,
   0.86005008220672607,
   0.9259796142578125,
   1.174003005027771,
   0.64328479766845703
]
