[
   1.6915872097015381,
   1.6919950246810913,
   1.6914393901824951,
   1.6905809640884399,
   1.6927053928375244,
   1.6913759708404541,
   1.6920541524887085,
   1.6933963298797607,
   1.6898086071014404,
   1.690460205078125,
   1.6898784637451172,
   1.6895869970321655,
   1.687329888343811,
   1.685978889465332,
   1.6833422183990479,
   1.6821492910385132,
   1.6816940307617188,
   1.6783984899520874,
   1.6774253845214844,
   1.6669290065765381,
   1.6557499170303345,
   1.6454006433486938,
   1.6353580951690674,
   1.6243928670883179,
   1.6141208410263062,
   1.6062549352645874,
   1.5972498655319214,
   1.5910612344741821,
   1.5282756090164185,
   1.4804866313934326,
   1.4415504932403564,
   1.4073358774185181,
   1.3806524276733398,
   1.3573330640792847,
   1.3350785970687866,
   1.3159275054931641,
   1.2989829778671265,
   1.1805993318557739,
   1.1196558475494385,
   1.0875939130783081,
   1.0714466571807861,
   1.0561987161636353,
   1.0439716577529907,
   1.038454532623291,
   1.031333327293396,
   1.021895170211792,
   1.0065076351165771,
   0.99647980928421021,
   0.99632275104522705,
   0.99052554368972778,
   0.99196940660476685,
   0.99692869186401367,
   0.98993426561355591,
   0.99259483814239502,
   1.007630467414856,
   1.014769434928894,
   1.0046845674514771,
   1.0184357166290283,
   0.99980795383453369,
   0.98954218626022339,
   0.98181980848312378,
   0.97199487686157227,
   0.96403229236602783,
   0.95135289430618286
]
