[
   4.5690221786499023,
   4.5662350654602051,
   4.555729866027832,
   4.5654163360595703,
   4.5475220680236816,
   4.5552968978881836,
   4.5602684020996094,
   4.5560727119445801,
   4.5573635101318359,
   4.5515522956848145,
   4.5364274978637695,
   4.5135507583618164,
   4.4942069053649902,
   4.4814462661743164,
   4.4642839431762695,
   4.4533419609069824,
   4.4352178573608398,
   4.4289798736572266,
   4.4161849021911621,
   4.2801785469055176,
   4.1657533645629883,
   4.0696477890014648,
   3.9845747947692871,
   3.9161510467529297,
   3.8355064392089844,
   3.7711100578308105,
   3.7042438983917236,
   3.6439533233642578,
   3.2084007263183594,
   2.8837604522705078,
   2.6390933990478516,
   2.4468448162078857,
   2.2777659893035889,
   2.1629252433776855,
   2.0535295009613037,
   1.9501113891601562,
   1.8681316375732422,
   1.4069044589996338,
   1.2362570762634277,
   1.1620229482650757,
   1.1159108877182007,
   1.0603929758071899,
   1.0450489521026611,
   1.0610572099685669,
   1.04258131980896,
   1.0173084735870361,
   1.0199425220489502,
   1.0123486518859863,
   1.0099774599075317,
   0.9837418794631958,
   1.0095593929290771,
   0.99391156435012817,
   0.98143327236175537,
   1.0005033016204834,
   0.98724526166915894,
   0.96247768402099609,
   0.9544636607170105,
   1.0194776058197021,
   0.97662335634231567,
   0.9904707670211792,
   0.95602941513061523,
   1.0256540775299072,
   1.065403938293457,
   1.0889250040054321
]
