[
   13.731718063354492,
   13.824175834655762,
   13.672258377075195,
   13.800836563110352,
   13.75157356262207,
   13.70771312713623,
   13.647387504577637,
   13.724545478820801,
   13.688371658325195,
   13.658154487609863,
   13.579180717468262,
   13.459071159362793,
   13.318655014038086,
   13.262537956237793,
   13.134427070617676,
   13.058056831359863,
   13.029228210449219,
   12.848503112792969,
   12.754755020141602,
   12.034406661987305,
   11.440622329711914,
   10.953634262084961,
   10.587770462036133,
   10.14650821685791,
   9.8535518646240234,
   9.5417156219482422,
   9.2482547760009766,
   8.9785213470458984,
   6.8973298072814941,
   5.6232147216796875,
   4.6912813186645508,
   4.0047774314880371,
   3.527268648147583,
   3.2022392749786377,
   2.9386343955993652,
   2.7164039611816406,
   2.4871962070465088,
   1.6430904865264893,
   1.3169022798538208,
   1.2014477252960205,
   1.0806607007980347,
   1.0346148014068604,
   0.96395140886306763,
   1.0684669017791748,
   1.0237443447113037,
   1.0254479646682739,
   0.99339258670806885,
   1.0079742670059204,
   0.97026664018630981,
   0.95239371061325073,
   1.0325179100036621,
   1.1643824577331543,
   0.95424032211303711,
   1.033367395401001,
   1.0188503265380859,
   1.1209255456924438,
   0.97891771793365479,
   0.93800812959671021,
   0.86711138486862183,
   0.93294352293014526,
   0.80602800846099854,
   1.1227807998657227,
   0.86309367418289185,
   0.84412682056427002
]
