[
   1.4955565929412842,
   1.49665367603302,
   1.4957922697067261,
   1.4966490268707275,
   1.4966646432876587,
   1.4960262775421143,
   1.4961352348327637,
   1.49463951587677,
   1.4958961009979248,
   1.4959050416946411,
   1.4942350387573242,
   1.4936907291412354,
   1.4932234287261963,
   1.4921145439147949,
   1.4903573989868164,
   1.4910070896148682,
   1.490078330039978,
   1.4886796474456787,
   1.4876697063446045,
   1.4797641038894653,
   1.4738706350326538,
   1.4678304195404053,
   1.4598647356033325,
   1.453849196434021,
   1.4474592208862305,
   1.4412755966186523,
   1.4363685846328735,
   1.4308512210845947,
   1.38875412940979,
   1.3545711040496826,
   1.3284924030303955,
   1.3058489561080933,
   1.2857002019882202,
   1.2700197696685791,
   1.2535182237625122,
   1.2410485744476318,
   1.2275398969650269,
   1.1419459581375122,
   1.0944234132766724,
   1.0662151575088501,
   1.0499633550643921,
   1.0332180261611938,
   1.0249837636947632,
   1.0196100473403931,
   1.0152335166931152,
   1.0149734020233154,
   1.0052546262741089,
   0.99948203563690186,
   0.99831831455230713,
   1.0008152723312378,
   0.99298191070556641,
   0.9924389123916626,
   1.0019581317901611,
   1.0022064447402954,
   0.9912649393081665,
   0.99399363994598389,
   0.98869115114212036,
   0.99862802028656006,
   0.98993366956710815,
   1.0161100625991821,
   0.99477213621139526,
   1.0047342777252197,
   1.0009360313415527,
   1.0262320041656494
]
