[
   1.4736193418502808,
   1.4736087322235107,
   1.4728593826293945,
   1.4734205007553101,
   1.4734270572662354,
   1.4735071659088135,
   1.472515344619751,
   1.4725720882415771,
   1.4726656675338745,
   1.4732850790023804,
   1.4720704555511475,
   1.4699389934539795,
   1.470167875289917,
   1.4703365564346313,
   1.4679261445999146,
   1.468311071395874,
   1.468425989151001,
   1.4674969911575317,
   1.4652704000473022,
   1.4592876434326172,
   1.4516798257827759,
   1.4453072547912598,
   1.4392459392547607,
   1.4347732067108154,
   1.4292920827865601,
   1.4237724542617798,
   1.418163537979126,
   1.4145381450653076,
   1.3767192363739014,
   1.3472493886947632,
   1.3235465288162231,
   1.3026754856109619,
   1.2848856449127197,
   1.2681610584259033,
   1.253345251083374,
   1.2412328720092773,
   1.2286689281463623,
   1.1492369174957275,
   1.106149435043335,
   1.0763218402862549,
   1.0556415319442749,
   1.0414564609527588,
   1.0320498943328857,
   1.0284378528594971,
   1.0249310731887817,
   1.0274331569671631,
   1.0043238401412964,
   1.0056197643280029,
   0.99913704395294189,
   0.994148850440979,
   0.99530589580535889,
   0.9990885853767395,
   0.99441897869110107,
   0.99683171510696411,
   0.99826574325561523,
   1.002185583114624,
   1.0006134510040283,
   0.99437415599822998,
   0.99001181125640869,
   1.004500150680542,
   0.9941985011100769,
   1.0021649599075317,
   0.99089843034744263,
   0.96239739656448364
]
