[
   1.7380845546722412,
   1.7367321252822876,
   1.7370929718017578,
   1.7355839014053345,
   1.735364556312561,
   1.7351573705673218,
   1.7349729537963867,
   1.7362213134765625,
   1.7368015050888062,
   1.7344977855682373,
   1.7340679168701172,
   1.731423020362854,
   1.7302297353744507,
   1.7275623083114624,
   1.7266407012939453,
   1.7243812084197998,
   1.7242946624755859,
   1.7221748828887939,
   1.7209005355834961,
   1.7080624103546143,
   1.6930837631225586,
   1.6788297891616821,
   1.6706653833389282,
   1.659894585609436,
   1.6498165130615234,
   1.6397920846939087,
   1.6314741373062134,
   1.6232017278671265,
   1.5553278923034668,
   1.5056993961334229,
   1.4638781547546387,
   1.4286187887191772,
   1.3962728977203369,
   1.3691891431808472,
   1.3441661596298218,
   1.3224793672561646,
   1.3018732070922852,
   1.1701390743255615,
   1.1089277267456055,
   1.0674986839294434,
   1.0494133234024048,
   1.0384571552276611,
   1.0296348333358765,
   1.0251456499099731,
   1.023830771446228,
   1.018707275390625,
   0.99155205488204956,
   1.0051907300949097,
   0.99851667881011963,
   1.0051445960998535,
   1.0000863075256348,
   1.0096036195755005,
   1.0137073993682861,
   0.99415314197540283,
   0.98784005641937256,
   0.99903833866119385,
   0.98678028583526611,
   0.9989888072013855,
   0.97911947965621948,
   1.0134572982788086,
   1.0118488073348999,
   1.0136127471923828,
   1.0136018991470337,
   0.95886862277984619
]
