[
   1.4387161731719971,
   1.4381263256072998,
   1.4385566711425781,
   1.4387983083724976,
   1.4386385679244995,
   1.4383358955383301,
   1.4388763904571533,
   1.4377779960632324,
   1.4381172657012939,
   1.4385988712310791,
   1.4374935626983643,
   1.4362649917602539,
   1.43611741065979,
   1.435328483581543,
   1.4347412586212158,
   1.4336318969726562,
   1.4339762926101685,
   1.4329861402511597,
   1.4317476749420166,
   1.4254076480865479,
   1.4198896884918213,
   1.4145452976226807,
   1.4087417125701904,
   1.4037766456604004,
   1.3987178802490234,
   1.3951067924499512,
   1.3904016017913818,
   1.3846563100814819,
   1.3506263494491577,
   1.3249295949935913,
   1.3032063245773315,
   1.2848522663116455,
   1.2691439390182495,
   1.2533650398254395,
   1.2394287586212158,
   1.2276440858840942,
   1.2167190313339233,
   1.1394751071929932,
   1.0962326526641846,
   1.0701043605804443,
   1.0506746768951416,
   1.0375444889068604,
   1.0272524356842041,
   1.0197393894195557,
   1.0130521059036255,
   1.0131003856658936,
   1.0028483867645264,
   0.99568355083465576,
   0.99938428401947021,
   1.0005671977996826,
   1.0033297538757324,
   1.0009838342666626,
   1.0098384618759155,
   1.0085783004760742,
   1.0035054683685303,
   1.0072410106658936,
   0.99233818054199219,
   0.98550635576248169,
   0.99070662260055542,
   1.0002251863479614,
   1.0137532949447632,
   1.0014512538909912,
   0.98223143815994263,
   0.92550981044769287
]
