[
   58.544120788574219,
   56.763134002685547,
   57.565540313720703,
   57.232673645019531,
   57.001914978027344,
   57.154003143310547,
   56.400474548339844,
   56.202655792236328,
   56.321331024169922,
   55.429340362548828,
   53.895263671875,
   52.621227264404297,
   50.918098449707031,
   49.142475128173828,
   47.642162322998047,
   46.328826904296875,
   45.379825592041016,
   44.487194061279297,
   43.51727294921875,
   35.356746673583984,
   29.344837188720703,
   24.6304931640625,
   22.04719352722168,
   19.565670013427734,
   17.499950408935547,
   16.1072998046875,
   14.537213325500488,
   13.778027534484863,
   7.5341329574584961,
   5.3162894248962402,
   4.2582545280456543,
   3.6052768230438232,
   3.2217972278594971,
   3.0903334617614746,
   2.3530814647674561,
   2.0841984748840332,
   2.0757145881652832,
   1.2017155885696411,
   1.3268928527832031,
   1.1546652317047119,
   1.0861982107162476,
   1.1249028444290161,
   1.0431524515151978,
   1.1839772462844849,
   0.91024941205978394,
   1.0367541313171387,
   0.89216077327728271,
   0.83332234621047974,
   0.83851605653762817,
   1.0395498275756836,
   1.1269091367721558,
   0.85914003849029541,
   0.9425349235534668,
   0.93811619281768799,
   1.0694992542266846,
   0.89814358949661255,
   0.85959708690643311,
   1.0390393733978271,
   0.77481204271316528,
   0.99993771314620972,
   0.77036064863204956,
   1.1666064262390137,
   0.98271358013153076,
   1.1760342121124268
]
