[
   2.0033664703369141,
   2.0032217502593994,
   2.0030477046966553,
   2.0016124248504639,
   2.0029830932617188,
   2.005051851272583,
   2.0025081634521484,
   2.0035643577575684,
   2.0008916854858398,
   2.0025558471679688,
   1.9987087249755859,
   1.9976265430450439,
   1.9911569356918335,
   1.9910463094711304,
   1.9894876480102539,
   1.9846780300140381,
   1.9841381311416626,
   1.9792394638061523,
   1.9798257350921631,
   1.9531698226928711,
   1.9364554882049561,
   1.9190753698348999,
   1.901720404624939,
   1.885265588760376,
   1.8699581623077393,
   1.8583389520645142,
   1.8432804346084595,
   1.8334299325942993,
   1.732487678527832,
   1.6573076248168945,
   1.5958387851715088,
   1.5429236888885498,
   1.5004513263702393,
   1.4601660966873169,
   1.4258506298065186,
   1.396233081817627,
   1.3708978891372681,
   1.2129939794540405,
   1.1472487449645996,
   1.1088243722915649,
   1.0819799900054932,
   1.0634496212005615,
   1.0525935888290405,
   1.0390440225601196,
   1.0299596786499023,
   1.0255081653594971,
   1.0061571598052979,
   1.0066869258880615,
   0.98756372928619385,
   1.0029995441436768,
   0.99198979139328003,
   1.0063842535018921,
   0.99171936511993408,
   0.98792439699172974,
   0.99790656566619873,
   0.99774444103240967,
   0.99882602691650391,
   1.0055902004241943,
   1.0182821750640869,
   0.9723394513130188,
   1.0081948041915894,
   0.97963619232177734,
   1.0096242427825928,
   1.0348268747329712
]
