[
   36.439521789550781,
   35.946578979492188,
   35.950767517089844,
   35.869594573974609,
   35.865970611572266,
   35.640678405761719,
   35.934036254882812,
   35.838790893554688,
   35.437892913818359,
   35.285781860351562,
   34.090206146240234,
   33.406044006347656,
   32.559089660644531,
   31.786464691162109,
   31.343105316162109,
   30.954036712646484,
   30.351238250732422,
   29.980060577392578,
   29.225948333740234,
   25.560697555541992,
   22.658893585205078,
   20.819540023803711,
   18.858821868896484,
   17.88349723815918,
   16.157749176025391,
   14.954980850219727,
   13.842626571655273,
   13.169326782226562,
   7.7026305198669434,
   5.505009651184082,
   4.3233442306518555,
   3.3780879974365234,
   3.1474249362945557,
   2.7628035545349121,
   2.5097956657409668,
   2.2705504894256592,
   1.9943640232086182,
   1.4099245071411133,
   1.192902684211731,
   1.1774702072143555,
   1.1303664445877075,
   0.95703983306884766,
   1.0547466278076172,
   0.98815524578094482,
   1.0066602230072021,
   1.1688053607940674,
   1.0020323991775513,
   0.96076583862304688,
   1.0829845666885376,
   0.99262320995330811,
   1.0437213182449341,
   1.0315473079681396,
   1.0451018810272217,
   1.0896408557891846,
   0.96920281648635864,
   1.0208301544189453,
   0.83297336101531982,
   0.88314944505691528,
   1.1187000274658203,
   0.90720528364181519,
   1.0332742929458618,
   0.74200963973999023,
   1.020849347114563,
   0.91122591495513916
]
