[
   1.6109689474105835,
   1.6095259189605713,
   1.6111501455307007,
   1.6102670431137085,
   1.6117398738861084,
   1.611620306968689,
   1.6099989414215088,
   1.6104457378387451,
   1.6108583211898804,
   1.610825777053833,
   1.6080112457275391,
   1.6069507598876953,
   1.6051162481307983,
   1.6015106439590454,
   1.602264404296875,
   1.5991547107696533,
   1.6005996465682983,
   1.5957024097442627,
   1.5954544544219971,
   1.5805561542510986,
   1.5672390460968018,
   1.5533933639526367,
   1.5411646366119385,
   1.5307552814483643,
   1.5196437835693359,
   1.5087212324142456,
   1.4984228610992432,
   1.4891470670700073,
   1.4132635593414307,
   1.3580664396286011,
   1.316071629524231,
   1.2816522121429443,
   1.253994345664978,
   1.2314821481704712,
   1.2109543085098267,
   1.1928427219390869,
   1.1776829957962036,
   1.0950794219970703,
   1.0589714050292969,
   1.0406429767608643,
   1.0291656255722046,
   1.0176793336868286,
   1.0121622085571289,
   1.0103490352630615,
   1.0088027715682983,
   1.0043284893035889,
   0.99919635057449341,
   0.9948192834854126,
   0.99010038375854492,
   0.99317085742950439,
   0.99262416362762451,
   0.99475926160812378,
   0.99810659885406494,
   1.0039360523223877,
   1.0002396106719971,
   0.99847757816314697,
   0.99801218509674072,
   0.99499720335006714,
   0.9882127046585083,
   0.99821293354034424,
   1.0116066932678223,
   1.0027871131896973,
   1.0169049501419067,
   1.0070520639419556
]
