[
   5.4851174354553223,
   5.472445011138916,
   5.471735954284668,
   5.4642844200134277,
   5.4752407073974609,
   5.4408345222473145,
   5.4511189460754395,
   5.4530181884765625,
   5.454559326171875,
   5.4300994873046875,
   5.3880548477172852,
   5.354456901550293,
   5.3360295295715332,
   5.3013596534729004,
   5.2673392295837402,
   5.240023136138916,
   5.1947894096374512,
   5.1602630615234375,
   5.1265134811401367,
   4.8687715530395508,
   4.6523699760437012,
   4.4439005851745605,
   4.3118143081665039,
   4.1425423622131348,
   4.0041933059692383,
   3.8997910022735596,
   3.7772469520568848,
   3.6912112236022949,
   2.9863848686218262,
   2.5525951385498047,
   2.2675249576568604,
   2.0521683692932129,
   1.9031978845596313,
   1.7798843383789062,
   1.6911399364471436,
   1.6152681112289429,
   1.5354763269424438,
   1.2177295684814453,
   1.1175390481948853,
   1.0799208879470825,
   1.0450631380081177,
   1.0287743806838989,
   1.0059221982955933,
   0.99106979370117188,
   0.99288523197174072,
   0.98070162534713745,
   1.0185180902481079,
   0.97997570037841797,
   1.0115355253219604,
   0.99605715274810791,
   1.0064070224761963,
   0.99676930904388428,
   0.97569513320922852,
   0.99166345596313477,
   0.98908263444900513,
   1.0112123489379883,
   1.0063797235488892,
   0.97801381349563599,
   1.0284197330474854,
   0.98236292600631714,
   0.97712790966033936,
   0.96638756990432739,
   1.1096282005310059,
   1.1926212310791016
]
