[
   1.5525572299957275,
   1.5515403747558594,
   1.553310751914978,
   1.5523040294647217,
   1.5533124208450317,
   1.5531177520751953,
   1.5531224012374878,
   1.5526589155197144,
   1.5529143810272217,
   1.552865743637085,
   1.5508651733398438,
   1.550076961517334,
   1.548170804977417,
   1.5446993112564087,
   1.545487642288208,
   1.5432658195495605,
   1.5445599555969238,
   1.5404548645019531,
   1.5402035713195801,
   1.5273487567901611,
   1.5154305696487427,
   1.5030326843261719,
   1.4929836988449097,
   1.4834486246109009,
   1.4743137359619141,
   1.4645652770996094,
   1.4553885459899902,
   1.4471793174743652,
   1.3804577589035034,
   1.33077073097229,
   1.2932702302932739,
   1.2617720365524292,
   1.2364127635955811,
   1.2162805795669556,
   1.1974472999572754,
   1.1811321973800659,
   1.1669381856918335,
   1.0895501375198364,
   1.0564883947372437,
   1.0391348600387573,
   1.0285546779632568,
   1.0166589021682739,
   1.0115808248519897,
   1.0094354152679443,
   1.0081412792205811,
   1.0045396089553833,
   0.99788188934326172,
   0.99449825286865234,
   0.98981666564941406,
   0.99346065521240234,
   0.99206364154815674,
   0.99473154544830322,
   0.99750548601150513,
   1.0034880638122559,
   0.99916583299636841,
   0.99820232391357422,
   0.99764317274093628,
   0.99476385116577148,
   0.98884803056716919,
   0.99910104274749756,
   1.0114140510559082,
   1.0036033391952515,
   1.0185729265213013,
   1.0069828033447266
]
