[
   3.2059905529022217,
   3.2121329307556152,
   3.2054684162139893,
   3.2097392082214355,
   3.2018730640411377,
   3.2014346122741699,
   3.199575662612915,
   3.2054390907287598,
   3.2120194435119629,
   3.2022101879119873,
   3.1887667179107666,
   3.1762545108795166,
   3.1628177165985107,
   3.1514055728912354,
   3.1380360126495361,
   3.1284282207489014,
   3.1192269325256348,
   3.1084609031677246,
   3.0918302536010742,
   2.9946269989013672,
   2.9029312133789062,
   2.8278181552886963,
   2.7552666664123535,
   2.6859645843505859,
   2.620248556137085,
   2.5715653896331787,
   2.5179164409637451,
   2.4756255149841309,
   2.1363377571105957,
   1.9238655567169189,
   1.7767870426177979,
   1.6683461666107178,
   1.5713008642196655,
   1.5093971490859985,
   1.4520920515060425,
   1.4034485816955566,
   1.356860876083374,
   1.1616201400756836,
   1.0876410007476807,
   1.0370770692825317,
   1.0340754985809326,
   1.0297783613204956,
   1.0109968185424805,
   1.0064520835876465,
   0.99823904037475586,
   0.99229449033737183,
   0.99993914365768433,
   0.98124039173126221,
   1.014677882194519,
   1.0166184902191162,
   0.99587184190750122,
   1.0036766529083252,
   0.99670505523681641,
   1.0004795789718628,
   0.99712049961090088,
   1.0190361738204956,
   0.98404121398925781,
   1.0123341083526611,
   1.0088058710098267,
   0.991729736328125,
   0.97655391693115234,
   0.9897770881652832,
   1.0027196407318115,
   1.0248911380767822
]
