[
   148.56382751464844,
   149.06028747558594,
   151.20977783203125,
   148.59783935546875,
   148.91339111328125,
   146.97390747070312,
   144.75784301757812,
   145.7239990234375,
   144.17715454101562,
   142.51309204101562,
   138.20364379882812,
   129.21524047851562,
   124.83274078369141,
   116.27195739746094,
   116.7147216796875,
   111.96781921386719,
   107.60099029541016,
   106.34661865234375,
   101.80259704589844,
   77.680335998535156,
   63.808094024658203,
   51.758880615234375,
   45.014778137207031,
   37.715526580810547,
   35.333370208740234,
   30.277439117431641,
   30.141460418701172,
   25.333225250244141,
   10.98100471496582,
   7.3416366577148438,
   5.6748471260070801,
   4.2969026565551758,
   3.7167313098907471,
   3.8815124034881592,
   2.7460646629333496,
   2.5169744491577148,
   2.4458737373352051,
   1.4865825176239014,
   1.6366100311279297,
   1.1758944988250732,
   0.99850016832351685,
   0.68293410539627075,
   0.55496156215667725,
   0.82871085405349731,
   0.97833794355392456,
   0.90292489528656006,
   0.65975445508956909,
   0.75966882705688477,
   1.1902267932891846,
   0.9927821159362793,
   0.8047364354133606,
   1.1788617372512817,
   1.2513482570648193,
   1.4187698364257812,
   0.98282748460769653,
   0.62115633487701416,
   0.97130167484283447,
   0.85808265209197998,
   0.43534335494041443,
   0.85881632566452026,
   2.3309741020202637,
   0.98174953460693359,
   1.1282007694244385,
   1.7184232473373413
]
