[
   1.6830590963363647,
   1.6819461584091187,
   1.6842530965805054,
   1.6830869913101196,
   1.684345006942749,
   1.6841676235198975,
   1.6829147338867188,
   1.6834039688110352,
   1.6834697723388672,
   1.6831140518188477,
   1.6795122623443604,
   1.6784528493881226,
   1.6763179302215576,
   1.6724745035171509,
   1.6731185913085938,
   1.6692173480987549,
   1.670968770980835,
   1.6650402545928955,
   1.6654222011566162,
   1.6475207805633545,
   1.6312072277069092,
   1.6141141653060913,
   1.6018009185791016,
   1.5887560844421387,
   1.5755759477615356,
   1.5635136365890503,
   1.5513899326324463,
   1.5406395196914673,
   1.453434944152832,
   1.3906881809234619,
   1.3439000844955444,
   1.3059591054916382,
   1.2744301557540894,
   1.2493785619735718,
   1.2272031307220459,
   1.2063829898834229,
   1.1894137859344482,
   1.0995810031890869,
   1.0622217655181885,
   1.0429551601409912,
   1.0301014184951782,
   1.0181211233139038,
   1.0134611129760742,
   1.0114778280258179,
   1.0099589824676514,
   1.0045206546783447,
   1.0000463724136353,
   0.99531805515289307,
   0.98981368541717529,
   0.99353951215744019,
   0.99267232418060303,
   0.99515950679779053,
   0.99829751253128052,
   1.0047823190689087,
   1.0007613897323608,
   0.99871569871902466,
   0.99876642227172852,
   0.99539566040039062,
   0.98746204376220703,
   0.99723178148269653,
   1.0115329027175903,
   1.0019381046295166,
   1.0159255266189575,
   1.004082202911377
]
