[
   2.5664498805999756,
   2.56319260597229,
   2.5627117156982422,
   2.561302661895752,
   2.5660567283630371,
   2.5655562877655029,
   2.5615160465240479,
   2.55843186378479,
   2.5575542449951172,
   2.5571660995483398,
   2.5589408874511719,
   2.5479884147644043,
   2.5434305667877197,
   2.541579008102417,
   2.5318474769592285,
   2.5308585166931152,
   2.5259182453155518,
   2.519930362701416,
   2.512855052947998,
   2.4704198837280273,
   2.4286272525787354,
   2.3934173583984375,
   2.3558568954467773,
   2.3280282020568848,
   2.2988791465759277,
   2.2707462310791016,
   2.2467682361602783,
   2.2233879566192627,
   2.0362701416015625,
   1.9025545120239258,
   1.7953493595123291,
   1.7064287662506104,
   1.6388295888900757,
   1.5764744281768799,
   1.5251032114028931,
   1.4837234020233154,
   1.4443552494049072,
   1.2301521301269531,
   1.150354266166687,
   1.0960773229598999,
   1.0705108642578125,
   1.0563726425170898,
   1.0419533252716064,
   1.0445946455001831,
   1.027414083480835,
   1.0168139934539795,
   1.0094213485717773,
   1.0060586929321289,
   0.99267518520355225,
   1.0075503587722778,
   1.001270055770874,
   0.98734551668167114,
   0.99774539470672607,
   1.0125793218612671,
   1.0064526796340942,
   1.0208514928817749,
   1.0161764621734619,
   1.0039222240447998,
   0.99157607555389404,
   0.99418509006500244,
   0.98070132732391357,
   0.95632898807525635,
   0.91761648654937744,
   0.91312980651855469
]
