[
   1.8891379833221436,
   1.8902595043182373,
   1.8928577899932861,
   1.8895622491836548,
   1.8899310827255249,
   1.8906738758087158,
   1.891118049621582,
   1.8897641897201538,
   1.8908846378326416,
   1.8884789943695068,
   1.8877289295196533,
   1.8851255178451538,
   1.8831167221069336,
   1.878353476524353,
   1.8768758773803711,
   1.874018669128418,
   1.8737342357635498,
   1.8702952861785889,
   1.8680398464202881,
   1.8474171161651611,
   1.8299615383148193,
   1.8109855651855469,
   1.7962366342544556,
   1.7828023433685303,
   1.7670186758041382,
   1.7539913654327393,
   1.7437465190887451,
   1.7314012050628662,
   1.6381763219833374,
   1.5692363977432251,
   1.5106186866760254,
   1.4634952545166016,
   1.4250993728637695,
   1.3917998075485229,
   1.3592574596405029,
   1.3354561328887939,
   1.3124899864196777,
   1.1759974956512451,
   1.1101210117340088,
   1.0682159662246704,
   1.0517902374267578,
   1.0398333072662354,
   1.0283238887786865,
   1.0194376707077026,
   1.017403244972229,
   1.0079351663589478,
   0.99466150999069214,
   1.0148724317550659,
   1.0041906833648682,
   1.0033286809921265,
   0.99091833829879761,
   0.99222934246063232,
   0.99960100650787354,
   0.99030029773712158,
   0.99852097034454346,
   1.0016820430755615,
   0.99870717525482178,
   1.0049149990081787,
   0.99921882152557373,
   0.97700250148773193,
   0.97711217403411865,
   0.99759358167648315,
   0.99241721630096436,
   1.0384684801101685
]
