[
   1.5550237894058228,
   1.555996298789978,
   1.556566596031189,
   1.5552077293395996,
   1.5545876026153564,
   1.5547561645507812,
   1.555098295211792,
   1.5549589395523071,
   1.5543543100357056,
   1.5553615093231201,
   1.5537887811660767,
   1.5518147945404053,
   1.5497274398803711,
   1.5502668619155884,
   1.5495622158050537,
   1.54839026927948,
   1.5469400882720947,
   1.5457122325897217,
   1.5457277297973633,
   1.5352433919906616,
   1.5250301361083984,
   1.5172172784805298,
   1.5098031759262085,
   1.5013623237609863,
   1.4950089454650879,
   1.487345814704895,
   1.4817684888839722,
   1.4755579233169556,
   1.4241244792938232,
   1.3857128620147705,
   1.3558993339538574,
   1.3293519020080566,
   1.3072419166564941,
   1.2870266437530518,
   1.2700848579406738,
   1.254658579826355,
   1.2400609254837036,
   1.1501734256744385,
   1.1019463539123535,
   1.0741479396820068,
   1.0597456693649292,
   1.0470931529998779,
   1.0375659465789795,
   1.0313403606414795,
   1.0206298828125,
   1.0171363353729248,
   0.99614632129669189,
   1.0056264400482178,
   1.0007721185684204,
   0.99549388885498047,
   1.0043504238128662,
   1.0014482736587524,
   1.0016278028488159,
   0.99840319156646729,
   0.99967306852340698,
   0.99457299709320068,
   1.000226616859436,
   0.99083340167999268,
   0.99313277006149292,
   1.0044441223144531,
   1.0104947090148926,
   0.98724222183227539,
   0.96401947736740112,
   0.94596827030181885
]
