[
   1.4503459930419922,
   1.4489371776580811,
   1.4505171775817871,
   1.4504101276397705,
   1.4494149684906006,
   1.4492409229278564,
   1.4492174386978149,
   1.4488679170608521,
   1.4485248327255249,
   1.448874831199646,
   1.4473516941070557,
   1.4475266933441162,
   1.4464263916015625,
   1.4449224472045898,
   1.4450032711029053,
   1.4440739154815674,
   1.4442393779754639,
   1.442302942276001,
   1.443273663520813,
   1.4348262548446655,
   1.4280939102172852,
   1.4217712879180908,
   1.4155550003051758,
   1.4091150760650635,
   1.4035218954086304,
   1.3995392322540283,
   1.3947219848632812,
   1.3889706134796143,
   1.3500809669494629,
   1.3210194110870361,
   1.2966042757034302,
   1.2766664028167725,
   1.2579443454742432,
   1.2427365779876709,
   1.2273344993591309,
   1.214674711227417,
   1.2038586139678955,
   1.126488208770752,
   1.0851066112518311,
   1.0609918832778931,
   1.0422790050506592,
   1.0330188274383545,
   1.0237612724304199,
   1.0183773040771484,
   1.0159072875976562,
   1.0134084224700928,
   1.0020401477813721,
   0.99141389131546021,
   0.99547684192657471,
   0.99533569812774658,
   0.99617612361907959,
   0.99246490001678467,
   0.99834221601486206,
   0.99672573804855347,
   0.99649226665496826,
   0.99932974576950073,
   0.99266558885574341,
   1.0043623447418213,
   0.99827229976654053,
   0.99893999099731445,
   0.99617224931716919,
   0.99670088291168213,
   0.99165695905685425,
   0.99548566341400146
]
