[
   5.5983037948608398,
   5.5924015045166016,
   5.6034970283508301,
   5.5806360244750977,
   5.5699362754821777,
   5.5814547538757324,
   5.5746746063232422,
   5.5736188888549805,
   5.5829095840454102,
   5.5608243942260742,
   5.5265169143676758,
   5.5046510696411133,
   5.4590892791748047,
   5.4381814002990723,
   5.4010210037231445,
   5.3641519546508789,
   5.3520317077636719,
   5.3318624496459961,
   5.3180127143859863,
   5.0836029052734375,
   4.9063787460327148,
   4.730583667755127,
   4.5939826965332031,
   4.4646439552307129,
   4.3302912712097168,
   4.2371344566345215,
   4.1276817321777344,
   4.0338068008422852,
   3.3156745433807373,
   2.8583483695983887,
   2.5356895923614502,
   2.2705645561218262,
   2.0865252017974854,
   1.9444814920425415,
   1.8352161645889282,
   1.7304103374481201,
   1.6564077138900757,
   1.3100223541259766,
   1.2110555171966553,
   1.1477696895599365,
   1.0815154314041138,
   1.0770726203918457,
   1.0568702220916748,
   1.0210034847259521,
   1.0400147438049316,
   1.0608159303665161,
   1.0223503112792969,
   0.96622335910797119,
   1.0122851133346558,
   1.0200337171554565,
   1.0028584003448486,
   0.9728047251701355,
   0.98767948150634766,
   1.0223499536514282,
   1.0096054077148438,
   0.98724687099456787,
   0.97356593608856201,
   0.98943841457366943,
   0.95014458894729614,
   0.95437347888946533,
   1.0297806262969971,
   1.0094801187515259,
   0.98791706562042236,
   0.9270704984664917
]
