[
   1.7755069732666016,
   1.778639554977417,
   1.7776651382446289,
   1.7774450778961182,
   1.7769333124160767,
   1.7774556875228882,
   1.7759568691253662,
   1.7751772403717041,
   1.7783905267715454,
   1.7754993438720703,
   1.773868203163147,
   1.7714121341705322,
   1.7702642679214478,
   1.767032265663147,
   1.7665050029754639,
   1.7647483348846436,
   1.7643283605575562,
   1.7628940343856812,
   1.7584428787231445,
   1.7428214550018311,
   1.7280128002166748,
   1.714419960975647,
   1.7018022537231445,
   1.6885865926742554,
   1.677646279335022,
   1.6675083637237549,
   1.6575483083724976,
   1.6463491916656494,
   1.5687116384506226,
   1.5091531276702881,
   1.4616986513137817,
   1.4217393398284912,
   1.3871942758560181,
   1.3579466342926025,
   1.3314207792282104,
   1.3098293542861938,
   1.2900173664093018,
   1.1661535501480103,
   1.1101007461547852,
   1.0759556293487549,
   1.0598263740539551,
   1.0463868379592896,
   1.0406792163848877,
   1.0356999635696411,
   1.0234777927398682,
   1.0132286548614502,
   0.99523895978927612,
   0.9967045783996582,
   0.98745936155319214,
   1.0015103816986084,
   0.98941832780838013,
   0.99837315082550049,
   0.9879530668258667,
   0.99695587158203125,
   0.99802923202514648,
   1.0105161666870117,
   1.00937819480896,
   0.98034459352493286,
   1.0107980966567993,
   1.0011051893234253,
   1.0192954540252686,
   0.97251749038696289,
   0.97364825010299683,
   1.0148007869720459
]
