[
   3.8356757164001465,
   3.8317992687225342,
   3.826155424118042,
   3.8283276557922363,
   3.8233230113983154,
   3.8166255950927734,
   3.8211486339569092,
   3.822462797164917,
   3.8212158679962158,
   3.822812557220459,
   3.7953581809997559,
   3.777435302734375,
   3.7765038013458252,
   3.7607605457305908,
   3.7457518577575684,
   3.7432315349578857,
   3.7198371887207031,
   3.7104575634002686,
   3.6974053382873535,
   3.5888972282409668,
   3.4925060272216797,
   3.4123024940490723,
   3.3378479480743408,
   3.2626261711120605,
   3.2119858264923096,
   3.1472015380859375,
   3.1013510227203369,
   3.0523056983947754,
   2.6517071723937988,
   2.3658761978149414,
   2.1724240779876709,
   2.0104618072509766,
   1.8884245157241821,
   1.7945009469985962,
   1.7120939493179321,
   1.6395590305328369,
   1.5839899778366089,
   1.2580709457397461,
   1.1482236385345459,
   1.0949506759643555,
   1.0699231624603271,
   1.0656070709228516,
   1.045912504196167,
   1.0311105251312256,
   1.0134313106536865,
   0.9983946681022644,
   1.0284832715988159,
   1.0012462139129639,
   1.0022937059402466,
   1.0164339542388916,
   1.0248923301696777,
   0.98722362518310547,
   0.9876025915145874,
   0.99419009685516357,
   0.98635208606719971,
   0.99886006116867065,
   1.0214344263076782,
   0.98498022556304932,
   1.0316509008407593,
   0.95827710628509521,
   0.98379242420196533,
   0.97442376613616943,
   0.97026652097702026,
   0.86401766538619995
]
