[
   1.6183862686157227,
   1.617282509803772,
   1.6178785562515259,
   1.6184200048446655,
   1.6196510791778564,
   1.6175441741943359,
   1.6181157827377319,
   1.6193176507949829,
   1.61798095703125,
   1.6180980205535889,
   1.615365743637085,
   1.6162641048431396,
   1.6132891178131104,
   1.6135339736938477,
   1.6113113164901733,
   1.6109402179718018,
   1.6083253622055054,
   1.6082233190536499,
   1.606487512588501,
   1.5954254865646362,
   1.5837023258209229,
   1.5729105472564697,
   1.5650608539581299,
   1.5558769702911377,
   1.5473126173019409,
   1.54020094871521,
   1.5337841510772705,
   1.524599552154541,
   1.4667834043502808,
   1.4231218099594116,
   1.3857371807098389,
   1.3573844432830811,
   1.3319631814956665,
   1.3083823919296265,
   1.2899657487869263,
   1.270344614982605,
   1.2570536136627197,
   1.1558306217193604,
   1.107542872428894,
   1.0764834880828857,
   1.0529279708862305,
   1.0383275747299194,
   1.0303572416305542,
   1.0223255157470703,
   1.0181171894073486,
   1.020533561706543,
   1.0040038824081421,
   0.99432718753814697,
   0.99903947114944458,
   0.99196833372116089,
   0.99183672666549683,
   0.99668514728546143,
   0.99536097049713135,
   0.99348181486129761,
   0.97903645038604736,
   0.99910974502563477,
   1.0002889633178711,
   1.0010831356048584,
   0.98428189754486084,
   0.99440240859985352,
   1.0004439353942871,
   1.0003234148025513,
   0.99811011552810669,
   1.0536735057830811
]
