[
   1.7023894786834717,
   1.7015435695648193,
   1.7019870281219482,
   1.7012889385223389,
   1.6989873647689819,
   1.7000484466552734,
   1.7006889581680298,
   1.7007433176040649,
   1.7008533477783203,
   1.699397087097168,
   1.6987378597259521,
   1.6975761651992798,
   1.6957050561904907,
   1.6949113607406616,
   1.6926281452178955,
   1.691920280456543,
   1.6893131732940674,
   1.6880496740341187,
   1.6853481531143188,
   1.673587441444397,
   1.6591746807098389,
   1.6478332281112671,
   1.6356856822967529,
   1.625234842300415,
   1.6153953075408936,
   1.6067163944244385,
   1.597618579864502,
   1.590193510055542,
   1.5196249485015869,
   1.4678840637207031,
   1.4278980493545532,
   1.3932638168334961,
   1.3632761240005493,
   1.3370907306671143,
   1.3138246536254883,
   1.29152512550354,
   1.273425817489624,
   1.1619690656661987,
   1.1117544174194336,
   1.0812515020370483,
   1.0601737499237061,
   1.0485670566558838,
   1.0374418497085571,
   1.0313882827758789,
   1.0220208168029785,
   1.0114865303039551,
   0.99419528245925903,
   0.99674350023269653,
   1.0045664310455322,
   0.99816906452178955,
   0.99716442823410034,
   0.99252301454544067,
   0.99009495973587036,
   0.99487924575805664,
   0.99299561977386475,
   0.99658745527267456,
   0.9999358057975769,
   0.98948991298675537,
   1.0058712959289551,
   0.99959009885787964,
   1.0040050745010376,
   0.99641191959381104,
   1.0340125560760498,
   1.0617862939834595
]
