[
   2.5871603488922119,
   2.5795021057128906,
   2.5831534862518311,
   2.5792832374572754,
   2.5834872722625732,
   2.5836634635925293,
   2.5799543857574463,
   2.5805630683898926,
   2.5813889503479004,
   2.581641674041748,
   2.5783450603485107,
   2.5785677433013916,
   2.573789119720459,
   2.5745174884796143,
   2.5700998306274414,
   2.5679762363433838,
   2.5646052360534668,
   2.5631885528564453,
   2.5603611469268799,
   2.540006160736084,
   2.5207538604736328,
   2.4954850673675537,
   2.4768233299255371,
   2.4600386619567871,
   2.4386155605316162,
   2.4220550060272217,
   2.4069299697875977,
   2.3884553909301758,
   2.2523653507232666,
   2.1359808444976807,
   2.0327484607696533,
   1.9503183364868164,
   1.8799957036972046,
   1.8190023899078369,
   1.7669376134872437,
   1.7229849100112915,
   1.6837494373321533,
   1.4360711574554443,
   1.306132435798645,
   1.2302147150039673,
   1.1868542432785034,
   1.1583477258682251,
   1.1391615867614746,
   1.1159993410110474,
   1.0897277593612671,
   1.0722371339797974,
   1.0241074562072754,
   1.0022227764129639,
   0.99273043870925903,
   0.99372988939285278,
   0.99689453840255737,
   1.002544641494751,
   0.99570626020431519,
   1.0064265727996826,
   0.9888274073600769,
   1.0047281980514526,
   0.99625265598297119,
   1.0315231084823608,
   1.0046036243438721,
   0.9622650146484375,
   0.92515528202056885,
   0.95044660568237305,
   0.93700945377349854,
   0.94984561204910278
]
