[
   2.107785701751709,
   2.1080663204193115,
   2.1108171939849854,
   2.1095831394195557,
   2.1070609092712402,
   2.1107251644134521,
   2.1104981899261475,
   2.1099026203155518,
   2.1100268363952637,
   2.1057109832763672,
   2.1044654846191406,
   2.1052098274230957,
   2.105083703994751,
   2.1063113212585449,
   2.0985276699066162,
   2.0994181632995605,
   2.098078727722168,
   2.0966176986694336,
   2.0973453521728516,
   2.0835905075073242,
   2.0702788829803467,
   2.0584824085235596,
   2.0505359172821045,
   2.0383970737457275,
   2.0295391082763672,
   2.017219066619873,
   2.0086493492126465,
   1.9980710744857788,
   1.9155133962631226,
   1.8403997421264648,
   1.7806659936904907,
   1.7279384136199951,
   1.6808013916015625,
   1.6357161998748779,
   1.5999948978424072,
   1.5705987215042114,
   1.5343919992446899,
   1.3410903215408325,
   1.2406704425811768,
   1.1827231645584106,
   1.1420438289642334,
   1.115315318107605,
   1.0960756540298462,
   1.0855453014373779,
   1.0735055208206177,
   1.0617859363555908,
   1.0118206739425659,
   0.99315500259399414,
   1.0211029052734375,
   1.0146185159683228,
   0.9864237904548645,
   0.98638570308685303,
   0.98806369304656982,
   0.98512333631515503,
   0.98028528690338135,
   0.98561590909957886,
   0.99609482288360596,
   1.0205779075622559,
   0.98716992139816284,
   0.99407291412353516,
   1.0070159435272217,
   0.9492533802986145,
   0.99891060590744019,
   0.99234181642532349
]
