[
   1.4509046077728271,
   1.4512107372283936,
   1.4515007734298706,
   1.4520411491394043,
   1.4510542154312134,
   1.4511054754257202,
   1.4511220455169678,
   1.450394868850708,
   1.4517195224761963,
   1.4513759613037109,
   1.4502025842666626,
   1.450752854347229,
   1.4495446681976318,
   1.4496860504150391,
   1.4499673843383789,
   1.449526309967041,
   1.4487601518630981,
   1.4491256475448608,
   1.4489868879318237,
   1.4462049007415771,
   1.4439952373504639,
   1.441692590713501,
   1.4381335973739624,
   1.4370324611663818,
   1.4353725910186768,
   1.4331483840942383,
   1.4308464527130127,
   1.4290117025375366,
   1.4100873470306396,
   1.3938634395599365,
   1.3791928291320801,
   1.3659141063690186,
   1.3521966934204102,
   1.3406692743301392,
   1.3295142650604248,
   1.3192424774169922,
   1.3095660209655762,
   1.2387906312942505,
   1.1923083066940308,
   1.1579006910324097,
   1.1296099424362183,
   1.1117184162139893,
   1.0958397388458252,
   1.0848554372787476,
   1.0736626386642456,
   1.0652406215667725,
   1.0283501148223877,
   1.0174509286880493,
   1.0180191993713379,
   0.99703681468963623,
   0.99891090393066406,
   0.99502146244049072,
   0.99776303768157959,
   0.99295938014984131,
   0.99584990739822388,
   0.9922947883605957,
   0.98795127868652344,
   1.0055388212203979,
   0.98577463626861572,
   1.0063190460205078,
   1.0015366077423096,
   0.99488365650177002,
   1.0080821514129639,
   1.0241491794586182
]
