[
   1.6548795700073242,
   1.6551542282104492,
   1.6556230783462524,
   1.6552855968475342,
   1.6550862789154053,
   1.6546299457550049,
   1.6542320251464844,
   1.6540305614471436,
   1.6551882028579712,
   1.6553655862808228,
   1.6550273895263672,
   1.653551459312439,
   1.6540424823760986,
   1.6531426906585693,
   1.652146577835083,
   1.6515735387802124,
   1.6512140035629272,
   1.6506698131561279,
   1.6495048999786377,
   1.6456794738769531,
   1.6419264078140259,
   1.6365175247192383,
   1.6316121816635132,
   1.6280330419540405,
   1.6240984201431274,
   1.6184924840927124,
   1.6148948669433594,
   1.6121218204498291,
   1.5772577524185181,
   1.5476318597793579,
   1.5216277837753296,
   1.4964046478271484,
   1.4759446382522583,
   1.4565629959106445,
   1.4390251636505127,
   1.4211380481719971,
   1.4044450521469116,
   1.298179030418396,
   1.2311190366744995,
   1.1860240697860718,
   1.1571708917617798,
   1.1334229707717896,
   1.1141189336776733,
   1.0998737812042236,
   1.0873528718948364,
   1.0807464122772217,
   1.0352333784103394,
   1.0095359086990356,
   1.0006901025772095,
   0.99977743625640869,
   0.98409783840179443,
   0.99193274974822998,
   1.010392427444458,
   1.00719153881073,
   0.98877888917922974,
   1.0102130174636841,
   1.020888090133667,
   0.9992755651473999,
   1.0130698680877686,
   0.97397774457931519,
   0.92794954776763916,
   0.93635398149490356,
   0.93796998262405396,
   0.96422451734542847
]
