[
   30.405075073242188,
   30.492940902709961,
   30.214807510375977,
   30.490970611572266,
   30.391641616821289,
   30.285146713256836,
   30.23345947265625,
   30.178277969360352,
   30.061443328857422,
   29.732946395874023,
   29.319248199462891,
   28.887958526611328,
   27.947961807250977,
   27.618185043334961,
   27.1285400390625,
   26.569812774658203,
   26.315750122070312,
   25.76715087890625,
   25.352302551269531,
   21.745193481445312,
   18.926553726196289,
   17.029287338256836,
   15.287538528442383,
   14.096319198608398,
   13.081453323364258,
   12.153684616088867,
   11.333398818969727,
   10.590286254882812,
   6.7260560989379883,
   4.9895792007446289,
   4.0442228317260742,
   3.4075007438659668,
   2.930429220199585,
   2.8268380165100098,
   2.5357780456542969,
   2.387824535369873,
   2.1207401752471924,
   1.5342012643814087,
   1.438690185546875,
   1.2376810312271118,
   1.164833664894104,
   1.0918110609054565,
   1.0314511060714722,
   0.96638238430023193,
   1.0210471153259277,
   1.0432065725326538,
   1.0628142356872559,
   1.0390646457672119,
   1.1076908111572266,
   0.96348458528518677,
   0.92447865009307861,
   1.2110236883163452,
   1.0515052080154419,
   1.0417585372924805,
   1.0599609613418579,
   1.077467679977417,
   1.1804224252700806,
   0.99350631237030029,
   0.99674308300018311,
   0.92522907257080078,
   0.96250581741333008,
   0.94088774919509888,
   1.1423441171646118,
   0.58141076564788818
]
