[
   1.9143483638763428,
   1.9135875701904297,
   1.9122037887573242,
   1.9138034582138062,
   1.9101947546005249,
   1.9131988286972046,
   1.9113260507583618,
   1.9104009866714478,
   1.9120792150497437,
   1.9132982492446899,
   1.9126231670379639,
   1.9088575839996338,
   1.9102151393890381,
   1.9090192317962646,
   1.9063720703125,
   1.9068982601165771,
   1.9041664600372314,
   1.9069751501083374,
   1.9038448333740234,
   1.896733283996582,
   1.8865997791290283,
   1.8789803981781006,
   1.8726257085800171,
   1.8645393848419189,
   1.8563028573989868,
   1.8488013744354248,
   1.8432744741439819,
   1.8359992504119873,
   1.7782993316650391,
   1.729347825050354,
   1.6811544895172119,
   1.644523024559021,
   1.6102669239044189,
   1.5796173810958862,
   1.5505983829498291,
   1.5253868103027344,
   1.5035873651504517,
   1.3498327732086182,
   1.263343334197998,
   1.2129695415496826,
   1.1757404804229736,
   1.1451340913772583,
   1.1213741302490234,
   1.1045094728469849,
   1.0951716899871826,
   1.0860824584960938,
   1.0397636890411377,
   1.0284684896469116,
   1.0185718536376953,
   1.0186015367507935,
   1.0214341878890991,
   1.018660306930542,
   1.0248327255249023,
   1.0046036243438721,
   0.99374359846115112,
   0.98295629024505615,
   0.98346328735351562,
   0.98141860961914062,
   0.99102288484573364,
   0.99767482280731201,
   0.96639382839202881,
   0.98317259550094604,
   0.99159324169158936,
   0.89760887622833252
]
