[
   1.5123395919799805,
   1.5120422840118408,
   1.5116679668426514,
   1.5121707916259766,
   1.5120559930801392,
   1.5121185779571533,
   1.512144923210144,
   1.5124269723892212,
   1.5110533237457275,
   1.5118834972381592,
   1.5110266208648682,
   1.5113421678543091,
   1.512234091758728,
   1.510310173034668,
   1.5086296796798706,
   1.5107995271682739,
   1.5095105171203613,
   1.5090510845184326,
   1.5082738399505615,
   1.5050094127655029,
   1.5019750595092773,
   1.5003117322921753,
   1.4973608255386353,
   1.4938522577285767,
   1.4914886951446533,
   1.4897441864013672,
   1.4871660470962524,
   1.4847782850265503,
   1.4632816314697266,
   1.4428575038909912,
   1.4252899885177612,
   1.4086816310882568,
   1.3937699794769287,
   1.379230260848999,
   1.3664283752441406,
   1.3537499904632568,
   1.3424527645111084,
   1.2552809715270996,
   1.2023918628692627,
   1.1652815341949463,
   1.1365845203399658,
   1.1128284931182861,
   1.094579815864563,
   1.0826551914215088,
   1.0719289779663086,
   1.0652920007705688,
   1.0191495418548584,
   1.0000385046005249,
   0.99777841567993164,
   0.99918442964553833,
   0.98632419109344482,
   0.98157167434692383,
   0.99036198854446411,
   0.99552470445632935,
   1.0037233829498291,
   0.98495405912399292,
   0.9881623387336731,
   0.99343091249465942,
   0.98534077405929565,
   1.0036510229110718,
   1.0037851333618164,
   1.0434169769287109,
   1.019140362739563,
   1.0296213626861572
]
