[
   3.4626121520996094,
   3.4608390331268311,
   3.4584012031555176,
   3.4691376686096191,
   3.4550120830535889,
   3.4649052619934082,
   3.4639859199523926,
   3.4588408470153809,
   3.457810640335083,
   3.4616827964782715,
   3.4474837779998779,
   3.4515483379364014,
   3.447052001953125,
   3.4372677803039551,
   3.4363467693328857,
   3.4266841411590576,
   3.4231681823730469,
   3.4124836921691895,
   3.4041972160339355,
   3.3646960258483887,
   3.30865478515625,
   3.2745845317840576,
   3.2386081218719482,
   3.2074184417724609,
   3.1635091304779053,
   3.1315875053405762,
   3.0939478874206543,
   3.0626728534698486,
   2.7858448028564453,
   2.5679702758789062,
   2.4087615013122559,
   2.2761895656585693,
   2.169910192489624,
   2.0717067718505859,
   1.9911057949066162,
   1.9325287342071533,
   1.8665406703948975,
   1.5060309171676636,
   1.3653320074081421,
   1.2703239917755127,
   1.200481653213501,
   1.1646630764007568,
   1.1394129991531372,
   1.1236394643783569,
   1.1129951477050781,
   1.075013279914856,
   1.0326789617538452,
   1.0094382762908936,
   0.978812575340271,
   0.99002265930175781,
   0.956268310546875,
   0.99834710359573364,
   0.97717845439910889,
   0.96460998058319092,
   0.99064171314239502,
   0.95978701114654541,
   1.0112041234970093,
   0.94909447431564331,
   0.96370869874954224,
   1.001298189163208,
   0.93819177150726318,
   1.0147287845611572,
   1.0967206954956055,
   1.1289749145507812
]
