[
   1.4348208904266357,
   1.4347319602966309,
   1.4353063106536865,
   1.434514045715332,
   1.4345583915710449,
   1.4353270530700684,
   1.434726357460022,
   1.4343192577362061,
   1.4348107576370239,
   1.434609055519104,
   1.4350239038467407,
   1.4339454174041748,
   1.4330856800079346,
   1.4327110052108765,
   1.4320352077484131,
   1.4317780733108521,
   1.4318007230758667,
   1.4304065704345703,
   1.4303984642028809,
   1.4257521629333496,
   1.4205536842346191,
   1.4160087108612061,
   1.4111959934234619,
   1.407728910446167,
   1.4028129577636719,
   1.3996739387512207,
   1.3954145908355713,
   1.3917567729949951,
   1.3606307506561279,
   1.3348077535629272,
   1.3135185241699219,
   1.2944742441177368,
   1.2792253494262695,
   1.2640116214752197,
   1.2502865791320801,
   1.2380392551422119,
   1.227062463760376,
   1.1510549783706665,
   1.111220121383667,
   1.0860641002655029,
   1.0657331943511963,
   1.0514726638793945,
   1.0422447919845581,
   1.032389760017395,
   1.0255906581878662,
   1.0265365839004517,
   1.0046226978302002,
   1.0001606941223145,
   1.0054692029953003,
   0.99503171443939209,
   1.0050895214080811,
   0.99909496307373047,
   1.000278115272522,
   0.9988628625869751,
   0.99740630388259888,
   0.99673539400100708,
   1.0008914470672607,
   1.0022222995758057,
   0.99099600315093994,
   1.0022358894348145,
   0.99995869398117065,
   0.993785560131073,
   1.0033996105194092,
   0.96326273679733276
]
