[
   17.315826416015625,
   17.266090393066406,
   17.229841232299805,
   17.253902435302734,
   17.193832397460938,
   17.225374221801758,
   17.113563537597656,
   17.164558410644531,
   17.079494476318359,
   17.085315704345703,
   16.853704452514648,
   16.692806243896484,
   16.463666915893555,
   16.392717361450195,
   16.10223388671875,
   16.027181625366211,
   15.869654655456543,
   15.715115547180176,
   15.594308853149414,
   14.131591796875,
   13.131503105163574,
   12.20236873626709,
   11.472825050354004,
   10.758350372314453,
   10.112335205078125,
   9.6864948272705078,
   9.1250724792480469,
   8.7601566314697266,
   6.0380434989929199,
   4.7055454254150391,
   3.8888309001922607,
   3.3807291984558105,
   2.9818403720855713,
   2.6335339546203613,
   2.4394147396087646,
   2.2681572437286377,
   2.1821727752685547,
   1.5104198455810547,
   1.3824360370635986,
   1.2794930934906006,
   1.1299260854721069,
   1.1534353494644165,
   1.0953656435012817,
   1.0694348812103271,
   1.062089204788208,
   1.052359938621521,
   0.96668243408203125,
   0.93034172058105469,
   0.95625126361846924,
   0.97681283950805664,
   1.0242165327072144,
   1.0473737716674805,
   1.0380377769470215,
   1.0488340854644775,
   0.98367053270339966,
   0.91165894269943237,
   0.94962692260742188,
   1.0397146940231323,
   1.0160210132598877,
   1.0106971263885498,
   0.98159885406494141,
   0.974434494972229,
   0.87161922454833984,
   1.0225176811218262
]
