[
   2.0366251468658447,
   2.0371191501617432,
   2.0345966815948486,
   2.0343787670135498,
   2.035914421081543,
   2.0356154441833496,
   2.0376298427581787,
   2.0351052284240723,
   2.0343928337097168,
   2.0329575538635254,
   2.034813404083252,
   2.0300004482269287,
   2.0285494327545166,
   2.0264039039611816,
   2.0261178016662598,
   2.0247704982757568,
   2.0209689140319824,
   2.0187592506408691,
   2.0159668922424316,
   2.0005803108215332,
   1.9796791076660156,
   1.9646955728530884,
   1.9496408700942993,
   1.9350745677947998,
   1.9226644039154053,
   1.9098039865493774,
   1.8970800638198853,
   1.8862606287002563,
   1.7872400283813477,
   1.7099977731704712,
   1.6491374969482422,
   1.598974347114563,
   1.5495855808258057,
   1.5153095722198486,
   1.4797632694244385,
   1.4505808353424072,
   1.4234806299209595,
   1.2622243165969849,
   1.1883033514022827,
   1.1427319049835205,
   1.1120463609695435,
   1.0826923847198486,
   1.0660011768341064,
   1.0477591753005981,
   1.0395815372467041,
   1.0277290344238281,
   1.0141644477844238,
   0.9971272349357605,
   0.99805039167404175,
   0.99768465757369995,
   0.98934972286224365,
   0.9917140007019043,
   1.0110269784927368,
   1.0053627490997314,
   1.0038294792175293,
   1.0094993114471436,
   1.0135904550552368,
   1.0091178417205811,
   0.99625271558761597,
   1.0216063261032104,
   1.0040751695632935,
   0.95223599672317505,
   0.91085922718048096,
   0.97555464506149292
]
