[
   3.7661063671112061,
   3.7601413726806641,
   3.7658905982971191,
   3.7763736248016357,
   3.7656967639923096,
   3.7580711841583252,
   3.7581832408905029,
   3.7582881450653076,
   3.7557244300842285,
   3.7551548480987549,
   3.7523353099822998,
   3.7449913024902344,
   3.7220396995544434,
   3.7185413837432861,
   3.7079086303710938,
   3.6918480396270752,
   3.6889767646789551,
   3.6740150451660156,
   3.6704392433166504,
   3.5868067741394043,
   3.5115647315979004,
   3.433692455291748,
   3.378929615020752,
   3.3191165924072266,
   3.2627880573272705,
   3.2123470306396484,
   3.1669726371765137,
   3.1226639747619629,
   2.7635951042175293,
   2.5056719779968262,
   2.3056607246398926,
   2.1592669486999512,
   2.0386085510253906,
   1.9370365142822266,
   1.8547964096069336,
   1.7796275615692139,
   1.7278589010238647,
   1.3952956199645996,
   1.2803488969802856,
   1.2124476432800293,
   1.1712706089019775,
   1.1353293657302856,
   1.1172314882278442,
   1.1162424087524414,
   1.0907154083251953,
   1.0953716039657593,
   0.99863064289093018,
   0.98917436599731445,
   1.0220003128051758,
   1.0232222080230713,
   1.0002411603927612,
   0.99194461107254028,
   0.99978131055831909,
   0.98987120389938354,
   1.0167992115020752,
   1.0216836929321289,
   0.99957954883575439,
   0.97688496112823486,
   0.96222102642059326,
   0.99330270290374756,
   1.0026682615280151,
   0.94087964296340942,
   0.99659806489944458,
   0.96937674283981323
]
