[
   3.002948522567749,
   3.0049948692321777,
   3.0091023445129395,
   3.0047104358673096,
   2.99751877784729,
   3.0042850971221924,
   2.9997339248657227,
   2.9982984066009521,
   2.9942295551300049,
   2.9994292259216309,
   2.9936981201171875,
   2.9862184524536133,
   2.9776015281677246,
   2.9727828502655029,
   2.9666683673858643,
   2.9588713645935059,
   2.9540328979492188,
   2.9546151161193848,
   2.9437129497528076,
   2.8929934501647949,
   2.8409731388092041,
   2.8076183795928955,
   2.7683413028717041,
   2.7295899391174316,
   2.6945900917053223,
   2.657634973526001,
   2.6297025680541992,
   2.6008520126342773,
   2.3670597076416016,
   2.194549560546875,
   2.0584695339202881,
   1.9530454874038696,
   1.858620285987854,
   1.7782233953475952,
   1.7195974588394165,
   1.6617288589477539,
   1.6159474849700928,
   1.333030104637146,
   1.2135016918182373,
   1.1542536020278931,
   1.0921815633773804,
   1.066096305847168,
   1.0543783903121948,
   1.0446071624755859,
   1.0279257297515869,
   1.0278264284133911,
   1.0118716955184937,
   1.0009893178939819,
   0.99932515621185303,
   1.0004414319992065,
   1.0211918354034424,
   1.0082269906997681,
   0.98733937740325928,
   0.99667632579803467,
   1.0083299875259399,
   1.0246731042861938,
   1.0272554159164429,
   1.0145635604858398,
   1.0342130661010742,
   0.97653162479400635,
   0.97912251949310303,
   0.96335631608963013,
   0.93515747785568237,
   0.85553073883056641
]
