[
   1.8649196624755859,
   1.8647453784942627,
   1.865064263343811,
   1.8647785186767578,
   1.8633053302764893,
   1.8641955852508545,
   1.8649517297744751,
   1.8622748851776123,
   1.8625310659408569,
   1.8634542226791382,
   1.8601604700088501,
   1.8589575290679932,
   1.8588049411773682,
   1.8566596508026123,
   1.8553197383880615,
   1.8540890216827393,
   1.8514242172241211,
   1.8500217199325562,
   1.8474353551864624,
   1.8339440822601318,
   1.8204758167266846,
   1.808388352394104,
   1.796581506729126,
   1.7856121063232422,
   1.7737941741943359,
   1.7635316848754883,
   1.7529093027114868,
   1.7427905797958374,
   1.6658468246459961,
   1.6039278507232666,
   1.5556073188781738,
   1.5119903087615967,
   1.4751107692718506,
   1.4420692920684814,
   1.4150774478912354,
   1.3900164365768433,
   1.3668029308319092,
   1.2246177196502686,
   1.1491687297821045,
   1.1123960018157959,
   1.0882731676101685,
   1.0695998668670654,
   1.0542986392974854,
   1.0514403581619263,
   1.0391213893890381,
   1.0289911031723022,
   0.99868488311767578,
   0.99270534515380859,
   1.0000619888305664,
   0.98734539747238159,
   0.99116116762161255,
   1.000807523727417,
   0.99456131458282471,
   0.99498909711837769,
   0.99414682388305664,
   0.99860113859176636,
   1.0021435022354126,
   1.0109232664108276,
   1.0077919960021973,
   1.0067956447601318,
   0.97791469097137451,
   0.98721009492874146,
   1.0312021970748901,
   1.0166113376617432
]
