[
   1.4865725040435791,
   1.4864699840545654,
   1.4851481914520264,
   1.486148476600647,
   1.4864557981491089,
   1.4848802089691162,
   1.485352635383606,
   1.4861116409301758,
   1.486186146736145,
   1.4855982065200806,
   1.4855631589889526,
   1.4835301637649536,
   1.4833694696426392,
   1.4833283424377441,
   1.4821652173995972,
   1.4823853969573975,
   1.4814788103103638,
   1.4814708232879639,
   1.4808367490768433,
   1.4758957624435425,
   1.4687368869781494,
   1.4642045497894287,
   1.4597049951553345,
   1.4538551568984985,
   1.4496971368789673,
   1.4450671672821045,
   1.4406412839889526,
   1.4361541271209717,
   1.3999587297439575,
   1.370989203453064,
   1.347272515296936,
   1.325477123260498,
   1.3070952892303467,
   1.290915846824646,
   1.2755059003829956,
   1.2618348598480225,
   1.2479850053787231,
   1.1623058319091797,
   1.1160560846328735,
   1.086295485496521,
   1.0672299861907959,
   1.0554543733596802,
   1.0443465709686279,
   1.0392825603485107,
   1.034756064414978,
   1.0315306186676025,
   1.00413978099823,
   1.0023152828216553,
   0.99393212795257568,
   0.99179154634475708,
   0.99162828922271729,
   0.98583334684371948,
   0.99487435817718506,
   1.0009472370147705,
   1.0029011964797974,
   0.99764382839202881,
   1.0054219961166382,
   0.99649190902709961,
   0.98473483324050903,
   1.0114552974700928,
   1.0005033016204834,
   0.98604154586791992,
   0.97090041637420654,
   0.95906507968902588
]
