[
   1.8388446569442749,
   1.8379957675933838,
   1.8400062322616577,
   1.8412834405899048,
   1.8390146493911743,
   1.838303804397583,
   1.8400951623916626,
   1.838512659072876,
   1.8385978937149048,
   1.8382852077484131,
   1.8336999416351318,
   1.8325557708740234,
   1.8350327014923096,
   1.8293182849884033,
   1.8285261392593384,
   1.8262706995010376,
   1.8260713815689087,
   1.8235723972320557,
   1.8204758167266846,
   1.8031003475189209,
   1.787003755569458,
   1.771165132522583,
   1.7532913684844971,
   1.7410999536514282,
   1.7285782098770142,
   1.7147156000137329,
   1.7047303915023804,
   1.6914947032928467,
   1.6004835367202759,
   1.5320532321929932,
   1.4805246591567993,
   1.4366358518600464,
   1.4008532762527466,
   1.3730252981185913,
   1.3461120128631592,
   1.3228163719177246,
   1.3012248277664185,
   1.1683851480484009,
   1.1073852777481079,
   1.0788730382919312,
   1.0581285953521729,
   1.0545167922973633,
   1.0445830821990967,
   1.0351015329360962,
   1.0284128189086914,
   1.0197393894195557,
   1.0038759708404541,
   1.0002044439315796,
   1.0085111856460571,
   0.99684268236160278,
   0.99887382984161377,
   0.99741524457931519,
   1.0001835823059082,
   0.99549418687820435,
   1.010101318359375,
   1.0094320774078369,
   0.98161476850509644,
   0.98830556869506836,
   1.0061397552490234,
   0.99356567859649658,
   1.0172743797302246,
   1.0148162841796875,
   1.0188794136047363,
   0.96239757537841797
]
