[
   30.659887313842773,
   30.599725723266602,
   30.488826751708984,
   30.342596054077148,
   30.411434173583984,
   30.688119888305664,
   30.310918807983398,
   30.332996368408203,
   30.158300399780273,
   30.373382568359375,
   29.737445831298828,
   29.355478286743164,
   29.162792205810547,
   28.579257965087891,
   28.289632797241211,
   27.886978149414062,
   27.950439453125,
   27.376058578491211,
   27.030384063720703,
   24.996089935302734,
   23.239645004272461,
   21.881664276123047,
   20.767673492431641,
   19.718742370605469,
   18.530223846435547,
   17.843837738037109,
   16.870857238769531,
   16.003011703491211,
   10.993947982788086,
   8.1362543106079102,
   6.2129459381103516,
   5.2056927680969238,
   4.5777206420898438,
   3.9878826141357422,
   3.5386250019073486,
   3.1062037944793701,
   2.8700804710388184,
   1.6870046854019165,
   1.712848424911499,
   1.2400411367416382,
   1.2036745548248291,
   1.0817314386367798,
   1.0319805145263672,
   0.96863824129104614,
   0.9965287446975708,
   0.90040385723114014,
   1.1149272918701172,
   0.98475217819213867,
   0.94692134857177734,
   0.98924100399017334,
   0.95605212450027466,
   0.90580397844314575,
   0.9485400915145874,
   1.0606199502944946,
   0.83621042966842651,
   0.93015432357788086,
   1.1857818365097046,
   0.95896166563034058,
   0.95964920520782471,
   1.1697424650192261,
   1.1209530830383301,
   0.92193585634231567,
   1.0453498363494873,
   0.6708599328994751
]
