[
   1.6551647186279297,
   1.6530532836914062,
   1.6553571224212646,
   1.6565694808959961,
   1.6543290615081787,
   1.6525518894195557,
   1.6553901433944702,
   1.6543573141098022,
   1.6542608737945557,
   1.6541150808334351,
   1.6506004333496094,
   1.6503162384033203,
   1.651078462600708,
   1.6480010747909546,
   1.6466907262802124,
   1.6459715366363525,
   1.6451247930526733,
   1.643773078918457,
   1.6420177221298218,
   1.6295936107635498,
   1.618971586227417,
   1.6076275110244751,
   1.5958316326141357,
   1.5870977640151978,
   1.5772923231124878,
   1.567243218421936,
   1.5601832866668701,
   1.5513606071472168,
   1.4832091331481934,
   1.4327082633972168,
   1.3924062252044678,
   1.3593438863754272,
   1.3314470052719116,
   1.308746337890625,
   1.2873885631561279,
   1.270931601524353,
   1.2533708810806274,
   1.1466866731643677,
   1.0955586433410645,
   1.0717439651489258,
   1.0517566204071045,
   1.0472493171691895,
   1.0384311676025391,
   1.031076192855835,
   1.0254926681518555,
   1.0174623727798462,
   1.0029397010803223,
   0.99926263093948364,
   1.0074738264083862,
   0.99701273441314697,
   0.99947512149810791,
   0.99752110242843628,
   1.0005687475204468,
   0.99784755706787109,
   1.0089281797409058,
   1.0107913017272949,
   0.98308867216110229,
   0.9883570671081543,
   1.0071426630020142,
   0.99455225467681885,
   1.0152815580368042,
   1.014143705368042,
   1.0100653171539307,
   0.96505844593048096
]
