[
   17.088125228881836,
   17.302200317382812,
   17.208267211914062,
   17.248163223266602,
   17.179866790771484,
   17.127952575683594,
   17.133220672607422,
   17.127218246459961,
   17.092994689941406,
   17.04142951965332,
   16.862598419189453,
   16.727697372436523,
   16.53614616394043,
   16.384326934814453,
   16.22425651550293,
   16.173589706420898,
   16.011814117431641,
   15.913110733032227,
   15.65910530090332,
   14.809293746948242,
   13.968914985656738,
   13.243635177612305,
   12.77574348449707,
   12.182657241821289,
   11.721013069152832,
   11.294942855834961,
   10.976690292358398,
   10.637323379516602,
   7.9252614974975586,
   6.3093938827514648,
   5.2616157531738281,
   4.3196210861206055,
   3.7046630382537842,
   3.3109455108642578,
   2.9790215492248535,
   2.7462687492370605,
   2.5455517768859863,
   1.5198589563369751,
   1.3590192794799805,
   1.1132128238677979,
   1.1138149499893188,
   1.0762169361114502,
   1.0486044883728027,
   1.0514183044433594,
   1.0247476100921631,
   1.0691605806350708,
   0.99027663469314575,
   1.0432462692260742,
   0.93924921751022339,
   1.0368292331695557,
   0.91483056545257568,
   1.0239906311035156,
   0.97025907039642334,
   0.91685378551483154,
   0.95350056886672974,
   0.99972105026245117,
   0.91837006807327271,
   0.81450909376144409,
   1.0291244983673096,
   0.84581536054611206,
   0.86900413036346436,
   1.2094694375991821,
   0.92863732576370239,
   1.1917178630828857
]
