[
   1.7373077869415283,
   1.735713005065918,
   1.7376959323883057,
   1.7383708953857422,
   1.7370882034301758,
   1.7363531589508057,
   1.7383129596710205,
   1.7369258403778076,
   1.7367932796478271,
   1.7367204427719116,
   1.7324739694595337,
   1.731982946395874,
   1.7332572937011719,
   1.7297929525375366,
   1.7279300689697266,
   1.7273069620132446,
   1.7261213064193726,
   1.7240867614746094,
   1.7221120595932007,
   1.7075178623199463,
   1.6950967311859131,
   1.6811310052871704,
   1.6663726568222046,
   1.6567195653915405,
   1.6455535888671875,
   1.6345535516738892,
   1.6256043910980225,
   1.6145379543304443,
   1.5359005928039551,
   1.4773414134979248,
   1.4321898221969604,
   1.3938041925430298,
   1.3629302978515625,
   1.3381808996200562,
   1.313996434211731,
   1.2945867776870728,
   1.2754000425338745,
   1.1564837694168091,
   1.1009852886199951,
   1.0749962329864502,
   1.054521918296814,
   1.0501458644866943,
   1.041522741317749,
   1.0329129695892334,
   1.0271561145782471,
   1.0185813903808594,
   1.0040695667266846,
   0.99987983703613281,
   1.0080935955047607,
   0.99721622467041016,
   0.99863660335540771,
   0.99818432331085205,
   1.0002003908157349,
   0.99707329273223877,
   1.0094850063323975,
   1.0104095935821533,
   0.98267108201980591,
   0.98864305019378662,
   1.0070825815200806,
   0.99342119693756104,
   1.0157872438430786,
   1.0146231651306152,
   1.0141429901123047,
   0.96494406461715698
]
