[
   5.154137134552002,
   5.1625909805297852,
   5.1738080978393555,
   5.1506857872009277,
   5.1626214981079102,
   5.1414923667907715,
   5.163668155670166,
   5.1455330848693848,
   5.1379199028015137,
   5.1320390701293945,
   5.1129426956176758,
   5.0754232406616211,
   5.0764975547790527,
   5.0539770126342773,
   5.0303354263305664,
   5.0041069984436035,
   5.0036802291870117,
   4.9664754867553711,
   4.9539813995361328,
   4.7842864990234375,
   4.6145529747009277,
   4.5013260841369629,
   4.4054017066955566,
   4.2890872955322266,
   4.2032499313354492,
   4.1027851104736328,
   4.0559043884277344,
   3.9525954723358154,
   3.3969051837921143,
   3.0265893936157227,
   2.7355928421020508,
   2.5171146392822266,
   2.347031831741333,
   2.1939311027526855,
   2.062347412109375,
   1.9479892253875732,
   1.8631759881973267,
   1.4054003953933716,
   1.251335620880127,
   1.1549041271209717,
   1.1055848598480225,
   1.0559359788894653,
   1.0583609342575073,
   1.0284731388092041,
   1.0114772319793701,
   1.0383026599884033,
   0.99502599239349365,
   1.0036948919296265,
   0.98923158645629883,
   0.98898756504058838,
   0.97317159175872803,
   1.0141228437423706,
   1.0111786127090454,
   0.99850130081176758,
   0.96496611833572388,
   0.99381363391876221,
   1.0246249437332153,
   1.0435035228729248,
   1.0309756994247437,
   1.0117353200912476,
   0.96455258131027222,
   1.0291674137115479,
   1.0456473827362061,
   1.070898175239563
]
