[
   1.9477087259292603,
   1.9484913349151611,
   1.9464912414550781,
   1.9466304779052734,
   1.9459588527679443,
   1.9472601413726807,
   1.9457426071166992,
   1.9447910785675049,
   1.9465005397796631,
   1.9474637508392334,
   1.9446367025375366,
   1.9406659603118896,
   1.936847448348999,
   1.9381721019744873,
   1.9345133304595947,
   1.9308048486709595,
   1.9320163726806641,
   1.9263713359832764,
   1.9277029037475586,
   1.9028358459472656,
   1.8829910755157471,
   1.8642936944961548,
   1.8448164463043213,
   1.8309745788574219,
   1.8146375417709351,
   1.7970526218414307,
   1.7855136394500732,
   1.7738511562347412,
   1.6660230159759521,
   1.5915491580963135,
   1.5319057703018188,
   1.482696533203125,
   1.4407397508621216,
   1.4056257009506226,
   1.3750337362289429,
   1.3491326570510864,
   1.3257995843887329,
   1.1792700290679932,
   1.1191576719284058,
   1.0870014429092407,
   1.0587947368621826,
   1.0503162145614624,
   1.0418943166732788,
   1.0373749732971191,
   1.0335867404937744,
   1.0242408514022827,
   0.99927151203155518,
   0.98994368314743042,
   0.99500542879104614,
   0.99103081226348877,
   0.99328315258026123,
   0.98915654420852661,
   0.98824059963226318,
   0.99885159730911255,
   1.0042221546173096,
   1.0060504674911499,
   0.98898661136627197,
   0.99013614654541016,
   0.99257576465606689,
   1.0011566877365112,
   1.0132265090942383,
   0.97695428133010864,
   1.0053350925445557,
   0.96472853422164917
]
