[
   130.31544494628906,
   127.31660461425781,
   131.29196166992188,
   128.47758483886719,
   129.41616821289062,
   126.1707763671875,
   126.95816802978516,
   126.64389801025391,
   126.44547271728516,
   125.68434143066406,
   123.80562591552734,
   119.77492523193359,
   114.74945068359375,
   113.2266845703125,
   112.54029846191406,
   108.69325256347656,
   107.0126953125,
   104.69926452636719,
   103.87657165527344,
   87.905586242675781,
   78.184501647949219,
   69.587997436523438,
   60.257434844970703,
   56.228057861328125,
   51.587974548339844,
   47.132392883300781,
   43.352806091308594,
   40.689254760742188,
   22.172298431396484,
   13.550724983215332,
   9.1909198760986328,
   7.5979270935058594,
   6.3711152076721191,
   5.3174958229064941,
   4.3122162818908691,
   4.4034266471862793,
   3.7172596454620361,
   2.4923462867736816,
   1.2269567251205444,
   1.161949634552002,
   0.77233630418777466,
   0.93994730710983276,
   0.86638116836547852,
   1.3780655860900879,
   0.9291914701461792,
   0.94744586944580078,
   1.4241007566452026,
   0.84822523593902588,
   0.76138603687286377,
   1.0333588123321533,
   1.0195763111114502,
   1.1234711408615112,
   0.99308127164840698,
   1.0261576175689697,
   1.0163649320602417,
   0.92950838804244995,
   0.83542746305465698,
   0.75894612073898315,
   1.3195422887802124,
   0.87585532665252686,
   0.67913609743118286,
   1.3992221355438232,
   2.5608837604522705,
   3.0100638866424561
]
