[
   7.8858428001403809,
   7.9159860610961914,
   7.8737401962280273,
   7.899989128112793,
   7.9067893028259277,
   7.877131462097168,
   7.8750472068786621,
   7.8684053421020508,
   7.8646097183227539,
   7.8899178504943848,
   7.8044042587280273,
   7.7345771789550781,
   7.7320528030395508,
   7.6509385108947754,
   7.6397032737731934,
   7.5868263244628906,
   7.5033812522888184,
   7.5076994895935059,
   7.4585695266723633,
   7.1189308166503906,
   6.8147072792053223,
   6.5549097061157227,
   6.3767275810241699,
   6.1806988716125488,
   6.013035774230957,
   5.8483853340148926,
   5.6919441223144531,
   5.5438318252563477,
   4.5631437301635742,
   3.8856596946716309,
   3.3742763996124268,
   3.0326824188232422,
   2.7329714298248291,
   2.4962263107299805,
   2.339928150177002,
   2.1766812801361084,
   2.0483040809631348,
   1.4684967994689941,
   1.2044754028320312,
   1.1021726131439209,
   1.0712984800338745,
   1.0415662527084351,
   1.0644773244857788,
   1.0028921365737915,
   1.0085139274597168,
   1.0291101932525635,
   0.97080576419830322,
   1.0088310241699219,
   0.99753570556640625,
   1.0318253040313721,
   0.99490708112716675,
   0.95876294374465942,
   0.98549735546112061,
   0.97544527053833008,
   0.98107767105102539,
   0.99373114109039307,
   1.0487020015716553,
   1.004664421081543,
   0.95815384387969971,
   0.98753154277801514,
   1.0641663074493408,
   0.93176108598709106,
   1.0272364616394043,
   0.95494812726974487
]
