[
   2.1346955299377441,
   2.1375687122344971,
   2.133373498916626,
   2.1336715221405029,
   2.1344592571258545,
   2.135040283203125,
   2.1335949897766113,
   2.1323606967926025,
   2.1326236724853516,
   2.1333370208740234,
   2.1285982131958008,
   2.1246981620788574,
   2.1231181621551514,
   2.1199290752410889,
   2.1171383857727051,
   2.1192150115966797,
   2.1113333702087402,
   2.1090817451477051,
   2.1028611660003662,
   2.0763692855834961,
   2.0510008335113525,
   2.0288646221160889,
   2.0080506801605225,
   1.9836013317108154,
   1.9639619588851929,
   1.9489114284515381,
   1.9297416210174561,
   1.9154430627822876,
   1.7882229089736938,
   1.6945701837539673,
   1.6245162487030029,
   1.5671663284301758,
   1.5200487375259399,
   1.4811596870422363,
   1.4455559253692627,
   1.4153275489807129,
   1.3886363506317139,
   1.2263826131820679,
   1.1405774354934692,
   1.091478705406189,
   1.0712947845458984,
   1.0575159788131714,
   1.0537331104278564,
   1.0380951166152954,
   1.0303112268447876,
   1.0192943811416626,
   1.0069718360900879,
   1.0014717578887939,
   1.0123037099838257,
   0.99860095977783203,
   1.0063692331314087,
   1.0010764598846436,
   1.0109362602233887,
   1.0116842985153198,
   1.0079926252365112,
   1.0073999166488647,
   1.0028256177902222,
   0.98993599414825439,
   0.96347111463546753,
   1.0176073312759399,
   1.0205425024032593,
   0.99768030643463135,
   0.93968266248703003,
   0.84363698959350586
]
