[
   1.4656658172607422,
   1.4645801782608032,
   1.4650382995605469,
   1.4649407863616943,
   1.4645953178405762,
   1.4652043581008911,
   1.4652320146560669,
   1.465130090713501,
   1.4642298221588135,
   1.4645867347717285,
   1.4639461040496826,
   1.4629613161087036,
   1.4621597528457642,
   1.4622346162796021,
   1.4620189666748047,
   1.4611066579818726,
   1.4611078500747681,
   1.4603559970855713,
   1.4587972164154053,
   1.4521133899688721,
   1.4467554092407227,
   1.4408752918243408,
   1.4363433122634888,
   1.431647777557373,
   1.4272135496139526,
   1.4221868515014648,
   1.4173564910888672,
   1.4130246639251709,
   1.3751062154769897,
   1.3455941677093506,
   1.3210698366165161,
   1.3003246784210205,
   1.2822206020355225,
   1.2652792930603027,
   1.2510974407196045,
   1.2379032373428345,
   1.2250893115997314,
   1.1483674049377441,
   1.1072230339050293,
   1.0802770853042603,
   1.0605860948562622,
   1.0481855869293213,
   1.0382583141326904,
   1.0318933725357056,
   1.0281698703765869,
   1.0269352197647095,
   1.0047359466552734,
   0.99730002880096436,
   0.99668234586715698,
   0.99811029434204102,
   0.99727094173431396,
   0.99367713928222656,
   0.99119061231613159,
   0.99144381284713745,
   0.99810296297073364,
   0.99160414934158325,
   1.0066366195678711,
   1.0059752464294434,
   1.0056030750274658,
   0.99432879686355591,
   1.0134565830230713,
   1.0027509927749634,
   0.98789328336715698,
   1.0069525241851807
]
