[
   2.5449442863464355,
   2.5418202877044678,
   2.5472831726074219,
   2.5429587364196777,
   2.5434188842773438,
   2.5410118103027344,
   2.5415055751800537,
   2.5427670478820801,
   2.541379451751709,
   2.5363879203796387,
   2.5355353355407715,
   2.5293259620666504,
   2.5239911079406738,
   2.5182602405548096,
   2.5126254558563232,
   2.5106785297393799,
   2.5110583305358887,
   2.5016827583312988,
   2.496640682220459,
   2.4556689262390137,
   2.4172515869140625,
   2.3867325782775879,
   2.3473637104034424,
   2.3209676742553711,
   2.2883708477020264,
   2.2653529644012451,
   2.2417140007019043,
   2.216315746307373,
   2.0267407894134521,
   1.8879973888397217,
   1.7868572473526001,
   1.7008002996444702,
   1.6304836273193359,
   1.5755728483200073,
   1.5247652530670166,
   1.478412389755249,
   1.4432882070541382,
   1.237432599067688,
   1.1619894504547119,
   1.1138546466827393,
   1.0841419696807861,
   1.0676716566085815,
   1.0544931888580322,
   1.0419442653656006,
   1.0390139818191528,
   1.028983473777771,
   0.99809902906417847,
   0.99994879961013794,
   0.98812830448150635,
   0.99518871307373047,
   0.97742974758148193,
   0.99860286712646484,
   1.0112231969833374,
   1.0104236602783203,
   0.9998852014541626,
   0.99040257930755615,
   1.0036050081253052,
   1.0007423162460327,
   1.0058860778808594,
   0.98004579544067383,
   0.94141995906829834,
   1.0139228105545044,
   0.96218216419219971,
   0.99278068542480469
]
