[
   1.4724223613739014,
   1.4725557565689087,
   1.4719374179840088,
   1.4726794958114624,
   1.4723525047302246,
   1.4720712900161743,
   1.472812294960022,
   1.4724452495574951,
   1.4725059270858765,
   1.4713294506072998,
   1.4708168506622314,
   1.471433162689209,
   1.4706838130950928,
   1.4692060947418213,
   1.4691547155380249,
   1.4673242568969727,
   1.4683582782745361,
   1.4664039611816406,
   1.4658565521240234,
   1.4583659172058105,
   1.4518613815307617,
   1.4462888240814209,
   1.4402749538421631,
   1.4343252182006836,
   1.4289450645446777,
   1.4245550632476807,
   1.418552041053772,
   1.41371750831604,
   1.3723514080047607,
   1.3404905796051025,
   1.3138787746429443,
   1.2917836904525757,
   1.2712681293487549,
   1.2544145584106445,
   1.2391780614852905,
   1.2245908975601196,
   1.2131631374359131,
   1.1356678009033203,
   1.0923740863800049,
   1.0665503740310669,
   1.0466951131820679,
   1.0353000164031982,
   1.0260188579559326,
   1.022133469581604,
   1.0176422595977783,
   1.0178068876266479,
   1.0017038583755493,
   0.99865084886550903,
   0.99642390012741089,
   0.99768286943435669,
   0.99549400806427002,
   0.99406701326370239,
   0.98659956455230713,
   0.99079781770706177,
   0.99161797761917114,
   0.99668341875076294,
   0.99386358261108398,
   1.0008780956268311,
   0.99631136655807495,
   0.99662148952484131,
   0.98715221881866455,
   1.0040384531021118,
   1.0128695964813232,
   1.0461907386779785
]
