[
   1.7763370275497437,
   1.7764928340911865,
   1.7759898900985718,
   1.7761644124984741,
   1.7742465734481812,
   1.7761237621307373,
   1.777492880821228,
   1.775617241859436,
   1.7755750417709351,
   1.7747647762298584,
   1.7734518051147461,
   1.7724533081054688,
   1.7697982788085938,
   1.7712604999542236,
   1.7677192687988281,
   1.7657245397567749,
   1.7650375366210938,
   1.7631241083145142,
   1.7630325555801392,
   1.7482837438583374,
   1.7341209650039673,
   1.7204214334487915,
   1.7103281021118164,
   1.6990041732788086,
   1.6885063648223877,
   1.6783246994018555,
   1.6667625904083252,
   1.6589053869247437,
   1.582958459854126,
   1.5247972011566162,
   1.477568507194519,
   1.4373320341110229,
   1.4030920267105103,
   1.373652458190918,
   1.3445698022842407,
   1.3218011856079102,
   1.2996289730072021,
   1.1769709587097168,
   1.1212247610092163,
   1.0939974784851074,
   1.0730558633804321,
   1.0597389936447144,
   1.0500257015228271,
   1.0513454675674438,
   1.0471714735031128,
   1.0351500511169434,
   0.99896782636642456,
   0.998504638671875,
   0.99363815784454346,
   0.99604624509811401,
   1.0033506155014038,
   1.002649188041687,
   0.99774819612503052,
   1.0051357746124268,
   1.0048787593841553,
   0.99835288524627686,
   0.99459666013717651,
   1.0024110078811646,
   0.99911105632781982,
   1.0163075923919678,
   1.0170238018035889,
   1.0155684947967529,
   1.0050595998764038,
   0.98639452457427979
]
