[
   5.3660135269165039,
   5.3532581329345703,
   5.3858327865600586,
   5.3812909126281738,
   5.3843321800231934,
   5.369300365447998,
   5.3603167533874512,
   5.3488903045654297,
   5.3600931167602539,
   5.3645906448364258,
   5.3184909820556641,
   5.2875967025756836,
   5.2628231048583984,
   5.2674198150634766,
   5.239893913269043,
   5.2104597091674805,
   5.1679964065551758,
   5.1613655090332031,
   5.1456155776977539,
   4.9502878189086914,
   4.7742905616760254,
   4.6136140823364258,
   4.4598846435546875,
   4.3495802879333496,
   4.2278017997741699,
   4.1278805732727051,
   4.0149087905883789,
   3.9230647087097168,
   3.2221367359161377,
   2.7842535972595215,
   2.4861569404602051,
   2.2877752780914307,
   2.1128270626068115,
   1.9787929058074951,
   1.8668651580810547,
   1.7879009246826172,
   1.7199404239654541,
   1.316851019859314,
   1.2333228588104248,
   1.1643660068511963,
   1.1235166788101196,
   1.10758376121521,
   1.0737024545669556,
   1.0688060522079468,
   1.035571813583374,
   1.0191577672958374,
   0.97251814603805542,
   1.0055958032608032,
   0.98052692413330078,
   1.0095256567001343,
   1.0028797388076782,
   0.98810064792633057,
   1.0190517902374268,
   0.98229426145553589,
   0.9600377082824707,
   0.98124635219573975,
   0.97215938568115234,
   1.0180062055587769,
   0.95837944746017456,
   0.97415590286254883,
   1.0008417367935181,
   0.96688902378082275,
   1.0483027696609497,
   0.9766504168510437
]
