[
   1.5286110639572144,
   1.5285465717315674,
   1.5303046703338623,
   1.5304906368255615,
   1.5288772583007812,
   1.5289514064788818,
   1.5287328958511353,
   1.528924822807312,
   1.528606653213501,
   1.5290154218673706,
   1.5273000001907349,
   1.5259490013122559,
   1.5263636112213135,
   1.5246447324752808,
   1.5236580371856689,
   1.5224545001983643,
   1.5223484039306641,
   1.5227634906768799,
   1.5203713178634644,
   1.5131933689117432,
   1.5056712627410889,
   1.4984598159790039,
   1.4915977716445923,
   1.4840644598007202,
   1.4790453910827637,
   1.4715481996536255,
   1.4671460390090942,
   1.460354208946228,
   1.4149794578552246,
   1.3781472444534302,
   1.3492863178253174,
   1.3231015205383301,
   1.3025296926498413,
   1.283149242401123,
   1.2651385068893433,
   1.2508523464202881,
   1.2366349697113037,
   1.1520318984985352,
   1.1043710708618164,
   1.0736321210861206,
   1.0547020435333252,
   1.0425291061401367,
   1.0306681394577026,
   1.0279141664505005,
   1.0249826908111572,
   1.0233874320983887,
   0.99977529048919678,
   0.9994964599609375,
   0.99442017078399658,
   0.99386072158813477,
   0.99262464046478271,
   1.0035115480422974,
   1.0093214511871338,
   1.0035649538040161,
   0.99994468688964844,
   1.0063102245330811,
   1.0014333724975586,
   1.0044335126876831,
   1.0104808807373047,
   0.99738377332687378,
   0.99644404649734497,
   0.99332284927368164,
   0.97695446014404297,
   0.93133831024169922
]
