[
   1.8837673664093018,
   1.8816230297088623,
   1.8806240558624268,
   1.8821651935577393,
   1.8814824819564819,
   1.8809688091278076,
   1.8801435232162476,
   1.8778778314590454,
   1.881496787071228,
   1.8808729648590088,
   1.879582405090332,
   1.8765007257461548,
   1.8728736639022827,
   1.8736079931259155,
   1.8718774318695068,
   1.8678290843963623,
   1.8668209314346313,
   1.8657569885253906,
   1.8642089366912842,
   1.8486446142196655,
   1.8292953968048096,
   1.8148510456085205,
   1.8012269735336304,
   1.7860796451568604,
   1.7754476070404053,
   1.7644145488739014,
   1.7543570995330811,
   1.7404215335845947,
   1.6519229412078857,
   1.582714319229126,
   1.5284322500228882,
   1.4841656684875488,
   1.444977879524231,
   1.4103080034255981,
   1.3829953670501709,
   1.3573672771453857,
   1.3353122472763062,
   1.1986706256866455,
   1.1327916383743286,
   1.0937731266021729,
   1.0699038505554199,
   1.0579135417938232,
   1.0450990200042725,
   1.0429147481918335,
   1.0412523746490479,
   1.0333821773529053,
   1.017304539680481,
   0.99411284923553467,
   0.99598789215087891,
   0.99052315950393677,
   1.0001610517501831,
   0.99763929843902588,
   1.0089843273162842,
   1.0108425617218018,
   1.0045022964477539,
   0.99054241180419922,
   0.98155468702316284,
   0.98235797882080078,
   1.0048969984054565,
   1.0050899982452393,
   1.008700966835022,
   1.0123822689056396,
   1.0483924150466919,
   0.96166783571243286
]
