[
   17.334117889404297,
   17.350833892822266,
   17.248287200927734,
   17.11888313293457,
   17.233180999755859,
   17.101846694946289,
   17.167016983032227,
   17.145900726318359,
   17.141807556152344,
   17.051586151123047,
   16.830242156982422,
   16.667556762695312,
   16.344470977783203,
   16.085346221923828,
   15.985475540161133,
   15.656465530395508,
   15.46092414855957,
   15.265241622924805,
   15.087882995605469,
   13.596403121948242,
   12.459049224853516,
   11.369680404663086,
   10.550224304199219,
   9.8830995559692383,
   9.2623844146728516,
   8.7361545562744141,
   8.2083873748779297,
   7.7881803512573242,
   5.2986125946044922,
   4.0652942657470703,
   3.3797421455383301,
   2.9866247177124023,
   2.5702958106994629,
   2.360999584197998,
   2.2433147430419922,
   2.0627989768981934,
   1.9501535892486572,
   1.4311798810958862,
   1.2522767782211304,
   1.1874011754989624,
   1.1210473775863647,
   1.0518043041229248,
   1.0938783884048462,
   1.0487289428710938,
   1.023246169090271,
   0.97322571277618408,
   1.0092642307281494,
   1.0099700689315796,
   0.91236239671707153,
   1.0310232639312744,
   0.99945080280303955,
   1.0016095638275146,
   1.0037815570831299,
   1.011582612991333,
   1.0030252933502197,
   0.9794996976852417,
   0.99627482891082764,
   1.1477553844451904,
   0.97576254606246948,
   0.98173266649246216,
   0.97904574871063232,
   1.0051515102386475,
   0.87785404920578003,
   0.88878041505813599
]
