[
   1.9454295635223389,
   1.9426587820053101,
   1.943682074546814,
   1.9415740966796875,
   1.9415972232818604,
   1.9419237375259399,
   1.9411789178848267,
   1.9423675537109375,
   1.9429147243499756,
   1.9418758153915405,
   1.9378433227539062,
   1.9364385604858398,
   1.9381139278411865,
   1.9340490102767944,
   1.9309017658233643,
   1.9284944534301758,
   1.9264295101165771,
   1.928881049156189,
   1.9213798046112061,
   1.9070148468017578,
   1.8905918598175049,
   1.8791946172714233,
   1.8649610280990601,
   1.8524272441864014,
   1.8392820358276367,
   1.8308604955673218,
   1.8212673664093018,
   1.8112390041351318,
   1.7297308444976807,
   1.6649032831192017,
   1.6148757934570312,
   1.5686719417572021,
   1.5257112979888916,
   1.4906409978866577,
   1.4608354568481445,
   1.4333851337432861,
   1.4082014560699463,
   1.2463773488998413,
   1.1672005653381348,
   1.1217477321624756,
   1.0906211137771606,
   1.0699925422668457,
   1.0518547296524048,
   1.0433435440063477,
   1.0369210243225098,
   1.0373215675354004,
   0.99901056289672852,
   0.98902875185012817,
   0.99113905429840088,
   1.0029038190841675,
   1.0018492937088013,
   1.0137853622436523,
   1.0060923099517822,
   0.99776870012283325,
   1.0070010423660278,
   1.0221585035324097,
   1.0020992755889893,
   0.99774706363677979,
   1.0049905776977539,
   0.985076904296875,
   0.98754054307937622,
   0.95991212129592896,
   0.98986703157424927,
   0.91592741012573242
]
