[
   4.9170522689819336,
   4.919558048248291,
   4.9202775955200195,
   4.9041304588317871,
   4.9116144180297852,
   4.9088072776794434,
   4.8968243598937988,
   4.900874137878418,
   4.8929080963134766,
   4.9010887145996094,
   4.8704710006713867,
   4.8631253242492676,
   4.8371591567993164,
   4.8234429359436035,
   4.7904577255249023,
   4.7807760238647461,
   4.7708654403686523,
   4.743011474609375,
   4.7334647178649902,
   4.5957756042480469,
   4.4994401931762695,
   4.3913779258728027,
   4.2982163429260254,
   4.1963033676147461,
   4.1289358139038086,
   4.0568861961364746,
   3.9858756065368652,
   3.9040844440460205,
   3.3691623210906982,
   2.9940226078033447,
   2.7139112949371338,
   2.4849734306335449,
   2.3186676502227783,
   2.1706609725952148,
   2.0515570640563965,
   1.9648315906524658,
   1.877385139465332,
   1.4435193538665771,
   1.2897506952285767,
   1.1749368906021118,
   1.132285475730896,
   1.1158448457717896,
   1.0780636072158813,
   1.0704683065414429,
   1.0396758317947388,
   1.0272114276885986,
   1.0176035165786743,
   0.99740374088287354,
   1.003919243812561,
   0.99861514568328857,
   1.0374284982681274,
   0.99019193649291992,
   0.96963393688201904,
   0.97658443450927734,
   1.0031030178070068,
   0.9682384729385376,
   1.0004448890686035,
   1.010221004486084,
   0.98357886075973511,
   0.99855506420135498,
   0.95122748613357544,
   0.99415510892868042,
   1.1489627361297607,
   1.0798873901367188
]
