[
   1.5006191730499268,
   1.4997657537460327,
   1.4999803304672241,
   1.5000501871109009,
   1.5002269744873047,
   1.4986225366592407,
   1.4985318183898926,
   1.5007724761962891,
   1.5001474618911743,
   1.4997904300689697,
   1.4994585514068604,
   1.4982558488845825,
   1.4966291189193726,
   1.4965388774871826,
   1.4970676898956299,
   1.4952716827392578,
   1.494638204574585,
   1.4946248531341553,
   1.4946523904800415,
   1.4858856201171875,
   1.480940580368042,
   1.4746978282928467,
   1.4697715044021606,
   1.4652137756347656,
   1.4586194753646851,
   1.4558250904083252,
   1.4516382217407227,
   1.4466855525970459,
   1.4102532863616943,
   1.3828151226043701,
   1.3580296039581299,
   1.3373717069625854,
   1.3182107210159302,
   1.3018357753753662,
   1.2873890399932861,
   1.2725738286972046,
   1.2597075700759888,
   1.1727349758148193,
   1.1218090057373047,
   1.0922853946685791,
   1.0692744255065918,
   1.0531289577484131,
   1.0420988798141479,
   1.0354434251785278,
   1.0254089832305908,
   1.0226261615753174,
   1.0044515132904053,
   0.99234139919281006,
   1.0008939504623413,
   1.0002260208129883,
   0.9971923828125,
   0.99918079376220703,
   1.0031110048294067,
   1.0039360523223877,
   1.0009163618087769,
   0.97838813066482544,
   0.98724222183227539,
   0.96740037202835083,
   0.98490869998931885,
   1.0178204774856567,
   1.0386518239974976,
   1.031147837638855,
   1.0702422857284546,
   1.0155990123748779
]
