[
   2.7905774116516113,
   2.7858071327209473,
   2.7864811420440674,
   2.7802784442901611,
   2.782860279083252,
   2.78812575340271,
   2.7828042507171631,
   2.7830162048339844,
   2.7844967842102051,
   2.7772383689880371,
   2.7761027812957764,
   2.7758104801177979,
   2.7638454437255859,
   2.7591116428375244,
   2.7530763149261475,
   2.7468712329864502,
   2.7465918064117432,
   2.7375619411468506,
   2.7365043163299561,
   2.6913409233093262,
   2.6574027538299561,
   2.621035099029541,
   2.5891847610473633,
   2.555382251739502,
   2.5319170951843262,
   2.5012686252593994,
   2.4823708534240723,
   2.4610791206359863,
   2.268648624420166,
   2.1200792789459229,
   2.0067036151885986,
   1.9063835144042969,
   1.8260488510131836,
   1.7629415988922119,
   1.6944959163665771,
   1.6464064121246338,
   1.5978175401687622,
   1.3327467441558838,
   1.221213698387146,
   1.1653969287872314,
   1.1387536525726318,
   1.0975431203842163,
   1.0785810947418213,
   1.070068359375,
   1.060110330581665,
   1.0509438514709473,
   1.0007021427154541,
   1.0035355091094971,
   1.0031331777572632,
   0.99025678634643555,
   0.99279677867889404,
   1.0160627365112305,
   1.0021699666976929,
   0.99882924556732178,
   1.0152442455291748,
   0.98000717163085938,
   1.0037925243377686,
   0.96859151124954224,
   0.98991787433624268,
   1.0063761472702026,
   0.99135714769363403,
   0.99865734577178955,
   0.95719611644744873,
   0.98958176374435425
]
