[
   2.4242367744445801,
   2.4252760410308838,
   2.4247548580169678,
   2.427299976348877,
   2.4206933975219727,
   2.4186842441558838,
   2.4199357032775879,
   2.4225764274597168,
   2.421764612197876,
   2.4252824783325195,
   2.4159071445465088,
   2.4144282341003418,
   2.4090266227722168,
   2.4065194129943848,
   2.4047625064849854,
   2.3974654674530029,
   2.3973653316497803,
   2.395627498626709,
   2.3853664398193359,
   2.3567728996276855,
   2.3300209045410156,
   2.3066067695617676,
   2.2830960750579834,
   2.2598354816436768,
   2.2407834529876709,
   2.2217466831207275,
   2.2064852714538574,
   2.1870055198669434,
   2.0497150421142578,
   1.9452304840087891,
   1.8551108837127686,
   1.7852075099945068,
   1.7183964252471924,
   1.6619325876235962,
   1.6136341094970703,
   1.5692017078399658,
   1.5285989046096802,
   1.2922658920288086,
   1.1851537227630615,
   1.1313437223434448,
   1.0984134674072266,
   1.0877972841262817,
   1.0811188220977783,
   1.0688059329986572,
   1.0451991558074951,
   1.0346599817276001,
   1.0111989974975586,
   0.99987584352493286,
   0.98908919095993042,
   0.99553000926971436,
   0.99964416027069092,
   0.99601489305496216,
   0.99712276458740234,
   0.98854362964630127,
   0.98172169923782349,
   1.0072423219680786,
   1.0008475780487061,
   0.96555519104003906,
   0.97818088531494141,
   1.008648157119751,
   1.0595275163650513,
   1.01584792137146,
   0.99986773729324341,
   1.06396484375
]
