[
   8.9578151702880859,
   8.9540500640869141,
   8.9620790481567383,
   8.9447822570800781,
   8.9186477661132812,
   8.8856353759765625,
   8.9047107696533203,
   8.941370964050293,
   8.9013233184814453,
   8.8682699203491211,
   8.8391094207763672,
   8.7520999908447266,
   8.7331228256225586,
   8.6701478958129883,
   8.6234188079833984,
   8.6123447418212891,
   8.5055055618286133,
   8.4724016189575195,
   8.4366960525512695,
   8.0137443542480469,
   7.7012543678283691,
   7.4064345359802246,
   7.1255874633789062,
   6.9060144424438477,
   6.6839179992675781,
   6.4736967086791992,
   6.2851972579956055,
   6.120539665222168,
   4.7634181976318359,
   3.9665687084197998,
   3.4395699501037598,
   3.0425357818603516,
   2.7732586860656738,
   2.5471746921539307,
   2.3335039615631104,
   2.1820063591003418,
   2.0469448566436768,
   1.4812885522842407,
   1.2738149166107178,
   1.1713206768035889,
   1.0805997848510742,
   1.0674320459365845,
   1.0497527122497559,
   1.054633617401123,
   1.101365327835083,
   1.0513396263122559,
   0.98103201389312744,
   0.99436217546463013,
   0.98573130369186401,
   0.98009634017944336,
   0.99408787488937378,
   0.95777434110641479,
   0.92669451236724854,
   1.0032247304916382,
   1.0224049091339111,
   1.0202853679656982,
   0.99061238765716553,
   0.96864110231399536,
   1.0466868877410889,
   0.94615066051483154,
   0.94315338134765625,
   1.0962194204330444,
   1.0375115871429443,
   0.88686877489089966
]
