[
   2.1990506649017334,
   2.1960179805755615,
   2.1978919506072998,
   2.1982097625732422,
   2.1981604099273682,
   2.1959328651428223,
   2.196749210357666,
   2.1960837841033936,
   2.1943068504333496,
   2.1966555118560791,
   2.1937360763549805,
   2.1917974948883057,
   2.189206600189209,
   2.1824805736541748,
   2.1817545890808105,
   2.1832976341247559,
   2.1778969764709473,
   2.17889404296875,
   2.1753976345062256,
   2.1540234088897705,
   2.1297061443328857,
   2.1067652702331543,
   2.0898442268371582,
   2.072563648223877,
   2.0548021793365479,
   2.0364055633544922,
   2.0196094512939453,
   2.0043678283691406,
   1.866175651550293,
   1.7625637054443359,
   1.6813335418701172,
   1.6170699596405029,
   1.5634082555770874,
   1.5175029039382935,
   1.4793151617050171,
   1.4461637735366821,
   1.4179441928863525,
   1.2513580322265625,
   1.1859570741653442,
   1.139878511428833,
   1.1151154041290283,
   1.0919889211654663,
   1.0707411766052246,
   1.0510385036468506,
   1.0440806150436401,
   1.0359143018722534,
   1.0172415971755981,
   1.0021240711212158,
   0.98581421375274658,
   0.97425651550292969,
   0.99085348844528198,
   0.99436664581298828,
   1.0003378391265869,
   0.98948335647583008,
   0.99956732988357544,
   0.98434609174728394,
   0.99154281616210938,
   0.97957313060760498,
   1.0012991428375244,
   0.98452728986740112,
   1.0125755071640015,
   0.98674362897872925,
   0.98445463180541992,
   1.0444767475128174
]
