[
   2.5983471870422363,
   2.6007993221282959,
   2.5991353988647461,
   2.5956282615661621,
   2.5931704044342041,
   2.5920543670654297,
   2.5967319011688232,
   2.596926212310791,
   2.5942521095275879,
   2.5914959907531738,
   2.5912034511566162,
   2.5842056274414062,
   2.5799064636230469,
   2.5771315097808838,
   2.5727126598358154,
   2.5664017200469971,
   2.5649509429931641,
   2.5649662017822266,
   2.5591168403625488,
   2.5212233066558838,
   2.4822564125061035,
   2.4463458061218262,
   2.4152820110321045,
   2.3845982551574707,
   2.3554489612579346,
   2.3262715339660645,
   2.2993793487548828,
   2.272921085357666,
   2.0621180534362793,
   1.9162899255752563,
   1.8010677099227905,
   1.713029146194458,
   1.6369009017944336,
   1.5740540027618408,
   1.5213980674743652,
   1.4782410860061646,
   1.4425652027130127,
   1.246997594833374,
   1.1638362407684326,
   1.1303697824478149,
   1.097236156463623,
   1.0727943181991577,
   1.0724873542785645,
   1.0538586378097534,
   1.0459330081939697,
   1.0434707403182983,
   1.0009344816207886,
   1.0107780694961548,
   1.007946252822876,
   1.0188473463058472,
   0.99606812000274658,
   0.99359196424484253,
   0.99346077442169189,
   0.9853668212890625,
   0.97787505388259888,
   0.99334967136383057,
   1.0201308727264404,
   1.0115997791290283,
   0.97848761081695557,
   1.0092886686325073,
   0.98932188749313354,
   0.98286664485931396,
   0.97008436918258667,
   1.0644711256027222
]
