[
   1.5829318761825562,
   1.582817554473877,
   1.5835334062576294,
   1.5823056697845459,
   1.5830150842666626,
   1.5833569765090942,
   1.583747386932373,
   1.5818898677825928,
   1.581628680229187,
   1.5815302133560181,
   1.5823729038238525,
   1.5815130472183228,
   1.5805561542510986,
   1.5795606374740601,
   1.5792571306228638,
   1.5770692825317383,
   1.5774949789047241,
   1.5782219171524048,
   1.5759843587875366,
   1.5710744857788086,
   1.5654735565185547,
   1.5596723556518555,
   1.5534347295761108,
   1.5476095676422119,
   1.5425232648849487,
   1.5377128124237061,
   1.5323913097381592,
   1.5271453857421875,
   1.4839926958084106,
   1.4471323490142822,
   1.4150516986846924,
   1.3895728588104248,
   1.3653924465179443,
   1.3423970937728882,
   1.324853777885437,
   1.3071541786193848,
   1.2928059101104736,
   1.1926641464233398,
   1.1434743404388428,
   1.1113663911819458,
   1.0886490345001221,
   1.0731229782104492,
   1.057767391204834,
   1.0451191663742065,
   1.0405666828155518,
   1.0362458229064941,
   1.0030813217163086,
   1.0067993402481079,
   0.99626457691192627,
   0.99186241626739502,
   0.99545156955718994,
   0.9999995231628418,
   0.98968523740768433,
   0.99201756715774536,
   0.99026191234588623,
   1.0058028697967529,
   1.0036411285400391,
   1.0062284469604492,
   0.98134106397628784,
   1.0138201713562012,
   1.0010676383972168,
   0.99650019407272339,
   0.98391258716583252,
   1.0006649494171143
]
