[
   1.3739417791366577,
   1.3734672069549561,
   1.3739197254180908,
   1.3737078905105591,
   1.3734591007232666,
   1.3736355304718018,
   1.3736087083816528,
   1.3736222982406616,
   1.3732379674911499,
   1.3730537891387939,
   1.3736505508422852,
   1.3724993467330933,
   1.3719483613967896,
   1.3717950582504272,
   1.3711812496185303,
   1.3715921640396118,
   1.3714601993560791,
   1.3705999851226807,
   1.3706905841827393,
   1.3677154779434204,
   1.3653827905654907,
   1.3623813390731812,
   1.3601481914520264,
   1.357169508934021,
   1.354994535446167,
   1.351945161819458,
   1.3495543003082275,
   1.3474056720733643,
   1.3262063264846802,
   1.3072644472122192,
   1.2913370132446289,
   1.2759515047073364,
   1.2628079652786255,
   1.250951886177063,
   1.2398359775543213,
   1.2289897203445435,
   1.2197265625,
   1.1567819118499756,
   1.1201374530792236,
   1.0979735851287842,
   1.0864635705947876,
   1.0747185945510864,
   1.0640803575515747,
   1.0539166927337646,
   1.0478373765945435,
   1.0451619625091553,
   1.01322340965271,
   1.0052971839904785,
   1.007016658782959,
   0.99418652057647705,
   0.99920654296875,
   0.99288541078567505,
   0.99274235963821411,
   0.99191772937774658,
   0.99533545970916748,
   0.99991691112518311,
   0.99658232927322388,
   0.99755418300628662,
   1.0040799379348755,
   0.98323220014572144,
   0.98973578214645386,
   0.99920207262039185,
   0.98974668979644775,
   0.97102034091949463
]
