[
   1.7808163166046143,
   1.7809865474700928,
   1.7807079553604126,
   1.7822113037109375,
   1.7813177108764648,
   1.7797133922576904,
   1.7804311513900757,
   1.7803134918212891,
   1.7803394794464111,
   1.7797874212265015,
   1.7790654897689819,
   1.7770969867706299,
   1.7763503789901733,
   1.7753736972808838,
   1.7749229669570923,
   1.7739455699920654,
   1.7716249227523804,
   1.7717092037200928,
   1.7678811550140381,
   1.7581933736801147,
   1.7486276626586914,
   1.7400869131088257,
   1.7290287017822266,
   1.7205795049667358,
   1.7125219106674194,
   1.7032029628753662,
   1.6935189962387085,
   1.688306450843811,
   1.615439772605896,
   1.5560038089752197,
   1.5089899301528931,
   1.468022346496582,
   1.4295332431793213,
   1.400860071182251,
   1.3731944561004639,
   1.3522214889526367,
   1.3311722278594971,
   1.2104904651641846,
   1.1541873216629028,
   1.1177651882171631,
   1.0918095111846924,
   1.0748344659805298,
   1.0593467950820923,
   1.0501476526260376,
   1.0434221029281616,
   1.0386974811553955,
   1.0174596309661865,
   0.99120408296585083,
   0.98066538572311401,
   0.99413692951202393,
   0.98377645015716553,
   0.98938369750976562,
   1.0031591653823853,
   0.99944150447845459,
   1.0001088380813599,
   0.99820977449417114,
   1.0063407421112061,
   1.0014126300811768,
   0.99980008602142334,
   0.9886053204536438,
   1.002571702003479,
   0.9626082181930542,
   0.99040806293487549,
   0.98920327425003052
]
