[
   2.0071959495544434,
   2.0074474811553955,
   2.0056545734405518,
   2.0058808326721191,
   2.0054402351379395,
   2.0078582763671875,
   2.0056407451629639,
   2.0034036636352539,
   2.0060269832611084,
   2.004544734954834,
   2.0019094944000244,
   2.0003876686096191,
   1.9952614307403564,
   1.9943329095840454,
   1.9925410747528076,
   1.9893945455551147,
   1.9836885929107666,
   1.9817988872528076,
   1.980860710144043,
   1.957592248916626,
   1.9362363815307617,
   1.9158847332000732,
   1.8978011608123779,
   1.8807271718978882,
   1.8639742136001587,
   1.8482310771942139,
   1.8339239358901978,
   1.8213541507720947,
   1.7119112014770508,
   1.6347860097885132,
   1.574901819229126,
   1.5243346691131592,
   1.4836655855178833,
   1.4448378086090088,
   1.4126712083816528,
   1.3860583305358887,
   1.3592226505279541,
   1.2071778774261475,
   1.1379320621490479,
   1.0954564809799194,
   1.0701080560684204,
   1.0527809858322144,
   1.0432866811752319,
   1.0341286659240723,
   1.0208654403686523,
   1.0179632902145386,
   0.99869126081466675,
   1.0012391805648804,
   1.0025811195373535,
   0.99548757076263428,
   0.99166572093963623,
   0.99674379825592041,
   1.0005959272384644,
   0.99609154462814331,
   0.99484002590179443,
   1.0007113218307495,
   0.98600578308105469,
   0.97570312023162842,
   1.0001232624053955,
   1.009657621383667,
   1.0056697130203247,
   1.0328845977783203,
   0.98848026990890503,
   0.99979507923126221
]
