[
   12.926632881164551,
   12.810002326965332,
   12.774074554443359,
   12.768545150756836,
   12.76983642578125,
   12.814308166503906,
   12.789165496826172,
   12.807726860046387,
   12.784152984619141,
   12.704305648803711,
   12.59113883972168,
   12.461371421813965,
   12.335619926452637,
   12.199214935302734,
   12.126699447631836,
   12.006965637207031,
   11.886410713195801,
   11.805742263793945,
   11.633033752441406,
   10.91279411315918,
   10.207864761352539,
   9.7034835815429688,
   9.2142181396484375,
   8.7486934661865234,
   8.3881940841674805,
   8.0454721450805664,
   7.7045679092407227,
   7.4351615905761719,
   5.4975385665893555,
   4.4189128875732422,
   3.7050018310546875,
   3.1965086460113525,
   2.8490586280822754,
   2.6104824542999268,
   2.401008129119873,
   2.21834397315979,
   2.0617620944976807,
   1.3800601959228516,
   1.2408381700515747,
   1.112471342086792,
   1.1135637760162354,
   1.1021028757095337,
   1.103872537612915,
   1.0074242353439331,
   1.0936844348907471,
   1.1011224985122681,
   1.0062785148620605,
   0.9600754976272583,
   1.0121123790740967,
   1.0007814168930054,
   1.0172330141067505,
   0.94273203611373901,
   1.0480407476425171,
   1.0491492748260498,
   0.92298984527587891,
   1.0555088520050049,
   0.97392350435256958,
   0.93716174364089966,
   1.0734211206436157,
   0.98462915420532227,
   1.0758405923843384,
   0.93790328502655029,
   1.1235181093215942,
   1.2440298795700073
]
