[
   3.4948868751525879,
   3.5008487701416016,
   3.490903377532959,
   3.483121395111084,
   3.4897880554199219,
   3.4899628162384033,
   3.4906783103942871,
   3.4823641777038574,
   3.4797015190124512,
   3.4871253967285156,
   3.465822696685791,
   3.4590640068054199,
   3.4535884857177734,
   3.4351413249969482,
   3.4314980506896973,
   3.4191279411315918,
   3.4064555168151855,
   3.4020721912384033,
   3.3809001445770264,
   3.2991549968719482,
   3.2215218544006348,
   3.1576199531555176,
   3.0993952751159668,
   3.0394129753112793,
   2.9806370735168457,
   2.9335227012634277,
   2.8900678157806396,
   2.8530967235565186,
   2.5264871120452881,
   2.3046846389770508,
   2.144690990447998,
   2.0172638893127441,
   1.9047410488128662,
   1.8169920444488525,
   1.7387673854827881,
   1.6812515258789062,
   1.6341221332550049,
   1.3332588672637939,
   1.2008153200149536,
   1.1407535076141357,
   1.0866854190826416,
   1.0720430612564087,
   1.0722001791000366,
   1.055097222328186,
   1.0411444902420044,
   1.0186800956726074,
   0.96407854557037354,
   0.99887484312057495,
   0.9795195460319519,
   0.98050820827484131,
   1.0015052556991577,
   0.98704594373703003,
   1.0090599060058594,
   0.97896689176559448,
   0.98474961519241333,
   0.98466455936431885,
   1.0120779275894165,
   1.0046015977859497,
   1.0334305763244629,
   1.0054662227630615,
   0.94187051057815552,
   0.97996282577514648,
   0.98307323455810547,
   0.97853070497512817
]
