[
   1.4553045034408569,
   1.4562289714813232,
   1.4552632570266724,
   1.4545114040374756,
   1.4544937610626221,
   1.4547364711761475,
   1.4552559852600098,
   1.4552863836288452,
   1.4540607929229736,
   1.4555618762969971,
   1.4546979665756226,
   1.454073429107666,
   1.4531688690185547,
   1.4535982608795166,
   1.4539216756820679,
   1.4528406858444214,
   1.4524320363998413,
   1.4516992568969727,
   1.4518847465515137,
   1.4485325813293457,
   1.4452385902404785,
   1.442630410194397,
   1.4389431476593018,
   1.4361797571182251,
   1.4334880113601685,
   1.4306281805038452,
   1.427879810333252,
   1.4249804019927979,
   1.3992462158203125,
   1.3770287036895752,
   1.3568451404571533,
   1.3384723663330078,
   1.3214435577392578,
   1.3066462278366089,
   1.2920149564743042,
   1.2799899578094482,
   1.2682201862335205,
   1.1896255016326904,
   1.142827033996582,
   1.1138579845428467,
   1.0914456844329834,
   1.072928786277771,
   1.060924768447876,
   1.0539869070053101,
   1.0471510887145996,
   1.045080304145813,
   1.0236753225326538,
   1.0093768835067749,
   1.0054823160171509,
   0.99425184726715088,
   1.0021616220474243,
   0.9977533221244812,
   0.98920154571533203,
   0.98877507448196411,
   0.98237115144729614,
   0.98675048351287842,
   0.98763883113861084,
   0.98268032073974609,
   0.98701906204223633,
   0.99995821714401245,
   1.0128395557403564,
   1.0126367807388306,
   0.9934617280960083,
   1.0287506580352783
]
