[
   2.3869929313659668,
   2.3858246803283691,
   2.3862123489379883,
   2.3799102306365967,
   2.3829269409179688,
   2.3865950107574463,
   2.3841171264648438,
   2.3852889537811279,
   2.380507230758667,
   2.3810992240905762,
   2.3804113864898682,
   2.374457836151123,
   2.3766393661499023,
   2.3755745887756348,
   2.3689093589782715,
   2.3662865161895752,
   2.3628342151641846,
   2.3586945533752441,
   2.360238790512085,
   2.3363926410675049,
   2.3076901435852051,
   2.2840070724487305,
   2.2634434700012207,
   2.2405290603637695,
   2.2201550006866455,
   2.2018742561340332,
   2.1808466911315918,
   2.1652460098266602,
   2.0049443244934082,
   1.8812875747680664,
   1.7865746021270752,
   1.7104820013046265,
   1.6442282199859619,
   1.5884931087493896,
   1.5393378734588623,
   1.5000027418136597,
   1.4632024765014648,
   1.2792572975158691,
   1.1904129981994629,
   1.145125150680542,
   1.1150057315826416,
   1.0964491367340088,
   1.0809338092803955,
   1.0690152645111084,
   1.0642986297607422,
   1.0599820613861084,
   1.0114442110061646,
   1.0234498977661133,
   1.0199751853942871,
   1.0154803991317749,
   1.0289576053619385,
   1.0358724594116211,
   1.0054589509963989,
   1.0075066089630127,
   1.0122650861740112,
   1.0086045265197754,
   0.98812711238861084,
   0.98344218730926514,
   0.98856198787689209,
   0.99991780519485474,
   1.0393353700637817,
   1.0168542861938477,
   0.94365060329437256,
   0.82915937900543213
]
