[
   1.4107363224029541,
   1.4106400012969971,
   1.4113421440124512,
   1.4112975597381592,
   1.4102780818939209,
   1.4113324880599976,
   1.4118585586547852,
   1.4110158681869507,
   1.4111192226409912,
   1.410624623298645,
   1.4111741781234741,
   1.4101594686508179,
   1.4102449417114258,
   1.4098255634307861,
   1.4096578359603882,
   1.4095910787582397,
   1.4095137119293213,
   1.4082218408584595,
   1.4093272686004639,
   1.4066849946975708,
   1.4031766653060913,
   1.4015461206436157,
   1.3988087177276611,
   1.3959000110626221,
   1.3936043977737427,
   1.39139723777771,
   1.3902204036712646,
   1.3871791362762451,
   1.365620493888855,
   1.3462798595428467,
   1.3303567171096802,
   1.3143885135650635,
   1.3002640008926392,
   1.2876700162887573,
   1.2757117748260498,
   1.2655607461929321,
   1.2556096315383911,
   1.1839076280593872,
   1.1417863368988037,
   1.1160991191864014,
   1.0996969938278198,
   1.0867648124694824,
   1.0730723142623901,
   1.0635490417480469,
   1.0542223453521729,
   1.047369122505188,
   1.0237507820129395,
   1.0173313617706299,
   1.0143872499465942,
   1.002366304397583,
   0.99641525745391846,
   0.98971825838088989,
   0.99737131595611572,
   0.99696624279022217,
   0.99718683958053589,
   1.000913143157959,
   0.99065935611724854,
   0.9891284704208374,
   0.99487048387527466,
   0.98893594741821289,
   0.99815428256988525,
   0.98879128694534302,
   0.95413482189178467,
   0.96396863460540771
]
