[
   1.5078024864196777,
   1.5082111358642578,
   1.5084924697875977,
   1.5088958740234375,
   1.5081512928009033,
   1.5081672668457031,
   1.508757472038269,
   1.507870078086853,
   1.5081220865249634,
   1.5085041522979736,
   1.5074841976165771,
   1.5072536468505859,
   1.5062682628631592,
   1.505366325378418,
   1.5065550804138184,
   1.5045769214630127,
   1.5048600435256958,
   1.5043443441390991,
   1.5039341449737549,
   1.5001356601715088,
   1.4948946237564087,
   1.4928104877471924,
   1.4887895584106445,
   1.4855349063873291,
   1.4828113317489624,
   1.47803795337677,
   1.4737203121185303,
   1.4716887474060059,
   1.4417693614959717,
   1.4138907194137573,
   1.3916146755218506,
   1.3705699443817139,
   1.351396918296814,
   1.3348785638809204,
   1.3207826614379883,
   1.3069493770599365,
   1.2945693731307983,
   1.2090914249420166,
   1.1583771705627441,
   1.1241602897644043,
   1.1022460460662842,
   1.0834587812423706,
   1.0714163780212402,
   1.0620932579040527,
   1.0513261556625366,
   1.0486783981323242,
   1.0164996385574341,
   0.99164372682571411,
   1.0017462968826294,
   0.99108761548995972,
   1.0075491666793823,
   0.99564236402511597,
   1.0007181167602539,
   1.0000628232955933,
   0.99687165021896362,
   0.9908289909362793,
   1.0027064085006714,
   1.0100889205932617,
   0.98778486251831055,
   0.99493038654327393,
   0.97763663530349731,
   0.94836866855621338,
   1.0124080181121826,
   1.0514532327651978
]
