[
   5.1298232078552246,
   5.1270575523376465,
   5.1286807060241699,
   5.1336784362792969,
   5.1223406791687012,
   5.1200370788574219,
   5.1080288887023926,
   5.1205511093139648,
   5.1141152381896973,
   5.0925149917602539,
   5.0782737731933594,
   5.0595622062683105,
   5.0431914329528809,
   5.0170822143554688,
   4.9990086555480957,
   4.9731664657592773,
   4.9573941230773926,
   4.9409379959106445,
   4.9087953567504883,
   4.7425045967102051,
   4.5541014671325684,
   4.4111971855163574,
   4.2729463577270508,
   4.1379704475402832,
   4.0144667625427246,
   3.899747371673584,
   3.7970681190490723,
   3.7077243328094482,
   3.017249584197998,
   2.6154656410217285,
   2.3504273891448975,
   2.1632900238037109,
   2.0010204315185547,
   1.8944532871246338,
   1.8073402643203735,
   1.7520005702972412,
   1.6784679889678955,
   1.3746565580368042,
   1.2223653793334961,
   1.1552382707595825,
   1.1378791332244873,
   1.0974850654602051,
   1.093705415725708,
   1.0797721147537231,
   1.0773780345916748,
   1.0653703212738037,
   1.0373823642730713,
   1.0196197032928467,
   1.0056900978088379,
   1.0029757022857666,
   1.0345277786254883,
   1.0263211727142334,
   1.0620646476745605,
   1.0212427377700806,
   1.0073124170303345,
   0.98362576961517334,
   0.94509637355804443,
   0.9774322509765625,
   1.0501905679702759,
   1.0245660543441772,
   1.0045630931854248,
   0.98638880252838135,
   1.0506459474563599,
   1.0086116790771484
]
