[
   3.1086177825927734,
   3.1120853424072266,
   3.1064658164978027,
   3.1078600883483887,
   3.1090445518493652,
   3.1100544929504395,
   3.1169524192810059,
   3.1125881671905518,
   3.1013741493225098,
   3.1103572845458984,
   3.1000781059265137,
   3.0981991291046143,
   3.0899193286895752,
   3.0826964378356934,
   3.0771689414978027,
   3.067415714263916,
   3.0611848831176758,
   3.0548088550567627,
   3.0505752563476562,
   2.9969048500061035,
   2.9430365562438965,
   2.8889951705932617,
   2.8486168384552002,
   2.8045189380645752,
   2.7588541507720947,
   2.7148232460021973,
   2.6737966537475586,
   2.6384749412536621,
   2.3472466468811035,
   2.134368896484375,
   1.9798955917358398,
   1.8504108190536499,
   1.7586042881011963,
   1.6779310703277588,
   1.621403694152832,
   1.5685452222824097,
   1.5246564149856567,
   1.2822002172470093,
   1.1943973302841187,
   1.1423523426055908,
   1.1070637702941895,
   1.0900524854660034,
   1.0738652944564819,
   1.0619931221008301,
   1.046466588973999,
   1.0309998989105225,
   1.0055551528930664,
   0.99189358949661255,
   0.98679125308990479,
   0.98881882429122925,
   0.98826968669891357,
   0.98592150211334229,
   0.97418099641799927,
   0.97696894407272339,
   0.97769355773925781,
   0.97948539257049561,
   0.99673044681549072,
   0.94826853275299072,
   0.96626794338226318,
   0.98660421371459961,
   1.0203930139541626,
   1.0186862945556641,
   1.0826678276062012,
   1.0659393072128296
]
