[
   25.409162521362305,
   25.591485977172852,
   25.266910552978516,
   25.27479362487793,
   25.262073516845703,
   25.238698959350586,
   25.078388214111328,
   25.019672393798828,
   24.924362182617188,
   24.922985076904297,
   24.220212936401367,
   23.559894561767578,
   22.932159423828125,
   22.306957244873047,
   21.807296752929688,
   21.129947662353516,
   20.716140747070312,
   20.239009857177734,
   19.638071060180664,
   16.0880126953125,
   13.67125415802002,
   11.937567710876465,
   10.562029838562012,
   9.557124137878418,
   8.8342714309692383,
   7.9861173629760742,
   7.5604257583618164,
   6.9613442420959473,
   4.4249601364135742,
   3.2248756885528564,
   2.7110767364501953,
   2.4152672290802002,
   2.2183554172515869,
   2.0488924980163574,
   1.9943443536758423,
   1.8086696863174438,
   1.7088276147842407,
   1.4311717748641968,
   1.1838052272796631,
   1.1746346950531006,
   1.1707174777984619,
   1.2164318561553955,
   1.0427429676055908,
   0.99430114030838013,
   1.0111525058746338,
   1.0778075456619263,
   0.97526884078979492,
   0.98746556043624878,
   0.92594975233078003,
   0.96371251344680786,
   1.0309183597564697,
   0.93070191144943237,
   0.99377280473709106,
   1.0050323009490967,
   1.0015395879745483,
   0.99188613891601562,
   0.95618641376495361,
   1.0038983821868896,
   1.0105922222137451,
   1.0396606922149658,
   0.97068893909454346,
   0.98292380571365356,
   1.1288539171218872,
   1.0204483270645142
]
