[
   1.376139760017395,
   1.3756189346313477,
   1.3760795593261719,
   1.3759634494781494,
   1.3761055469512939,
   1.3763275146484375,
   1.3756848573684692,
   1.3764259815216064,
   1.3757336139678955,
   1.3757550716400146,
   1.3767049312591553,
   1.3754563331604004,
   1.3752059936523438,
   1.3749563694000244,
   1.3739699125289917,
   1.3753229379653931,
   1.3743646144866943,
   1.3742891550064087,
   1.3737514019012451,
   1.3717805147171021,
   1.3694467544555664,
   1.367432713508606,
   1.364967942237854,
   1.3636194467544556,
   1.3613437414169312,
   1.3595150709152222,
   1.3576797246932983,
   1.3552494049072266,
   1.337695837020874,
   1.3225352764129639,
   1.3078498840332031,
   1.2943373918533325,
   1.2824833393096924,
   1.2724134922027588,
   1.2622354030609131,
   1.2525027990341187,
   1.2438253164291382,
   1.1802973747253418,
   1.1424472332000732,
   1.1159416437149048,
   1.1024835109710693,
   1.0855050086975098,
   1.0753853321075439,
   1.0651549100875854,
   1.0566732883453369,
   1.0527207851409912,
   1.0271487236022949,
   1.0132895708084106,
   0.99749249219894409,
   0.9985814094543457,
   1.0014426708221436,
   0.99610203504562378,
   1.0047934055328369,
   0.99880135059356689,
   0.99849206209182739,
   1.0032593011856079,
   1.0078697204589844,
   1.0035086870193481,
   0.99713164567947388,
   0.99088877439498901,
   0.9972538948059082,
   0.97704237699508667,
   0.9595373272895813,
   0.93219453096389771
]
