[
   1.7082936763763428,
   1.7068939208984375,
   1.7079589366912842,
   1.7070928812026978,
   1.7076284885406494,
   1.7077804803848267,
   1.7065137624740601,
   1.7080786228179932,
   1.7070642709732056,
   1.7062265872955322,
   1.7051454782485962,
   1.7063815593719482,
   1.7053114175796509,
   1.7049713134765625,
   1.7036018371582031,
   1.7029783725738525,
   1.7023181915283203,
   1.7011921405792236,
   1.7010139226913452,
   1.6930910348892212,
   1.6859861612319946,
   1.680921196937561,
   1.6756852865219116,
   1.6670472621917725,
   1.6608402729034424,
   1.6552608013153076,
   1.6495233774185181,
   1.6438621282577515,
   1.5922424793243408,
   1.5487581491470337,
   1.5109609365463257,
   1.477637767791748,
   1.4494541883468628,
   1.4237228631973267,
   1.4005780220031738,
   1.3805254697799683,
   1.361675500869751,
   1.2415118217468262,
   1.1784225702285767,
   1.1393159627914429,
   1.1085307598114014,
   1.0855934619903564,
   1.0694713592529297,
   1.059335470199585,
   1.0491342544555664,
   1.0448205471038818,
   1.0121241807937622,
   1.0101401805877686,
   0.9973527193069458,
   0.98906838893890381,
   0.99100124835968018,
   0.98535537719726562,
   0.98099696636199951,
   0.99878692626953125,
   1.0024064779281616,
   0.99898862838745117,
   0.997536301612854,
   1.0060064792633057,
   1.0099107027053833,
   0.98643124103546143,
   0.97461432218551636,
   0.98613518476486206,
   0.99214917421340942,
   0.96307438611984253
]
